<?xml version="1.0" encoding="utf-8"?>
<COLLADA xmlns="http://www.collada.org/2005/11/COLLADASchema" version="1.4.1">
  <asset>
    <contributor>
      <author>Blender User</author>
      <authoring_tool>Blender 2.78.0 commit date:2017-02-24, commit time:14:33, hash:e92f2352830</authoring_tool>
    </contributor>
    <created>2017-07-14T10:06:20</created>
    <modified>2017-07-14T10:06:20</modified>
    <unit name="meter" meter="1"/>
    <up_axis>Z_UP</up_axis>
  </asset>
  <library_images/>
  <library_effects>
    <effect id="Metall_Alu_014_002-effect">
      <profile_COMMON>
        <technique sid="common">
          <phong>
            <emission>
              <color sid="emission">0 0 0 1</color>
            </emission>
            <ambient>
              <color sid="ambient">0 0 0 1</color>
            </ambient>
            <diffuse>
              <color sid="diffuse">0.45 0.45 0.45 1</color>
            </diffuse>
            <specular>
              <color sid="specular">0.325 0.325 0.325 1</color>
            </specular>
            <shininess>
              <float sid="shininess">70</float>
            </shininess>
            <index_of_refraction>
              <float sid="index_of_refraction">1</float>
            </index_of_refraction>
          </phong>
        </technique>
      </profile_COMMON>
    </effect>
  </library_effects>
  <library_materials>
    <material id="Metall_Alu_014_002-material" name="Metall_Alu_014_002">
      <instance_effect url="#Metall_Alu_014_002-effect"/>
    </material>
  </library_materials>
  <library_geometries>
    <geometry id="Circle_042-mesh" name="Circle.042">
      <mesh>
        <source id="Circle_042-mesh-positions">
          <float_array id="Circle_042-mesh-positions-array" count="1194">0.002799093 -3.1994e-7 0.009166836 0.002524316 0.001203536 0.009166657 0.001754403 0.002168893 0.00916773 6.37766e-4 0.004507839 0.00716865 -7.89863e-4 0.004413843 0.00717175 -0.00292468 0.003381371 0.007176816 -0.004096806 0.001766264 0.007180273 -0.004453241 -1.92462e-4 0.00718218 -0.003932058 -0.002096235 0.00718224 -0.002647399 -0.003588497 0.007180392 -8.48929e-4 -0.004388749 0.007177114 0.001120865 -0.00434345 0.007172942 0.002880811 -0.003456473 0.00716871 0.00403428 -0.002078175 0.007165431 0.002792954 -2.29588e-6 0.009846746 0.002503335 0.001189053 0.009845197 0.001742005 0.002153873 0.009844005 6.32581e-4 0.00266242 0.009843289 -5.81292e-4 0.00266695 0.009843409 -0.001676917 0.002124488 0.009844183 -0.002415239 0.001174211 0.009845435 -0.002705335 -3.55662e-6 0.009847164 -0.002419114 -0.001174807 0.009848654 -0.001667857 -0.002133667 0.009850025 -5.79641e-4 -0.002648711 0.009850502 6.30399e-4 -0.002675116 0.009850502 0.001733064 -0.002141833 0.009849727 0.00249356 -0.001193523 0.009848356 0.004460573 -2.99873e-6 0.009963333 0.004460573 0.001911342 0.009962201 0.004478454 0.003480792 0.009932637 0.001154363 0.004938662 0.009922325 -0.001098573 0.004940211 0.009923815 -0.003138303 0.003963649 0.009926438 -0.004550576 0.002194583 0.009922981 -0.005046963 7.26737e-6 0.009929716 -0.004549682 -0.002200365 0.009922504 -0.003148913 -0.003969609 0.009909808 -0.001098453 -0.004947185 0.009922564 0.001154601 -0.004944801 0.009922564 0.004475057 -0.003480255 0.009931743 0.004460573 -0.001917362 0.009964466 0.005410552 -2.94055e-6 0.009896814 0.005410254 0.001911401 0.009894967 0.005402982 0.003216385 0.009849131 0.005401194 -0.003242194 0.00983715 0.00541085 -0.001917302 0.009898662 0.01363885 -8.04645e-6 0.007668852 0.01312488 0.001196026 0.007666945 0.01352035 0.002979516 0.008345305 0.01351946 -0.002953529 0.008345782 0.01309001 -0.001178264 0.007671117 0.01699811 0.002746164 0.007758677 0.01703196 -0.002736687 0.007740497 0.001364529 0.005881607 0.009240925 -0.001308441 0.005833864 0.009257555 -0.003715038 0.004674673 0.009257674 -0.00534904 0.002582609 0.00925672 -0.005955815 1.13724e-6 0.009258329 -0.005344212 -0.002584576 0.009257674 -0.003707647 -0.004674196 0.009257316 -0.00130552 -0.005841553 0.009257614 0.001363873 -0.005874454 0.009257197 0.001365721 0.00587964 0.007166326 -0.001306593 0.005818068 0.007171988 -0.003703057 0.0046615 0.00717771 -0.005372524 0.002587318 0.007182478 -0.005940556 2.07278e-6 0.00718522 -0.005342006 -0.00258547 0.007185518 -0.003692686 -0.004667282 0.007183253 -0.001305282 -0.00584352 0.007178902 0.001363396 -0.005868673 0.007173299 0.00753808 0.005082488 0.008488297 0.007537245 0.005077898 0.007153749 0.009099602 0.005178153 0.008115351 0.009117126 0.005183696 0.007040202 0.01059347 0.005892932 0.007303535 0.01060652 0.005878448 0.004990458 0.01197969 0.005997657 0.002702534 0.01150703 0.006025433 0.003809094 0.01149988 0.006026566 0.005679965 0.003468513 -0.00565052 0.008967041 0.003467917 -0.005629062 0.00716871 0.005003869 -0.006007254 0.008395493 0.005068182 -0.006041288 0.005150198 0.006957173 -0.007935464 0.006013274 0.006950497 -0.007939577 0.002162694 0.006062805 -0.006715118 0.007523 0.006185352 -0.006838023 0.002163648 0.02624481 4.27073e-5 0.008617341 0.0258395 0.001972913 0.008602321 0.02459907 0.00350511 0.008576989 0.02282029 0.004322946 0.008555233 0.02086246 0.004304766 0.008519947 0.01999074 0.005272746 0.007711648 0.02269762 0.005503475 0.007783174 0.02523553 0.004514634 0.007791697 0.02693927 0.002504825 0.007786691 0.02753812 4.58401e-5 0.007789731 0.02086359 -0.004238069 0.00851345 0.02282428 -0.00425595 0.008533298 0.02459657 -0.003421127 0.008578717 0.02584785 -0.001890122 0.008597254 0.01996517 -0.005354285 0.007642269 0.02270108 -0.005331099 0.007747888 0.02524948 -0.004414021 0.007808268 0.0269407 -0.00239098 0.007793128 0.01349538 -0.004910349 0.007345438 0.01708018 -0.004554331 0.006805241 0.01729887 -0.006523966 0.005093097 0.01709908 -0.006436228 0.005002021 0.01740491 -0.007631301 0.002742707 0.01927733 -0.007628619 0.00271964 0.01739144 -0.007828712 0.002073466 0.01927745 -0.007958769 0.001185774 0.009845376 -0.007372379 0.005946576 0.01362055 -0.007610619 0.004326045 0.01043522 -0.00797677 0.004861474 0.01392585 -0.007963776 0.003448784 0.004599988 -0.004597425 0.009432554 0.005511522 -0.004560768 0.009262621 0.006847262 -2.86512e-5 0.007158279 0.008319675 -3.98282e-4 0.00502932 0.008890986 -0.002562999 0.002155423 0.01738488 -0.006545662 0.002139925 0.01375949 -0.003252983 0.002145588 0.01400196 8.35631e-5 0.002044856 0.01415467 0.002240777 0.002139925 0.01364964 0.004802644 0.007413208 0.01343542 0.006031215 0.006053447 0.0132482 0.006029844 0.004535973 0.01831227 0.004972755 0.007277905 0.01708722 0.004753708 0.006695866 0.01459664 0.005409419 0.006063997 0.01819133 0.003947496 0.007890045 0.01999145 0.005269408 0.006177425 0.0226944 0.00546807 0.006171584 0.02521497 0.004477322 0.006166875 0.02688974 0.002479732 0.00616455 0.02748709 5.04863e-5 0.006164729 0.0218361 -0.006057262 0.006144702 0.02270114 -0.005311906 0.006178021 0.02525377 -0.004407584 0.006204545 0.02690476 -0.002372741 0.006167411 0.01415288 0.005839645 9.73373e-4 0.01409471 0.002349674 0.002934098 0.01411914 0.005893945 0.002932429 0.01822823 0.004957437 0.006181299 0.01700985 0.00474143 0.006183981 0.01456397 0.005426943 0.004638731 0.01462966 0.00200361 0.004640638 0.01808321 -0.004122436 0.0076797 0.0181474 -0.005849182 0.006476461 0.02104884 -0.006431579 0.004998445 0.02099722 -0.00761789 0.002715528 0.0209974 -0.007954835 0.001185774 0.019019 -0.006921172 0.002028524 0.02184754 -0.005632519 0.006145715 0.0211057 -0.005977928 0.0055027 0.02099388 -0.007333099 0.002794742 0.02104336 -0.007555663 0.001185655 0.01891821 0.001584827 0.004681825 0.01857775 9.32361e-5 0.004683434 0.01891821 -0.001398384 0.004683613 0.01987206 -0.00259459 0.004682302 0.02125048 -0.003258407 0.004679799 0.02278041 -0.003258407 0.00467658 0.02415883 -0.00259459 0.004673302 0.02511274 -0.001398384 0.00467056 0.0254532 9.32332e-5 0.004668951 0.01987874 0.002772867 0.004679143 0.02125293 0.003431558 0.004675805 0.02277702 0.003434777 0.004672586 0.02415066 0.002768576 0.004670143 0.02509921 0.001577734 0.004668831 0.01891118 0.00158739 0.006092548 0.01854324 9.74255e-5 0.006094574 0.01888513 -0.001415789 0.006096541 0.01983171 -0.002655982 0.006098151 0.02122282 -0.003339529 0.006098985 0.02279502 -0.003340482 0.006098866 0.02420961 -0.002657055 0.006097793 0.02518481 -0.001427292 0.006096005 0.02553528 9.52664e-5 0.006093919 0.01987934 0.002771735 0.006090939 0.02125167 0.003437101 0.006089925 0.02278625 0.003462433 0.006089746 0.0241726 0.002802073 0.006090521 0.02514344 0.001600921 0.006092011 0.01818388 -0.004615247 0.005232393 0.01711905 0.002263247 0.006185233 0.01663446 1.40266e-4 0.006187558 0.01711899 -0.001982688 0.006187796 0.002799093 -3.1994e-7 -0.009166836 0.002524316 0.001203536 -0.009166657 0.001754403 0.002168893 -0.00916773 6.37766e-4 0.004507839 -0.00716865 -7.89863e-4 0.004413843 -0.00717175 -0.00292468 0.003381371 -0.007176816 -0.004096806 0.001766264 -0.007180273 -0.004453241 -1.92462e-4 -0.00718218 -0.003932058 -0.002096235 -0.00718224 -0.002647399 -0.003588497 -0.007180392 -8.48929e-4 -0.004388749 -0.007177114 0.001120865 -0.00434345 -0.007172942 0.002880811 -0.003456473 -0.00716871 0.00403428 -0.002078175 -0.007165431 0.002792954 -2.29588e-6 -0.009846746 0.002503335 0.001189053 -0.009845197 0.001742005 0.002153873 -0.009844005 6.32581e-4 0.00266242 -0.009843289 -5.81292e-4 0.00266695 -0.009843409 -0.001676917 0.002124488 -0.009844183 -0.002415239 0.001174211 -0.009845435 -0.002705335 -3.55662e-6 -0.009847164 -0.002419114 -0.001174807 -0.009848654 -0.001667857 -0.002133667 -0.009850025 -5.79641e-4 -0.002648711 -0.009850502 6.30399e-4 -0.002675116 -0.009850502 0.001733064 -0.002141833 -0.009849727 0.00249356 -0.001193523 -0.009848356 0.004460573 -2.99873e-6 -0.009963333 0.004460573 0.001911342 -0.009962201 0.004478454 0.003480792 -0.009932637 0.001154363 0.004938662 -0.009922325 -0.001098573 0.004940211 -0.009923815 -0.003138303 0.003963649 -0.009926438 -0.004550576 0.002194583 -0.009922981 -0.005046963 7.26737e-6 -0.009929716 -0.004549682 -0.002200365 -0.009922504 -0.003148913 -0.003969609 -0.009909808 -0.001098453 -0.004947185 -0.009922564 0.001154601 -0.004944801 -0.009922564 0.004475057 -0.003480255 -0.009931743 0.004460573 -0.001917362 -0.009964466 0.005410552 -2.94055e-6 -0.009896814 0.005410254 0.001911401 -0.009894967 0.005402982 0.003216385 -0.009849131 0.005401194 -0.003242194 -0.00983715 0.00541085 -0.001917302 -0.009898662 0.01363885 -8.04645e-6 -0.007668852 0.01312488 0.001196026 -0.007666945 0.01352035 0.002979516 -0.008345305 0.01351946 -0.002953529 -0.008345782 0.01309001 -0.001178264 -0.007671117 0.01699811 0.002746164 -0.007758677 0.01703196 -0.002736687 -0.007740497 0.001364529 0.005881607 -0.009240925 -0.001308441 0.005833864 -0.009257555 -0.003715038 0.004674673 -0.009257674 -0.00534904 0.002582609 -0.00925672 -0.005955815 1.13724e-6 -0.009258329 -0.005344212 -0.002584576 -0.009257674 -0.003707647 -0.004674196 -0.009257316 -0.00130552 -0.005841553 -0.009257614 0.001363873 -0.005874454 -0.009257197 0.001365721 0.00587964 -0.007166326 -0.001306593 0.005818068 -0.007171988 -0.003703057 0.0046615 -0.00717771 -0.005372524 0.002587318 -0.007182478 -0.005940556 2.07278e-6 -0.00718522 -0.005342006 -0.00258547 -0.007185518 -0.003692686 -0.004667282 -0.007183253 -0.001305282 -0.00584352 -0.007178902 0.001363396 -0.005868673 -0.007173299 0.00753808 0.005082488 -0.008488297 0.007537245 0.005077898 -0.007153749 0.009099602 0.005178153 -0.008115351 0.009117126 0.005183696 -0.007040202 0.01059347 0.005892932 -0.007303535 0.01060652 0.005878448 -0.004990458 0.01197969 0.005997657 -0.002702534 0.01150703 0.006025433 -0.003809094 0.01149988 0.006026566 -0.005679965 0.003468513 -0.00565052 -0.008967041 0.003467917 -0.005629062 -0.00716871 0.005003869 -0.006007254 -0.008395493 0.005068182 -0.006041288 -0.005150198 0.006957173 -0.007935464 -0.006013274 0.006950497 -0.007939577 -0.002162694 0.006062805 -0.006715118 -0.007523 0.006185352 -0.006838023 -0.002163648 0.02624481 4.27073e-5 -0.008617341 0.0258395 0.001972913 -0.008602321 0.02459907 0.00350511 -0.008576989 0.02282029 0.004322946 -0.008555233 0.02086246 0.004304766 -0.008519947 0.01999074 0.005272746 -0.007711648 0.02269762 0.005503475 -0.007783174 0.02523553 0.004514634 -0.007791697 0.02693927 0.002504825 -0.007786691 0.02753812 4.58401e-5 -0.007789731 0.02086359 -0.004238069 -0.00851345 0.02282428 -0.00425595 -0.008533298 0.02459657 -0.003421127 -0.008578717 0.02584785 -0.001890122 -0.008597254 0.01996517 -0.005354285 -0.007642269 0.02270108 -0.005331099 -0.007747888 0.02524948 -0.004414021 -0.007808268 0.0269407 -0.00239098 -0.007793128 0.01349538 -0.004910349 -0.007345438 0.01708018 -0.004554331 -0.006805241 0.01729887 -0.006523966 -0.005093097 0.01709908 -0.006436228 -0.005002021 0.01740491 -0.007631301 -0.002742707 0.01927733 -0.007628619 -0.00271964 0.01739144 -0.007828712 -0.002073466 0.01927745 -0.007958769 -0.001185774 0.01853394 -0.007961153 0 0.01927745 -0.007959425 0 0.009845376 -0.007372379 -0.005946576 0.01362055 -0.007610619 -0.004326045 0.01043522 -0.00797677 -0.004861474 0.01392585 -0.007963776 -0.003448784 0.004599988 -0.004597425 -0.009432554 0.005511522 -0.004560768 -0.009262621 0.006847262 -2.86512e-5 -0.007158279 0.008319675 -3.98282e-4 -0.00502932 0.008890986 -0.002562999 -0.002155423 0.01738488 -0.006545662 -0.002139925 0.01853245 -0.006692171 0 0.008930921 -0.002451837 0 0.01375949 -0.003252983 -0.002145588 0.01343458 -0.002637088 0 0.01400196 8.35631e-5 -0.002044856 0.01366949 1.71417e-4 0 0.01415467 0.002240777 -0.002139925 0.01411747 0.00230062 0 0.0120244 0.00602436 0 0.01364964 0.004802644 -0.007413208 0.01343542 0.006031215 -0.006053447 0.0132482 0.006029844 -0.004535973 0.01831227 0.004972755 -0.007277905 0.01708722 0.004753708 -0.006695866 0.01459664 0.005409419 -0.006063997 0.01819133 0.003947496 -0.007890045 0.01999145 0.005269408 -0.006177425 0.0226944 0.00546807 -0.006171584 0.02521497 0.004477322 -0.006166875 0.02688974 0.002479732 -0.00616455 0.02748709 5.04863e-5 -0.006164729 0.0218361 -0.006057262 -0.006144702 0.02270114 -0.005311906 -0.006178021 0.02525377 -0.004407584 -0.006204545 0.02690476 -0.002372741 -0.006167411 0.01415288 0.005839645 -9.73373e-4 0.01409471 0.002349674 -0.002934098 0.01411914 0.005893945 -0.002932429 0.01822823 0.004957437 -0.006181299 0.01700985 0.00474143 -0.006183981 0.01456397 0.005426943 -0.004638731 0.01412945 0.005866825 0 0.01462966 0.00200361 -0.004640638 0.01808321 -0.004122436 -0.0076797 0.0181474 -0.005849182 -0.006476461 0.02104884 -0.006431579 -0.004998445 0.02099722 -0.00761789 -0.002715528 0.0209974 -0.007954835 -0.001185774 0.02099728 -0.007955551 0 0.019019 -0.006921172 -0.002028524 0.0190851 -0.006929695 0 0.02184754 -0.005632519 -0.006145715 0.0211057 -0.005977928 -0.0055027 0.02099388 -0.007333099 -0.002794742 0.02104336 -0.007555663 -0.001185655 0.02104085 -0.007557272 0 0.01891821 0.001584827 -0.004681825 0.01857775 9.32361e-5 -0.004683434 0.01891821 -0.001398384 -0.004683613 0.01987206 -0.00259459 -0.004682302 0.02125048 -0.003258407 -0.004679799 0.02278041 -0.003258407 -0.00467658 0.02415883 -0.00259459 -0.004673302 0.02511274 -0.001398384 -0.00467056 0.0254532 9.32332e-5 -0.004668951 0.01987874 0.002772867 -0.004679143 0.02125293 0.003431558 -0.004675805 0.02277702 0.003434777 -0.004672586 0.02415066 0.002768576 -0.004670143 0.02509921 0.001577734 -0.004668831 0.01891118 0.00158739 -0.006092548 0.01854324 9.74255e-5 -0.006094574 0.01888513 -0.001415789 -0.006096541 0.01983171 -0.002655982 -0.006098151 0.02122282 -0.003339529 -0.006098985 0.02279502 -0.003340482 -0.006098866 0.02420961 -0.002657055 -0.006097793 0.02518481 -0.001427292 -0.006096005 0.02553528 9.52664e-5 -0.006093919 0.01987934 0.002771735 -0.006090939 0.02125167 0.003437101 -0.006089925 0.02278625 0.003462433 -0.006089746 0.0241726 0.002802073 -0.006090521 0.02514344 0.001600921 -0.006092011 0.01818388 -0.004615247 -0.005232393 0.01711905 0.002263247 -0.006185233 0.01663446 1.40266e-4 -0.006187558 0.01711899 -0.001982688 -0.006187796</float_array>
          <technique_common>
            <accessor source="#Circle_042-mesh-positions-array" count="398" stride="3">
              <param name="X" type="float"/>
              <param name="Y" type="float"/>
              <param name="Z" type="float"/>
            </accessor>
          </technique_common>
        </source>
        <source id="Circle_042-mesh-normals">
          <float_array id="Circle_042-mesh-normals-array" count="1194">-0.354882 0.09723544 -0.9298409 -0.7765315 0.3698626 0.5100985 -0.7312374 -0.1120661 0.6728544 -0.2665281 0.3322369 -0.9047549 -0.5248164 0.673783 0.5201774 -0.1029715 0.4067895 -0.9077 -0.17857 0.8300713 0.5282938 0.08008366 0.4101846 -0.9084796 0.1922383 0.8317305 0.5208349 0.2483059 0.3349506 -0.9089292 0.531157 0.6622372 0.5285019 0.3662958 0.1959356 -0.9096356 0.7695077 0.3716306 0.5193734 0.4143583 0.01681602 -0.9099586 0.8504421 -0.003723263 0.5260558 0.3801148 -0.1632769 -0.9104139 0.7716294 -0.3706617 0.5169121 0.2645986 -0.3150462 -0.9114459 0.537513 -0.6629794 0.5210934 0.1002554 -0.4121917 -0.9055644 0.2009684 -0.8291435 0.5216634 0.1199714 -0.4007797 -0.9082855 -0.191933 -0.8359113 0.5142121 -0.8202034 -0.5573721 -0.128852 -0.5319515 -0.4988381 0.6842429 -0.9242621 -0.3775787 -0.05633771 -0.6182298 -0.2926802 0.7294726 -0.9293799 -0.3586041 -0.08749938 0.001709043 -0.01016271 0.999947 0.09592062 -0.189827 0.9771208 0.04696905 -0.3105635 0.9493916 -0.07757931 -0.3239593 0.9428849 -0.2104596 -0.2637155 0.9413613 -0.3075996 -0.1502138 0.9395841 -0.3376082 7.01952e-4 0.9412866 -0.3080282 0.1479561 0.939802 -0.2082945 0.2626799 0.942132 -0.0746811 0.3244219 0.9429599 0.04825139 0.3113604 0.9490662 0.1009578 0.2138181 0.9716427 0.002227842 0.009735465 0.9999502 9.15583e-5 6.40908e-4 0.9999999 0.1663287 8.85052e-4 0.98607 0.1512222 -0.00564599 0.9884837 0.1508572 0.00250256 0.9885525 0.09305322 -0.001129209 0.9956606 0.1699609 -0.2068891 0.9634886 0.1921149 -0.04922658 0.9801371 0.1669089 0.2184252 0.9614738 0.1925475 0.04693895 0.9801644 -0.3251867 -0.3378523 0.8832381 -0.3558874 0.3028751 0.8840876 -0.04864698 0.1471006 0.9879246 0.08020377 -0.8800446 0.4680692 -0.2071618 -0.8783015 0.4308953 -0.5681505 -0.7039011 0.426296 -0.9055883 -0.002197325 0.4241521 -0.5650607 0.7066082 0.4259243 0.08319628 0.8821983 0.46347 0.0353415 -0.7190073 -0.6941035 -0.1737156 -0.7308143 -0.6601011 -0.8163377 -0.3937636 0.4225436 -0.4719103 -0.5819607 -0.6622858 -0.6758751 -0.3264014 -0.6607987 -0.814288 0.3907703 0.4292247 -0.6803002 0.3248448 -0.6570141 -0.2084453 0.8790411 0.4287626 -0.1759133 0.7255358 -0.6653212 0.041323 0.6883921 -0.7241607 -0.01419138 0.6990716 -0.714911 0.1387717 0.8276252 0.5438557 -0.5071753 0.7812416 -0.3639161 0.006653189 0.8226473 0.5685132 -0.5791599 0.7605346 -0.2935322 -0.08438658 0.9015173 0.4244356 -0.4586471 0.8482896 -0.2646651 -0.2987544 -0.702526 -0.6459125 0.08801716 -0.8560923 0.5092729 -0.8785005 -0.3068113 -0.3662021 -0.2126899 -0.8506072 0.4808642 -0.7115605 -0.1402367 -0.6884878 -0.3658942 -0.6965083 -0.61725 -0.05655139 -0.853826 0.5174777 -0.46615 0.5850527 -0.6636397 -0.7488787 -0.00439471 -0.6626927 0.2858077 -0.1470696 0.9469343 0.8059006 -0.4039269 0.4328595 0.9003646 -6.10375e-5 0.4351366 0.1780797 -0.2677452 0.9468898 0.509666 -0.7355976 0.4462476 0.07632809 -0.3556382 0.9315018 0.1460623 -0.8900158 0.4319001 -0.13471 -0.2973143 0.9452289 -0.1990441 -0.6665629 0.718384 0.06207591 0.3302475 0.9418509 0.1200634 0.888512 0.4428673 -0.1997488 0.8413866 0.5021646 0.1891577 0.2636855 0.9458802 0.5220882 0.7341341 0.4341325 0.2823599 0.1472226 0.9479444 0.8051643 0.4091743 0.4292867 0.2951193 -5.49343e-4 0.9554603 0.01556462 -0.1382203 0.9902793 -0.1612322 -0.5722326 0.804086 0.1681025 -0.5671171 0.8063001 0.6844809 0.02887099 0.7284589 0.8984831 0.03753852 0.4374001 0.0859121 -0.9324591 0.350912 0.005462944 -0.9394832 0.3425514 -0.01757907 -0.9953853 0.09433495 -0.2768389 -0.9013516 -0.3330551 -0.01437443 -0.9998968 0 0.1002865 -0.9765272 0.1906237 0.1474685 -0.8865505 0.438499 -0.3016194 -0.8942375 0.330704 0.1070929 -0.9468671 0.3032721 0.1303479 -0.7868793 0.6031836 0.190044 -0.4684416 0.8628128 0.1759143 -0.4667956 0.8666926 -0.7881391 0.3542109 -0.5033603 -0.4257802 0.1993241 -0.8825991 -0.4734459 0.8743779 -0.1063597 -0.7532506 0.04535186 -0.6561682 -0.5414747 -0.8407171 0 -0.2117725 0.1611107 -0.9639481 -0.8604462 -0.5095413 0 0.6910432 -0.7228136 0 0.1945613 -0.2720501 -0.942409 0.9896104 -0.1437752 0 0.997648 -0.06854653 0 0.9348962 0.06799685 -0.3483467 -0.5370473 0.8435521 0 -0.02514803 0.9985054 0.04852592 0.1362681 0.9901952 -0.03073281 0.2134212 0.6095613 0.76347 0.2639021 0.9296544 0.2570962 0.2979888 0.9200602 0.2543464 -0.3199687 0.8207361 0.4732997 -0.1179586 0.3099886 0.9433944 -0.1343137 0.7017822 -0.6996154 0.719823 0.6462415 -0.2534304 -0.07233059 0.8807244 0.4680736 0.2668939 0.6817165 -0.6811977 0.6862502 0.7247041 -0.06216716 0.9263544 0.3619902 -0.104071 0.7466217 0.6652271 0.005401849 0.8297613 0.1406639 -0.5401017 0.7537947 7.62981e-4 -0.6571097 0.6715779 -0.3405042 -0.6580578 0.6699566 0.3409295 -0.6594886 0.4417065 0.6155447 -0.6526868 -0.09460896 0.724308 -0.6829547 0.2358856 -0.7126927 -0.6606264 0.7268887 0.6867553 0 0.9991458 0.01544278 -0.0383324 -0.2580401 -0.7651783 0.5898453 0.1733464 -0.1265917 0.9766912 0.1786312 0.1244284 0.9760168 0.6466662 -0.7578467 0.08655172 0.6843547 -0.6861858 0.2465923 0.6612234 -0.7478972 0.05859631 0.640055 -0.7330784 0.230056 0.3432503 0.8951 -0.2845618 0.302958 0.9530039 0 0.3501738 0.06585979 -0.9343666 0.6678157 -0.7443267 0 0.8655058 0.4998808 -0.03192347 0.8439758 0.5042674 -0.1828095 0.8388234 0.5444036 0 -0.6702057 -0.3172795 -0.6709382 -0.59903 -0.1791169 -0.7804359 -0.6607038 0.002349913 -0.7506431 -0.1714559 0.7286418 -0.6630868 -0.1518947 0.6503365 -0.7443054 0.1443865 0.6435899 -0.751628 -0.1648031 -0.7132617 -0.6812472 -0.05398851 -0.5572813 -0.8285667 -0.2832798 -0.3909823 -0.8757199 -0.6725421 0.3296943 -0.6625624 -0.5995512 0.2939617 -0.7443957 -0.4656014 0.5889296 -0.6605888 0.4561089 -0.5726311 -0.6812183 0.4077109 -0.5069606 -0.7594491 0.1485995 -0.6260161 -0.7655208 0.6590546 -0.3191357 -0.6810283 0.5807428 -0.2842524 -0.7628488 0.731995 0.003051877 -0.6813032 0.6413277 0.005218744 -0.7672494 0.4618848 0.580118 -0.6709141 0.4067689 0.514443 -0.754909 0.6598826 0.3276218 -0.6761797 -0.7436915 -6.40903e-4 -0.6685227 0.1617827 -0.7135409 -0.6816787 -0.4124664 0.5221218 -0.7464987 0.1645894 0.7259268 -0.6677879 0.5855497 0.2953079 -0.7549337 -0.4589199 -0.5734592 -0.6786289 0.1121895 0.7468719 -0.6554357 0.4473194 -0.6322961 -0.6325402 0.5323607 0.5494824 -0.6439419 0.4010555 0.5741615 -0.7137878 0.4300144 0.3013153 -0.8510562 0.4349228 0.1091045 -0.8938335 -0.02313345 0.006134331 -0.9997137 -0.354882 0.09723544 0.9298409 -0.9293799 -0.3586041 0.08749938 -0.7312374 -0.1120661 -0.6728544 -0.2665281 0.3322369 0.9047549 -0.5248164 0.673783 -0.5201774 -0.1029715 0.4067895 0.9077 -0.17857 0.8300713 -0.5282938 0.08008366 0.4101846 0.9084796 0.1922383 0.8317305 -0.5208349 0.2483059 0.3349506 0.9089292 0.531157 0.6622372 -0.5285019 0.3662958 0.1959356 0.9096356 0.7695077 0.3716306 -0.5193734 0.4143583 0.01681602 0.9099586 0.8504421 -0.003723263 -0.5260558 0.3801148 -0.1632769 0.9104139 0.7716294 -0.3706617 -0.5169121 0.2645986 -0.3150462 0.9114459 0.537513 -0.6629794 -0.5210934 0.1002554 -0.4121917 0.9055644 0.1199714 -0.4007797 0.9082855 -0.191933 -0.8359113 -0.5142121 -0.8202034 -0.5573721 0.128852 -0.5319515 -0.4988381 -0.6842429 -0.9242621 -0.3775787 0.05633771 -0.6182298 -0.2926802 -0.7294726 -0.7765315 0.3698626 -0.5100985 0.001709043 -0.01016271 -0.999947 0.09592062 -0.189827 -0.9771208 0.04696905 -0.3105635 -0.9493916 -0.2104596 -0.2637155 -0.9413613 -0.3376082 7.01952e-4 -0.9412866 -0.2082945 0.2626799 -0.942132 0.2009684 -0.8291435 -0.5216634 -0.0746811 0.3244219 -0.9429599 0.1009578 0.2138181 -0.9716427 0.002227842 0.009735465 -0.9999502 9.15583e-5 6.40908e-4 -0.9999999 0.1663287 8.85052e-4 -0.98607 0.1512222 -0.00564599 -0.9884837 0.1669089 0.2184252 -0.9614738 0.1508572 0.00250256 -0.9885525 0.09305322 -0.001098692 -0.9956606 0.1786312 0.1244284 -0.9760168 0.1921149 -0.04922658 -0.9801371 0.1925475 0.04693895 -0.9801644 0.1733464 -0.1265917 -0.9766912 -0.3251867 -0.3378523 -0.8832381 0.01556462 -0.1382203 -0.9902793 -0.04864698 0.1471006 -0.9879246 0.08020377 -0.8800446 -0.4680692 -0.07757931 -0.3239593 -0.9428849 -0.2071618 -0.8783015 -0.4308953 -0.5681505 -0.7039011 -0.426296 -0.3075996 -0.1502138 -0.9395841 -0.8163377 -0.3937636 -0.4225436 -0.9055883 -0.002197325 -0.4241521 -0.3080282 0.1479561 -0.939802 -0.814288 0.3907703 -0.4292247 -0.5650607 0.7066082 -0.4259243 -0.2084453 0.8790411 -0.4287626 0.08319628 0.8821983 -0.46347 0.0353415 -0.7190073 0.6941035 -0.1737156 -0.7308143 0.6601011 -0.4719103 -0.5819607 0.6622858 -0.6758751 -0.3264014 0.6607987 -0.7488787 -0.00439471 0.6626927 -0.6803002 0.3248448 0.6570141 -0.46615 0.5850527 0.6636397 -0.1759133 0.7255358 0.6653212 0.041323 0.6883921 0.7241607 -0.01419138 0.6990716 0.714911 -0.5071753 0.7812416 0.3639161 0.1387717 0.8276252 -0.5438557 -0.5791599 0.7605346 0.2935322 0.006653189 0.8226473 -0.5685132 -0.4586471 0.8482896 0.2646651 -0.08438658 0.9015173 -0.4244356 0.08801716 -0.8560923 -0.5092729 -0.2987544 -0.702526 0.6459125 -0.05655139 -0.853826 -0.5174777 -0.8785005 -0.3068113 0.3662021 -0.2126899 -0.8506072 -0.4808642 -0.3016194 -0.8942375 -0.330704 -0.3658942 -0.6965083 0.61725 -0.7115605 -0.1402367 0.6884878 0.2858077 -0.1470696 -0.9469343 0.2951193 -5.49343e-4 -0.9554603 0.9003646 -6.10375e-5 -0.4351366 0.1780797 -0.2677452 -0.9468898 0.5096729 -0.7356076 -0.4462232 0.07632809 -0.3556382 -0.9315018 0.1460623 -0.8900158 -0.4319001 -0.13471 -0.2973143 -0.9452289 -0.1990441 -0.6665629 -0.718384 0.06207591 0.3302475 -0.9418509 -0.1179586 0.3099886 -0.9433944 -0.1997488 0.8413866 -0.5021646 0.1891577 0.2636855 -0.9458802 0.1200634 0.888512 -0.4428673 0.2823599 0.1472226 -0.9479444 0.5220882 0.7341341 -0.4341325 -0.1612322 -0.5722326 -0.804086 0.6844809 0.02887099 -0.7284589 0.1681025 -0.5671171 -0.8063001 0.005462944 -0.9394832 -0.3425514 0.0859121 -0.9324591 -0.350912 -0.01757907 -0.9953853 -0.09433495 -0.2768389 -0.9013516 0.3330551 0.1002865 -0.9765272 -0.1906237 0.1474685 -0.8865505 -0.438499 0.1070929 -0.9468671 -0.3032721 0.1303479 -0.7868793 -0.6031836 0.1699609 -0.2068891 -0.9634886 0.190044 -0.4684416 -0.8628128 0.1759143 -0.4667956 -0.8666926 0.8984831 0.03753852 -0.4374001 -0.7532506 0.04535186 0.6561682 -0.7881391 0.3542109 0.5033603 -0.4257802 0.1993241 0.8825991 -0.4734459 0.8743779 0.1063597 -0.3253595 0.9455904 0 -0.2117725 0.1611107 0.9639481 0.1945613 -0.2720501 0.942409 0.9348962 0.06799685 0.3483467 -0.02514803 0.9985054 -0.04852592 0.1362681 0.9901952 0.03073281 0.2639021 0.9296544 -0.2570962 0.2134212 0.6095613 -0.76347 0.04825139 0.3113604 -0.9490662 0.2979888 0.9200602 -0.2543464 -0.3199687 0.8207361 -0.4732997 -0.1343137 0.7017822 0.6996154 0.6862502 0.7247041 0.06216716 0.719823 0.6462415 0.2534304 -0.07233059 0.8807244 -0.4680736 0.2668939 0.6817165 0.6811977 0.7466217 0.6652271 -0.005401849 0.9263544 0.3619902 0.104071 0.8297613 0.1406639 0.5401017 0.7537947 7.62981e-4 0.6571097 0.8059006 -0.4039269 -0.4328595 0.6715779 -0.3405042 0.6580578 0.8051643 0.4091743 -0.4292867 0.6699566 0.3409295 0.6594886 0.4417065 0.6155447 0.6526868 0.1121895 0.7468719 0.6554357 -0.09460896 0.724308 0.6829547 0.2358856 -0.7126927 0.6606264 0.4473194 -0.6322961 0.6325402 0.9991458 0.01544278 0.0383324 -0.2580401 -0.7651783 -0.5898453 -0.3558874 0.3028751 -0.8840876 0.6466662 -0.7578467 -0.08655172 0.6843547 -0.6861858 -0.2465923 0.640055 -0.7330784 -0.230056 0.6612234 -0.7478972 -0.05859631 0.3432503 0.8951 0.2845618 0.3501738 0.06585979 0.9343666 0.8655058 0.4998808 0.03192347 0.8439758 0.5042674 0.1828095 0.4010555 0.5741615 0.7137878 -0.6702057 -0.3172795 0.6709382 -0.7436915 -6.40903e-4 0.6685227 -0.6607038 0.002349913 0.7506431 -0.1714559 0.7286418 0.6630868 0.1645894 0.7259268 0.6677879 0.1443865 0.6435899 0.751628 -0.1648031 -0.7132617 0.6812472 -0.4589199 -0.5734592 0.6786289 -0.2832798 -0.3909823 0.8757199 -0.6725421 0.3296943 0.6625624 -0.4656014 0.5889296 0.6605888 -0.5995512 0.2939617 0.7443957 0.4561089 -0.5726311 0.6812183 0.1617827 -0.7135409 0.6816787 0.1485995 -0.6260161 0.7655208 0.6590546 -0.3191357 0.6810283 0.5807428 -0.2842524 0.7628488 0.731995 0.003051877 0.6813032 0.6413277 0.005218744 0.7672494 0.4618848 0.580118 0.6709141 0.6598826 0.3276218 0.6761797 0.4067689 0.514443 0.754909 -0.05398851 -0.5572813 0.8285667 -0.4124664 0.5221218 0.7464987 0.5855497 0.2953079 0.7549337 -0.1518947 0.6503365 0.7443054 0.4077109 -0.5069606 0.7594491 0.5323607 0.5494824 0.6439419 -0.59903 -0.1791169 0.7804359 0.4349228 0.1091045 0.8938335 -0.02313345 0.006134331 0.9997137 0.4300144 0.3013153 0.8510562</float_array>
          <technique_common>
            <accessor source="#Circle_042-mesh-normals-array" count="398" stride="3">
              <param name="X" type="float"/>
              <param name="Y" type="float"/>
              <param name="Z" type="float"/>
            </accessor>
          </technique_common>
        </source>
        <vertices id="Circle_042-mesh-vertices">
          <input semantic="POSITION" source="#Circle_042-mesh-positions"/>
        </vertices>
        <polylist material="Metall_Alu_014_002-material" count="804">
          <input semantic="VERTEX" source="#Circle_042-mesh-vertices" offset="0"/>
          <input semantic="NORMAL" source="#Circle_042-mesh-normals" offset="1"/>
          <vcount>3 3 3 3 3 3 3 3 3 3 3 3 3 3 3 3 3 3 3 3 3 3 3 3 3 3 3 3 3 3 3 3 3 3 3 3 3 3 3 3 3 3 3 3 3 3 3 3 3 3 3 3 3 3 3 3 3 3 3 3 3 3 3 3 3 3 3 3 3 3 3 3 3 3 3 3 3 3 3 3 3 3 3 3 3 3 3 3 3 3 3 3 3 3 3 3 3 3 3 3 3 3 3 3 3 3 3 3 3 3 3 3 3 3 3 3 3 3 3 3 3 3 3 3 3 3 3 3 3 3 3 3 3 3 3 3 3 3 3 3 3 3 3 3 3 3 3 3 3 3 3 3 3 3 3 3 3 3 3 3 3 3 3 3 3 3 3 3 3 3 3 3 3 3 3 3 3 3 3 3 3 3 3 3 3 3 3 3 3 3 3 3 3 3 3 3 3 3 3 3 3 3 3 3 3 3 3 3 3 3 3 3 3 3 3 3 3 3 3 3 3 3 3 3 3 3 3 3 3 3 3 3 3 3 3 3 3 3 3 3 3 3 3 3 3 3 3 3 3 3 3 3 3 3 3 3 3 3 3 3 3 3 3 3 3 3 3 3 3 3 3 3 3 3 3 3 3 3 3 3 3 3 3 3 3 3 3 3 3 3 3 3 3 3 3 3 3 3 3 3 3 3 3 3 3 3 3 3 3 3 3 3 3 3 3 3 3 3 3 3 3 3 3 3 3 3 3 3 3 3 3 3 3 3 3 3 3 3 3 3 3 3 3 3 3 3 3 3 3 3 3 3 3 3 3 3 3 3 3 3 3 3 3 3 3 3 3 3 3 3 3 3 3 3 3 3 3 3 3 3 3 3 3 3 3 3 3 3 3 3 3 3 3 3 3 3 3 3 3 3 3 3 3 3 3 3 3 3 3 3 3 3 3 3 3 3 3 3 3 3 3 3 3 3 3 3 3 3 3 3 3 3 3 3 3 3 3 3 3 3 3 3 3 3 3 3 3 3 3 3 3 3 3 3 3 3 3 3 3 3 3 3 3 3 3 3 3 3 3 3 3 3 3 3 3 3 3 3 3 3 3 3 3 3 3 3 3 3 3 3 3 3 3 3 3 3 3 3 3 3 3 3 3 3 3 3 3 3 3 3 3 3 3 3 3 3 3 3 3 3 3 3 3 3 3 3 3 3 3 3 3 3 3 3 3 3 3 3 3 3 3 3 3 3 3 3 3 3 3 3 3 3 3 3 3 3 3 3 3 3 3 3 3 3 3 3 3 3 3 3 3 3 3 3 3 3 3 3 3 3 3 3 3 3 3 3 3 3 3 3 3 3 3 3 3 3 3 3 3 3 3 3 3 3 3 3 3 3 3 3 3 3 3 3 3 3 3 3 3 3 3 3 3 3 3 3 3 3 3 3 3 3 3 3 3 3 3 3 3 3 3 3 3 3 3 3 3 3 3 3 3 3 3 3 3 3 3 3 3 3 3 3 3 3 3 3 3 3 3 3 3 3 3 3 3 3 3 3 3 3 3 3 3 3 3 3 3 3 3 3 3 3 3 3 3 3 3 3 3 3 3 3 3 3 3 3 3 3 3 3 3 3 3 3 3 3 3 3 3 3 3 3 3 3 3 3 3 3 3 3 3 3 3 3 3 3 3 3 3 3 3 3 3 3 3 3 3 3 3 3 3 3 3 3 3 3 3 3 3 3 3 3 3 3 3 3 3 3 3 3 3 3 3 3 3 3 3 3 3 3 3 3 3 3 3 3 3 3 3 3 3 3 3 3 3 3 3 3 3 3 3 3 3 3 </vcount>
          <p>13 0 27 1 14 2 12 3 26 4 13 0 11 5 25 6 12 3 10 7 24 8 11 5 9 9 23 10 10 7 8 11 22 12 9 9 7 13 21 14 8 11 6 15 20 16 7 13 5 17 19 18 6 15 4 19 18 20 19 18 3 21 17 22 4 19 2 23 16 24 3 21 1 25 15 26 2 23 0 27 14 2 1 25 27 1 41 28 14 2 26 4 40 29 27 1 25 6 39 30 40 29 24 8 38 31 39 30 23 10 37 32 24 8 22 12 36 33 37 32 21 14 35 34 22 12 20 16 34 35 35 34 19 18 33 36 20 16 18 20 32 37 19 18 17 22 31 38 32 37 16 24 30 39 17 22 15 26 29 40 30 39 14 2 28 41 29 40 28 41 41 28 42 42 41 28 40 29 46 43 30 39 29 40 43 44 29 40 28 41 43 44 42 42 46 43 47 45 46 43 45 46 50 47 44 48 43 44 49 49 43 44 42 42 47 45 151 50 134 51 52 52 39 30 38 31 62 53 38 31 37 32 61 54 37 32 36 33 60 55 36 33 35 34 58 56 35 34 34 35 58 56 34 35 33 36 56 57 33 36 32 37 56 57 32 37 31 38 54 58 62 53 61 54 71 59 61 54 60 55 70 60 60 55 59 61 69 62 59 61 58 56 68 63 58 56 57 64 66 65 57 64 56 57 66 65 56 57 55 66 64 67 55 66 54 58 63 68 63 68 54 58 73 69 73 69 72 70 75 71 75 71 74 72 77 73 77 73 76 74 79 75 62 53 71 59 82 76 81 77 82 76 84 78 87 79 88 80 86 81 83 82 84 78 88 80 3 21 4 19 63 68 4 19 5 17 64 67 5 17 6 15 65 83 6 15 7 13 66 65 7 13 8 11 67 84 8 11 9 9 68 63 9 9 10 7 69 62 10 7 11 5 70 60 12 3 82 76 71 59 102 85 106 86 98 87 101 88 105 89 102 85 100 90 104 91 101 88 99 92 103 93 100 90 92 94 95 95 94 96 91 97 96 98 95 95 90 99 97 100 96 98 89 101 98 87 90 99 53 102 50 47 108 103 108 103 107 104 110 105 110 105 109 106 111 107 112 108 111 107 114 109 114 109 113 110 309 111 118 112 113 110 116 113 85 114 117 115 87 79 117 115 118 112 115 116 45 46 40 29 120 117 83 82 120 117 81 77 39 30 62 53 119 118 39 30 119 118 40 29 45 46 120 117 107 104 107 104 120 117 109 106 111 107 109 106 116 113 115 116 116 113 109 106 87 79 115 116 83 82 113 110 118 112 86 81 117 115 86 81 118 112 86 81 117 115 85 114 88 80 84 78 122 119 84 78 82 76 122 119 77 73 122 119 121 120 79 75 78 121 123 122 77 73 79 75 123 122 13 0 121 120 82 76 75 71 121 120 13 0 0 27 63 68 13 0 1 25 2 23 3 21 0 27 1 25 63 68 308 123 113 110 124 124 321 125 323 126 125 127 323 126 325 128 125 127 325 128 327 129 126 130 86 81 88 80 125 127 124 124 125 127 126 130 113 110 86 81 124 124 123 122 78 121 328 131 80 132 76 74 130 133 76 74 74 72 128 134 49 49 128 134 44 48 44 48 74 72 72 70 30 39 72 70 31 38 130 133 129 135 133 136 129 135 128 134 133 136 94 96 131 137 93 138 131 137 94 96 147 139 130 133 133 136 149 140 132 141 131 137 148 142 133 136 132 141 149 140 146 143 145 144 144 145 146 143 149 140 150 146 80 132 130 133 146 143 98 87 106 86 139 147 106 86 105 89 143 148 97 100 98 87 138 149 96 98 97 100 138 149 95 95 96 98 137 150 94 96 95 95 135 151 104 91 103 93 141 152 105 89 104 91 141 152 327 129 351 153 127 154 78 121 79 75 144 145 328 131 78 121 351 153 103 93 99 92 152 155 108 103 151 50 53 102 152 155 108 103 110 105 152 155 151 50 108 103 134 51 151 50 93 138 49 49 48 156 52 52 48 156 47 45 52 52 132 141 52 52 131 137 128 134 49 49 132 141 47 45 51 157 53 102 51 157 50 47 53 102 93 138 99 92 100 90 92 94 100 90 91 97 91 97 101 88 102 85 89 101 90 99 102 85 114 109 309 111 155 158 112 108 114 109 155 158 110 105 112 108 154 159 140 160 103 93 152 155 110 105 153 161 152 155 126 130 156 162 124 124 156 162 360 163 124 124 140 160 153 161 157 164 155 158 358 165 160 166 154 159 155 158 159 167 153 161 154 159 159 167 160 166 365 168 360 163 156 162 159 167 360 163 163 169 177 170 176 171 171 172 185 173 186 174 165 175 179 176 178 177 161 178 175 179 170 180 167 181 181 182 180 183 168 184 182 185 167 181 169 186 183 187 168 184 173 188 187 189 174 190 162 191 176 171 161 178 166 192 180 183 179 176 170 180 184 193 171 172 172 194 186 174 173 188 174 190 188 195 183 187 164 196 178 177 163 169 137 150 138 149 188 195 136 197 137 150 187 189 135 151 136 197 186 174 138 149 139 147 188 195 139 147 143 148 183 187 143 148 142 198 182 185 142 198 141 152 181 182 140 160 157 164 141 152 147 139 135 151 185 173 179 176 180 183 157 164 159 167 156 162 189 199 157 164 158 200 179 176 179 176 158 200 178 177 177 170 192 201 191 202 176 171 191 202 175 179 156 162 126 130 189 199 175 179 190 203 147 139 178 177 189 199 177 170 126 130 127 154 150 146 148 142 147 139 190 203 190 203 191 202 148 142 192 201 126 130 191 202 126 130 150 146 191 202 150 146 149 140 191 202 168 184 174 190 169 186 206 204 193 205 207 206 205 207 206 204 219 208 204 209 205 207 218 210 203 211 204 209 217 212 202 213 203 211 216 214 201 215 202 213 215 216 200 217 201 215 214 218 199 219 200 217 213 220 198 221 199 219 212 222 197 223 198 221 212 222 196 224 197 223 210 225 195 226 196 224 209 227 194 228 195 226 208 229 193 205 194 228 207 206 220 230 207 206 234 231 219 208 220 230 233 232 218 210 219 208 233 232 217 212 218 210 232 233 216 214 217 212 230 234 215 216 216 214 230 234 214 218 215 216 228 235 213 220 214 218 228 235 212 222 213 220 226 236 211 237 212 222 225 238 210 225 211 237 225 238 209 227 210 225 223 239 208 229 209 227 223 239 207 206 208 229 222 240 221 241 235 242 234 231 234 231 239 243 233 232 223 239 237 244 236 245 222 240 236 245 221 241 235 242 240 246 239 243 239 243 244 247 243 248 237 244 242 249 236 245 236 245 241 250 240 246 353 251 246 252 245 253 232 233 255 254 231 255 231 255 254 256 230 234 230 234 253 257 229 258 229 258 252 259 251 260 228 235 251 260 227 261 227 261 250 262 249 263 226 236 249 263 225 238 225 238 248 264 247 265 255 254 264 266 254 256 254 256 263 267 253 257 253 257 262 268 252 259 252 259 261 269 251 260 251 260 260 270 259 271 250 262 259 271 249 263 249 263 258 272 257 273 248 264 257 273 256 274 256 274 266 275 247 265 266 275 268 276 265 277 268 276 270 278 267 279 270 278 272 280 269 281 255 254 274 282 275 283 274 282 276 284 277 285 280 286 278 287 279 288 276 284 280 286 281 289 196 224 256 274 197 223 197 223 257 273 198 221 198 221 258 272 199 219 199 219 259 271 200 217 200 217 260 270 201 215 201 215 261 269 202 213 202 213 262 268 203 211 203 211 263 267 204 209 205 207 204 209 264 266 295 290 282 291 291 292 294 293 295 290 298 294 293 295 294 293 297 296 292 297 293 295 296 298 285 299 286 300 287 301 284 302 285 299 288 303 283 304 284 302 289 305 282 291 283 304 291 292 246 252 301 306 243 248 301 306 303 307 300 308 303 307 305 309 304 310 305 309 307 311 304 310 307 311 309 111 306 312 313 313 311 314 306 312 278 287 280 286 312 315 312 315 310 316 313 313 238 317 315 318 233 232 276 284 274 282 315 318 232 233 314 319 255 254 232 233 233 232 314 319 238 317 243 248 300 308 300 308 302 320 315 318 304 310 311 314 302 320 310 316 276 284 302 320 280 286 276 284 310 316 306 312 279 288 313 313 312 315 313 313 279 288 279 288 278 287 312 315 281 289 318 321 317 322 277 285 317 322 275 283 270 278 268 276 316 323 272 280 318 321 271 324 270 278 317 322 318 321 206 204 205 207 275 283 268 276 266 275 206 204 193 205 206 204 256 274 194 228 256 274 196 224 193 205 256 274 194 228 308 123 320 325 319 326 321 125 318 321 322 327 323 126 322 327 325 128 325 128 324 328 327 129 279 288 322 327 281 289 319 326 324 328 322 327 306 312 319 326 279 288 318 321 321 125 328 131 273 329 331 330 269 281 269 281 330 331 329 332 242 249 237 244 329 332 237 244 223 239 265 277 223 239 224 333 265 277 331 330 334 334 330 331 330 331 334 334 329 332 287 301 286 300 332 335 332 335 348 336 287 301 331 330 347 337 350 338 333 339 349 340 332 335 334 334 350 338 333 339 347 337 345 341 346 342 347 337 346 342 352 343 273 329 272 280 347 337 291 292 340 344 299 345 299 345 344 346 298 294 290 347 339 348 291 292 289 305 338 349 339 348 288 303 337 350 338 349 287 301 336 351 288 303 297 296 342 352 296 298 298 294 343 353 342 352 327 129 326 354 351 153 271 324 345 341 272 280 328 131 351 153 271 324 296 298 354 355 292 297 301 306 246 252 353 251 354 355 303 307 301 306 354 355 301 306 353 251 335 356 286 300 353 251 242 249 245 253 241 250 241 250 245 253 240 246 333 339 332 335 245 253 329 332 333 339 242 249 240 246 245 253 246 252 244 247 246 252 243 248 286 300 285 299 293 295 285 299 284 302 293 295 284 302 283 304 295 290 282 291 295 290 283 304 307 311 357 357 309 111 305 309 356 358 357 357 303 307 355 359 356 358 341 360 355 359 354 355 303 307 354 355 355 359 324 328 319 326 359 361 359 361 319 326 360 163 341 360 361 362 355 359 357 357 364 363 358 165 356 358 363 364 357 357 355 359 362 365 363 364 364 363 360 163 365 168 359 361 360 163 363 364 368 366 367 367 381 368 376 369 377 370 391 371 370 372 369 373 383 374 366 375 375 376 380 377 372 378 371 379 385 380 373 381 372 378 387 382 374 383 373 381 388 384 378 385 379 386 392 387 367 367 366 375 381 368 371 379 370 372 384 388 375 376 376 369 389 389 377 370 378 385 391 371 379 386 374 383 388 384 369 373 368 366 383 374 338 349 392 387 393 390 337 350 391 371 392 387 336 351 390 391 391 371 339 348 393 390 340 344 340 344 388 384 344 346 344 346 387 382 343 353 343 353 386 392 342 352 341 360 342 352 361 362 348 336 389 389 390 391 384 388 361 362 385 380 363 364 362 365 394 393 361 362 384 388 362 365 384 388 383 374 362 365 382 394 381 368 396 395 381 368 380 377 396 395 359 361 394 393 324 328 380 377 389 389 348 336 383 374 382 394 394 393 324 328 352 343 326 354 349 340 395 396 348 336 395 396 349 340 396 395 397 397 396 395 324 328 324 328 396 395 352 343 352 343 396 395 350 338 379 386 373 381 374 383 0 27 13 0 14 2 26 4 27 1 13 0 25 6 26 4 12 3 24 8 25 6 11 5 23 10 24 8 10 7 22 12 23 10 9 9 21 14 22 12 8 11 20 16 21 14 7 13 19 18 20 16 6 15 5 17 4 19 19 18 17 22 18 20 4 19 16 24 17 22 3 21 15 26 16 24 2 23 14 2 15 26 1 25 41 28 28 41 14 2 40 29 41 28 27 1 26 4 25 6 40 29 25 6 24 8 39 30 37 32 38 31 24 8 23 10 22 12 37 32 35 34 36 33 22 12 21 14 20 16 35 34 33 36 34 35 20 16 32 37 33 36 19 18 18 20 17 22 32 37 30 39 31 38 17 22 16 24 15 26 30 39 15 26 14 2 29 40 41 28 46 43 42 42 40 29 45 46 46 43 44 48 30 39 43 44 28 41 42 42 43 44 46 43 51 157 47 45 51 157 46 43 50 47 43 44 48 156 49 49 48 156 43 44 47 45 53 102 151 50 52 52 38 31 61 54 62 53 37 32 60 55 61 54 36 33 59 61 60 55 59 61 36 33 58 56 34 35 57 64 58 56 57 64 34 35 56 57 32 37 55 66 56 57 55 66 32 37 54 58 61 54 70 60 71 59 60 55 69 62 70 60 59 61 68 63 69 62 58 56 67 84 68 63 67 84 58 56 66 65 56 57 65 83 66 65 65 83 56 57 64 67 64 67 55 66 63 68 54 58 72 70 73 69 72 70 74 72 75 71 74 72 76 74 77 73 76 74 80 132 79 75 81 77 62 53 82 76 83 82 81 77 84 78 85 114 87 79 86 81 87 79 83 82 88 80 4 19 64 67 63 68 5 17 65 83 64 67 6 15 66 65 65 83 7 13 67 84 66 65 8 11 68 63 67 84 9 9 69 62 68 63 10 7 70 60 69 62 11 5 71 59 70 60 11 5 12 3 71 59 89 101 102 85 98 87 105 89 106 86 102 85 104 91 105 89 101 88 103 93 104 91 100 90 93 138 92 94 94 96 92 94 91 97 95 95 91 97 90 99 96 98 98 87 97 100 90 99 50 47 107 104 108 103 107 104 109 106 110 105 112 108 110 105 111 107 111 107 113 110 114 109 113 110 308 123 309 111 113 110 111 107 116 113 117 115 115 116 87 79 118 112 116 113 115 116 40 29 119 118 120 117 120 117 119 118 81 77 62 53 81 77 119 118 50 47 45 46 107 104 120 117 83 82 109 106 83 82 115 116 109 106 123 122 88 80 122 119 82 76 121 120 122 119 75 71 77 73 121 120 122 119 77 73 123 122 12 3 13 0 82 76 73 69 75 71 13 0 63 68 73 69 13 0 63 68 1 25 3 21 320 325 308 123 124 124 123 122 321 125 125 127 325 128 126 130 125 127 327 129 127 154 126 130 88 80 123 122 125 127 86 81 125 127 124 124 321 125 123 122 328 131 76 74 129 135 130 133 129 135 76 74 128 134 128 134 74 72 44 48 30 39 44 48 72 70 72 70 54 58 31 38 128 134 132 141 133 136 131 137 134 51 93 138 94 96 135 151 147 139 146 143 130 133 149 140 131 137 147 139 148 142 132 141 148 142 149 140 145 144 127 154 144 145 145 144 146 143 150 146 79 75 80 132 146 143 106 86 143 148 139 147 105 89 142 198 143 148 98 87 139 147 138 149 137 150 96 98 138 149 136 197 95 95 137 150 95 95 136 197 135 151 103 93 140 160 141 152 142 198 105 89 141 152 351 153 144 145 127 154 79 75 146 143 144 145 78 121 144 145 351 153 99 92 151 50 152 155 151 50 99 92 93 138 52 52 134 51 131 137 49 49 52 52 132 141 52 52 47 45 53 102 92 94 93 138 100 90 100 90 101 88 91 97 90 99 91 97 102 85 309 111 358 165 155 158 154 159 112 108 155 158 153 161 110 105 154 159 153 161 140 160 152 155 360 163 320 325 124 124 153 161 158 200 157 164 358 165 365 168 160 166 155 158 160 166 159 167 158 200 153 161 159 167 159 167 160 166 360 163 162 191 163 169 176 171 172 194 171 172 186 174 164 196 165 175 178 177 175 179 184 193 170 180 166 192 167 181 180 183 182 185 181 182 167 181 183 187 182 185 168 184 187 189 188 195 174 190 176 171 175 179 161 178 165 175 166 192 179 176 184 193 185 173 171 172 186 174 187 189 173 188 169 186 174 190 183 187 178 177 177 170 163 169 187 189 137 150 188 195 186 174 136 197 187 189 185 173 135 151 186 174 139 147 183 187 188 195 143 148 182 185 183 187 142 198 181 182 182 185 141 152 180 183 181 182 184 193 147 139 185 173 180 183 141 152 157 164 158 200 159 167 189 199 158 200 189 199 178 177 176 171 177 170 191 202 191 202 190 203 175 179 126 130 192 201 189 199 184 193 175 179 147 139 189 199 192 201 177 170 127 154 145 144 150 146 149 140 148 142 191 202 162 191 161 178 170 180 173 188 171 172 172 194 167 181 174 190 168 184 163 169 162 191 170 180 166 192 174 190 167 181 165 175 174 190 166 192 164 196 163 169 170 180 165 175 164 196 174 190 164 196 170 180 174 190 170 180 171 172 173 188 174 190 170 180 173 188 220 230 206 204 207 206 206 204 220 230 219 208 205 207 219 208 218 210 204 209 218 210 217 212 203 211 217 212 216 214 202 213 216 214 215 216 201 215 215 216 214 218 200 217 214 218 213 220 199 219 213 220 212 222 211 237 197 223 212 222 197 223 211 237 210 225 196 224 210 225 209 227 195 226 209 227 208 229 194 228 208 229 207 206 207 206 221 241 234 231 220 230 234 231 233 232 232 233 218 210 233 232 231 255 217 212 232 233 217 212 231 255 230 234 229 258 215 216 230 234 215 216 229 258 228 235 227 261 213 220 228 235 213 220 227 261 226 236 212 222 226 236 225 238 224 333 210 225 225 238 210 225 224 333 223 239 222 240 208 229 223 239 221 241 207 206 222 240 235 242 239 243 234 231 239 243 238 317 233 232 222 240 223 239 236 245 236 245 235 242 221 241 240 246 244 247 239 243 238 317 239 243 243 248 242 249 241 250 236 245 235 242 236 245 240 246 335 356 353 251 245 253 255 254 254 256 231 255 254 256 253 257 230 234 253 257 252 259 229 258 228 235 229 258 251 260 251 260 250 262 227 261 226 236 227 261 249 263 249 263 248 264 225 238 224 333 225 238 247 265 264 266 263 267 254 256 263 267 262 268 253 257 262 268 261 269 252 259 261 269 260 270 251 260 250 262 251 260 259 271 259 271 258 272 249 263 248 264 249 263 257 273 247 265 248 264 256 274 266 275 265 277 247 265 268 276 267 279 265 277 270 278 269 281 267 279 272 280 273 329 269 281 264 266 255 254 275 283 275 283 274 282 277 285 281 289 280 286 279 288 277 285 276 284 281 289 256 274 257 273 197 223 257 273 258 272 198 221 258 272 259 271 199 219 259 271 260 270 200 217 260 270 261 269 201 215 261 269 262 268 202 213 262 268 263 267 203 211 263 267 264 266 204 209 275 283 205 207 264 266 299 345 295 290 291 292 295 290 299 345 298 294 294 293 298 294 297 296 293 295 297 296 296 298 288 303 285 299 287 301 289 305 284 302 288 303 290 347 283 304 289 305 283 304 290 347 291 292 301 306 300 308 243 248 303 307 302 320 300 308 302 320 303 307 304 310 307 311 306 312 304 310 309 111 308 123 306 312 311 314 304 310 306 312 280 286 310 316 312 315 310 316 311 314 313 313 315 318 314 319 233 232 274 282 314 319 315 318 314 319 274 282 255 254 315 318 238 317 300 308 302 320 276 284 315 318 311 314 310 316 302 320 277 285 281 289 317 322 317 322 316 323 275 283 317 322 270 278 316 323 272 280 270 278 318 321 316 323 206 204 275 283 316 323 268 276 206 204 206 204 266 275 256 274 195 226 194 228 196 224 306 312 308 123 319 326 323 126 321 125 322 327 322 327 324 328 325 128 324 328 326 354 327 129 322 327 318 321 281 289 319 326 322 327 279 288 271 324 318 321 328 131 331 330 330 331 269 281 267 279 269 281 329 332 237 244 267 279 329 332 267 279 237 244 265 277 224 333 247 265 265 277 334 334 333 339 329 332 286 300 335 356 332 335 348 336 336 351 287 301 334 334 331 330 350 338 349 340 348 336 332 335 350 338 349 340 333 339 345 341 326 354 346 342 350 338 347 337 352 343 331 330 273 329 347 337 340 344 344 346 299 345 344 346 343 353 298 294 339 348 340 344 291 292 290 347 289 305 339 348 289 305 288 303 338 349 336 351 337 350 288 303 342 352 341 360 296 298 297 296 298 294 342 352 326 354 345 341 351 153 345 341 347 337 272 280 351 153 345 341 271 324 354 355 353 251 292 297 286 300 292 297 353 251 332 335 335 356 245 253 333 339 245 253 242 249 244 247 240 246 246 252 292 297 286 300 293 295 284 302 294 293 293 295 294 293 284 302 295 290 357 357 358 165 309 111 307 311 305 309 357 357 305 309 303 307 356 358 296 298 341 360 354 355 319 326 320 325 360 163 361 362 362 365 355 359 364 363 365 168 358 165 363 364 364 363 357 357 356 358 355 359 363 364 360 163 364 363 363 364 382 394 368 366 381 368 390 391 376 369 391 371 384 388 370 372 383 374 375 376 389 389 380 377 386 392 372 378 385 380 372 378 386 392 387 382 373 381 387 382 388 384 379 386 393 390 392 387 366 375 380 377 381 368 385 380 371 379 384 388 376 369 390 391 389 389 378 385 392 387 391 371 393 390 379 386 388 384 368 366 382 394 383 374 339 348 338 349 393 390 338 349 337 350 392 387 337 350 336 351 391 371 393 390 388 384 340 344 388 384 387 382 344 346 387 382 386 392 343 353 386 392 385 380 342 352 336 351 348 336 390 391 361 362 342 352 385 380 359 361 363 364 394 393 383 374 394 393 362 365 397 397 382 394 396 395 380 377 395 396 396 395 394 393 397 397 324 328 395 396 380 377 348 336 382 394 397 397 394 393 352 343 346 342 326 354 396 395 349 340 350 338 367 367 375 376 366 375 376 369 378 385 377 370 379 386 372 378 373 381 367 367 368 366 375 376 379 386 371 379 372 378 379 386 370 372 371 379 368 366 369 373 375 376 369 373 370 372 379 386 375 376 369 373 379 386 376 369 375 376 378 385 375 376 379 386 378 385</p>
        </polylist>
      </mesh>
    </geometry>
  </library_geometries>
  <library_controllers/>
  <library_visual_scenes>
    <visual_scene id="Scene" name="Scene">
      <node id="VIS_hollie_right_hand_m" name="VIS_hollie_right_hand_m" type="NODE">
        <instance_geometry url="#Circle_042-mesh" name="VIS_hollie_right_hand_m">
          <bind_material>
            <technique_common>
              <instance_material symbol="Metall_Alu_014_002-material" target="#Metall_Alu_014_002-material"/>
            </technique_common>
          </bind_material>
        </instance_geometry>
      </node>
    </visual_scene>
  </library_visual_scenes>
  <scene>
    <instance_visual_scene url="#Scene"/>
  </scene>
</COLLADA>