<?xml version="1.0" encoding="utf-8"?>
<COLLADA xmlns="http://www.collada.org/2005/11/COLLADASchema" version="1.4.1">
  <asset>
    <contributor>
      <author>Blender User</author>
      <authoring_tool>Blender 2.78.0 commit date:2017-02-24, commit time:14:33, hash:e92f2352830</authoring_tool>
    </contributor>
    <created>2017-07-14T10:06:20</created>
    <modified>2017-07-14T10:06:20</modified>
    <unit name="meter" meter="1"/>
    <up_axis>Z_UP</up_axis>
  </asset>
  <library_images/>
  <library_effects>
    <effect id="Kunststoff_Schwarz_002-effect">
      <profile_COMMON>
        <technique sid="common">
          <phong>
            <emission>
              <color sid="emission">0 0 0 1</color>
            </emission>
            <ambient>
              <color sid="ambient">0 0 0 1</color>
            </ambient>
            <diffuse>
              <color sid="diffuse">0.07 0.07 0.07 1</color>
            </diffuse>
            <specular>
              <color sid="specular">0.025 0.025 0.025 1</color>
            </specular>
            <shininess>
              <float sid="shininess">50</float>
            </shininess>
            <index_of_refraction>
              <float sid="index_of_refraction">1</float>
            </index_of_refraction>
          </phong>
        </technique>
      </profile_COMMON>
    </effect>
  </library_effects>
  <library_materials>
    <material id="Kunststoff_Schwarz_002-material" name="Kunststoff_Schwarz_002">
      <instance_effect url="#Kunststoff_Schwarz_002-effect"/>
    </material>
  </library_materials>
  <library_geometries>
    <geometry id="Circle_026-mesh" name="Circle.026">
      <mesh>
        <source id="Circle_026-mesh-positions">
          <float_array id="Circle_026-mesh-positions-array" count="1344">0 0.03241544 0 -0.006323933 0.03179264 0 -0.01240491 0.02994799 0 -0.01800912 0.0269525 0 -0.02292126 0.0229212 0 -0.02695262 0.01800906 0 -0.02994805 0.01240485 0 -0.0317927 0.006323933 0 -0.03241556 0 0 -0.0317927 -0.006323933 0 -0.02994811 -0.01240485 0 -0.02695256 -0.01800906 0 -0.02292126 -0.0229212 0 -0.01800912 -0.0269525 0 -0.01240485 -0.02994799 0 -0.006323933 -0.03179264 0 0 -0.0324155 0 0.006323933 -0.03179264 0 0.01240491 -0.02994799 0 0.01800912 -0.0269525 0 0.02292126 -0.0229212 0 0.02695262 -0.01800906 0 0.02994805 -0.01240485 0 0.03179275 -0.006323933 0 0.03241556 0 0 0.0317927 0.006323933 0 0.02994805 0.01240485 0 0.02695256 0.01800912 0 0.02292126 0.0229212 0 0.01800906 0.0269525 0 0.01240485 0.02994799 0 0.006323873 0.03179264 0 6.85472e-7 0.03246068 0.002556085 -0.006331205 0.03182846 0.002550005 -0.01241993 0.02998661 0.002553343 -0.01803034 0.02698349 0.00255078 -0.0229482 0.02294892 0.002551436 -0.02698618 0.01803064 0.00255233 -0.02998208 0.01241922 0.002550244 -0.03183531 0.006331264 0.002554655 -0.03245204 0 0.002549886 -0.03183525 -0.006331324 0.002554655 -0.0299822 -0.01241928 0.002550244 -0.02698606 -0.01803058 0.00255227 -0.0229482 -0.02294892 0.002551436 -0.0180304 -0.02698361 0.002550721 -0.01241987 -0.02998656 0.002553343 -0.006331205 -0.03182846 0.002549946 1.30344e-6 -0.03246068 0.002556085 0.006331205 -0.03182846 0.002549946 0.01241993 -0.02998661 0.002553343 0.01803034 -0.02698349 0.002550721 0.0229482 -0.02294892 0.002551436 0.02698618 -0.01803064 0.00255227 0.02998208 -0.01241922 0.002550244 0.03183537 -0.006331264 0.002554595 0.03245204 0 0.002549886 0.03183525 0.006331324 0.002554655 0.02998214 0.01241928 0.002550244 0.026986 0.01803064 0.00255233 0.0229482 0.02294892 0.002551436 0.0180304 0.02698361 0.00255078 0.01241987 0.02998656 0.002553343 0.006331145 0.03182852 0.002550005 -1.40018e-6 0.02953106 0.006740033 -0.005760788 0.02896142 0.006738305 -0.01130038 0.02728343 0.006739974 -0.01640534 0.02455228 0.006738185 -0.02088111 0.02088212 0.006739914 -0.0245524 0.01640534 0.006738483 -0.02728295 0.01130169 0.006739795 -0.02896153 0.005760788 0.006738483 -0.02953112 0 0.006739854 -0.02896153 -0.005760788 0.006738483 -0.02728307 -0.01130133 0.006739854 -0.0245524 -0.01640534 0.006738483 -0.02088117 -0.02088212 0.006739914 -0.01640534 -0.02455234 0.006738424 -0.01130008 -0.02728354 0.006739974 -0.005760788 -0.02896142 0.006738364 1.4149e-6 -0.02953106 0.006740033 0.005760788 -0.02896142 0.006738305 0.01130038 -0.02728343 0.006739974 0.01640534 -0.02455228 0.006738185 0.02088117 -0.02088212 0.006739914 0.0245524 -0.01640534 0.006738483 0.02728295 -0.01130169 0.006739795 0.02896153 -0.005760729 0.006738483 0.02953118 0 0.006739854 0.02896153 0.005760788 0.006738483 0.02728307 0.01130139 0.006739854 0.0245524 0.01640534 0.006738483 0.02088117 0.02088212 0.006739914 0.01640534 0.02455234 0.006738424 0.01130002 0.02728354 0.006739974 0.005760729 0.02896142 0.006738364 -2.69633e-7 0.0295 0.008677899 -0.00575459 0.02893096 0.008677899 -0.01128804 0.02725172 0.008677899 -0.01638823 0.02452641 0.008677899 -0.02085947 0.02085983 0.008677899 -0.02452647 0.01638817 0.008677899 -0.02725178 0.01128798 0.008677899 -0.02893108 0.00575459 0.008677899 -0.02950006 -2.78308e-7 0.008677899 -0.02893108 -0.00575459 0.008677899 -0.02725178 -0.01128798 0.008677899 -0.02452647 -0.01638817 0.008677899 -0.02085983 -0.02085942 0.008677899 -0.01638817 -0.02452641 0.008677899 -0.01128804 -0.02725172 0.008677899 -0.00575459 -0.02893096 0.008677899 -2.49864e-7 -0.0295 0.008677899 0.00575459 -0.02893096 0.008677899 0.01128804 -0.02725166 0.008677899 0.01638823 -0.02452641 0.008677899 0.02085989 -0.02085942 0.008677899 0.02452647 -0.01638811 0.008677899 0.02725178 -0.01128798 0.008677899 0.02893108 -0.00575459 0.008677899 0.02950006 2.92155e-7 0.008677899 0.02893108 0.00575459 0.008677899 0.02725178 0.01128804 0.008677899 0.02452647 0.01638817 0.008677899 0.02085947 0.02085983 0.008677899 0.01638817 0.02452641 0.008677899 0.01128798 0.02725172 0.008677899 0.00575459 0.02893102 0.008677899 0 0.0434972 0.009802043 -0.008485794 0.04266136 0.009802341 -0.01664555 0.04018598 0.009802818 -0.02416563 0.03616642 0.009803295 -0.03075695 0.03075695 0.009803414 -0.03616636 0.02416557 0.009803652 -0.04018586 0.01664549 0.009803891 -0.04266113 0.008485794 0.009804069 -0.04349696 0 0.009804248 -0.04266113 -0.008485794 0.00980395 -0.04018586 -0.01664549 0.009803891 -0.03616636 -0.02416557 0.009803771 -0.030757 -0.030757 0.009803652 -0.02416557 -0.03616642 0.009803116 -0.01664555 -0.04018604 0.009802758 -0.008485794 -0.04266136 0.009802401 0 -0.0434972 0.009802043 0.008485853 -0.04266136 0.009802341 0.01664561 -0.04018604 0.009802818 0.02416563 -0.03616642 0.009803295 0.030757 -0.03075695 0.009803414 0.03616636 -0.02416557 0.009803652 0.04018592 -0.01664549 0.009803891 0.04266113 -0.008485794 0.009804069 0.04349696 0 0.009804248 0.04266113 0.008485794 0.00980395 0.04018586 0.01664555 0.009803891 0.03616636 0.02416563 0.009803771 0.03075695 0.030757 0.009803652 0.02416557 0.03616642 0.009803116 0.01664549 0.04018604 0.009802758 0.008485734 0.0426613 0.009802401 0 0.04497772 0.01152634 -0.008772432 0.04411077 0.01152664 -0.01720869 0.0415492 0.01152688 -0.02498286 0.0373916 0.01152712 -0.03179651 0.03179782 0.01152724 -0.03738814 0.02498269 0.01152729 -0.04154294 0.01720803 0.01152735 -0.04410159 0.008772432 0.01152735 -0.0449658 0 0.01152813 -0.04410201 -0.008772671 0.01152807 -0.04154372 -0.01720851 0.01152801 -0.03738903 -0.02498346 0.01152795 -0.03179746 -0.03179883 0.01152777 -0.0249837 -0.03739297 0.01152759 -0.01720929 -0.04155075 0.01152735 -0.00877279 -0.0441125 0.01152712 0 -0.04497772 0.0115264 0.008772432 -0.04411077 0.01152664 0.01720869 -0.0415492 0.01152688 0.02498286 -0.0373916 0.01152712 0.03179651 -0.03179782 0.01152724 0.03738814 -0.02498269 0.01152735 0.04154294 -0.01720803 0.01152735 0.04410159 -0.008772432 0.01152735 0.04496574 0 0.01152801 0.04410201 0.008772671 0.01152807 0.04154366 0.01720851 0.01152801 0.03738898 0.02498346 0.01152795 0.0317974 0.03179889 0.01152777 0.02498364 0.03739297 0.01152759 0.01720923 0.04155075 0.01152735 0.00877273 0.0441125 0.01152712 0 0.04499995 0.04409956 -0.00877726 0.04413253 0.04410034 -0.01721757 0.04156965 0.04409956 -0.02499544 0.03740996 0.04409956 -0.03181236 0.03181338 0.04409956 -0.0374065 0.02499485 0.04409956 -0.04156315 0.01721638 0.0440995 -0.04412269 0.008776724 0.0440995 -0.04498696 0 0.0440995 -0.04412269 -0.008776724 0.0440995 -0.04156315 -0.01721638 0.0440995 -0.0374065 -0.0249949 0.0440995 -0.03181236 -0.03181338 0.0440995 -0.02499544 -0.03741002 0.0440995 -0.01721751 -0.0415697 0.0440995 -0.008777201 -0.04413259 0.0440995 0 -0.04500001 0.04409956 0.00877726 -0.04413259 0.04409956 0.01721757 -0.0415697 0.04409956 0.0249955 -0.03741002 0.04410034 0.03181236 -0.03181338 0.04409956 0.0374065 -0.02499485 0.04409956 0.04156315 -0.01721638 0.0440995 0.04412269 -0.008776664 0.0440995 0.04498696 0 0.0440995 0.04412269 0.008776724 0.0440995 0.04156309 0.01721644 0.0440995 0.03740644 0.0249949 0.0440995 0.03181231 0.03181344 0.0440995 0.02499544 0.03741002 0.0440995 0.01721751 0.0415697 0.0440995 0.008777201 0.04413259 0.0440995 0 0.04408657 0.04546707 -0.008600294 0.04323911 0.045466 -0.01687055 0.04073005 0.04546511 -0.02449232 0.03665584 0.04546433 -0.03117281 0.03117311 0.04546368 -0.0366553 0.02449244 0.04546314 -0.0407291 0.01687061 0.04546278 -0.04323774 0.008600533 0.0454626 -0.04408478 0 0.04546254 -0.04323774 -0.008600533 0.0454626 -0.0407291 -0.01687067 0.04546278 -0.03665524 -0.02449244 0.04546314 -0.03117281 -0.03117311 0.04546362 -0.02449232 -0.0366559 0.04546427 -0.01687049 -0.04073005 0.04546505 -0.008600294 -0.04323911 0.045466 0 -0.04408657 0.04546707 0.008600354 -0.04323911 0.045466 0.01687055 -0.04073005 0.04546505 0.02449232 -0.03665584 0.04546427 0.03117281 -0.03117311 0.04546362 0.0366553 -0.02449244 0.04546314 0.0407291 -0.01687061 0.04546278 0.04323774 -0.008600533 0.04546254 0.04408478 0 0.04546248 0.04323774 0.008600592 0.0454626 0.0407291 0.01687067 0.04546278 0.03665524 0.0244925 0.04546314 0.03117275 0.03117311 0.04546368 0.02449226 0.0366559 0.04546427 0.01687049 0.04073005 0.04546511 0.008600234 0.04323911 0.045466 0 0.04300165 0.04550898 -0.008389174 0.04217541 0.04550892 -0.01645606 0.03972846 0.04550868 -0.02389061 0.03575479 0.04550832 -0.03040713 0.03040713 0.04550784 -0.03575521 0.02389091 0.04550725 -0.03972941 0.01645648 0.04550647 -0.0421769 0.008389592 0.04550558 -0.04300361 -1.6129e-7 0.04550451 -0.0421769 -0.008389592 0.04550558 -0.03972941 -0.01645648 0.04550647 -0.03575521 -0.02389091 0.04550725 -0.03040713 -0.03040713 0.04550784 -0.02389061 -0.03575479 0.04550832 -0.01645606 -0.03972846 0.04550868 -0.008389174 -0.04217547 0.04550892 0 -0.04300165 0.04550898 0.008389234 -0.04217541 0.04550892 0.01645612 -0.03972846 0.04550868 0.02389061 -0.03575479 0.04550832 0.03040719 -0.03040713 0.04550784 0.03575521 -0.02389091 0.04550725 0.03972941 -0.01645648 0.04550647 0.0421769 -0.008389532 0.04550558 0.04300361 -1.23322e-7 0.04550451 0.0421769 0.008389592 0.04550558 0.03972935 0.01645654 0.04550647 0.03575521 0.02389091 0.04550725 0.03040707 0.03040713 0.04550784 0.02389055 0.03575479 0.04550832 0.016456 0.03972846 0.04550868 0.008389115 0.04217541 0.04550892 0 0.0420503 0.04451525 -0.008203506 0.04124253 0.04451519 -0.016092 0.03885012 0.04451495 -0.02336245 0.03496497 0.04451465 -0.02973562 0.02973628 0.04451417 -0.0349667 0.02336472 0.04451352 -0.03885465 0.01609492 0.0445128 -0.0412501 0.008206129 0.04451191 -0.04206091 1.17159e-6 0.0445109 -0.0412501 -0.008206129 0.04451191 -0.03885465 -0.01609498 0.0445128 -0.0349667 -0.02336472 0.04451352 -0.02973562 -0.02973628 0.04451417 -0.02336245 -0.03496497 0.04451465 -0.016092 -0.03885012 0.04451495 -0.008203506 -0.04124253 0.04451519 0 -0.04205036 0.04451525 0.008203566 -0.04124253 0.04451519 0.01609206 -0.03885012 0.04451495 0.02336251 -0.03496497 0.04451465 0.02973568 -0.02973628 0.04451417 0.0349667 -0.02336472 0.04451352 0.03885465 -0.01609492 0.0445128 0.0412501 -0.008206069 0.04451191 0.04206043 1.20938e-6 0.04451096 0.0412501 0.008206129 0.04451191 0.03885465 0.01609498 0.0445128 0.0349667 0.02336472 0.04451352 0.02973562 0.02973628 0.04451417 0.02336245 0.03496503 0.04451465 0.01609194 0.03885012 0.04451495 0.008203446 0.04124253 0.04451513 0 0.04199999 0.01418173 -0.008192956 0.0411871 0.01418173 -0.01606911 0.03879344 0.01418173 -0.02332711 0.03491109 0.01418173 -0.02968901 0.02968895 0.01418173 -0.03491121 0.02332705 0.01418173 -0.03879356 0.01606905 0.01418173 -0.04118722 0.008192956 0.01418173 -0.04200011 0 0.01418173 -0.04118722 -0.008192956 0.01418173 -0.03879356 -0.01606911 0.01418173 -0.03491121 -0.02332705 0.01418173 -0.02968901 -0.02968895 0.01418173 -0.02332711 -0.03491109 0.01418173 -0.01606911 -0.0387935 0.01418173 -0.008192956 -0.0411871 0.01418173 0 -0.04199999 0.01418173 0.008193016 -0.0411871 0.01418173 0.01606911 -0.03879344 0.01418173 0.02332711 -0.03491109 0.01418173 0.02968901 -0.02968889 0.01418173 0.03491121 -0.02332699 0.01418173 0.03879356 -0.01606905 0.01418173 0.04118722 -0.008192896 0.01418173 0.04200011 0 0.01418173 0.04118722 0.008192956 0.01418173 0.03879356 0.01606911 0.01418173 0.03491115 0.02332705 0.01418173 0.02968895 0.02968895 0.01418173 0.02332705 0.03491115 0.01418173 0.01606905 0.0387935 0.01418173 0.008192896 0.0411871 0.01418173 0 0.03974312 0.01160007 -0.007753491 0.03897947 0.01160007 -0.01520907 0.03671783 0.01160007 -0.02208012 0.03304517 0.01160007 -0.02810269 0.02810263 0.01160007 -0.03304529 0.02208006 0.01160007 -0.03671795 0.01520901 0.01160007 -0.03897958 0.007753551 0.01160007 -0.03974324 0 0.01160007 -0.03897958 -0.007753491 0.01160007 -0.03671795 -0.01520901 0.01160007 -0.03304529 -0.02208012 0.01160007 -0.02810269 -0.02810263 0.01160007 -0.02208012 -0.03304523 0.01160007 -0.01520907 -0.03671789 0.01160007 -0.007753491 -0.03897947 0.01160007 0 -0.03974312 0.01160007 0.007753491 -0.03897941 0.01160007 0.01520907 -0.03671789 0.01160007 0.02208018 -0.03304523 0.01160007 0.02810275 -0.02810263 0.01160007 0.03304529 -0.02207988 0.01160007 0.03671795 -0.01520901 0.01160007 0.03897958 -0.007753431 0.01160007 0.03974324 0 0.01160007 0.03897958 0.007753491 0.01160007 0.03671795 0.01520901 0.01160007 0.03304529 0.02208012 0.01160007 0.02810269 0.02810269 0.01160007 0.02208012 0.03304523 0.01160007 0.01520901 0.03671783 0.01160007 0.007753431 0.03897947 0.01160007 2.95916e-5 0.01574873 0.01160007 -0.003077268 0.01543331 0.01160007 -0.006010055 0.01454657 0.01160007 -0.008764445 0.01307839 0.01160007 -0.01112663 0.01112729 0.01160007 -0.01307779 0.008764028 0.01160007 -0.01454728 0.006009459 0.01160007 -0.01543337 0.003076434 0.01160007 -0.01574814 2.84511e-5 0.01160007 -0.01543349 -0.003077626 0.01160007 -0.01454687 -0.006010055 0.01160007 -0.01307797 -0.008763849 0.01160007 -0.01112735 -0.01112681 0.01160007 -0.008765935 -0.01307839 0.01160007 -0.00601089 -0.01454567 0.01160007 -0.003078043 -0.01543319 0.01160007 -2.95856e-5 -0.01574873 0.01160007 0.003077328 -0.01543331 0.01160007 0.006010055 -0.01454657 0.01160007 0.008764445 -0.01307845 0.01160007 0.01112663 -0.01112729 0.01160007 0.01307779 -0.008763968 0.01160007 0.01454728 -0.006009459 0.01160007 0.01543337 -0.003076374 0.01160007 0.01574814 -2.8443e-5 0.01160007 0.01543349 0.003077626 0.01160007 0.01454687 0.006010055 0.01160007 0.01307797 0.008763849 0.01160007 0.01112735 0.01112681 0.01160007 0.008765935 0.01307839 0.01160007 0.00601089 0.01454567 0.01160007 0.003078043 0.01543325 0.01160007 1.22297e-4 0.0182954 0 -0.002935051 0.01475566 0.00300002 -0.005757391 0.01389956 0.00300002 -0.008358418 0.01250922 0.00300002 -0.01063823 0.01063823 0.00300002 -0.01250928 0.008358418 0.00300002 -0.01389956 0.005757331 0.00300002 -0.01475572 0.002935051 0.00300002 -0.0150448 0 0.00300002 -0.01475572 -0.002935051 0.00300002 -0.01389956 -0.005757391 0.00300002 -0.01250928 -0.008358418 0.00300002 -0.01063829 -0.01063823 0.00300002 -0.008358418 -0.01250922 0.00300002 -0.005757391 -0.01389956 0.00300002 -0.002935051 -0.01475566 0.00300002 0 -0.01504474 0.00300002 0.002935051 -0.01475566 0.00300002 0.005757391 -0.01389956 0.00300002 0.008358418 -0.01250922 0.00300002 0.01063829 -0.01063823 0.00300002 0.01250928 -0.008358418 0.00300002 0.01389956 -0.005757331 0.00300002 0.01475572 -0.002935051 0.00300002 0.0150448 0 0.00300002 0.01475572 0.002935051 0.00300002 0.01389956 0.005757391 0.00300002 0.01250928 0.008358418 0.00300002 0.01063823 0.01063823 0.00300002 0.008358418 0.01250922 0.00300002 0.005757331 0.01389956 0.00300002 0.002935051 0.01475566 0.00300002</float_array>
          <technique_common>
            <accessor source="#Circle_026-mesh-positions-array" count="448" stride="3">
              <param name="X" type="float"/>
              <param name="Y" type="float"/>
              <param name="Z" type="float"/>
            </accessor>
          </technique_common>
        </source>
        <source id="Circle_026-mesh-normals">
          <float_array id="Circle_026-mesh-normals-array" count="2613">-0.7729142 0.6343207 -0.01552832 -0.290246 0.9568153 -0.01618725 0.2902448 0.956816 -0.01615899 0.772916 0.6343195 -0.01548504 0.9950432 0.09800493 -0.01686018 0.8818184 -0.4713318 -0.0155766 0.4713339 -0.8818077 -0.01611059 -0.0980013 -0.9950319 -0.01753079 -0.634321 -0.7729226 -0.01508927 -0.9568058 -0.2902436 -0.01677763 -0.9568042 0.2902473 -0.01680117 -0.6343181 0.772925 -0.01508826 -0.09800094 0.9950313 -0.01756918 0.4713345 0.8818079 -0.01609081 0.8818142 0.471341 -0.0155403 0.9950432 -0.09800165 -0.01687955 0.7729139 -0.6343211 -0.01552271 0.2902464 -0.9568153 -0.0161764 -0.2902459 -0.9568158 -0.0161572 -0.7729171 -0.6343182 -0.01548415 -0.9950433 -0.0980035 -0.01686036 -0.8818179 0.4713329 -0.01558196 -0.4713342 0.8818075 -0.01611953 0.09799981 0.9950305 -0.01762092 0.6343182 0.7729247 -0.01509284 0.9568051 0.2902458 -0.01677691 0.9568037 -0.2902493 -0.01679646 0.6343214 -0.7729222 -0.01508474 0.09800046 -0.9950302 -0.01763361 -0.4713331 -0.8818085 -0.01608717 -0.8818144 -0.4713405 -0.01553803 -0.9950429 0.09800261 -0.01688396 -0.6347425 0.5212348 0.5704528 -0.2375015 0.7861932 0.5705204 0.2375157 0.7861929 0.5705148 0.6347556 0.5212219 0.5704501 0.8166342 0.0791198 0.571707 0.7242247 -0.3864561 0.5710957 0.3876488 -0.7237086 0.5709417 -0.08212774 -0.8171516 0.5705423 -0.520796 -0.6348829 0.5706972 -0.7858073 -0.2395994 0.5701746 -0.7857999 0.2396147 0.5701785 -0.5207801 0.6348839 0.5707105 -0.08214235 0.8171461 0.5705479 0.387627 0.7237207 0.5709411 0.7242213 0.3864864 0.5710795 0.8166298 -0.07911193 0.5717142 0.6347433 -0.5212345 0.5704521 0.2375032 -0.7861936 0.570519 -0.2375154 -0.7861934 0.5705142 -0.6347545 -0.5212215 0.5704516 -0.8166336 -0.07912337 0.5717073 -0.7242242 0.3864564 0.5710963 -0.3876491 0.7237091 0.5709408 0.08207768 0.8163692 0.5716684 0.5207962 0.6348833 0.5706965 0.7858073 0.2396007 0.570174 0.7858008 -0.2396166 0.5701764 0.52078 -0.6348837 0.5707108 0.08216565 -0.8171434 0.5705485 -0.3876287 -0.7237203 0.5709406 -0.7242207 -0.386487 0.5710799 -0.8166302 0.07911652 0.571713 -0.9950199 0.09838855 0.01597577 -0.7731486 0.6340248 0.01593726 -0.2898473 0.9569125 0.01752358 0.289846 0.9569127 0.01753491 0.7731488 0.6340244 0.01594001 0.9950199 0.09839171 0.01595288 0.8815973 -0.4716771 0.01751631 0.4716776 -0.8816272 0.01592898 -0.0983687 -0.9950225 0.01593303 -0.6340003 -0.7731671 0.01601123 -0.9569294 -0.2898825 0.01595371 -0.9569259 0.2898934 0.01595824 -0.6339952 0.7731717 0.01598763 -0.09841972 0.995016 0.01602196 0.4716607 0.8816358 0.0159527 0.8815995 0.471674 0.01749777 0.9950196 -0.0983898 0.01598054 0.7731489 -0.6340241 0.01594561 0.2898489 -0.956912 0.01752346 -0.2898469 -0.9569123 0.01753741 -0.7731493 -0.6340239 0.01594364 -0.9950202 -0.09839057 0.01594817 -0.8815984 0.4716755 0.01751106 -0.4716768 0.8816278 0.0159257 0.09836947 0.9950225 0.01592808 0.634001 0.7731671 0.01598542 0.9569288 0.2898841 0.01595336 0.9569268 -0.289891 0.01595252 0.6339942 -0.7731721 0.01601541 0.09841978 -0.9950156 0.01605039 -0.4716638 -0.8816342 0.0159527 -0.8816002 -0.4716727 0.0175023 -0.07104676 -0.03796261 -0.9967504 -0.08020997 0.007933676 -0.9967465 -0.06228131 0.05106967 -0.9967512 -0.02336353 0.0769816 -0.9967588 0.02336424 0.07698392 -0.9967586 0.06229442 0.05108088 -0.9967499 0.08020973 0.007934153 -0.9967464 0.07103943 -0.03795868 -0.996751 0.03794521 -0.07101362 -0.9967533 -0.007918894 -0.08005386 -0.9967592 -0.05108052 -0.06229454 -0.9967499 -0.0770924 -0.0233975 -0.9967494 -0.0771017 0.02340024 -0.9967487 -0.05106908 0.06228178 -0.9967513 -0.007918536 0.0800541 -0.9967592 0.03793907 0.07100313 -0.9967544 0.07104641 0.03796261 -0.9967504 0.08020955 -0.007933318 -0.9967465 0.06228137 -0.05106902 -0.9967513 0.02336311 -0.07698112 -0.9967588 -0.02336424 -0.07698351 -0.9967586 -0.06229472 -0.05108028 -0.9967498 -0.08021026 -0.007934451 -0.9967464 -0.07103955 0.03795874 -0.996751 -0.03794503 0.07101404 -0.9967534 0.007917821 0.08005374 -0.9967592 0.05108028 0.06229555 -0.9967498 0.07709199 0.02339744 -0.9967495 0.07710164 -0.02340036 -0.9967486 0.05106949 -0.06228083 -0.9967513 0.007918536 -0.08005356 -0.9967591 -0.03793901 -0.0710026 -0.9967544 -0.3588525 -0.6713007 -0.6485217 -0.672304 -0.359342 -0.6472098 -0.7590365 0.07474958 -0.6467427 -0.5892249 0.4835345 -0.6473087 -0.2209335 0.7281718 -0.6488099 0.2208346 0.7278779 -0.6491732 0.5890403 0.4833967 -0.6475795 0.7590128 0.07473897 -0.6467719 0.6724464 -0.3594102 -0.6470242 0.3589902 -0.6715378 -0.6481999 -0.07455193 -0.7566048 -0.6496085 -0.4832248 -0.5887472 -0.6479742 -0.7297037 -0.221345 -0.6469459 -0.729763 0.2213572 -0.6468747 -0.4833385 0.588925 -0.6477279 -0.07454645 0.7565958 -0.6496196 0.3588513 0.6712981 -0.6485251 0.6723042 0.3593443 -0.6472085 0.7590268 -0.0747478 -0.6467544 0.5892304 -0.4835382 -0.6473009 0.220936 -0.7281787 -0.6488013 -0.220838 -0.7278827 -0.6491667 -0.5890482 -0.4833992 -0.6475705 -0.7590066 -0.07473796 -0.6467791 -0.6724366 0.3594051 -0.6470372 -0.3589859 0.6715322 -0.6482082 0.07455146 0.756598 -0.6496165 0.4832203 0.5887416 -0.6479826 0.7297048 0.2213478 -0.6469438 0.7297674 -0.2213587 -0.6468693 0.483343 -0.5889291 -0.6477208 0.07454741 -0.7566034 -0.6496106 0.09834551 -0.9951521 -6.80946e-4 -0.4716023 -0.8818112 -6.32414e-4 -0.8819732 -0.4712992 -6.40551e-4 -0.9951823 0.09803938 -6.47137e-4 -0.7730895 0.6342967 -6.72747e-4 -0.2905397 0.9568628 -6.8324e-4 0.2905451 0.9568611 -6.29943e-4 0.7731056 0.6342772 -6.37641e-4 0.9951878 0.09798508 -6.47761e-4 0.8819583 -0.4713271 -6.66611e-4 0.4715895 -0.8818181 -6.80042e-4 -0.09814924 -0.9951716 -6.27815e-4 -0.634541 -0.7728891 -6.35284e-4 -0.9569609 -0.2902163 -6.43858e-4 -0.9569504 0.2902512 -6.66761e-4 -0.6345258 0.7729015 -6.76779e-4 -0.09834575 0.9951522 -6.8049e-4 0.4715995 0.8818126 -6.32211e-4 0.8819726 0.4713004 -6.40803e-4 0.9951827 -0.09803646 -6.47761e-4 0.7730911 -0.6342948 -6.72933e-4 0.29054 -0.9568627 -6.81184e-4 -0.2905453 -0.956861 -6.29538e-4 -0.7731052 -0.6342776 -6.37743e-4 -0.9951876 -0.09798514 -6.47253e-4 -0.881959 0.4713259 -6.66611e-4 -0.4715895 0.881818 -6.79769e-4 0.09814971 0.9951715 -6.27412e-4 0.6345404 0.7728896 -6.34575e-4 0.9569606 0.2902171 -6.44542e-4 0.9569504 -0.2902508 -6.66785e-4 0.6345261 -0.7729012 -6.81794e-4 0.5295647 -0.6449455 0.5510051 0.08195215 -0.8292559 0.5528279 -0.3933991 -0.7355904 0.5514925 -0.7364034 -0.393516 0.5503229 -0.8310859 0.08183759 0.5500898 -0.6453546 0.5294724 0.5506147 -0.2422942 0.7977833 0.552119 0.2422515 0.7978132 0.5520946 0.6453591 0.5294748 0.550607 0.8310834 0.08183664 0.5500937 0.7363987 -0.3935139 0.5503306 0.3932863 -0.7354807 0.5517193 -0.08195757 -0.8292664 0.5528113 -0.5295282 -0.6449832 0.5509961 -0.7991222 -0.2423577 0.5501514 -0.7991243 0.2423543 0.5501498 -0.5295198 0.6449767 0.5510117 -0.08188974 0.8291182 0.5530436 0.3933968 0.7355871 0.5514985 0.7364007 0.3935183 0.5503249 0.8310801 -0.08183687 0.5500987 0.6453565 -0.5294694 0.5506152 0.2422494 -0.7978007 0.5521136 -0.2422512 -0.7978129 0.552095 -0.6453595 -0.5294741 0.5506073 -0.8310859 -0.08183759 0.5500898 -0.7363965 0.3935131 0.5503342 -0.3933941 0.7355841 0.5515043 0.08195799 0.8292689 0.5528072 0.5295299 0.6449839 0.5509936 0.7991152 0.2423583 0.5501614 0.7991207 -0.2423548 0.5501549 0.03877729 -0.01173871 0.999179 0.02605611 -0.03162574 0.9991601 0.004015088 -0.03950315 0.9992114 -0.01932156 -0.03595387 0.9991667 -0.0357396 -0.01905822 0.9991795 -0.03880435 0.003813982 0.9992396 -0.03162735 0.02588033 0.9991647 -0.01182532 0.03861391 0.9991843 0.0118243 0.03861325 0.9991844 0.03162556 0.02587962 0.9991647 0.03882443 0.003814816 0.9992389 0.03575688 -0.01906323 0.9991787 0.01932173 -0.03595423 0.9991667 -0.004019021 -0.03952354 0.9992106 -0.02605468 -0.03162598 0.9991602 -0.03877562 -0.01173692 0.999179 -0.03877097 0.01173692 0.9991792 -0.0260545 0.03162509 0.9991602 -0.004015088 0.03950285 0.9992114 0.0193153 0.03594714 0.999167 0.03574591 0.0190584 0.9991792 0.03971344 -0.00390321 0.9992036 0.0316388 -0.02588611 0.9991641 0.01183068 -0.03862994 0.9991837 -0.01183062 -0.03863012 0.9991836 -0.031632 -0.02588748 0.9991644 -0.03968739 -0.00390017 0.9992045 -0.03574621 0.01905697 0.9991792 -0.01930981 0.03593868 0.9991675 0.004014313 0.03950279 0.9992115 0.02604812 0.03161787 0.9991606 0.03877347 0.01173573 0.9991791 -0.6944329 -0.2107678 0.6879971 -0.6944284 0.2107651 0.6880024 -0.4595288 0.5600285 0.6893485 -0.07095766 0.7205339 0.6897797 0.341347 0.6387044 0.6895933 0.6395156 0.3419327 0.6885506 0.722824 -0.07131356 0.6873427 0.5602039 -0.4598467 0.6889939 0.2101587 -0.6928902 0.6897365 -0.2101603 -0.6928952 0.689731 -0.5602043 -0.4598461 0.688994 -0.7228249 -0.07131469 0.6873416 -0.6395129 0.3419322 0.6885533 -0.3413442 0.6387014 0.6895975 0.07095718 0.72053 0.6897838 0.4595293 0.5600306 0.6893465 0.6944329 0.2107678 0.687997 0.6944361 -0.2107681 0.6879937 0.459529 -0.5600325 0.6893451 0.07095766 -0.7205237 0.6897903 -0.3413469 -0.6387084 0.6895898 -0.6395165 -0.3419341 0.6885491 -0.7233527 0.07136732 0.6867807 -0.5601968 0.4598403 0.689004 -0.210159 0.6928841 0.6897426 0.2101576 0.6928865 0.6897407 0.560198 0.4598406 0.6890028 0.7235434 0.07138639 0.6865777 0.6395239 -0.3419377 0.6885405 0.3413456 -0.6387031 0.6895953 -0.07095736 -0.7205253 0.6897887 -0.4595308 -0.5600358 0.6893413 -0.6342745 -0.773105 0.002181649 -0.9568569 -0.2905521 0.002110779 -0.9568572 0.2905509 0.002110421 -0.634277 0.7731028 0.002181887 -0.097997 0.995185 0.001851677 0.4713011 0.8819699 0.002116441 0.8818079 0.4716038 0.002178311 0.9951512 -0.09833711 0.001999676 0.7728858 -0.6345414 0.002202153 0.2902231 -0.956957 0.002006709 -0.2902219 -0.9569573 0.002006113 -0.7728859 -0.6345413 0.00220257 -0.9951566 -0.09828251 0.001984477 -0.8818085 0.4716026 0.002178668 -0.4713011 0.8819699 0.002116799 0.09799569 0.9951851 0.001852273 0.6342763 0.7731034 0.002181649 0.9568574 0.2905504 0.002110362 0.9568574 -0.2905504 0.002110362 0.6342753 -0.7731043 0.00218147 0.09799432 -0.9951853 0.001851618 -0.4712989 -0.881971 0.002116441 -0.8818075 -0.4716045 0.002178728 -0.9951593 0.09825539 0.001976609 -0.7728863 0.6345409 0.00220263 -0.2902228 0.956957 0.002006828 0.2902221 0.9569573 0.00200659 0.7728857 0.6345415 0.002202212 0.995154 0.09830909 0.001992166 0.8818079 -0.4716038 0.002178311 0.4713016 -0.8819696 0.002116382 -0.09799373 -0.9951854 0.001852035 -0.07456892 -0.7515935 0.6553983 -0.4799103 -0.5846518 0.6541165 -0.7232356 -0.2198009 0.6546893 -0.7232367 0.2198002 0.6546882 -0.4799134 0.584653 0.6541133 -0.07456785 0.7515904 0.655402 0.3567095 0.6668592 0.6542608 0.6668574 0.356711 0.6542619 0.7515941 -0.07456874 0.6553975 0.5846496 -0.479912 0.6541172 0.2197979 -0.7232336 0.6546923 -0.2197973 -0.7232334 0.6546928 -0.5846489 -0.4799118 0.654118 -0.7515944 -0.0745694 0.6553971 -0.666848 0.3567048 0.6542748 -0.35671 0.6668602 0.6542595 0.07456904 0.7515984 0.6553927 0.4799125 0.5846527 0.6541141 0.7232335 0.2197995 0.6546919 0.7232323 -0.2197981 0.6546937 0.4799101 -0.5846512 0.6541172 0.07456988 -0.7515972 0.6553939 -0.3567081 -0.6668578 0.654263 -0.6668556 -0.356711 0.6542636 -0.7515965 0.0745694 0.6553948 -0.5845478 0.4798281 0.6542698 -0.219801 0.7232403 0.654684 0.2197981 0.723236 0.6546896 0.5846509 0.4799146 0.6541142 0.7515928 0.07456839 0.655399 0.6668531 -0.3567079 0.6542679 0.3567085 -0.6668565 0.654264 0 0 1 -3.1271e-7 0 1 0 0 1 3.12714e-7 0 1 -3.12728e-7 0 1 0 0 1 -3.12733e-7 0 1 2.34537e-7 -1.17812e-6 1 -1.56366e-7 0 1 -3.12709e-7 -3.0133e-7 1 0 0 1 1.56354e-7 0 1 0 0 1 1.56351e-7 0 1 -3.12734e-7 0 1 4.69065e-7 -1.09663e-6 1 0 0 1 0 0 1 0.8794707 -0.4691831 0.07999092 0.4688751 -0.879638 0.07995802 -0.1005606 -0.9716197 -0.2141093 -0.6349604 -0.7682936 0.0809344 -0.9541153 -0.2884745 0.08029121 -0.9541766 0.2882655 0.08031308 -0.6347464 0.768482 0.08082449 -0.1006842 0.9917126 0.07980549 0.4685664 0.8798063 0.07991534 0.8794947 0.4691395 0.07998263 0.9914067 -0.102388 0.08142155 0.7686302 -0.6345781 0.08073705 0.2884804 -0.9541161 0.08026099 -0.2887141 -0.9540511 0.08019113 -0.7686667 -0.6345332 0.08074277 -0.9917326 -0.1004701 0.07982647 -0.8794696 0.4691855 0.07998979 -0.4688717 0.8796399 0.079957 0.1026081 0.9913772 0.08150476 0.6349623 0.768292 0.08093386 0.9541151 0.2884752 0.08029121 0.9541767 -0.2882646 0.08031433 0.634744 -0.7684838 0.08082622 0.09869349 -0.9721359 -0.21263 -0.4685661 -0.8798065 0.07991558 -0.8794949 -0.469139 0.07998263 -0.9914066 0.102388 0.08142381 -0.7686311 0.6345771 0.08073574 -0.2884815 0.9541158 0.08025974 0.2887114 0.954052 0.08019107 0.7686681 0.6345311 0.0807442 0.9917329 0.1004688 0.07982426 -0.1701618 -0.01675945 -0.9852736 -0.1636227 -0.04963362 -0.9852737 -0.1507953 -0.08060216 -0.9852736 -0.1321728 -0.1084722 -0.9852737 -0.1084727 -0.1321732 -0.9852735 -0.08060187 -0.1507958 -0.9852736 -0.04963415 -0.1636232 -0.9852735 0.733219 0.006350338 -0.6799629 0.01675933 -0.1701623 -0.9852736 0.04963403 -0.1636232 -0.9852735 0.0806021 -0.1507958 -0.9852735 0.1084717 -0.1321732 -0.9852737 0.1321729 -0.1084724 -0.9852737 0.1507962 -0.08060067 -0.9852737 0.1636226 -0.04963499 -0.9852737 0.1701619 -0.01675891 -0.9852737 0.1701619 0.01675891 -0.9852737 0.1636226 0.04963433 -0.9852737 0.1507952 0.08060187 -0.9852737 0.1321741 0.1084717 -0.9852736 0.1084704 0.1321745 -0.9852736 0.08060193 0.1507959 -0.9852735 0.04963415 0.1636231 -0.9852735 0.01675933 0.1701622 -0.9852735 -0.01675933 0.1701623 -0.9852736 -0.04963463 0.1636229 -0.9852736 -0.08060145 0.1507958 -0.9852737 -0.1084722 0.1321732 -0.9852737 -0.132173 0.108472 -0.9852737 -0.1507962 0.08060061 -0.9852737 -0.1636225 0.04963439 -0.9852737 -0.1701618 0.01675903 -0.9852737 -0.7727967 0.6344754 -0.01504474 -0.2895158 0.957067 -0.01426959 0.2895318 0.9570618 -0.01428395 0.7728099 0.6344591 -0.0150519 0.9951871 0.09695482 -0.01422518 0.8820519 -0.4709317 -0.01442283 0.4718639 -0.8815498 -0.01464349 -0.09931272 -0.9949541 -0.0142669 -0.6342093 -0.7730213 -0.01471918 -0.9565666 -0.2911564 -0.01443034 -0.9565609 0.2911763 -0.01440924 -0.6341978 0.7730315 -0.0146833 -0.09933042 0.9949524 -0.0142557 0.4718364 0.8815636 -0.01470082 0.8820344 0.4709634 -0.01445066 0.9951883 -0.09694343 -0.01422524 0.7727974 -0.6344746 -0.01504206 0.2895174 -0.9570666 -0.01425886 -0.2895317 -0.957062 -0.0142768 -0.7728111 -0.6344579 -0.01504659 -0.995187 -0.09695559 -0.01423531 -0.8820518 0.4709315 -0.01442867 -0.4718641 0.8815497 -0.01465243 0.09934407 0.9949507 -0.0142768 0.6342095 0.7730209 -0.01473528 0.956566 0.2911584 -0.01443123 0.9565603 -0.2911788 -0.01440405 0.6341976 -0.7730317 -0.01467436 0.09935939 -0.9949496 -0.01425117 -0.4718384 -0.8815627 -0.0146901 -0.8820348 -0.4709628 -0.01444977 -0.9951878 0.09694653 -0.01423537 -0.6348174 0.5204073 0.5711244 -0.2378404 0.7857754 0.5709546 0.2378509 0.7857778 0.5709469 0.6348276 0.5204135 0.5711075 0.8176509 0.08098554 0.5699898 0.7243567 -0.387694 0.5700885 0.3875185 -0.7239576 0.5707143 -0.0808767 -0.8164695 0.5716962 -0.5206975 -0.6352171 0.5704151 -0.7852231 -0.2377288 0.5717603 -0.7852153 0.2377417 0.5717656 -0.5206765 0.6352365 0.5704127 -0.08092838 0.8164846 0.5716673 0.387487 0.7239868 0.5706987 0.7243501 0.3876947 0.5700963 0.817651 -0.08098435 0.5699898 0.6348177 -0.5204077 0.5711238 0.2378419 -0.7857745 0.5709552 -0.2378515 -0.7857779 0.5709463 -0.6348277 -0.5204138 0.5711072 -0.8176486 -0.08098453 0.5699932 -0.7243562 0.3876917 0.5700905 -0.3875182 0.723958 0.570714 0.08095926 0.817304 0.5704909 0.5206978 0.6352182 0.5704137 0.7852229 0.2377294 0.5717602 0.7852147 -0.2377399 0.5717672 0.5206757 -0.6352372 0.5704128 0.08092707 -0.8164684 0.5716909 -0.3874896 -0.7239846 0.5706998 -0.7243499 -0.3876943 0.570097 -0.8176488 0.08098179 0.5699933 -0.9950214 0.09837889 0.01594668 -0.7731495 0.6340235 0.01594257 -0.2903652 0.9567833 0.01593285 0.2903649 0.9567832 0.01594126 0.7731491 0.634024 0.01594251 0.9950204 0.09838849 0.01594179 0.8818674 -0.4712277 0.01595574 0.4712157 -0.8818455 0.01744705 -0.09838742 -0.9950215 0.01587754 -0.6340195 -0.7731528 0.01594215 -0.9567576 -0.2903614 0.0174672 -0.9567588 0.2903597 0.01743638 -0.6340143 0.7731575 0.01591569 -0.09838753 0.9950209 0.01592302 0.4712139 0.8818468 0.01742613 0.8818675 0.4712275 0.01595312 0.9950215 -0.09837782 0.01594078 0.7731562 -0.6340159 0.015913 0.2903656 -0.9567831 0.01594054 -0.2903652 -0.9567831 0.01594638 -0.7731553 -0.6340172 0.01591169 -0.9950205 -0.09838855 0.01594185 -0.881868 0.4712265 0.01595383 -0.471215 0.8818458 0.01744973 0.0983771 0.9950221 0.01590746 0.6340119 0.7731591 0.01594108 0.956758 0.2903606 0.01746284 0.9567587 -0.2903596 0.0174418 0.6340202 -0.7731527 0.0159167 0.09838002 -0.9950215 0.01592665 -0.4712157 -0.8818458 0.01743125 -0.8818676 -0.4712272 0.01595312 -0.07104688 -0.03796255 -0.9967504 -0.08018898 0.00788021 -0.9967486 -0.0622785 0.0510708 -0.9967514 -0.02341014 0.07699 -0.9967571 0.02340096 0.07699054 -0.9967573 0.06227618 0.05108886 -0.9967505 0.08018213 0.00786364 -0.9967493 0.07105332 -0.0379489 -0.9967505 0.03798866 -0.0709508 -0.9967562 -0.007921934 -0.08005517 -0.996759 -0.05112498 -0.06219244 -0.9967539 -0.07708865 -0.0233764 -0.9967502 -0.07709521 0.02336359 -0.9967501 -0.0510919 0.06222999 -0.9967533 -0.007918477 0.08005404 -0.9967591 0.03797292 0.07095479 -0.9967565 0.0710473 0.03796237 -0.9967503 0.08018875 -0.007880628 -0.9967486 0.06227874 -0.05107033 -0.9967513 0.02340996 -0.07698947 -0.9967571 -0.02340114 -0.07699018 -0.9967572 -0.06227666 -0.05108833 -0.9967505 -0.08018255 -0.007863581 -0.9967493 -0.07105386 0.03794884 -0.9967504 -0.03798902 0.07095134 -0.9967561 0.007922232 0.08005553 -0.996759 0.05112498 0.06219267 -0.9967539 0.07708859 0.02337723 -0.9967502 0.07709503 -0.02336317 -0.9967501 0.05109161 -0.06222939 -0.9967533 0.007918 -0.08005356 -0.9967592 -0.03797274 -0.0709545 -0.9967565 -0.3591877 -0.6715794 -0.6480474 -0.6725157 -0.3593664 -0.6469764 -0.7589678 0.07471263 -0.6468278 -0.5894282 0.483599 -0.6470754 -0.221232 0.7285419 -0.6482925 0.2211592 0.7282826 -0.6486087 0.5893261 0.4834854 -0.6472531 0.7590276 0.07473504 -0.646755 0.6725648 -0.3594221 -0.6468945 0.3592793 -0.6717815 -0.647787 -0.07470309 -0.7568938 -0.6492545 -0.4835031 -0.5888991 -0.6476285 -0.7298401 -0.2213348 -0.6467955 -0.7297962 0.2213553 -0.646838 -0.4836313 0.5890845 -0.6473641 -0.07484948 0.7571776 -0.6489066 0.359182 0.6715752 -0.6480549 0.6725181 0.359367 -0.6469736 0.7589716 -0.07471799 -0.6468225 0.5894367 -0.4836029 -0.6470646 0.2212335 -0.728548 -0.6482852 -0.221161 -0.7282841 -0.6486063 -0.5893239 -0.4834861 -0.6472546 -0.7590386 -0.07472932 -0.6467427 -0.6725621 0.3594188 -0.6468991 -0.3592751 0.6717731 -0.6477981 0.07470351 0.7568886 -0.6492604 0.483497 0.5888915 -0.6476399 0.7298455 0.221336 -0.6467889 0.7298016 -0.2213553 -0.6468319 0.4836366 -0.5890901 -0.6473551 0.07484966 -0.7571837 -0.6488993 0.09834629 -0.9951521 -6.80953e-4 -0.4716001 -0.8818123 -6.31718e-4 -0.8819699 -0.4713056 -6.38837e-4 -0.9951866 0.09799695 -6.5866e-4 -0.7731021 0.6342813 -6.77961e-4 -0.2905488 0.95686 -6.80701e-4 0.2905448 0.9568613 -6.30058e-4 0.7731027 0.6342806 -6.36234e-4 0.9951865 0.09799724 -6.44933e-4 0.8819702 -0.4713046 -6.73625e-4 0.4716005 -0.881812 -6.8337e-4 -0.09834587 -0.9951521 -6.81159e-4 -0.6345382 -0.7728913 -6.34181e-4 -0.9569585 -0.2902243 -6.41358e-4 -0.9569584 0.2902244 -6.5905e-4 -0.6345383 0.7728911 -6.81481e-4 -0.09834653 0.9951521 -6.80752e-4 0.4715989 0.8818131 -6.32325e-4 0.8819692 0.4713067 -6.38785e-4 0.9951865 -0.09799683 -6.58672e-4 0.7731032 -0.6342799 -6.78265e-4 0.2905483 -0.9568601 -6.83532e-4 -0.2905473 -0.9568604 -6.29856e-4 -0.7731027 -0.6342806 -6.36741e-4 -0.9951864 -0.09799808 -6.44242e-4 -0.8819704 0.4713045 -6.73321e-4 -0.4715996 0.8818126 -6.82763e-4 0.09834605 0.9951521 -6.80757e-4 0.6345388 0.7728908 -6.34283e-4 0.9569583 0.2902252 -6.41586e-4 0.9569585 -0.290224 -6.59075e-4 0.634539 -0.7728906 -6.76925e-4 0.5291693 -0.6447093 0.551661 0.08173191 -0.8287715 0.5535863 -0.3931269 -0.7353367 0.5520248 -0.7362365 -0.3934893 0.5505652 -0.8310538 0.08184611 0.5501371 -0.6451312 0.5293879 0.5509576 -0.2419524 0.7973027 0.5529624 0.2419907 0.7974509 0.5527321 0.6451427 0.5293934 0.5509387 0.8310493 0.08184534 0.5501442 0.7362309 -0.3934854 0.5505754 0.393121 -0.7353265 0.5520424 -0.08173233 -0.8287721 0.5535852 -0.5292709 -0.6448253 0.5514278 -0.7990199 -0.2423605 0.5502987 -0.7990154 0.2423588 0.5503061 -0.5292673 0.6448169 0.551441 -0.08173257 0.8287703 0.5535878 0.393128 0.7353343 0.5520271 0.7362344 0.3934897 0.5505678 0.8310521 -0.08184397 0.5501402 0.6451323 -0.529389 0.5509553 0.2419949 -0.7974401 0.5527456 -0.2419946 -0.7974533 0.5527268 -0.6451383 -0.5293934 0.550944 -0.8310537 -0.08184635 0.5501372 -0.7362306 0.3934865 0.5505751 -0.3931235 0.7353252 0.5520426 0.08173292 0.8287718 0.5535855 0.529263 0.6448246 0.5514363 0.7990212 0.2423607 0.5502967 0.7990194 -0.2423571 0.5503009 0.03820735 -0.01148068 0.9992039 0.02594608 -0.03152853 0.999166 0.003811955 -0.0386008 0.9992474 -0.01909178 -0.03562647 0.9991829 -0.03610503 -0.01919722 0.9991637 -0.03971081 0.003789305 0.9992041 -0.03173053 0.02594727 0.9991596 -0.01155269 0.03800642 0.9992108 0.01155591 0.03800648 0.9992107 0.03172379 0.02594053 0.99916 0.03971117 0.003790497 0.999204 0.0360983 -0.01919817 0.9991638 0.0190919 -0.03562676 0.9991829 -0.003807961 -0.0386008 0.9992474 -0.02594584 -0.03152829 0.9991661 -0.03818154 -0.01147025 0.999205 -0.03818148 0.01147025 0.9992051 -0.02593308 0.03151565 0.9991668 -0.003810405 0.03860443 0.9992473 0.01908195 0.03561085 0.9991836 0.03609222 0.01919353 0.9991642 0.03884702 -0.003701865 0.9992384 0.03173059 -0.02594727 0.9991596 0.01155275 -0.03800696 0.9992108 -0.0115624 -0.03802669 0.99921 -0.03173059 -0.02594834 0.9991596 -0.03881466 -0.00370115 0.9992396 -0.03610426 0.01919192 0.9991638 -0.01908242 0.03561174 0.9991836 0.003810405 0.03860414 0.9992473 0.02594256 0.03152281 0.9991663 0.03819465 0.01147347 0.9992045 -0.6950553 -0.2111323 0.6872563 -0.6950517 0.2111288 0.6872612 -0.4596966 0.5603731 0.6889565 -0.07095062 0.7205744 0.689738 0.3414143 0.6389689 0.689315 0.639972 0.3423359 0.6879259 0.7236267 -0.07159143 0.6864686 0.5605049 -0.4602422 0.6884849 0.2101717 -0.6930574 0.6895647 -0.2101695 -0.6930497 0.6895731 -0.5604972 -0.4602391 0.6884932 -0.7234356 -0.07152593 0.6866768 -0.6399713 0.3423318 0.6879286 -0.3414144 0.6389688 0.689315 0.07095128 0.720586 0.6897259 0.4596955 0.5603729 0.6889574 0.6950578 0.2111308 0.6872543 0.6950584 -0.2111302 0.6872539 0.4597003 -0.5603792 0.6889491 0.07094889 -0.7205913 0.6897206 -0.3414142 -0.6389693 0.6893147 -0.6399701 -0.3423355 0.6879278 -0.7228005 0.07144409 0.6873538 -0.5604957 0.4602361 0.6884965 -0.2101683 0.6930499 0.6895732 0.2101691 0.6930522 0.6895707 0.5604945 0.4602378 0.6884964 0.7228013 0.07148897 0.6873483 0.6399744 -0.3423368 0.6879233 0.3414158 -0.6389704 0.6893128 -0.07094794 -0.7205939 0.689718 -0.4596995 -0.5603784 0.6889504 -0.6344698 -0.7729449 0.002113342 -0.9567874 -0.2907806 0.002175509 -0.9567878 0.2907793 0.00217545 -0.6344715 0.7729434 0.002113342 -0.09872859 0.995113 0.001652181 0.4716693 0.8817733 0.00200349 0.8817718 0.4716711 0.002199172 0.9951122 -0.09872949 0.002106487 0.772942 -0.6344731 0.002178251 0.2907778 -0.9567888 0.001848757 -0.2907769 -0.9567892 0.001848757 -0.7729423 -0.6344727 0.00217849 -0.995112 -0.09873074 0.002106845 -0.8817726 0.4716696 0.00219953 -0.4716698 0.8817731 0.002003252 0.09872913 0.995113 0.001652419 0.6344708 0.772944 0.002113342 0.9567874 0.2907803 0.002175211 0.9567882 -0.2907778 0.002175092 0.6344704 -0.7729443 0.002112865 0.09873014 -0.995113 0.001651525 -0.4716681 -0.881774 0.002003014 -0.8817714 -0.4716722 0.00219959 -0.9951122 0.09872871 0.002106428 -0.7729427 0.6344723 0.002178609 -0.290779 0.9567885 0.001848518 0.2907772 0.9567891 0.001848995 0.7729417 0.6344734 0.00217837 0.9951122 0.09872907 0.002106487 0.881772 -0.4716711 0.002199172 0.4716697 -0.8817731 0.002002835 -0.09872961 -0.995113 0.00165081 -0.07394731 -0.7508167 0.6563583 -0.4797717 -0.5846076 0.6542577 -0.7227743 -0.2192527 0.655382 -0.7227765 0.219253 0.6553795 -0.4797758 0.5846091 0.6542533 -0.07395362 0.7508223 0.6563512 0.3563302 0.6666514 0.6546792 0.6666479 0.3563303 0.6546826 0.7508206 -0.07395029 0.6563535 0.5846031 -0.4797697 0.6542632 0.2192538 -0.7227768 0.6553789 -0.2192505 -0.7227731 0.6553841 -0.5846054 -0.4797729 0.6542588 -0.7508226 -0.07395172 0.656351 -0.6666482 0.3563398 0.6546772 -0.3563356 0.666654 0.6546735 0.07394838 0.7508225 0.6563515 0.4797744 0.5846096 0.654254 0.7227734 0.2192519 0.6553834 0.722775 -0.2192538 0.6553809 0.479772 -0.5846071 0.654258 0.07394552 -0.750817 0.6563581 -0.3563273 -0.6666499 0.6546822 -0.6666492 -0.3563346 0.654679 -0.7508224 0.0739485 0.6563517 -0.5847138 0.4798463 0.654108 -0.2192432 0.7227731 0.6553865 0.2192524 0.722776 0.6553803 0.5846076 0.4797754 0.654255 0.7508213 0.07395064 0.6563526 0.666646 -0.3563325 0.6546835 0.3563295 -0.6666475 0.6546834 0 0 1 5.96927e-7 0 1 -7.80704e-7 0 1 3.90422e-7 0 1 0 0 1 1.49158e-7 0 1 1.73993e-7 0 1 3.97831e-7 0 1 0 -2.99798e-6 1 -3.9029e-7 0 1 -3.90421e-7 0 1 0 0 1 2.3877e-6 -1.69548e-6 1 -2.98317e-7 0 1 -7.95769e-7 0 1 -3.90422e-7 0 1 0 0 1 0 0 1 0 0 1 8.94821e-7 0 1 7.95279e-7 0 1 0.879076 -0.4698747 0.08027005 0.4698725 -0.8790688 0.08036118 -0.8055913 -0.5894427 0.05983275 -0.6323721 -0.7705501 0.07973784 -0.9538757 -0.2893531 0.07997429 -0.9538795 0.2893556 0.07991993 -0.632375 0.7705487 0.07972896 -0.09769541 0.9919261 0.08086049 0.4698689 0.8790634 0.08044207 0.8790711 0.4698816 0.08028262 0.9920127 -0.09770768 0.07977491 0.7705479 -0.6323771 0.07972031 0.289353 -0.9538781 0.07994687 -0.2893526 -0.953877 0.07996135 -0.7705456 -0.6323764 0.07974684 -0.9919306 -0.09769618 0.0808047 -0.8790747 0.4698773 0.08026868 -0.4698694 0.8790706 0.08036011 0.09770393 0.9920129 0.07977813 0.6323706 0.7705516 0.07973653 0.9538739 0.2893597 0.07997232 0.9538786 -0.289359 0.07991999 0.6323729 -0.7705502 0.07973098 0.7806901 -0.6218445 0.06190848 -0.4698685 -0.8790636 0.08044224 -0.8790737 -0.469877 0.08028084 -0.9920135 0.09769982 0.07977485 -0.7705498 0.632375 0.07971853 -0.2893564 0.9538773 0.07994455 0.289353 0.953877 0.07996034 0.7705525 0.6323683 0.07974517 0.9919306 0.09769725 0.08080232 -0.1701618 -0.01675969 -0.9852736 -0.1636228 -0.04963368 -0.9852736 -0.1507953 -0.08060193 -0.9852737 -0.1321727 -0.1084725 -0.9852737 -0.1084715 -0.1321738 -0.9852736 -0.08060181 -0.1507959 -0.9852736 -0.04963421 -0.1636232 -0.9852736 -0.01675909 -0.1701623 -0.9852736 -0.6967971 -0.00603491 -0.717243 0.04963433 -0.163623 -0.9852735 0.08060181 -0.1507958 -0.9852737 0.1084715 -0.1321739 -0.9852737 0.1321728 -0.1084725 -0.9852737 0.1507953 -0.08060169 -0.9852737 0.1636226 -0.04963493 -0.9852737 0.1701619 -0.01675933 -0.9852737 0.1701618 0.01675939 -0.9852737 0.1636226 0.04963469 -0.9852736 0.1507946 0.08060348 -0.9852737 0.1321724 0.1084728 -0.9852737 0.1084721 0.1321737 -0.9852735 0.08060151 0.1507959 -0.9852735 0.04963433 0.163623 -0.9852735 0.01675933 0.1701623 -0.9852736 -0.01675921 0.1701622 -0.9852735 -0.04963439 0.1636229 -0.9852736 -0.08060175 0.1507959 -0.9852736 -0.108472 0.1321735 -0.9852736 -0.1321727 0.1084725 -0.9852737 -0.1507951 0.08060193 -0.9852737 -0.1636225 0.04963535 -0.9852737 -0.1701619 0.01675915 -0.9852737</float_array>
          <technique_common>
            <accessor source="#Circle_026-mesh-normals-array" count="871" stride="3">
              <param name="X" type="float"/>
              <param name="Y" type="float"/>
              <param name="Z" type="float"/>
            </accessor>
          </technique_common>
        </source>
        <vertices id="Circle_026-mesh-vertices">
          <input semantic="POSITION" source="#Circle_026-mesh-positions"/>
        </vertices>
        <polylist material="Kunststoff_Schwarz_002-material" count="896">
          <input semantic="VERTEX" source="#Circle_026-mesh-vertices" offset="0"/>
          <input semantic="NORMAL" source="#Circle_026-mesh-normals" offset="1"/>
          <vcount>3 3 3 3 3 3 3 3 3 3 3 3 3 3 3 3 3 3 3 3 3 3 3 3 3 3 3 3 3 3 3 3 3 3 3 3 3 3 3 3 3 3 3 3 3 3 3 3 3 3 3 3 3 3 3 3 3 3 3 3 3 3 3 3 3 3 3 3 3 3 3 3 3 3 3 3 3 3 3 3 3 3 3 3 3 3 3 3 3 3 3 3 3 3 3 3 3 3 3 3 3 3 3 3 3 3 3 3 3 3 3 3 3 3 3 3 3 3 3 3 3 3 3 3 3 3 3 3 3 3 3 3 3 3 3 3 3 3 3 3 3 3 3 3 3 3 3 3 3 3 3 3 3 3 3 3 3 3 3 3 3 3 3 3 3 3 3 3 3 3 3 3 3 3 3 3 3 3 3 3 3 3 3 3 3 3 3 3 3 3 3 3 3 3 3 3 3 3 3 3 3 3 3 3 3 3 3 3 3 3 3 3 3 3 3 3 3 3 3 3 3 3 3 3 3 3 3 3 3 3 3 3 3 3 3 3 3 3 3 3 3 3 3 3 3 3 3 3 3 3 3 3 3 3 3 3 3 3 3 3 3 3 3 3 3 3 3 3 3 3 3 3 3 3 3 3 3 3 3 3 3 3 3 3 3 3 3 3 3 3 3 3 3 3 3 3 3 3 3 3 3 3 3 3 3 3 3 3 3 3 3 3 3 3 3 3 3 3 3 3 3 3 3 3 3 3 3 3 3 3 3 3 3 3 3 3 3 3 3 3 3 3 3 3 3 3 3 3 3 3 3 3 3 3 3 3 3 3 3 3 3 3 3 3 3 3 3 3 3 3 3 3 3 3 3 3 3 3 3 3 3 3 3 3 3 3 3 3 3 3 3 3 3 3 3 3 3 3 3 3 3 3 3 3 3 3 3 3 3 3 3 3 3 3 3 3 3 3 3 3 3 3 3 3 3 3 3 3 3 3 3 3 3 3 3 3 3 3 3 3 3 3 3 3 3 3 3 3 3 3 3 3 3 3 3 3 3 3 3 3 3 3 3 3 3 3 3 3 3 3 3 3 3 3 3 3 3 3 3 3 3 3 3 3 3 3 3 3 3 3 3 3 3 3 3 3 3 3 3 3 3 3 3 3 3 3 3 3 3 3 3 3 3 3 3 3 3 3 3 3 3 3 3 3 3 3 3 3 3 3 3 3 3 3 3 3 3 3 3 3 3 3 3 3 3 3 3 3 3 3 3 3 3 3 3 3 3 3 3 3 3 3 3 3 3 3 3 3 3 3 3 3 3 3 3 3 3 3 3 3 3 3 3 3 3 3 3 3 3 3 3 3 3 3 3 3 3 3 3 3 3 3 3 3 3 3 3 3 3 3 3 3 3 3 3 3 3 3 3 3 3 3 3 3 3 3 3 3 3 3 3 3 3 3 3 3 3 3 3 3 3 3 3 3 3 3 3 3 3 3 3 3 3 3 3 3 3 3 3 3 3 3 3 3 3 3 3 3 3 3 3 3 3 3 3 3 3 3 3 3 3 3 3 3 3 3 3 3 3 3 3 3 3 3 3 3 3 3 3 3 3 3 3 3 3 3 3 3 3 3 3 3 3 3 3 3 3 3 3 3 3 3 3 3 3 3 3 3 3 3 3 3 3 3 3 3 3 3 3 3 3 3 3 3 3 3 3 3 3 3 3 3 3 3 3 3 3 3 3 3 3 3 3 3 3 3 3 3 3 3 3 3 3 3 3 3 3 3 3 3 3 3 3 3 3 3 3 3 3 3 3 3 3 3 3 3 3 3 3 3 3 3 3 3 3 3 3 3 3 3 3 3 3 3 3 3 3 3 3 3 3 3 3 3 3 3 3 3 3 3 3 3 3 3 3 3 3 3 3 3 3 3 3 3 3 3 3 3 3 3 3 3 3 3 3 3 3 3 3 3 3 3 3 3 3 3 3 3 3 3 3 3 3 3 3 3 3 3 3 3 3 3 3 3 3 3 3 3 3 3 3 3 3 3 3 3 </vcount>
          <p>4 0 5 0 37 0 1 1 2 1 34 1 30 2 31 2 62 2 27 3 28 3 59 3 24 4 25 4 57 4 21 5 22 5 53 5 18 6 19 6 50 6 15 7 16 7 48 7 12 8 13 8 44 8 9 9 10 9 41 9 6 10 7 10 39 10 3 11 4 11 36 11 0 12 1 12 32 12 29 13 30 13 62 13 26 14 27 14 59 14 23 15 24 15 55 15 20 16 21 16 53 16 17 17 18 17 50 17 14 18 15 18 46 18 11 19 12 19 43 19 8 20 9 20 41 20 5 21 6 21 37 21 2 22 3 22 34 22 31 23 0 23 32 23 28 24 29 24 60 24 25 25 26 25 57 25 22 26 23 26 55 26 19 27 20 27 52 27 16 28 17 28 48 28 13 29 14 29 46 29 10 30 11 30 43 30 7 31 8 31 39 31 36 32 37 32 68 32 33 33 34 33 65 33 62 34 63 34 95 34 59 35 60 35 92 35 56 36 57 36 89 36 53 37 54 37 85 37 50 38 51 38 82 38 47 39 48 39 79 39 44 40 45 40 77 40 41 41 42 41 74 41 38 42 39 42 70 42 35 43 36 43 67 43 32 44 33 44 65 44 61 45 62 45 94 45 58 46 59 46 91 46 55 47 56 47 87 47 52 48 53 48 84 48 49 49 50 49 81 49 46 50 47 50 79 50 43 51 44 51 76 51 40 52 41 52 73 52 37 53 38 53 69 53 34 54 35 54 66 54 63 55 32 55 64 55 60 56 61 56 93 56 57 57 58 57 90 57 54 58 55 58 86 58 51 59 52 59 83 59 48 60 49 60 81 60 45 61 46 61 78 61 42 62 43 62 75 62 39 63 40 63 71 63 71 64 72 64 104 64 68 65 69 65 100 65 65 66 66 66 98 66 94 67 95 67 126 67 91 68 92 68 124 68 88 69 89 69 120 69 85 70 86 70 118 70 82 71 83 71 115 71 79 72 80 72 111 72 76 73 77 73 108 73 73 74 74 74 105 74 70 75 71 75 103 75 67 76 68 76 100 76 64 77 65 77 96 77 93 78 94 78 125 78 90 79 91 79 122 79 87 80 88 80 120 80 84 81 85 81 117 81 81 82 82 82 114 82 78 83 79 83 110 83 75 84 76 84 107 84 72 85 73 85 104 85 69 86 70 86 102 86 66 87 67 87 99 87 95 88 64 88 127 88 92 89 93 89 124 89 89 90 90 90 121 90 86 91 87 91 119 91 83 92 84 92 116 92 80 93 81 93 112 93 77 94 78 94 109 94 74 95 75 95 106 95 106 96 107 96 139 96 103 97 104 97 136 97 100 98 101 98 132 98 97 99 98 99 129 99 126 100 127 100 159 100 123 101 124 101 156 101 120 102 121 102 152 102 117 103 118 103 149 103 114 104 115 104 147 104 111 105 112 105 144 105 108 106 109 106 140 106 105 107 106 107 137 107 102 108 103 108 135 108 99 109 100 109 132 109 96 110 97 110 128 110 125 111 126 111 157 111 122 112 123 112 155 112 119 113 120 113 152 113 116 114 117 114 148 114 113 115 114 115 145 115 110 116 111 116 143 116 107 117 108 117 140 117 104 118 105 118 136 118 101 119 102 119 133 119 98 120 99 120 131 120 127 121 96 121 128 121 124 122 125 122 156 122 121 123 122 123 153 123 118 124 119 124 151 124 115 125 116 125 148 125 112 126 113 126 144 126 109 127 110 127 141 127 141 128 142 128 174 128 138 129 139 129 171 129 135 130 136 130 168 130 132 131 133 131 164 131 129 132 130 132 161 132 158 133 159 133 191 133 155 134 156 134 188 134 152 135 153 135 185 135 149 136 150 136 181 136 146 137 147 137 178 137 143 138 144 138 176 138 140 139 141 139 173 139 137 140 138 140 170 140 134 141 135 141 166 141 131 142 132 142 163 142 128 143 129 143 160 143 157 144 158 144 190 144 154 145 155 145 187 145 151 146 152 146 184 146 148 147 149 147 180 147 145 148 146 148 177 148 142 149 143 149 175 149 139 150 140 150 172 150 136 151 137 151 169 151 133 152 134 152 165 152 130 153 131 153 162 153 159 154 128 154 160 154 156 155 157 155 189 155 153 156 154 156 186 156 150 157 151 157 182 157 147 158 148 158 179 158 144 159 145 159 176 159 176 160 177 160 209 160 173 161 174 161 205 161 170 162 171 162 202 162 167 163 168 163 200 163 164 164 165 164 197 164 161 165 162 165 193 165 190 166 191 166 222 166 187 167 188 167 219 167 184 168 185 168 216 168 181 169 182 169 214 169 178 170 179 170 211 170 175 171 176 171 207 171 172 172 173 172 204 172 169 173 170 173 201 173 166 174 167 174 198 174 163 175 164 175 196 175 160 176 161 176 193 176 189 177 190 177 221 177 186 178 187 178 218 178 183 179 184 179 216 179 180 180 181 180 213 180 177 181 178 181 210 181 174 182 175 182 206 182 171 183 172 183 203 183 168 184 169 184 200 184 165 185 166 185 198 185 162 186 163 186 195 186 191 187 160 187 223 187 188 188 189 188 220 188 185 189 186 189 217 189 182 190 183 190 214 190 179 191 180 191 211 191 211 192 212 192 244 192 208 193 209 193 241 193 205 194 206 194 237 194 202 195 203 195 234 195 199 196 200 196 232 196 196 197 197 197 229 197 193 198 194 198 226 198 222 199 223 199 254 199 219 200 220 200 251 200 216 201 217 201 248 201 213 202 214 202 246 202 210 203 211 203 243 203 207 204 208 204 239 204 204 205 205 205 236 205 201 206 202 206 233 206 198 207 199 207 231 207 195 208 196 208 228 208 192 209 193 209 225 209 221 210 222 210 253 210 218 211 219 211 250 211 215 212 216 212 248 212 212 213 213 213 245 213 209 214 210 214 242 214 206 215 207 215 238 215 203 216 204 216 235 216 200 217 201 217 232 217 197 218 198 218 230 218 194 219 195 219 227 219 223 220 192 220 255 220 220 221 221 221 252 221 217 222 218 222 249 222 214 223 215 223 247 223 246 224 247 224 278 224 243 225 244 225 276 225 240 226 241 226 273 226 237 227 238 227 269 227 234 228 235 228 266 228 231 229 232 229 264 229 228 230 229 230 261 230 225 231 226 231 258 231 254 232 255 232 286 232 251 233 252 233 283 233 248 234 249 234 280 234 245 235 246 235 278 235 242 236 243 236 275 236 239 237 240 237 271 237 236 238 237 238 268 238 233 239 234 239 266 239 230 240 231 240 262 240 227 241 228 241 260 241 224 242 225 242 257 242 253 243 254 243 285 243 250 244 251 244 282 244 247 245 248 245 279 245 244 246 245 246 277 246 241 247 242 247 274 247 238 248 239 248 270 248 235 249 236 249 267 249 232 250 233 250 265 250 229 251 230 251 262 251 226 252 227 252 259 252 255 253 224 253 287 253 252 254 253 254 284 254 249 255 250 255 282 255 281 256 282 256 314 256 278 257 279 257 310 257 275 258 276 258 307 258 272 259 273 259 304 259 269 260 270 260 302 260 266 261 267 261 299 261 263 262 264 262 295 262 260 263 261 263 292 263 257 264 258 264 289 264 286 265 287 265 319 265 283 266 284 266 316 266 280 267 281 267 313 267 277 268 278 268 309 268 274 269 275 269 306 269 271 270 272 270 304 270 268 271 269 271 301 271 265 272 266 272 298 272 262 273 263 273 294 273 259 274 260 274 291 274 256 275 257 275 288 275 285 276 286 276 318 276 282 277 283 277 315 277 279 278 280 278 312 278 276 279 277 279 308 279 273 280 274 280 305 280 270 281 271 281 303 281 267 282 268 282 300 282 264 283 265 283 296 283 261 284 262 284 293 284 258 285 259 285 290 285 287 286 256 286 288 286 284 287 285 287 317 287 316 288 317 288 348 288 313 289 314 289 345 289 310 290 311 290 343 290 307 291 308 291 340 291 304 292 305 292 337 292 301 293 302 293 333 293 298 294 299 294 330 294 295 295 296 295 328 295 292 296 293 296 325 296 289 297 290 297 322 297 318 298 319 298 350 298 315 299 316 299 347 299 312 300 313 300 344 300 309 301 310 301 342 301 306 302 307 302 339 302 303 303 304 303 335 303 300 304 301 304 332 304 297 305 298 305 329 305 294 306 295 306 327 306 291 307 292 307 324 307 288 308 289 308 321 308 317 309 318 309 349 309 314 310 315 310 346 310 311 311 312 311 344 311 308 312 309 312 341 312 305 313 306 313 338 313 302 314 303 314 334 314 299 315 300 315 331 315 296 316 297 316 328 316 293 317 294 317 326 317 290 318 291 318 323 318 319 319 288 319 351 319 351 320 320 320 383 320 348 321 349 321 380 321 345 322 346 322 378 322 342 323 343 323 374 323 339 324 340 324 372 324 336 325 337 325 369 325 333 326 334 326 365 326 330 327 331 327 363 327 327 328 328 328 359 328 324 329 325 329 356 329 321 330 322 330 354 330 350 331 351 331 382 331 347 332 348 332 380 332 344 333 345 333 377 333 341 334 342 334 373 334 338 335 339 335 371 335 335 336 336 336 367 336 332 337 333 337 364 337 329 338 330 338 362 338 326 339 327 339 358 339 323 340 324 340 356 340 320 341 321 341 353 341 349 342 350 342 381 342 346 343 347 343 379 343 343 344 344 344 375 344 340 345 341 345 373 345 337 346 338 346 370 346 334 347 335 347 366 347 331 348 332 348 364 348 328 349 329 349 361 349 325 350 326 350 357 350 322 351 323 351 355 351 354 352 355 352 386 352 383 352 352 352 415 352 380 353 381 353 412 353 377 352 378 352 409 352 374 354 375 354 407 354 371 352 372 352 404 352 368 355 369 355 401 355 365 356 366 356 398 356 362 352 363 352 394 352 359 357 360 357 391 357 356 352 357 352 388 352 353 358 354 358 385 358 382 352 383 352 415 352 379 352 380 352 412 352 376 359 377 359 409 359 373 352 374 352 406 352 370 360 371 360 402 360 367 352 368 352 399 352 364 361 365 361 396 361 361 352 362 352 393 352 358 362 359 362 391 362 355 363 356 363 388 363 352 352 353 352 385 352 381 352 382 352 414 352 378 352 379 352 410 352 375 364 376 364 407 364 372 365 373 365 404 365 369 366 370 366 401 366 366 352 367 352 399 352 363 367 364 367 396 367 360 368 361 368 393 368 357 369 358 369 390 369 389 370 390 370 422 370 386 371 387 371 418 371 415 372 384 372 416 372 412 373 413 373 445 373 409 374 410 374 442 374 406 375 407 375 438 375 403 376 404 376 435 376 400 377 401 377 433 377 397 378 398 378 430 378 394 379 395 379 426 379 391 380 392 380 424 380 388 381 389 381 421 381 385 382 386 382 418 382 414 383 415 383 446 383 411 384 412 384 443 384 408 385 409 385 441 385 405 386 406 386 438 386 402 387 403 387 434 387 399 388 400 388 432 388 396 389 397 389 429 389 393 390 394 390 426 390 390 391 391 391 422 391 387 392 388 392 419 392 384 393 385 393 416 393 413 394 414 394 446 394 410 395 411 395 442 395 407 396 408 396 440 396 404 397 405 397 437 397 401 398 402 398 434 398 398 399 399 399 430 399 395 400 396 400 427 400 392 401 393 401 425 401 441 402 25 402 440 402 442 403 26 403 441 403 443 404 27 404 442 404 444 405 28 405 27 405 445 406 29 406 444 406 446 407 30 407 445 407 447 408 31 408 446 408 416 409 0 409 447 409 417 410 1 410 0 410 418 411 2 411 417 411 419 412 3 412 418 412 420 413 4 413 419 413 421 414 5 414 420 414 422 415 6 415 5 415 423 416 7 416 422 416 424 417 8 417 423 417 425 418 9 418 424 418 426 419 10 419 9 419 427 420 11 420 10 420 428 421 12 421 427 421 429 422 13 422 428 422 430 423 14 423 429 423 431 424 15 424 430 424 432 425 16 425 15 425 433 426 17 426 432 426 434 427 18 427 433 427 435 428 19 428 434 428 436 429 20 429 435 429 437 430 21 430 436 430 438 431 22 431 21 431 439 432 23 432 438 432 440 433 24 433 23 433 36 434 4 434 37 434 33 435 1 435 34 435 31 436 63 436 62 436 28 437 60 437 59 437 56 438 24 438 57 438 22 439 54 439 53 439 19 440 51 440 50 440 47 441 15 441 48 441 13 442 45 442 44 442 10 443 42 443 41 443 38 444 6 444 39 444 35 445 3 445 36 445 1 446 33 446 32 446 61 447 29 447 62 447 58 448 26 448 59 448 24 449 56 449 55 449 52 450 20 450 53 450 49 451 17 451 50 451 15 452 47 452 46 452 12 453 44 453 43 453 40 454 8 454 41 454 6 455 38 455 37 455 3 456 35 456 34 456 63 457 31 457 32 457 29 458 61 458 60 458 26 459 58 459 57 459 54 460 22 460 55 460 51 461 19 461 52 461 17 462 49 462 48 462 45 463 13 463 46 463 42 464 10 464 43 464 8 465 40 465 39 465 37 466 69 466 68 466 34 467 66 467 65 467 94 468 62 468 95 468 91 469 59 469 92 469 88 470 56 470 89 470 54 471 86 471 85 471 51 472 83 472 82 472 48 473 80 473 79 473 76 474 44 474 77 474 73 475 41 475 74 475 39 476 71 476 70 476 36 477 68 477 67 477 64 478 32 478 65 478 93 479 61 479 94 479 90 480 58 480 91 480 56 481 88 481 87 481 53 482 85 482 84 482 50 483 82 483 81 483 78 484 46 484 79 484 75 485 43 485 76 485 72 486 40 486 73 486 38 487 70 487 69 487 35 488 67 488 66 488 95 489 63 489 64 489 92 490 60 490 93 490 89 491 57 491 90 491 55 492 87 492 86 492 52 493 84 493 83 493 80 494 48 494 81 494 77 495 45 495 78 495 74 496 42 496 75 496 40 497 72 497 71 497 103 498 71 498 104 498 69 499 101 499 100 499 97 500 65 500 98 500 95 501 127 501 126 501 123 502 91 502 124 502 89 503 121 503 120 503 117 504 85 504 118 504 114 505 82 505 115 505 80 506 112 506 111 506 77 507 109 507 108 507 74 508 106 508 105 508 102 509 70 509 103 509 99 510 67 510 100 510 65 511 97 511 96 511 94 512 126 512 125 512 91 513 123 513 122 513 119 514 87 514 120 514 116 515 84 515 117 515 113 516 81 516 114 516 79 517 111 517 110 517 76 518 108 518 107 518 73 519 105 519 104 519 101 520 69 520 102 520 98 521 66 521 99 521 64 522 96 522 127 522 93 523 125 523 124 523 90 524 122 524 121 524 118 525 86 525 119 525 115 526 83 526 116 526 81 527 113 527 112 527 78 528 110 528 109 528 75 529 107 529 106 529 138 530 106 530 139 530 135 531 103 531 136 531 101 532 133 532 132 532 98 533 130 533 129 533 158 534 126 534 159 534 155 535 123 535 156 535 121 536 153 536 152 536 118 537 150 537 149 537 146 538 114 538 147 538 143 539 111 539 144 539 109 540 141 540 140 540 106 541 138 541 137 541 134 542 102 542 135 542 131 543 99 543 132 543 97 544 129 544 128 544 126 545 158 545 157 545 154 546 122 546 155 546 151 547 119 547 152 547 117 548 149 548 148 548 114 549 146 549 145 549 142 550 110 550 143 550 139 551 107 551 140 551 105 552 137 552 136 552 102 553 134 553 133 553 130 554 98 554 131 554 159 555 127 555 128 555 125 556 157 556 156 556 122 557 154 557 153 557 150 558 118 558 151 558 147 559 115 559 148 559 113 560 145 560 144 560 110 561 142 561 141 561 173 562 141 562 174 562 170 563 138 563 171 563 167 564 135 564 168 564 133 565 165 565 164 565 130 566 162 566 161 566 190 567 158 567 191 567 187 568 155 568 188 568 184 569 152 569 185 569 150 570 182 570 181 570 147 571 179 571 178 571 175 572 143 572 176 572 172 573 140 573 173 573 169 574 137 574 170 574 135 575 167 575 166 575 132 576 164 576 163 576 129 577 161 577 160 577 189 578 157 578 190 578 186 579 154 579 187 579 183 580 151 580 184 580 149 581 181 581 180 581 146 582 178 582 177 582 174 583 142 583 175 583 171 584 139 584 172 584 168 585 136 585 169 585 134 586 166 586 165 586 131 587 163 587 162 587 191 588 159 588 160 588 188 589 156 589 189 589 185 590 153 590 186 590 151 591 183 591 182 591 148 592 180 592 179 592 145 593 177 593 176 593 208 594 176 594 209 594 174 595 206 595 205 595 171 596 203 596 202 596 199 597 167 597 200 597 196 598 164 598 197 598 162 599 194 599 193 599 191 600 223 600 222 600 188 601 220 601 219 601 185 602 217 602 216 602 213 603 181 603 214 603 210 604 178 604 211 604 176 605 208 605 207 605 173 606 205 606 204 606 170 607 202 607 201 607 167 608 199 608 198 608 195 609 163 609 196 609 192 610 160 610 193 610 190 611 222 611 221 611 187 612 219 612 218 612 215 613 183 613 216 613 212 614 180 614 213 614 209 615 177 615 210 615 175 616 207 616 206 616 172 617 204 617 203 617 169 618 201 618 200 618 197 619 165 619 198 619 194 620 162 620 195 620 160 621 192 621 223 621 189 622 221 622 220 622 186 623 218 623 217 623 183 624 215 624 214 624 180 625 212 625 211 625 243 626 211 626 244 626 240 627 208 627 241 627 206 628 238 628 237 628 203 629 235 629 234 629 231 630 199 630 232 630 228 631 196 631 229 631 225 632 193 632 226 632 223 633 255 633 254 633 220 634 252 634 251 634 217 635 249 635 248 635 245 636 213 636 246 636 242 637 210 637 243 637 208 638 240 638 239 638 205 639 237 639 236 639 202 640 234 640 233 640 230 641 198 641 231 641 227 642 195 642 228 642 224 643 192 643 225 643 222 644 254 644 253 644 219 645 251 645 250 645 247 646 215 646 248 646 244 647 212 647 245 647 241 648 209 648 242 648 207 649 239 649 238 649 204 650 236 650 235 650 201 651 233 651 232 651 229 652 197 652 230 652 226 653 194 653 227 653 192 654 224 654 255 654 221 655 253 655 252 655 218 656 250 656 249 656 246 657 214 657 247 657 247 658 279 658 278 658 275 659 243 659 276 659 272 660 240 660 273 660 238 661 270 661 269 661 235 662 267 662 266 662 263 663 231 663 264 663 260 664 228 664 261 664 257 665 225 665 258 665 255 666 287 666 286 666 252 667 284 667 283 667 249 668 281 668 280 668 277 669 245 669 278 669 274 670 242 670 275 670 240 671 272 671 271 671 237 672 269 672 268 672 265 673 233 673 266 673 231 674 263 674 262 674 259 675 227 675 260 675 256 676 224 676 257 676 254 677 286 677 285 677 251 678 283 678 282 678 248 679 280 679 279 679 276 680 244 680 277 680 273 681 241 681 274 681 239 682 271 682 270 682 236 683 268 683 267 683 264 684 232 684 265 684 261 685 229 685 262 685 258 686 226 686 259 686 224 687 256 687 287 687 253 688 285 688 284 688 281 689 249 689 282 689 313 690 281 690 314 690 279 691 311 691 310 691 276 692 308 692 307 692 273 693 305 693 304 693 301 694 269 694 302 694 298 695 266 695 299 695 264 696 296 696 295 696 261 697 293 697 292 697 258 698 290 698 289 698 318 699 286 699 319 699 315 700 283 700 316 700 312 701 280 701 313 701 278 702 310 702 309 702 275 703 307 703 306 703 303 704 271 704 304 704 300 705 268 705 301 705 297 706 265 706 298 706 263 707 295 707 294 707 260 708 292 708 291 708 257 709 289 709 288 709 317 710 285 710 318 710 314 711 282 711 315 711 311 712 279 712 312 712 277 713 309 713 308 713 274 714 306 714 305 714 302 715 270 715 303 715 299 716 267 716 300 716 265 717 297 717 296 717 262 718 294 718 293 718 259 719 291 719 290 719 319 720 287 720 288 720 316 721 284 721 317 721 317 722 349 722 348 722 314 723 346 723 345 723 342 724 310 724 343 724 339 725 307 725 340 725 336 726 304 726 337 726 302 727 334 727 333 727 299 728 331 728 330 728 327 729 295 729 328 729 324 730 292 730 325 730 321 731 289 731 322 731 319 732 351 732 350 732 316 733 348 733 347 733 313 734 345 734 344 734 341 735 309 735 342 735 338 736 306 736 339 736 304 737 336 737 335 737 301 738 333 738 332 738 298 739 330 739 329 739 326 740 294 740 327 740 323 741 291 741 324 741 320 742 288 742 321 742 318 743 350 743 349 743 315 744 347 744 346 744 343 745 311 745 344 745 340 746 308 746 341 746 337 747 305 747 338 747 303 748 335 748 334 748 300 749 332 749 331 749 297 750 329 750 328 750 325 751 293 751 326 751 322 752 290 752 323 752 288 753 320 753 351 753 320 754 352 754 383 754 349 755 381 755 380 755 377 756 345 756 378 756 343 757 375 757 374 757 371 758 339 758 372 758 368 759 336 759 369 759 334 760 366 760 365 760 362 761 330 761 363 761 328 762 360 762 359 762 325 763 357 763 356 763 353 764 321 764 354 764 351 765 383 765 382 765 379 766 347 766 380 766 376 767 344 767 377 767 342 768 374 768 373 768 370 769 338 769 371 769 336 770 368 770 367 770 333 771 365 771 364 771 361 772 329 772 362 772 327 773 359 773 358 773 355 774 323 774 356 774 352 775 320 775 353 775 350 776 382 776 381 776 378 777 346 777 379 777 344 778 376 778 375 778 372 779 340 779 373 779 369 780 337 780 370 780 335 781 367 781 366 781 363 782 331 782 364 782 360 783 328 783 361 783 326 784 358 784 357 784 354 785 322 785 355 785 355 352 387 352 386 352 352 786 384 786 415 786 381 787 413 787 412 787 378 352 410 352 409 352 406 352 374 352 407 352 403 352 371 352 404 352 400 788 368 788 401 788 397 789 365 789 398 789 363 790 395 790 394 790 360 352 392 352 391 352 357 791 389 791 388 791 354 792 386 792 385 792 414 352 382 352 415 352 411 793 379 793 412 793 408 794 376 794 409 794 405 795 373 795 406 795 371 796 403 796 402 796 368 797 400 797 399 797 365 798 397 798 396 798 362 799 394 799 393 799 390 352 358 352 391 352 387 800 355 800 388 800 384 352 352 352 385 352 413 801 381 801 414 801 379 802 411 802 410 802 376 803 408 803 407 803 373 804 405 804 404 804 370 805 402 805 401 805 398 806 366 806 399 806 395 352 363 352 396 352 392 352 360 352 393 352 389 352 357 352 390 352 421 807 389 807 422 807 387 808 419 808 418 808 447 809 415 809 416 809 444 810 412 810 445 810 441 811 409 811 442 811 407 812 439 812 438 812 404 813 436 813 435 813 432 814 400 814 433 814 429 815 397 815 430 815 395 816 427 816 426 816 423 817 391 817 424 817 420 818 388 818 421 818 417 819 385 819 418 819 415 820 447 820 446 820 412 821 444 821 443 821 440 822 408 822 441 822 437 823 405 823 438 823 403 824 435 824 434 824 431 825 399 825 432 825 428 826 396 826 429 826 425 827 393 827 426 827 391 828 423 828 422 828 388 829 420 829 419 829 385 830 417 830 416 830 445 831 413 831 446 831 411 832 443 832 442 832 439 833 407 833 440 833 436 834 404 834 437 834 433 835 401 835 434 835 399 836 431 836 430 836 396 837 428 837 427 837 424 838 392 838 425 838 25 839 24 839 440 839 26 840 25 840 441 840 27 841 26 841 442 841 443 842 444 842 27 842 29 843 28 843 444 843 30 844 29 844 445 844 31 845 30 845 446 845 0 846 31 846 447 846 416 847 417 847 0 847 2 848 1 848 417 848 3 849 2 849 418 849 4 850 3 850 419 850 5 851 4 851 420 851 421 852 422 852 5 852 7 853 6 853 422 853 8 854 7 854 423 854 9 855 8 855 424 855 425 856 426 856 9 856 426 857 427 857 10 857 12 858 11 858 427 858 13 859 12 859 428 859 14 860 13 860 429 860 15 861 14 861 430 861 431 862 432 862 15 862 17 863 16 863 432 863 18 864 17 864 433 864 19 865 18 865 434 865 20 866 19 866 435 866 21 867 20 867 436 867 437 868 438 868 21 868 23 869 22 869 438 869 439 870 440 870 23 870</p>
        </polylist>
      </mesh>
    </geometry>
  </library_geometries>
  <library_controllers/>
  <library_visual_scenes>
    <visual_scene id="Scene" name="Scene">
      <node id="VIS_hollie_right_hand_base_link" name="VIS_hollie_right_hand_base_link" type="NODE">
        <instance_geometry url="#Circle_026-mesh" name="VIS_hollie_right_hand_base_link">
          <bind_material>
            <technique_common>
              <instance_material symbol="Kunststoff_Schwarz_002-material" target="#Kunststoff_Schwarz_002-material"/>
            </technique_common>
          </bind_material>
        </instance_geometry>
      </node>
    </visual_scene>
  </library_visual_scenes>
  <scene>
    <instance_visual_scene url="#Scene"/>
  </scene>
</COLLADA>