<?xml version="1.0" encoding="utf-8"?>
<COLLADA xmlns="http://www.collada.org/2005/11/COLLADASchema" version="1.4.1">
  <asset>
    <contributor>
      <author>Blender User</author>
      <authoring_tool>Blender 2.78.0 commit date:2017-02-24, commit time:14:33, hash:e92f2352830</authoring_tool>
    </contributor>
    <created>2017-07-14T10:06:19</created>
    <modified>2017-07-14T10:06:19</modified>
    <unit name="meter" meter="1"/>
    <up_axis>Z_UP</up_axis>
  </asset>
  <library_images/>
  <library_effects>
    <effect id="Metall_Alu_004-effect">
      <profile_COMMON>
        <technique sid="common">
          <phong>
            <emission>
              <color sid="emission">0 0 0 1</color>
            </emission>
            <ambient>
              <color sid="ambient">0 0 0 1</color>
            </ambient>
            <diffuse>
              <color sid="diffuse">0.45 0.45 0.45 1</color>
            </diffuse>
            <specular>
              <color sid="specular">0.325 0.325 0.325 1</color>
            </specular>
            <shininess>
              <float sid="shininess">70</float>
            </shininess>
            <index_of_refraction>
              <float sid="index_of_refraction">1</float>
            </index_of_refraction>
          </phong>
        </technique>
      </profile_COMMON>
    </effect>
  </library_effects>
  <library_materials>
    <material id="Metall_Alu_004-material" name="Metall_Alu_004">
      <instance_effect url="#Metall_Alu_004-effect"/>
    </material>
  </library_materials>
  <library_geometries>
    <geometry id="Cylinder_010-mesh" name="Cylinder.010">
      <mesh>
        <source id="Cylinder_010-mesh-positions">
          <float_array id="Cylinder_010-mesh-positions-array" count="534">0.003922522 -0.001607716 -0.001119017 0.003961145 -0.001621186 -0.003118991 0.003206849 -0.001308679 -0.001110076 0.003311455 3.2119e-5 5.48184e-5 0.002998709 -0.002979338 -0.001119017 0.003031075 -0.003013074 -0.003118991 0.006799876 -0.002797544 -0.003235936 0.002468228 -0.002447843 -0.001110553 0.003046691 -0.00124824 6.33471e-5 -0.0033167 8.98769e-6 5.48205e-5 -0.003066003 -0.001240849 5.14205e-5 -0.00233972 -0.002338171 5.79382e-5 -0.001273095 -0.003039717 4.92408e-5 1.61243e-5 -0.00329405 6.62418e-5 0.001250624 -0.00304085 6.22915e-5 0.002341747 -0.002312719 5.36524e-5 0.001620411 -0.003900527 -0.001119017 0.001639187 -0.003943085 -0.003118991 0.005208849 -0.005185842 -0.003237903 0.006926357 -0.0028494 -0.005075812 0.001326024 -0.003186881 -0.001110017 -0.003215491 -0.001310169 -0.001110196 -0.00246185 -0.002438664 -0.001110196 -0.001336216 -0.00319761 -0.001110196 -3.0502e-6 -0.003478944 -0.001110196 -1.81789e-6 -0.004228889 -0.001119017 -2.61267e-6 -0.004269659 -0.003118991 0.002815008 -0.006783068 -0.003239274 0.005295872 -0.005277812 -0.005075871 0.01059877 -0.004371821 -0.005368947 -0.003923535 -0.001604914 -0.001119017 -0.003007411 -0.002981364 -0.001119017 -0.001626372 -0.003898978 -0.001119017 -0.001644432 -0.003943085 -0.003118991 6.21828e-6 -0.007344663 -0.00323677 0.002865254 -0.006902813 -0.005075871 0.008109271 -0.008090794 -0.005368947 0.01061666 -0.004377543 -0.00771445 0.01106655 -0.002224385 -0.006226301 -0.003966331 -0.001621186 -0.003118991 -0.00303632 -0.003013074 -0.003118991 -0.002821743 -0.006779253 -0.003245532 -3.05301e-6 -0.007476329 -0.005075871 0.004391431 -0.01058334 -0.005368947 0.008122265 -0.00810641 -0.01583153 0.00961858 -0.006025075 -0.01388567 0.009612977 -0.006019592 -0.01161742 0.009915173 -0.005475401 -0.009345889 -0.004986345 -0.002882599 -0.003118991 -0.004830479 -0.00570476 -0.003368973 -0.002866923 -0.006893813 -0.005075871 -1.29419e-6 -0.01147592 -0.005368947 0.004379928 -0.01058268 -0.01813054 -0.004986345 -0.002882599 -0.003619015 -0.00496912 -0.00592792 -0.005118966 -0.004944145 -0.01035189 -0.005368947 3.84794e-4 -0.01124149 -0.01909619 -0.004976987 -0.01033639 -0.02029967 -0.007968664 -0.00602889 -0.007470667 -0.007803797 -0.006027936 -0.02089118 -0.007956802 -0.00812602 -0.02085483 -0.005000174 -0.006007671 -0.007468938 -0.004970967 -0.01032471 -0.007470667 -0.006898522 -0.006029605 -0.02199447 -0.007956802 -0.00812602 -0.007470667 -0.00689435 -0.008518457 -0.02198827 -0.005016863 -0.006029963 -0.02244675 -0.005018055 -0.008507847 -0.02244484 0.002478063 -0.007965445 -0.02071589 0.002467215 -0.009178817 -0.0207175 0.005049943 -0.006837308 -0.01935207 0.00455439 -0.009177207 -0.01970314 0.00598824 -0.006229341 -0.01845347 0.00678122 -0.009260833 -0.01743423 0.005906879 2.5632e-5 -0.005769848 0.005906879 -0.00439769 -0.007706701 0.005906581 -0.002223968 -0.006214678 0.005907356 -0.006040513 -0.01161623 0.00590682 -0.005488991 -0.009339988 0.004950821 -0.005946159 -0.007444381 0.005180358 -0.002882719 -0.003118991 0.004779577 -0.005167126 -0.005445241 0.004240572 2.12172e-5 -0.001119017 0.004287719 2.05523e-5 -0.003118991 0.003481209 2.00025e-5 -0.001110315 0.003922522 0.001648783 -0.001119017 0.003961145 0.001662313 -0.003118991 0.007363915 2.06024e-5 -0.003239333 0.003206849 0.001349806 -0.001110076 0.003311455 8.98539e-6 5.48184e-5 0.002998709 0.003020465 -0.001119017 0.003031075 0.003054141 -0.003118991 0.006799876 0.002838611 -0.003235936 0.007490575 2.05196e-5 -0.005075871 0.002468228 0.00248897 -0.001110553 0.003046691 0.001289367 6.33471e-5 -0.0033167 3.212e-5 5.48205e-5 -0.003066003 0.001281917 5.14205e-5 -0.00233972 0.002379298 5.79382e-5 -0.001273095 0.003080844 4.92418e-5 1.61261e-5 0.003335118 6.62418e-5 0.001250624 0.003081917 6.22915e-5 0.002341747 0.002353847 5.36524e-5 0.001620411 0.003941595 -0.001119017 0.001639187 0.003984153 -0.003118991 0.005208849 0.00522691 -0.003237903 0.006926357 0.002890467 -0.005075812 0.01148676 2.24084e-5 -0.005368947 0.001326024 0.003228008 -0.001110017 -0.003486454 2.11031e-5 -0.001110315 -0.003215491 0.001351296 -0.001110196 -0.00246185 0.002479791 -0.001110196 -0.001336216 0.003238677 -0.001110196 -3.04867e-6 0.003520071 -0.001110196 -1.81534e-6 0.004269957 -0.001119017 -2.61113e-6 0.004310727 -0.003118991 0.002815008 0.006824195 -0.003239274 0.005295872 0.005318939 -0.005075871 0.01059877 0.004412949 -0.005368947 0.01149028 2.13773e-5 -0.005670487 0.01149028 2.13763e-5 -0.005670487 -0.004245817 1.98879e-5 -0.001119017 -0.003923535 0.001645982 -0.001119017 -0.003007411 0.003022491 -0.001119017 -0.001626372 0.003940105 -0.001119017 -0.001644432 0.003984153 -0.003118991 6.22084e-6 0.00738579 -0.00323677 0.002865314 0.006943941 -0.005075871 0.008109271 0.008131921 -0.005368947 0.01061666 0.004418671 -0.00771445 0.01106655 0.002265512 -0.006226301 -0.004292905 2.05536e-5 -0.003118991 -0.003966331 0.001662313 -0.003118991 -0.00303632 0.003054201 -0.003118991 -0.002821743 0.00682038 -0.003245532 -3.04943e-6 0.007517457 -0.005075871 0.004391431 0.01062446 -0.005368947 0.008122265 0.008147478 -0.01583153 0.00961858 0.006066203 -0.01388567 0.009612977 0.006060719 -0.01161742 0.009915173 0.005516529 -0.009345889 -0.005000591 2.05541e-5 -0.003118991 -0.004986345 0.002923727 -0.003118991 -0.004830479 0.005745887 -0.003368973 -0.002866923 0.00693494 -0.005075871 -1.28958e-6 0.01151704 -0.005368947 0.004379987 0.01062381 -0.01813054 -0.004996597 2.04978e-5 -0.003625154 -0.004986345 0.002923727 -0.003619015 -0.00496912 0.005968987 -0.005118966 -0.004944145 0.01039302 -0.005368947 3.848e-4 0.01128262 -0.01909619 -0.004976987 0.01037746 -0.02029967 -0.007968664 0.006069958 -0.007470667 -0.007803797 0.006069064 -0.02089118 -0.007956802 0.008167147 -0.02085483 -0.005000174 0.006048738 -0.007468938 -0.004970908 0.01036578 -0.007470667 -0.006898522 0.006070733 -0.02199447 -0.007956802 0.008167147 -0.007470667 -0.00689435 0.008559525 -0.02198827 -0.005016863 0.00607109 -0.02244675 -0.005018055 0.008548915 -0.02244484 0.002478063 0.008006572 -0.02071589 0.002467215 0.009219884 -0.0207175 0.005049943 0.006878376 -0.01935207 0.00455439 0.009218335 -0.01970314 0.00598824 0.006270408 -0.01845347 0.00678128 0.00930196 -0.01743423 0.005906879 1.54726e-5 -0.005769848 0.005906879 0.004438817 -0.007706701 0.005906581 0.002265036 -0.006214678 0.005907416 0.006081581 -0.01161623 0.00590682 0.005530118 -0.009339988 0.004950821 0.005987226 -0.007444381 0.005180358 2.05521e-5 -0.003118991 0.005180358 0.002923786 -0.003118991 0.004779577 0.005208253 -0.005445241</float_array>
          <technique_common>
            <accessor source="#Cylinder_010-mesh-positions-array" count="178" stride="3">
              <param name="X" type="float"/>
              <param name="Y" type="float"/>
              <param name="Z" type="float"/>
            </accessor>
          </technique_common>
        </source>
        <source id="Cylinder_010-mesh-normals">
          <float_array id="Cylinder_010-mesh-normals-array" count="531">0.6863545 -0.2851138 0.6690499 0.6148712 -0.2550188 0.7462565 0.665738 0 0.7461857 0.7411872 6.10382e-5 0.6712985 0.6068825 -3.05196e-5 0.7947916 0.5240391 -0.5249853 0.6706517 0.4701783 -0.4702394 0.746865 0.7351544 0 0.6778998 0.5648223 -0.23152 0.7920697 0.9139898 -0.3780722 0.1472553 0.2849294 -0.6847341 0.6707866 0.2550233 -0.6146684 0.7464222 0.5199019 -0.5193221 0.6782378 0.6771921 -0.28035 0.680305 0.6627807 0 0.7488136 0.2374402 -0.5670182 0.7887411 0.4249815 -0.4249205 0.7992705 -0.6052365 3.05197e-5 0.7960457 -0.5633495 -0.234294 0.7923027 -0.9152184 -0.3774955 0.1409695 -0.4321828 -0.4316639 0.7917603 -0.6974925 -0.70381 0.1347435 -0.2348484 -0.5597298 0.7947004 -0.3781626 -0.9148112 0.1418224 -8.2403e-4 -0.6001072 0.7999191 0.002655148 -0.9883277 0.1523203 0.3795072 -0.913625 0.145821 -9.15565e-5 -0.7430118 0.6692783 1.52594e-4 -0.6660122 0.745941 0.4688038 -0.4688953 0.7485723 0.6102581 -0.25285 0.7507676 0.7642642 3.66232e-4 0.6449033 -0.7416942 -9.15559e-5 0.6707383 -0.6857019 -0.2835524 0.6703813 -0.5253551 -0.5249888 0.6696186 -0.2841087 -0.6845589 0.6713134 -0.2556905 -0.6151466 0.7457996 0.2810835 -0.6782628 0.6789343 0.2538557 -0.6120554 0.7489629 0.7038078 -0.2965875 0.6455157 -0.6484711 0 0.7612394 -0.5979105 -0.2629878 0.7571926 -0.4869434 -0.473942 0.7336655 -6.40914e-4 -0.733938 0.6792162 -0.001892209 -0.6614822 0.7499585 0.2927736 -0.7097006 0.6407876 0.5406787 -0.5424793 0.6429486 0.8152004 0.119666 -0.5666819 -0.6693551 -0.05716311 0.7407404 -0.6660751 -0.4064813 0.6253934 -0.2447346 -0.6762477 0.694834 -0.2173906 -0.6499441 0.7282267 -0.01162767 -0.7752413 0.6315582 0.5116226 -0.3708989 -0.7750332 0.7345679 -0.5422967 -0.4078288 0.3648257 -0.8803854 -0.3030244 -0.7110024 0 0.7031896 -0.6872891 0 -0.7263841 -0.9682967 0.2495207 -0.01187175 -0.6318073 -0.5319182 0.5638107 0.05493438 -0.9240579 -0.3782845 -0.7031049 -0.3544823 0.6164299 -0.5849346 0.5730931 0.5739477 -0.7039794 0.656431 -0.2711299 0.7752533 0.1178963 -0.6205506 -0.5722629 -0.8021935 0.1702963 -0.2662774 -0.9070826 -0.3260334 -0.8825948 -0.3612599 -0.3008617 -0.3147435 0.9019615 0.2956385 -0.4077053 0.6404443 -0.6508514 -0.5125995 -0.4527515 -0.7295601 0.03811913 0.6658186 -0.7451393 0.3112038 0.528317 -0.7899578 0.3031752 -0.3975092 -0.8660665 0.2277979 0.6810134 -0.6959375 0.2524223 0.7703902 -0.5854758 0.8692137 0.4662704 -0.1644978 0.8359606 -0.4375586 -0.3312285 -0.01956272 -0.3878982 -0.9214947 -0.5393951 0.6369953 -0.5507177 0.8653416 0.2921603 -0.4072178 -0.3322963 0.8995319 -0.2835872 0.9221638 0.3748655 -0.0953415 0.3960801 0.9051733 -0.1542142 0.8027347 -2.74669e-4 -0.5963364 -0.6607446 0.2985101 -0.6887004 -0.4508673 0.8590071 -0.2425399 -0.7472677 0.1473172 -0.6479881 -0.5518205 0.3062922 -0.7756799 -0.6434355 0.1328499 -0.7538844 -0.4789936 0.7398079 -0.4724931 0.6863545 0.2851138 0.6690499 0.5648166 0.2314567 0.7920923 0.5240391 0.5249853 0.6706517 0.6148712 0.2550188 0.7462565 0.4249815 0.4249205 0.7992705 0.9140241 0.3780127 0.1471948 0.2849294 0.6847341 0.6707866 0.4701783 0.4702394 0.746865 0.6771921 0.28035 0.680305 0.5199019 0.5193221 0.6782378 0.2374402 0.5670182 0.7887411 0.7000558 0.6966377 0.1569006 -0.9708074 0.195077 0.1395631 -0.9152 0.3775185 0.1410277 -0.563355 0.2343574 0.7922801 -0.6974925 0.70381 0.1347435 -0.4321828 0.4316639 0.7917603 -0.3781626 0.9148112 0.1418224 -0.2348428 0.5597163 0.7947117 0.002655148 0.9883277 0.1523203 -8.2403e-4 0.6001072 0.7999191 0.3795072 0.913625 0.145821 -9.15565e-5 0.7430118 0.6692783 0.2550233 0.6146684 0.7464222 0.6102581 0.25285 0.7507676 0.4688038 0.4688953 0.7485723 -0.6857078 0.2835243 0.6703871 -0.5253551 0.5249888 0.6696186 -0.2841087 0.6845589 0.6713134 -0.2556905 0.6151466 0.7457996 0.2810835 0.6782628 0.6789343 1.52594e-4 0.6660122 0.745941 0.2538605 0.6120364 0.748977 0.7038078 0.2965875 0.6455157 -0.4869434 0.473942 0.7336655 -6.40901e-4 0.7339228 0.6792326 -0.001892209 0.6614822 0.7499585 0.5406787 0.5424793 0.6429486 0.2927736 0.7097006 0.6407876 0.8152004 -0.119666 -0.5666819 -0.5979105 0.2629878 0.7571926 -0.6693551 0.05716311 0.7407404 -0.6660751 0.4064813 0.6253934 -0.2447346 0.6762477 0.694834 -0.2173906 0.6499441 0.7282267 -0.01162767 0.7752413 0.6315582 0.5116226 0.3708989 -0.7750332 0.3648223 0.8803772 -0.3030521 0.7345679 0.5422967 -0.4078288 -0.7472677 -0.1473172 -0.6479881 -0.9682967 -0.2495207 -0.01187175 -0.6318073 0.5319182 0.5638107 0.05493438 0.9240579 -0.3782845 -0.7030916 0.3544756 0.6164488 -0.8825948 0.3612599 -0.3008617 -0.7039794 -0.656431 -0.2711299 0.7751821 -0.1179253 -0.620634 -0.5722629 0.8021935 0.1702963 -0.2662774 0.9070826 -0.3260334 -0.3147435 -0.9019615 0.2956385 -0.5849346 -0.5730931 0.5739477 -0.5125995 0.4527515 -0.7295601 -0.4077053 -0.6404443 -0.6508514 0.03811913 -0.6658186 -0.7451393 -0.01956272 0.3878982 -0.9214947 0.3031752 0.3975092 -0.8660665 0.3112038 -0.528317 -0.7899578 0.2277979 -0.6810134 -0.6959375 0.2524223 -0.7703902 -0.5854758 0.8359606 0.4375586 -0.3312285 -0.6607446 -0.2985101 -0.6887004 -0.5393951 -0.6369953 -0.5507177 -0.3322963 -0.8995319 -0.2835872 0.8653416 -0.2921603 -0.4072178 0.3960801 -0.9051733 -0.1542142 -0.6434708 -0.1328204 -0.7538595 -0.4508673 -0.8590071 -0.2425399 -0.4789936 -0.7398079 -0.4724931 -0.5518205 -0.3062922 -0.7756799 0.9221742 -0.3748393 -0.09534257 0.9693652 -0.1995007 0.1432852 0.7000558 -0.6966377 0.1569006 -0.970834 -0.1950762 0.1393794 -0.5869371 0 -0.8096326 0.9693906 0.1995059 0.1431059 0.8692137 -0.4662704 -0.1644978</float_array>
          <technique_common>
            <accessor source="#Cylinder_010-mesh-normals-array" count="177" stride="3">
              <param name="X" type="float"/>
              <param name="Y" type="float"/>
              <param name="Z" type="float"/>
            </accessor>
          </technique_common>
        </source>
        <vertices id="Cylinder_010-mesh-vertices">
          <input semantic="POSITION" source="#Cylinder_010-mesh-positions"/>
        </vertices>
        <lines count="1">
          <input semantic="VERTEX" source="#Cylinder_010-mesh-vertices" offset="0"/>
          <p>119 120</p>
        </lines>
        <polylist material="Metall_Alu_004-material" count="330">
          <input semantic="VERTEX" source="#Cylinder_010-mesh-vertices" offset="0"/>
          <input semantic="NORMAL" source="#Cylinder_010-mesh-normals" offset="1"/>
          <vcount>3 3 3 3 3 3 3 3 3 3 3 3 3 3 3 3 3 3 3 3 3 3 3 3 3 3 3 3 3 3 3 3 3 3 3 3 3 3 3 3 3 3 3 3 3 3 3 3 3 3 3 3 3 3 3 3 3 3 3 3 3 3 3 3 3 3 3 3 3 3 3 3 3 3 3 3 3 3 3 3 3 3 3 3 3 3 3 3 3 3 3 3 3 3 3 3 3 3 3 3 3 3 3 3 3 3 3 3 3 3 3 3 3 3 3 3 3 3 3 3 3 3 3 3 3 3 3 3 3 3 3 3 3 3 3 3 3 3 3 3 3 3 3 3 3 3 3 3 3 3 3 3 3 3 3 3 3 3 3 3 3 3 3 3 3 3 3 3 3 3 3 3 3 3 3 3 3 3 3 3 3 3 3 3 3 3 3 3 3 3 3 3 3 3 3 3 3 3 3 3 3 3 3 3 3 3 3 3 3 3 3 3 3 3 3 3 3 3 3 3 3 3 3 3 3 3 3 3 3 3 3 3 3 3 3 3 3 3 3 3 3 3 3 3 3 3 3 3 3 3 3 3 3 3 3 3 3 3 3 3 3 3 3 3 3 3 3 3 3 3 3 3 3 3 3 3 3 3 3 3 3 3 3 3 3 3 3 3 3 3 3 3 3 3 3 3 3 3 3 3 3 3 3 3 3 3 3 3 3 3 3 3 3 3 3 3 3 3 3 3 3 3 3 3 3 3 3 3 3 3 </vcount>
          <p>0 0 1 1 83 2 0 0 82 3 84 4 4 5 5 6 1 1 83 2 1 1 87 7 4 5 0 0 2 8 2 8 84 4 8 9 16 10 17 11 5 6 1 1 5 6 18 12 87 7 6 13 93 14 16 10 4 5 20 15 7 16 2 8 8 9 109 17 21 18 10 19 21 18 22 20 11 21 22 20 23 22 12 23 23 22 24 24 13 25 24 24 20 15 14 26 20 15 7 16 14 26 25 27 26 28 17 11 5 6 17 11 18 12 6 13 18 12 28 29 93 14 19 30 107 31 25 27 16 10 20 15 121 32 30 33 109 17 30 33 31 34 21 18 31 34 32 35 23 22 32 35 25 27 23 22 32 35 33 36 25 27 17 11 26 28 27 37 18 12 27 37 35 38 19 30 28 29 29 39 121 32 131 40 30 33 30 33 39 41 40 42 31 34 40 42 33 36 26 28 33 36 34 43 27 37 34 43 42 44 28 29 35 38 43 45 29 39 36 46 37 47 39 41 131 40 48 48 40 42 39 41 49 49 33 36 40 42 41 50 34 43 41 50 50 51 35 38 42 44 51 52 71 53 73 54 52 55 48 48 141 56 147 57 49 49 48 48 54 58 41 50 49 49 54 58 42 44 50 51 55 59 43 45 51 52 56 60 64 61 58 62 59 63 50 51 54 58 55 59 29 39 37 47 38 64 55 59 54 58 62 65 56 60 62 65 57 66 57 66 62 65 60 67 61 68 58 62 62 65 59 63 63 69 65 70 63 69 66 71 65 70 66 71 68 72 69 73 68 72 70 74 69 73 70 74 72 75 73 54 72 75 45 76 44 77 56 60 57 66 69 73 52 55 56 60 71 53 36 46 43 45 44 77 67 78 57 66 65 70 57 66 60 67 65 70 38 64 37 47 75 79 37 47 47 80 78 81 47 80 46 82 77 83 70 74 77 83 72 75 119 84 38 64 76 85 78 81 77 83 70 74 58 62 61 68 63 69 63 69 61 68 66 71 79 86 75 79 78 81 68 72 79 86 70 74 68 72 66 71 79 86 54 58 53 87 80 88 53 87 147 57 80 88 76 85 80 88 74 89 75 79 81 90 80 88 75 79 79 86 81 90 54 58 81 90 79 86 46 82 45 76 72 75 85 91 82 3 83 2 85 91 88 92 84 4 90 93 85 91 86 94 83 2 87 7 86 94 90 93 94 95 88 92 88 92 95 96 84 4 103 97 90 93 91 98 86 94 92 99 105 100 87 7 93 14 92 99 103 97 108 101 90 93 94 95 102 102 95 96 109 17 96 103 97 104 110 105 97 104 98 106 111 107 98 106 99 108 112 109 99 108 100 110 113 111 100 110 101 112 108 101 101 112 94 95 114 113 103 97 104 114 91 98 105 100 104 114 92 99 106 115 117 116 93 14 107 31 106 115 114 113 113 111 108 101 121 32 109 17 110 105 122 117 110 105 123 118 123 118 111 107 112 109 124 119 112 109 114 113 124 119 114 113 125 120 104 114 116 121 115 122 105 100 117 116 127 123 106 115 118 124 117 116 121 32 122 117 131 40 122 117 123 118 133 125 123 118 124 119 125 120 115 122 126 126 125 120 116 121 127 123 135 127 117 116 128 128 136 129 118 124 129 130 128 128 132 131 142 132 131 40 133 125 143 133 132 131 125 120 134 134 133 125 126 126 135 127 144 135 127 123 136 129 145 136 166 137 146 138 168 139 142 132 148 140 147 57 143 133 149 141 142 132 134 134 144 135 149 141 135 127 145 136 150 142 136 129 146 138 151 143 159 144 155 145 154 146 144 135 150 142 149 141 118 124 130 147 129 130 150 142 157 148 149 141 151 143 152 149 157 148 152 149 155 145 157 148 156 150 157 148 153 151 154 146 155 145 160 152 158 153 160 152 161 154 161 154 162 155 164 156 163 157 164 156 165 158 165 158 166 137 168 139 167 159 168 139 137 160 151 143 164 156 152 149 146 138 166 137 151 143 128 128 137 160 136 129 162 155 160 152 152 149 152 149 160 152 155 145 130 147 171 161 170 162 129 130 170 162 173 163 140 164 173 163 172 165 165 158 167 159 172 165 119 84 169 166 171 161 173 163 174 167 165 158 153 151 154 146 158 153 158 153 161 154 156 150 174 167 173 163 170 162 163 157 165 158 174 167 163 157 174 167 161 154 149 141 177 168 176 169 148 140 176 169 147 57 171 161 169 166 176 169 170 162 171 161 176 169 170 162 177 168 174 167 149 141 156 150 174 167 139 170 172 165 167 159 82 3 0 0 83 2 2 8 0 0 84 4 0 0 4 5 1 1 1 1 6 13 87 7 7 16 4 5 2 8 84 4 3 171 8 9 4 5 16 10 5 6 6 13 1 1 18 12 6 13 19 30 93 14 4 5 7 16 20 15 15 172 7 16 8 9 9 173 109 17 10 19 10 19 21 18 11 21 11 21 22 20 12 23 12 23 23 22 13 25 13 25 24 24 14 26 7 16 15 172 14 26 16 10 25 27 17 11 17 11 27 37 18 12 19 30 6 13 28 29 19 30 29 39 107 31 24 24 25 27 20 15 30 33 21 18 109 17 31 34 22 20 21 18 22 20 31 34 23 22 25 27 24 24 23 22 33 36 26 28 25 27 26 28 34 43 27 37 28 29 18 12 35 38 28 29 36 46 29 39 131 40 39 41 30 33 31 34 30 33 40 42 32 35 31 34 33 36 33 36 41 50 34 43 35 38 27 37 42 44 36 46 28 29 43 45 37 47 36 46 47 80 36 46 44 77 47 80 44 77 45 76 46 82 47 80 44 77 46 82 131 40 141 56 48 48 39 41 48 48 49 49 40 42 49 49 41 50 42 44 34 43 50 51 43 45 35 38 51 52 53 87 48 48 147 57 48 48 53 87 54 58 50 51 41 50 54 58 51 52 42 44 55 59 52 55 43 45 56 60 60 67 64 61 59 63 107 31 29 39 119 84 29 39 38 64 119 84 54 58 61 68 62 65 51 52 55 59 56 60 55 59 62 65 56 60 62 65 64 61 60 67 58 62 64 61 62 65 60 67 59 63 65 70 66 71 67 78 65 70 67 78 66 71 69 73 70 74 71 53 69 73 71 53 70 74 73 54 73 54 72 75 44 77 57 66 67 78 69 73 56 60 69 73 71 53 43 45 52 55 73 54 44 77 43 45 73 54 76 85 38 64 75 79 75 79 37 47 78 81 78 81 47 80 77 83 74 89 119 84 76 85 79 86 78 81 70 74 59 63 58 62 63 69 66 71 61 68 79 86 81 90 54 58 80 88 147 57 175 174 80 88 80 88 175 174 74 89 76 85 75 79 80 88 61 68 54 58 79 86 77 83 46 82 72 75 86 94 85 91 83 2 82 3 85 91 84 4 91 98 90 93 86 94 87 7 92 99 86 94 85 91 90 93 88 92 95 96 89 175 84 4 104 114 103 97 91 98 91 98 86 94 105 100 93 14 106 115 92 99 108 101 94 95 90 93 88 92 94 95 95 96 110 105 109 17 97 104 111 107 110 105 98 106 112 109 111 107 99 108 113 111 112 109 100 110 108 101 113 111 101 112 101 112 102 102 94 95 115 122 114 113 104 114 105 100 116 121 104 114 105 100 92 99 117 116 107 31 118 124 106 115 103 97 114 113 108 101 122 117 121 32 110 105 110 105 111 107 123 118 124 119 123 118 112 109 112 109 113 111 114 113 114 113 115 122 125 120 116 121 126 126 115 122 116 121 105 100 127 123 118 124 128 128 117 116 122 117 132 131 131 40 132 131 122 117 133 125 133 125 123 118 125 120 126 126 134 134 125 120 126 126 116 121 135 127 127 123 117 116 136 129 129 130 140 164 128 128 128 128 140 164 137 160 140 164 139 170 137 160 139 170 138 176 137 160 142 132 141 56 131 40 143 133 142 132 132 131 134 134 143 133 133 125 134 134 126 126 144 135 135 127 127 123 145 136 141 56 142 132 147 57 149 141 148 140 142 132 143 133 134 134 149 141 144 135 135 127 150 142 145 136 136 129 151 143 153 151 159 144 154 146 107 31 119 84 118 124 119 84 130 147 118 124 157 148 156 150 149 141 145 136 151 143 150 142 151 143 157 148 150 142 155 145 159 144 157 148 157 148 159 144 153 151 158 153 154 146 160 152 160 152 162 155 161 154 163 157 161 154 164 156 164 156 166 137 165 158 167 159 165 158 168 139 138 176 167 159 137 160 164 156 162 155 152 149 166 137 164 156 151 143 137 160 168 139 136 129 168 139 146 138 136 129 129 130 130 147 170 162 140 164 129 130 173 163 139 170 140 164 172 165 130 147 119 84 171 161 172 165 173 163 165 158 156 150 153 151 158 153 174 167 156 150 161 154 148 140 149 141 176 169 176 169 175 174 147 57 169 166 175 174 176 169 177 168 170 162 176 169 177 168 149 141 174 167 138 176 139 170 167 159</p>
        </polylist>
      </mesh>
    </geometry>
  </library_geometries>
  <library_controllers/>
  <library_visual_scenes>
    <visual_scene id="Scene" name="Scene">
      <node id="VIS_hollie_left_hand_virtual_l" name="VIS_hollie_left_hand_virtual_l" type="NODE">
        <instance_geometry url="#Cylinder_010-mesh" name="VIS_hollie_left_hand_virtual_l">
          <bind_material>
            <technique_common>
              <instance_material symbol="Metall_Alu_004-material" target="#Metall_Alu_004-material"/>
            </technique_common>
          </bind_material>
        </instance_geometry>
      </node>
    </visual_scene>
  </library_visual_scenes>
  <scene>
    <instance_visual_scene url="#Scene"/>
  </scene>
</COLLADA>