<?xml version="1.0" encoding="UTF-8"?>
<COLLADA xmlns="http://www.collada.org/2005/11/COLLADASchema" version="1.4.1">
    <asset>
        <contributor>
            <author>VCGLab</author>
            <authoring_tool>VCGLib | MeshLab</authoring_tool>
        </contributor>
        <created>Mi Nov 9 01:49:20 2016 GMT</created>
        <modified>Mi Nov 9 01:49:20 2016 GMT</modified>
        <up_axis>Y_UP</up_axis>
    </asset>
    <library_geometries>
        <geometry id="shape0-lib" name="shape0">
            <mesh>
                <source id="shape0-lib-positions" name="position">
                    <float_array id="shape0-lib-positions-array" count="3510">0.016976 0.0628133 0.123211 0.017784 0.0628133 0.126432 0.0186183 0.0628133 0.129758 0.0202605 0.0628133 0.136305 0.0222653 0.0628133 0.144297 0.0227065 0.0628133 0.146055 0.0219047 0.0628133 0.147853 0.021306 0.0628133 0.147969 0.0194883 0.0628133 0.148248 0.0188756 0.0628133 0.148318 0.0163939 0.0628133 0.148472 0.0155115 0.0628133 0.148479 0.016976 0.0523483 0.123211 0.0186183 0.0523483 0.129758 0.0194525 0.0523483 0.133083 0.0202605 0.0523483 0.136305 0.0216932 0.0523483 0.142016 0.0230909 0.0523483 0.147588 0.0224997 0.0523483 0.147726 0.0219047 0.0523483 0.147853 0.0207036 0.0523483 0.148073 0.0200976 0.0523483 0.148167 0.0182597 0.0523483 0.148375 0.0176407 0.0523483 0.14842 0.0157663 0.0523483 0.148479 0.0155115 0.0523483 0.148479 0.0162204 0.0523483 0.120199 0.0162204 0.0628133 0.120199 0.017784 0.0523483 0.126432 0.0194525 0.0628133 0.133083 0.0210161 0.0523483 0.139317 0.0210161 0.0628133 0.139317 0.0216932 0.0628133 0.142016 0.0222653 0.0523483 0.144297 0.0227065 0.0523483 0.146055 0.0229904 0.0523483 0.147187 0.0229904 0.0628133 0.147187 0.0230909 0.0628133 0.147588 0.0224997 0.0628133 0.147725 0.021306 0.0523483 0.147969 0.0207036 0.0628133 0.148073 0.0200976 0.0628133 0.148167 0.0194883 0.0523483 0.148248 0.0188756 0.0523483 0.148318 0.0182597 0.0628133 0.148375 0.0176407 0.0628133 0.14842 0.0170188 0.0523483 0.148453 0.0170188 0.0628133 0.148453 0.0163939 0.0523483 0.148472 0.0157663 0.0628133 0.148479 0.0209233 0.0628133 0.120002 0.0270904 0.0628133 0.12287 0.0302233 0.0628133 0.124327 0.0332576 0.0628133 0.125738 0.0360952 0.0628133 0.127058 0.0407862 0.0628133 0.129239 0.0433186 0.0628133 0.13183 0.0427008 0.0628133 0.132951 0.0416852 0.0628133 0.13458 0.0413243 0.0628133 0.135108 0.039778 0.0628133 0.137144 0.0239576 0.0523483 0.121413 0.0270904 0.0523483 0.12287 0.0302233 0.0523483 0.124327 0.0407862 0.0523483 0.129239 0.0424428 0.0523483 0.13001 0.0438861 0.0523483 0.130681 0.0436089 0.0523483 0.131259 0.0427008 0.0523483 0.132951 0.0423737 0.0523483 0.133501 0.0420351 0.0523483 0.134044 0.0409528 0.0523483 0.135629 0.0405711 0.0523483 0.136142 0.039778 0.0523483 0.137144 0.0180857 0.0523483 0.118682 0.0180857 0.0628133 0.118682 0.0209233 0.0523483 0.120002 0.0239576 0.0628133 0.121413 0.0332576 0.0523483 0.125738 0.0360952 0.0523483 0.127058 0.0386375 0.0523483 0.12824 0.0386375 0.0628133 0.12824 0.0424428 0.0628133 0.13001 0.0435089 0.0523483 0.130506 0.0435089 0.0628133 0.130506 0.0438861 0.0628133 0.130681 0.0436089 0.0628133 0.131259 0.0433186 0.0523483 0.13183 0.0430159 0.0523483 0.132394 0.0430159 0.0628133 0.132394 0.0423737 0.0628133 0.133501 0.0420351 0.0628133 0.134044 0.0416852 0.0523483 0.13458 0.0413243 0.0523483 0.135108 0.0409528 0.0628133 0.135629 0.0405711 0.0628133 0.136142 0.0401794 0.0523483 0.136647 0.0401794 0.0628133 0.136647 0.0347583 0.0628133 0.141994 0.0342528 0.0628133 0.142377 0.0337393 0.0628133 0.142748 0.0332178 0.0628133 0.143109 0.0316056 0.0628133 0.144128 0.0310523 0.0628133 0.144446 0.030491 0.0628133 0.144754 0.0293446 0.0628133 0.145338 0.0155434 0.0628133 0.1175 0.0257533 0.0628133 0.129983 0.0278638 0.0628133 0.132564 0.0298373 0.0628133 0.134977 0.0316054 0.0628133 0.137138 0.0342521 0.0628133 0.140374 0.0347583 0.0523483 0.141994 0.0337393 0.0523483 0.142748 0.032151 0.0523483 0.143799 0.0310523 0.0523483 0.144446 0.030491 0.0523483 0.144754 0.0287594 0.0523483 0.145614 0.0155434 0.0523483 0.1175 0.0173116 0.0523483 0.119662 0.0192852 0.0523483 0.122075 0.0213956 0.0523483 0.124655 0.0257533 0.0523483 0.129983 0.0278638 0.0523483 0.132564 0.0316054 0.0523483 0.137138 0.0342528 0.0523483 0.142377 0.0332178 0.0523483 0.143109 0.0326884 0.0523483 0.143459 0.0326884 0.0628133 0.143459 0.032151 0.0628133 0.143799 0.0316056 0.0523483 0.144128 0.0299218 0.0523483 0.145051 0.0299218 0.0628133 0.145051 0.0293446 0.0523483 0.145338 0.0287594 0.0628133 0.145614 0.0173116 0.0628133 0.119662 0.0192852 0.0628133 0.122075 0.0213956 0.0628133 0.124655 0.0235744 0.0523483 0.127319 0.0235744 0.0628133 0.127319 0.0298373 0.0523483 0.134977 0.0330999 0.0523483 0.138966 0.0330999 0.0628133 0.138966 0.0342521 0.0523483 0.140374 0.0349935 0.0523483 0.141281 0.0349935 0.0628133 0.141281 0.0352559 0.0523483 0.141602 0.0352559 0.0628133 0.141602 0.0248558 0.0628133 0.1175 0.028323 0.0628133 0.1175 0.0317902 0.0628133 0.1175 0.0351485 0.0628133 0.1175 0.0382889 0.0628133 0.1175 0.0434806 0.0628133 0.1175 0.045314 0.0628133 0.1175 0.0469115 0.0628133 0.1175 0.0468334 0.0628133 0.119445 0.0467829 0.0628133 0.120087 0.0465568 0.0628133 0.121991 0.0464562 0.0628133 0.122618 0.0462163 0.0628133 0.123857 0.0460769 0.0628133 0.12447 0.0459243 0.0628133 0.125077 0.0248558 0.0523483 0.1175 0.0317902 0.0523483 0.1175 0.0411026 0.0523483 0.1175 0.045314 0.0523483 0.1175 0.0469115 0.0523483 0.1175 0.0468975 0.0523483 0.118151 0.0466448 0.0523483 0.12136 0.0465568 0.0523483 0.121991 0.0464562 0.0523483 0.122618 0.0463427 0.0523483 0.12324 0.0460769 0.0523483 0.12447 0.0183571 0.0523483 0.1175 0.0183571 0.0628133 0.1175 0.0214975 0.0523483 0.1175 0.0214975 0.0628133 0.1175 0.028323 0.0523483 0.1175 0.0351485 0.0523483 0.1175 0.0382889 0.0523483 0.1175 0.0411026 0.0628133 0.1175 0.0434806 0.0523483 0.1175 0.046494 0.0523483 0.1175 0.046494 0.0628133 0.1175 0.0468975 0.0628133 0.118151 0.0468716 0.0523483 0.1188 0.0468716 0.0628133 0.1188 0.0468334 0.0523483 0.119445 0.0467829 0.0523483 0.120087 0.0467201 0.0523483 0.120725 0.0467201 0.0628133 0.120725 0.0466448 0.0628133 0.12136 0.0463427 0.0628133 0.12324 0.0462163 0.0523483 0.123857 0.0459243 0.0523483 0.125077 -0.0336583 0.0628133 0.117468 -0.0251555 0.0628133 0.141506 -0.0396453 0.0628133 0.148479 -0.0396453 0.0628133 0.141506 0.00541642 0.0628133 0.13291 -0.00719443 0.0628133 0.1175 0.00226375 0.0628133 0.1175 0.0135052 0.0628133 0.129567 0.00261405 0.0628133 0.148511 -0.0171303 0.0628133 0.1175 -0.0086275 0.0628133 0.1175 -0.0086275 0.0628133 0.148479 -0.0336583 0.0523483 0.141506 -0.0336583 0.0523483 0.117468 -0.0251555 0.0523483 0.117468 -0.0396453 0.0523483 0.148479 0.00226375 0.0523483 0.1175 0.0135052 0.0523483 0.136476 0.00261405 0.0523483 0.148511 -0.0171303 0.0523483 0.148479 -0.0171303 0.0523483 0.1175 -0.0086275 0.0523483 0.1175 -0.0336583 0.0628133 0.141506 -0.0251555 0.0628133 0.117468 -0.0251555 0.0523483 0.141506 -0.0191685 0.0523483 0.141506 -0.0191685 0.0628133 0.141506 -0.0191685 0.0523483 0.148479 -0.0191685 0.0628133 0.148479 -0.0396453 0.0523483 0.141506 -0.0171303 0.0628133 0.148479 -0.0086275 0.0523483 0.148479 0.00541642 0.0523483 0.13291 -0.00719443 0.0523483 0.1175 0.0135052 0.0523483 0.129567 0.0135052 0.0628133 0.136476 -0.00713077 0.0523483 0.148511 -0.00713077 0.0628133 0.148511 0.016976 0.0628133 0.123211 0.017784 0.0628133 0.126432 0.0186183 0.0628133 0.129758 0.0202605 0.0628133 0.136305 0.0222653 0.0628133 0.144297 0.0227065 0.0628133 0.146055 0.0219047 0.0628133 0.147853 0.021306 0.0628133 0.147969 0.0194883 0.0628133 0.148248 0.0188756 0.0628133 0.148318 0.0163939 0.0628133 0.148472 0.0155115 0.0628133 0.148479 0.016976 0.0523483 0.123211 0.0186183 0.0523483 0.129758 0.0194525 0.0523483 0.133083 0.0202605 0.0523483 0.136305 0.0216932 0.0523483 0.142016 0.0230909 0.0523483 0.147588 0.0224997 0.0523483 0.147726 0.0219047 0.0523483 0.147853 0.0207036 0.0523483 0.148073 0.0200976 0.0523483 0.148167 0.0182597 0.0523483 0.148375 0.0176407 0.0523483 0.14842 0.0157663 0.0523483 0.148479 0.0155115 0.0523483 0.148479 0.0162204 0.0523483 0.120199 0.0162204 0.0628133 0.120199 0.017784 0.0523483 0.126432 0.0194525 0.0628133 0.133083 0.0210161 0.0523483 0.139317 0.0210161 0.0628133 0.139317 0.0216932 0.0628133 0.142016 0.0222653 0.0523483 0.144297 0.0227065 0.0523483 0.146055 0.0229904 0.0523483 0.147187 0.0229904 0.0628133 0.147187 0.0230909 0.0628133 0.147588 0.0224997 0.0628133 0.147725 0.021306 0.0523483 0.147969 0.0207036 0.0628133 0.148073 0.0200976 0.0628133 0.148167 0.0194883 0.0523483 0.148248 0.0188756 0.0523483 0.148318 0.0182597 0.0628133 0.148375 0.0176407 0.0628133 0.14842 0.0170188 0.0523483 0.148453 0.0170188 0.0628133 0.148453 0.0163939 0.0523483 0.148472 0.0157663 0.0628133 0.148479 0.0209233 0.0628133 0.120002 0.0270904 0.0628133 0.12287 0.0302233 0.0628133 0.124327 0.0332576 0.0628133 0.125738 0.0360952 0.0628133 0.127058 0.0407862 0.0628133 0.129239 0.0433186 0.0628133 0.13183 0.0427008 0.0628133 0.132951 0.0416852 0.0628133 0.13458 0.0413243 0.0628133 0.135108 0.039778 0.0628133 0.137144 0.0239576 0.0523483 0.121413 0.0270904 0.0523483 0.12287 0.0302233 0.0523483 0.124327 0.0407862 0.0523483 0.129239 0.0424428 0.0523483 0.13001 0.0438861 0.0523483 0.130681 0.0436089 0.0523483 0.131259 0.0427008 0.0523483 0.132951 0.0423737 0.0523483 0.133501 0.0420351 0.0523483 0.134044 0.0409528 0.0523483 0.135629 0.0405711 0.0523483 0.136142 0.039778 0.0523483 0.137144 0.0180857 0.0523483 0.118682 0.0180857 0.0628133 0.118682 0.0209233 0.0523483 0.120002 0.0239576 0.0628133 0.121413 0.0332576 0.0523483 0.125738 0.0360952 0.0523483 0.127058 0.0386375 0.0523483 0.12824 0.0386375 0.0628133 0.12824 0.0424428 0.0628133 0.13001 0.0435089 0.0523483 0.130506 0.0435089 0.0628133 0.130506 0.0438861 0.0628133 0.130681 0.0436089 0.0628133 0.131259 0.0433186 0.0523483 0.13183 0.0430159 0.0523483 0.132394 0.0430159 0.0628133 0.132394 0.0423737 0.0628133 0.133501 0.0420351 0.0628133 0.134044 0.0416852 0.0523483 0.13458 0.0413243 0.0523483 0.135108 0.0409528 0.0628133 0.135629 0.0405711 0.0628133 0.136142 0.0401794 0.0523483 0.136647 0.0401794 0.0628133 0.136647 0.0347583 0.0628133 0.141994 0.0342528 0.0628133 0.142377 0.0337393 0.0628133 0.142748 0.0332178 0.0628133 0.143109 0.0316056 0.0628133 0.144128 0.0310523 0.0628133 0.144446 0.030491 0.0628133 0.144754 0.0293446 0.0628133 0.145338 0.0155434 0.0628133 0.1175 0.0257533 0.0628133 0.129983 0.0278638 0.0628133 0.132564 0.0298373 0.0628133 0.134977 0.0316054 0.0628133 0.137138 0.0342521 0.0628133 0.140374 0.0347583 0.0523483 0.141994 0.0337393 0.0523483 0.142748 0.032151 0.0523483 0.143799 0.0310523 0.0523483 0.144446 0.030491 0.0523483 0.144754 0.0287594 0.0523483 0.145614 0.0155434 0.0523483 0.1175 0.0173116 0.0523483 0.119662 0.0192852 0.0523483 0.122075 0.0213956 0.0523483 0.124655 0.0257533 0.0523483 0.129983 0.0278638 0.0523483 0.132564 0.0316054 0.0523483 0.137138 0.0342528 0.0523483 0.142377 0.0332178 0.0523483 0.143109 0.0326884 0.0523483 0.143459 0.0326884 0.0628133 0.143459 0.032151 0.0628133 0.143799 0.0316056 0.0523483 0.144128 0.0299218 0.0523483 0.145051 0.0299218 0.0628133 0.145051 0.0293446 0.0523483 0.145338 0.0287594 0.0628133 0.145614 0.0173116 0.0628133 0.119662 0.0192852 0.0628133 0.122075 0.0213956 0.0628133 0.124655 0.0235744 0.0523483 0.127319 0.0235744 0.0628133 0.127319 0.0298373 0.0523483 0.134977 0.0330999 0.0523483 0.138966 0.0330999 0.0628133 0.138966 0.0342521 0.0523483 0.140374 0.0349935 0.0523483 0.141281 0.0349935 0.0628133 0.141281 0.0352559 0.0523483 0.141602 0.0352559 0.0628133 0.141602 0.0248558 0.0628133 0.1175 0.028323 0.0628133 0.1175 0.0317902 0.0628133 0.1175 0.0351485 0.0628133 0.1175 0.0382889 0.0628133 0.1175 0.0434806 0.0628133 0.1175 0.045314 0.0628133 0.1175 0.0469115 0.0628133 0.1175 0.0468334 0.0628133 0.119445 0.0467829 0.0628133 0.120087 0.0465568 0.0628133 0.121991 0.0464562 0.0628133 0.122618 0.0462163 0.0628133 0.123857 0.0460769 0.0628133 0.12447 0.0459243 0.0628133 0.125077 0.0248558 0.0523483 0.1175 0.0317902 0.0523483 0.1175 0.0411026 0.0523483 0.1175 0.045314 0.0523483 0.1175 0.0469115 0.0523483 0.1175 0.0468975 0.0523483 0.118151 0.0466448 0.0523483 0.12136 0.0465568 0.0523483 0.121991 0.0464562 0.0523483 0.122618 0.0463427 0.0523483 0.12324 0.0460769 0.0523483 0.12447 0.0183571 0.0523483 0.1175 0.0183571 0.0628133 0.1175 0.0214975 0.0523483 0.1175 0.0214975 0.0628133 0.1175 0.028323 0.0523483 0.1175 0.0351485 0.0523483 0.1175 0.0382889 0.0523483 0.1175 0.0411026 0.0628133 0.1175 0.0434806 0.0523483 0.1175 0.046494 0.0523483 0.1175 0.046494 0.0628133 0.1175 0.0468975 0.0628133 0.118151 0.0468716 0.0523483 0.1188 0.0468716 0.0628133 0.1188 0.0468334 0.0523483 0.119445 0.0467829 0.0523483 0.120087 0.0467201 0.0523483 0.120725 0.0467201 0.0628133 0.120725 0.0466448 0.0628133 0.12136 0.0463427 0.0628133 0.12324 0.0462163 0.0523483 0.123857 0.0459243 0.0523483 0.125077 -0.0336583 0.0628133 0.117468 -0.0251555 0.0628133 0.141506 -0.0396453 0.0628133 0.148479 -0.0396453 0.0628133 0.141506 0.00541642 0.0628133 0.13291 -0.00719443 0.0628133 0.1175 0.00226375 0.0628133 0.1175 0.0135052 0.0628133 0.129567 0.00261405 0.0628133 0.148511 -0.0171303 0.0628133 0.1175 -0.0086275 0.0628133 0.1175 -0.0086275 0.0628133 0.148479 -0.0336583 0.0523483 0.141506 -0.0336583 0.0523483 0.117468 -0.0251555 0.0523483 0.117468 -0.0396453 0.0523483 0.148479 0.00226375 0.0523483 0.1175 0.0135052 0.0523483 0.136476 0.00261405 0.0523483 0.148511 -0.0171303 0.0523483 0.148479 -0.0171303 0.0523483 0.1175 -0.0086275 0.0523483 0.1175 -0.0336583 0.0628133 0.141506 -0.0251555 0.0628133 0.117468 -0.0251555 0.0523483 0.141506 -0.0191685 0.0523483 0.141506 -0.0191685 0.0628133 0.141506 -0.0191685 0.0523483 0.148479 -0.0191685 0.0628133 0.148479 -0.0396453 0.0523483 0.141506 -0.0171303 0.0628133 0.148479 -0.0086275 0.0523483 0.148479 0.00541642 0.0523483 0.13291 -0.00719443 0.0523483 0.1175 0.0135052 0.0523483 0.129567 0.0135052 0.0628133 0.136476 -0.00713077 0.0523483 0.148511 -0.00713077 0.0628133 0.148511 0.016976 0.0628133 0.123211 0.017784 0.0628133 0.126432 0.0186183 0.0628133 0.129758 0.0202605 0.0628133 0.136305 0.0222653 0.0628133 0.144297 0.0227065 0.0628133 0.146055 0.0219047 0.0628133 0.147853 0.021306 0.0628133 0.147969 0.0194883 0.0628133 0.148248 0.0188756 0.0628133 0.148318 0.0163939 0.0628133 0.148472 0.0155115 0.0628133 0.148479 0.016976 0.0523483 0.123211 0.0186183 0.0523483 0.129758 0.0194525 0.0523483 0.133083 0.0202605 0.0523483 0.136305 0.0216932 0.0523483 0.142016 0.0230909 0.0523483 0.147588 0.0224997 0.0523483 0.147726 0.0219047 0.0523483 0.147853 0.0207036 0.0523483 0.148073 0.0200976 0.0523483 0.148167 0.0182597 0.0523483 0.148375 0.0176407 0.0523483 0.14842 0.0157663 0.0523483 0.148479 0.0155115 0.0523483 0.148479 0.0162204 0.0523483 0.120199 0.0162204 0.0628133 0.120199 0.017784 0.0523483 0.126432 0.0194525 0.0628133 0.133083 0.0210161 0.0523483 0.139317 0.0210161 0.0628133 0.139317 0.0216932 0.0628133 0.142016 0.0222653 0.0523483 0.144297 0.0227065 0.0523483 0.146055 0.0229904 0.0523483 0.147187 0.0229904 0.0628133 0.147187 0.0230909 0.0628133 0.147588 0.0224997 0.0628133 0.147725 0.021306 0.0523483 0.147969 0.0207036 0.0628133 0.148073 0.0200976 0.0628133 0.148167 0.0194883 0.0523483 0.148248 0.0188756 0.0523483 0.148318 0.0182597 0.0628133 0.148375 0.0176407 0.0628133 0.14842 0.0170188 0.0523483 0.148453 0.0170188 0.0628133 0.148453 0.0163939 0.0523483 0.148472 0.0157663 0.0628133 0.148479 0.0209233 0.0628133 0.120002 0.0270904 0.0628133 0.12287 0.0302233 0.0628133 0.124327 0.0332576 0.0628133 0.125738 0.0360952 0.0628133 0.127058 0.0407862 0.0628133 0.129239 0.0433186 0.0628133 0.13183 0.0427008 0.0628133 0.132951 0.0416852 0.0628133 0.13458 0.0413243 0.0628133 0.135108 0.039778 0.0628133 0.137144 0.0239576 0.0523483 0.121413 0.0270904 0.0523483 0.12287 0.0302233 0.0523483 0.124327 0.0407862 0.0523483 0.129239 0.0424428 0.0523483 0.13001 0.0438861 0.0523483 0.130681 0.0436089 0.0523483 0.131259 0.0427008 0.0523483 0.132951 0.0423737 0.0523483 0.133501 0.0420351 0.0523483 0.134044 0.0409528 0.0523483 0.135629 0.0405711 0.0523483 0.136142 0.039778 0.0523483 0.137144 0.0180857 0.0523483 0.118682 0.0180857 0.0628133 0.118682 0.0209233 0.0523483 0.120002 0.0239576 0.0628133 0.121413 0.0332576 0.0523483 0.125738 0.0360952 0.0523483 0.127058 0.0386375 0.0523483 0.12824 0.0386375 0.0628133 0.12824 0.0424428 0.0628133 0.13001 0.0435089 0.0523483 0.130506 0.0435089 0.0628133 0.130506 0.0438861 0.0628133 0.130681 0.0436089 0.0628133 0.131259 0.0433186 0.0523483 0.13183 0.0430159 0.0523483 0.132394 0.0430159 0.0628133 0.132394 0.0423737 0.0628133 0.133501 0.0420351 0.0628133 0.134044 0.0416852 0.0523483 0.13458 0.0413243 0.0523483 0.135108 0.0409528 0.0628133 0.135629 0.0405711 0.0628133 0.136142 0.0401794 0.0523483 0.136647 0.0401794 0.0628133 0.136647 0.0347583 0.0628133 0.141994 0.0342528 0.0628133 0.142377 0.0337393 0.0628133 0.142748 0.0332178 0.0628133 0.143109 0.0316056 0.0628133 0.144128 0.0310523 0.0628133 0.144446 0.030491 0.0628133 0.144754 0.0293446 0.0628133 0.145338 0.0155434 0.0628133 0.1175 0.0257533 0.0628133 0.129983 0.0278638 0.0628133 0.132564 0.0298373 0.0628133 0.134977 0.0316054 0.0628133 0.137138 0.0342521 0.0628133 0.140374 0.0347583 0.0523483 0.141994 0.0337393 0.0523483 0.142748 0.032151 0.0523483 0.143799 0.0310523 0.0523483 0.144446 0.030491 0.0523483 0.144754 0.0287594 0.0523483 0.145614 0.0155434 0.0523483 0.1175 0.0173116 0.0523483 0.119662 0.0192852 0.0523483 0.122075 0.0213956 0.0523483 0.124655 0.0257533 0.0523483 0.129983 0.0278638 0.0523483 0.132564 0.0316054 0.0523483 0.137138 0.0342528 0.0523483 0.142377 0.0332178 0.0523483 0.143109 0.0326884 0.0523483 0.143459 0.0326884 0.0628133 0.143459 0.032151 0.0628133 0.143799 0.0316056 0.0523483 0.144128 0.0299218 0.0523483 0.145051 0.0299218 0.0628133 0.145051 0.0293446 0.0523483 0.145338 0.0287594 0.0628133 0.145614 0.0173116 0.0628133 0.119662 0.0192852 0.0628133 0.122075 0.0213956 0.0628133 0.124655 0.0235744 0.0523483 0.127319 0.0235744 0.0628133 0.127319 0.0298373 0.0523483 0.134977 0.0330999 0.0523483 0.138966 0.0330999 0.0628133 0.138966 0.0342521 0.0523483 0.140374 0.0349935 0.0523483 0.141281 0.0349935 0.0628133 0.141281 0.0352559 0.0523483 0.141602 0.0352559 0.0628133 0.141602 0.0248558 0.0628133 0.1175 0.028323 0.0628133 0.1175 0.0317902 0.0628133 0.1175 0.0351485 0.0628133 0.1175 0.0382889 0.0628133 0.1175 0.0434806 0.0628133 0.1175 0.045314 0.0628133 0.1175 0.0469115 0.0628133 0.1175 0.0468334 0.0628133 0.119445 0.0467829 0.0628133 0.120087 0.0465568 0.0628133 0.121991 0.0464562 0.0628133 0.122618 0.0462163 0.0628133 0.123857 0.0460769 0.0628133 0.12447 0.0459243 0.0628133 0.125077 0.0248558 0.0523483 0.1175 0.0317902 0.0523483 0.1175 0.0411026 0.0523483 0.1175 0.045314 0.0523483 0.1175 0.0469115 0.0523483 0.1175 0.0468975 0.0523483 0.118151 0.0466448 0.0523483 0.12136 0.0465568 0.0523483 0.121991 0.0464562 0.0523483 0.122618 0.0463427 0.0523483 0.12324 0.0460769 0.0523483 0.12447 0.0183571 0.0523483 0.1175 0.0183571 0.0628133 0.1175 0.0214975 0.0523483 0.1175 0.0214975 0.0628133 0.1175 0.028323 0.0523483 0.1175 0.0351485 0.0523483 0.1175 0.0382889 0.0523483 0.1175 0.0411026 0.0628133 0.1175 0.0434806 0.0523483 0.1175 0.046494 0.0523483 0.1175 0.046494 0.0628133 0.1175 0.0468975 0.0628133 0.118151 0.0468716 0.0523483 0.1188 0.0468716 0.0628133 0.1188 0.0468334 0.0523483 0.119445 0.0467829 0.0523483 0.120087 0.0467201 0.0523483 0.120725 0.0467201 0.0628133 0.120725 0.0466448 0.0628133 0.12136 0.0463427 0.0628133 0.12324 0.0462163 0.0523483 0.123857 0.0459243 0.0523483 0.125077 -0.0336583 0.0628133 0.117468 -0.0251555 0.0628133 0.141506 -0.0396453 0.0628133 0.148479 -0.0396453 0.0628133 0.141506 0.00541642 0.0628133 0.13291 -0.00719443 0.0628133 0.1175 0.00226375 0.0628133 0.1175 0.0135052 0.0628133 0.129567 0.00261405 0.0628133 0.148511 -0.0171303 0.0628133 0.1175 -0.0086275 0.0628133 0.1175 -0.0086275 0.0628133 0.148479 -0.0336583 0.0523483 0.141506 -0.0336583 0.0523483 0.117468 -0.0251555 0.0523483 0.117468 -0.0396453 0.0523483 0.148479 0.00226375 0.0523483 0.1175 0.0135052 0.0523483 0.136476 0.00261405 0.0523483 0.148511 -0.0171303 0.0523483 0.148479 -0.0171303 0.0523483 0.1175 -0.0086275 0.0523483 0.1175 -0.0336583 0.0628133 0.141506 -0.0251555 0.0628133 0.117468 -0.0251555 0.0523483 0.141506 -0.0191685 0.0523483 0.141506 -0.0191685 0.0628133 0.141506 -0.0191685 0.0523483 0.148479 -0.0191685 0.0628133 0.148479 -0.0396453 0.0523483 0.141506 -0.0171303 0.0628133 0.148479 -0.0086275 0.0523483 0.148479 0.00541642 0.0523483 0.13291 -0.00719443 0.0523483 0.1175 0.0135052 0.0523483 0.129567 0.0135052 0.0628133 0.136476 -0.00713077 0.0523483 0.148511 -0.00713077 0.0628133 0.148511 0.016976 0.0628133 0.123211 0.017784 0.0628133 0.126432 0.0186183 0.0628133 0.129758 0.0202605 0.0628133 0.136305 0.0222653 0.0628133 0.144297 0.0227065 0.0628133 0.146055 0.0219047 0.0628133 0.147853 0.021306 0.0628133 0.147969 0.0194883 0.0628133 0.148248 0.0188756 0.0628133 0.148318 0.0163939 0.0628133 0.148472 0.0155115 0.0628133 0.148479 0.016976 0.0523483 0.123211 0.0186183 0.0523483 0.129758 0.0194525 0.0523483 0.133083 0.0202605 0.0523483 0.136305 0.0216932 0.0523483 0.142016 0.0230909 0.0523483 0.147588 0.0224997 0.0523483 0.147726 0.0219047 0.0523483 0.147853 0.0207036 0.0523483 0.148073 0.0200976 0.0523483 0.148167 0.0182597 0.0523483 0.148375 0.0176407 0.0523483 0.14842 0.0157663 0.0523483 0.148479 0.0155115 0.0523483 0.148479 0.0162204 0.0523483 0.120199 0.0162204 0.0628133 0.120199 0.017784 0.0523483 0.126432 0.0194525 0.0628133 0.133083 0.0210161 0.0523483 0.139317 0.0210161 0.0628133 0.139317 0.0216932 0.0628133 0.142016 0.0222653 0.0523483 0.144297 0.0227065 0.0523483 0.146055 0.0229904 0.0523483 0.147187 0.0229904 0.0628133 0.147187 0.0230909 0.0628133 0.147588 0.0224997 0.0628133 0.147725 0.021306 0.0523483 0.147969 0.0207036 0.0628133 0.148073 0.0200976 0.0628133 0.148167 0.0194883 0.0523483 0.148248 0.0188756 0.0523483 0.148318 0.0182597 0.0628133 0.148375 0.0176407 0.0628133 0.14842 0.0170188 0.0523483 0.148453 0.0170188 0.0628133 0.148453 0.0163939 0.0523483 0.148472 0.0157663 0.0628133 0.148479 0.0209233 0.0628133 0.120002 0.0270904 0.0628133 0.12287 0.0302233 0.0628133 0.124327 0.0332576 0.0628133 0.125738 0.0360952 0.0628133 0.127058 0.0407862 0.0628133 0.129239 0.0433186 0.0628133 0.13183 0.0427008 0.0628133 0.132951 0.0416852 0.0628133 0.13458 0.0413243 0.0628133 0.135108 0.039778 0.0628133 0.137144 0.0239576 0.0523483 0.121413 0.0270904 0.0523483 0.12287 0.0302233 0.0523483 0.124327 0.0407862 0.0523483 0.129239 0.0424428 0.0523483 0.13001 0.0438861 0.0523483 0.130681 0.0436089 0.0523483 0.131259 0.0427008 0.0523483 0.132951 0.0423737 0.0523483 0.133501 0.0420351 0.0523483 0.134044 0.0409528 0.0523483 0.135629 0.0405711 0.0523483 0.136142 0.039778 0.0523483 0.137144 0.0180857 0.0523483 0.118682 0.0180857 0.0628133 0.118682 0.0209233 0.0523483 0.120002 0.0239576 0.0628133 0.121413 0.0332576 0.0523483 0.125738 0.0360952 0.0523483 0.127058 0.0386375 0.0523483 0.12824 0.0386375 0.0628133 0.12824 0.0424428 0.0628133 0.13001 0.0435089 0.0523483 0.130506 0.0435089 0.0628133 0.130506 0.0438861 0.0628133 0.130681 0.0436089 0.0628133 0.131259 0.0433186 0.0523483 0.13183 0.0430159 0.0523483 0.132394 0.0430159 0.0628133 0.132394 0.0423737 0.0628133 0.133501 0.0420351 0.0628133 0.134044 0.0416852 0.0523483 0.13458 0.0413243 0.0523483 0.135108 0.0409528 0.0628133 0.135629 0.0405711 0.0628133 0.136142 0.0401794 0.0523483 0.136647 0.0401794 0.0628133 0.136647 0.0347583 0.0628133 0.141994 0.0342528 0.0628133 0.142377 0.0337393 0.0628133 0.142748 0.0332178 0.0628133 0.143109 0.0316056 0.0628133 0.144128 0.0310523 0.0628133 0.144446 0.030491 0.0628133 0.144754 0.0293446 0.0628133 0.145338 0.0155434 0.0628133 0.1175 0.0257533 0.0628133 0.129983 0.0278638 0.0628133 0.132564 0.0298373 0.0628133 0.134977 0.0316054 0.0628133 0.137138 0.0342521 0.0628133 0.140374 0.0347583 0.0523483 0.141994 0.0337393 0.0523483 0.142748 0.032151 0.0523483 0.143799 0.0310523 0.0523483 0.144446 0.030491 0.0523483 0.144754 0.0287594 0.0523483 0.145614 0.0155434 0.0523483 0.1175 0.0173116 0.0523483 0.119662 0.0192852 0.0523483 0.122075 0.0213956 0.0523483 0.124655 0.0257533 0.0523483 0.129983 0.0278638 0.0523483 0.132564 0.0316054 0.0523483 0.137138 0.0342528 0.0523483 0.142377 0.0332178 0.0523483 0.143109 0.0326884 0.0523483 0.143459 0.0326884 0.0628133 0.143459 0.032151 0.0628133 0.143799 0.0316056 0.0523483 0.144128 0.0299218 0.0523483 0.145051 0.0299218 0.0628133 0.145051 0.0293446 0.0523483 0.145338 0.0287594 0.0628133 0.145614 0.0173116 0.0628133 0.119662 0.0192852 0.0628133 0.122075 0.0213956 0.0628133 0.124655 0.0235744 0.0523483 0.127319 0.0235744 0.0628133 0.127319 0.0298373 0.0523483 0.134977 0.0330999 0.0523483 0.138966 0.0330999 0.0628133 0.138966 0.0342521 0.0523483 0.140374 0.0349935 0.0523483 0.141281 0.0349935 0.0628133 0.141281 0.0352559 0.0523483 0.141602 0.0352559 0.0628133 0.141602 0.0248558 0.0628133 0.1175 0.028323 0.0628133 0.1175 0.0317902 0.0628133 0.1175 0.0351485 0.0628133 0.1175 0.0382889 0.0628133 0.1175 0.0434806 0.0628133 0.1175 0.045314 0.0628133 0.1175 0.0469115 0.0628133 0.1175 0.0468334 0.0628133 0.119445 0.0467829 0.0628133 0.120087 0.0465568 0.0628133 0.121991 0.0464562 0.0628133 0.122618 0.0462163 0.0628133 0.123857 0.0460769 0.0628133 0.12447 0.0459243 0.0628133 0.125077 0.0248558 0.0523483 0.1175 0.0317902 0.0523483 0.1175 0.0411026 0.0523483 0.1175 0.045314 0.0523483 0.1175 0.0469115 0.0523483 0.1175 0.0468975 0.0523483 0.118151 0.0466448 0.0523483 0.12136 0.0465568 0.0523483 0.121991 0.0464562 0.0523483 0.122618 0.0463427 0.0523483 0.12324 0.0460769 0.0523483 0.12447 0.0183571 0.0523483 0.1175 0.0183571 0.0628133 0.1175 0.0214975 0.0523483 0.1175 0.0214975 0.0628133 0.1175 0.028323 0.0523483 0.1175 0.0351485 0.0523483 0.1175 0.0382889 0.0523483 0.1175 0.0411026 0.0628133 0.1175 0.0434806 0.0523483 0.1175 0.046494 0.0523483 0.1175 0.046494 0.0628133 0.1175 0.0468975 0.0628133 0.118151 0.0468716 0.0523483 0.1188 0.0468716 0.0628133 0.1188 0.0468334 0.0523483 0.119445 0.0467829 0.0523483 0.120087 0.0467201 0.0523483 0.120725 0.0467201 0.0628133 0.120725 0.0466448 0.0628133 0.12136 0.0463427 0.0628133 0.12324 0.0462163 0.0523483 0.123857 0.0459243 0.0523483 0.125077 -0.0336583 0.0628133 0.117468 -0.0251555 0.0628133 0.141506 -0.0396453 0.0628133 0.148479 -0.0396453 0.0628133 0.141506 0.00541642 0.0628133 0.13291 -0.00719443 0.0628133 0.1175 0.00226375 0.0628133 0.1175 0.0135052 0.0628133 0.129567 0.00261405 0.0628133 0.148511 -0.0171303 0.0628133 0.1175 -0.0086275 0.0628133 0.1175 -0.0086275 0.0628133 0.148479 -0.0336583 0.0523483 0.141506 -0.0336583 0.0523483 0.117468 -0.0251555 0.0523483 0.117468 -0.0396453 0.0523483 0.148479 0.00226375 0.0523483 0.1175 0.0135052 0.0523483 0.136476 0.00261405 0.0523483 0.148511 -0.0171303 0.0523483 0.148479 -0.0171303 0.0523483 0.1175 -0.0086275 0.0523483 0.1175 -0.0336583 0.0628133 0.141506 -0.0251555 0.0628133 0.117468 -0.0251555 0.0523483 0.141506 -0.0191685 0.0523483 0.141506 -0.0191685 0.0628133 0.141506 -0.0191685 0.0523483 0.148479 -0.0191685 0.0628133 0.148479 -0.0396453 0.0523483 0.141506 -0.0171303 0.0628133 0.148479 -0.0086275 0.0523483 0.148479 0.00541642 0.0523483 0.13291 -0.00719443 0.0523483 0.1175 0.0135052 0.0523483 0.129567 0.0135052 0.0628133 0.136476 -0.00713077 0.0523483 0.148511 -0.00713077 0.0628133 0.148511 0.016976 0.0628133 0.123211 0.017784 0.0628133 0.126432 0.0186183 0.0628133 0.129758 0.0202605 0.0628133 0.136305 0.0222653 0.0628133 0.144297 0.0227065 0.0628133 0.146055 0.0219047 0.0628133 0.147853 0.021306 0.0628133 0.147969 0.0194883 0.0628133 0.148248 0.0188756 0.0628133 0.148318 0.0163939 0.0628133 0.148472 0.0155115 0.0628133 0.148479 0.016976 0.0523483 0.123211 0.0186183 0.0523483 0.129758 0.0194525 0.0523483 0.133083 0.0202605 0.0523483 0.136305 0.0216932 0.0523483 0.142016 0.0230909 0.0523483 0.147588 0.0224997 0.0523483 0.147726 0.0219047 0.0523483 0.147853 0.0207036 0.0523483 0.148073 0.0200976 0.0523483 0.148167 0.0182597 0.0523483 0.148375 0.0176407 0.0523483 0.14842 0.0157663 0.0523483 0.148479 0.0155115 0.0523483 0.148479 0.0162204 0.0523483 0.120199 0.0162204 0.0628133 0.120199 0.017784 0.0523483 0.126432 0.0194525 0.0628133 0.133083 0.0210161 0.0523483 0.139317 0.0210161 0.0628133 0.139317 0.0216932 0.0628133 0.142016 0.0222653 0.0523483 0.144297 0.0227065 0.0523483 0.146055 0.0229904 0.0523483 0.147187 0.0229904 0.0628133 0.147187 0.0230909 0.0628133 0.147588 0.0224997 0.0628133 0.147725 0.021306 0.0523483 0.147969 0.0207036 0.0628133 0.148073 0.0200976 0.0628133 0.148167 0.0194883 0.0523483 0.148248 0.0188756 0.0523483 0.148318 0.0182597 0.0628133 0.148375 0.0176407 0.0628133 0.14842 0.0170188 0.0523483 0.148453 0.0170188 0.0628133 0.148453 0.0163939 0.0523483 0.148472 0.0157663 0.0628133 0.148479 0.0209233 0.0628133 0.120002 0.0270904 0.0628133 0.12287 0.0302233 0.0628133 0.124327 0.0332576 0.0628133 0.125738 0.0360952 0.0628133 0.127058 0.0407862 0.0628133 0.129239 0.0433186 0.0628133 0.13183 0.0427008 0.0628133 0.132951 0.0416852 0.0628133 0.13458 0.0413243 0.0628133 0.135108 0.039778 0.0628133 0.137144 0.0239576 0.0523483 0.121413 0.0270904 0.0523483 0.12287 0.0302233 0.0523483 0.124327 0.0407862 0.0523483 0.129239 0.0424428 0.0523483 0.13001 0.0438861 0.0523483 0.130681 0.0436089 0.0523483 0.131259 0.0427008 0.0523483 0.132951 0.0423737 0.0523483 0.133501 0.0420351 0.0523483 0.134044 0.0409528 0.0523483 0.135629 0.0405711 0.0523483 0.136142 0.039778 0.0523483 0.137144 0.0180857 0.0523483 0.118682 0.0180857 0.0628133 0.118682 0.0209233 0.0523483 0.120002 0.0239576 0.0628133 0.121413 0.0332576 0.0523483 0.125738 0.0360952 0.0523483 0.127058 0.0386375 0.0523483 0.12824 0.0386375 0.0628133 0.12824 0.0424428 0.0628133 0.13001 0.0435089 0.0523483 0.130506 0.0435089 0.0628133 0.130506 0.0438861 0.0628133 0.130681 0.0436089 0.0628133 0.131259 0.0433186 0.0523483 0.13183 0.0430159 0.0523483 0.132394 0.0430159 0.0628133 0.132394 0.0423737 0.0628133 0.133501 0.0420351 0.0628133 0.134044 0.0416852 0.0523483 0.13458 0.0413243 0.0523483 0.135108 0.0409528 0.0628133 0.135629 0.0405711 0.0628133 0.136142 0.0401794 0.0523483 0.136647 0.0401794 0.0628133 0.136647 0.0347583 0.0628133 0.141994 0.0342528 0.0628133 0.142377 0.0337393 0.0628133 0.142748 0.0332178 0.0628133 0.143109 0.0316056 0.0628133 0.144128 0.0310523 0.0628133 0.144446 0.030491 0.0628133 0.144754 0.0293446 0.0628133 0.145338 0.0155434 0.0628133 0.1175 0.0257533 0.0628133 0.129983 0.0278638 0.0628133 0.132564 0.0298373 0.0628133 0.134977 0.0316054 0.0628133 0.137138 0.0342521 0.0628133 0.140374 0.0347583 0.0523483 0.141994 0.0337393 0.0523483 0.142748 0.032151 0.0523483 0.143799 0.0310523 0.0523483 0.144446 0.030491 0.0523483 0.144754 0.0287594 0.0523483 0.145614 0.0155434 0.0523483 0.1175 0.0173116 0.0523483 0.119662 0.0192852 0.0523483 0.122075 0.0213956 0.0523483 0.124655 0.0257533 0.0523483 0.129983 0.0278638 0.0523483 0.132564 0.0316054 0.0523483 0.137138 0.0342528 0.0523483 0.142377 0.0332178 0.0523483 0.143109 0.0326884 0.0523483 0.143459 0.0326884 0.0628133 0.143459 0.032151 0.0628133 0.143799 0.0316056 0.0523483 0.144128 0.0299218 0.0523483 0.145051 0.0299218 0.0628133 0.145051 0.0293446 0.0523483 0.145338 0.0287594 0.0628133 0.145614 0.0173116 0.0628133 0.119662 0.0192852 0.0628133 0.122075 0.0213956 0.0628133 0.124655 0.0235744 0.0523483 0.127319 0.0235744 0.0628133 0.127319 0.0298373 0.0523483 0.134977 0.0330999 0.0523483 0.138966 0.0330999 0.0628133 0.138966 0.0342521 0.0523483 0.140374 0.0349935 0.0523483 0.141281 0.0349935 0.0628133 0.141281 0.0352559 0.0523483 0.141602 0.0352559 0.0628133 0.141602 0.0248558 0.0628133 0.1175 0.028323 0.0628133 0.1175 0.0317902 0.0628133 0.1175 0.0351485 0.0628133 0.1175 0.0382889 0.0628133 0.1175 0.0434806 0.0628133 0.1175 0.045314 0.0628133 0.1175 0.0469115 0.0628133 0.1175 0.0468334 0.0628133 0.119445 0.0467829 0.0628133 0.120087 0.0465568 0.0628133 0.121991 0.0464562 0.0628133 0.122618 0.0462163 0.0628133 0.123857 0.0460769 0.0628133 0.12447 0.0459243 0.0628133 0.125077 0.0248558 0.0523483 0.1175 0.0317902 0.0523483 0.1175 0.0411026 0.0523483 0.1175 0.045314 0.0523483 0.1175 0.0469115 0.0523483 0.1175 0.0468975 0.0523483 0.118151 0.0466448 0.0523483 0.12136 0.0465568 0.0523483 0.121991 0.0464562 0.0523483 0.122618 0.0463427 0.0523483 0.12324 0.0460769 0.0523483 0.12447 0.0183571 0.0523483 0.1175 0.0183571 0.0628133 0.1175 0.0214975 0.0523483 0.1175 0.0214975 0.0628133 0.1175 0.028323 0.0523483 0.1175 0.0351485 0.0523483 0.1175 0.0382889 0.0523483 0.1175 0.0411026 0.0628133 0.1175 0.0434806 0.0523483 0.1175 0.046494 0.0523483 0.1175 0.046494 0.0628133 0.1175 0.0468975 0.0628133 0.118151 0.0468716 0.0523483 0.1188 0.0468716 0.0628133 0.1188 0.0468334 0.0523483 0.119445 0.0467829 0.0523483 0.120087 0.0467201 0.0523483 0.120725 0.0467201 0.0628133 0.120725 0.0466448 0.0628133 0.12136 0.0463427 0.0628133 0.12324 0.0462163 0.0523483 0.123857 0.0459243 0.0523483 0.125077 -0.0336583 0.0628133 0.117468 -0.0251555 0.0628133 0.141506 -0.0396453 0.0628133 0.148479 -0.0396453 0.0628133 0.141506 0.00541642 0.0628133 0.13291 -0.00719443 0.0628133 0.1175 0.00226375 0.0628133 0.1175 0.0135052 0.0628133 0.129567 0.00261405 0.0628133 0.148511 -0.0171303 0.0628133 0.1175 -0.0086275 0.0628133 0.1175 -0.0086275 0.0628133 0.148479 -0.0336583 0.0523483 0.141506 -0.0336583 0.0523483 0.117468 -0.0251555 0.0523483 0.117468 -0.0396453 0.0523483 0.148479 0.00226375 0.0523483 0.1175 0.0135052 0.0523483 0.136476 0.00261405 0.0523483 0.148511 -0.0171303 0.0523483 0.148479 -0.0171303 0.0523483 0.1175 -0.0086275 0.0523483 0.1175 -0.0336583 0.0628133 0.141506 -0.0251555 0.0628133 0.117468 -0.0251555 0.0523483 0.141506 -0.0191685 0.0523483 0.141506 -0.0191685 0.0628133 0.141506 -0.0191685 0.0523483 0.148479 -0.0191685 0.0628133 0.148479 -0.0396453 0.0523483 0.141506 -0.0171303 0.0628133 0.148479 -0.0086275 0.0523483 0.148479 0.00541642 0.0523483 0.13291 -0.00719443 0.0523483 0.1175 0.0135052 0.0523483 0.129567 0.0135052 0.0628133 0.136476 -0.00713077 0.0523483 0.148511 -0.00713077 0.0628133 0.148511</float_array>
                    <technique_common>
                        <accessor count="1170" source="#shape0-lib-positions-array" stride="3">
                            <param name="X" type="float"/>
                            <param name="Y" type="float"/>
                            <param name="Z" type="float"/>
                        </accessor>
                    </technique_common>
                </source>
                <source id="shape0-lib-normals" name="normal">
                    <float_array id="shape0-lib-normals-array" count="1356">0 1 0 0 1 0 0 -1 0 0 -1 0 1 0 0 0 1 0 0 1 0 0 1 0 0 1 0 0 1 0 0 1 0 0 1 0 0 0 0 0 1 0 0 0 0 0 1 0 0 -1 0 0 -1 0 0 -1 0 0 -1 0 0 -1 0 0 -1 0 0 -1 0 0 -1 0 0 0 0 0 -1 0 0 0 0 -1 0 0 0 0 -1 1 0 0 0 0 -1 0 0 1 -1 0 0 0 0 -1 -1 0 0 0 0 -1 1 0 0 0 0 1 -0.773892 0 0.633318 0 0 -1 0.731693 0 -0.681635 1 0 0 0.741464 0 0.670992 0 0 1 -0.779249 0 -0.626715 1 0 0 -1 0 0 0 0 -1 1 0 0 0 0 -1 0 0 1 -1 0 0 0 0 -1 -1 0 0 0 0 -1 1 0 0 0 0 1 -0.773892 0 0.633318 0 0 -1 0.731693 0 -0.681635 1 0 0 0.741464 0 0.670992 0 0 1 -0.779249 0 -0.626715 0 -1 0 0 1 0 0 1 0 0 1 0 0 1 0 0 1 0 0 1 0 0 1 0 0 1 0 0 1 0 0 1 0 0 1 0 0 1 0 0 1 0 0 1 0 0 1 0 0 1 0 0 1 0 0 1 0 0 1 0 0 1 0 0 1 0 0 1 0 0 -1 0 0 -1 0 0 -1 0 0 -1 0 0 -1 0 0 -1 0 0 -1 0 0 -1 0 0 -1 0 0 -1 0 0 -1 0 0 -1 0 0 -1 0 0 -1 0 0 -1 0 0 -1 0 0 -1 0 0 -1 0 0 -1 0 0 -1 0 0 -1 0 0 -1 0 0 -1 0 0 1 0 0 1 0 0.969945 0 -0.243324 0.969948 0 -0.243314 0.96995 0 -0.243304 0.96994 0 -0.243345 0.969965 0 -0.243244 0.969945 0 -0.243324 0.969943 0 -0.243331 0.969957 0 -0.243275 0.969921 0 -0.243419 0.969961 0 -0.243263 0.97 0 -0.243104 0.227312 9.29042e-05 0.973822 0.208747 0 0.97797 0.190201 0 0.981745 0.170142 0 0.98542 0.153277 0 0.988183 0.131784 0 0.991278 0.113495 0 0.993539 0.0921726 0 0.995743 0.072509 0 0.997368 0.0529745 0 0.998596 0.0303892 0 0.999538 0.0111586 0 0.999938 0 0 1 -0.999999 0 -0.00102975 0.969952 0 -0.243296 0.969945 0 -0.243324 0.969948 0 -0.243314 0.96995 0 -0.243304 0.96994 0 -0.243345 0.969965 0 -0.243244 0.969945 0 -0.243324 0.969943 0 -0.243331 0.969957 0 -0.243275 0.969921 0 -0.243419 0.969961 0 -0.243263 0.97 0 -0.243104 0.225751 0 0.974185 0.210316 9.32678e-05 0.977633 0.190201 0 0.981745 0.170142 0 0.98542 0.153277 0 0.988183 0.131784 0 0.991278 0.113495 0 0.993539 0.0921726 0 0.995743 0.072509 0 0.997368 0.0529745 0 0.998596 0.0303892 0 0.999538 0.0111586 0 0.999938 0 0 1 -0.999999 0 -0.00102975 0.969952 0 -0.243296 0 0 -1 0 1 0 0 1 0 0 1 0 0 1 0 0 1 0 0 1 0 0 1 0 0 1 0 0 1 0 0 1 0 0 1 0 0 1 0 0 0 0 0 0 0 0 0 0 0 0 0 0 0 0 0 0 0 0 0 0 0 0 0 0 0 0 0 0 0 0 0 0 0 -1 0 0 -1 0 0 -1 0 0 -1 0 0 -1 0 0 -1 0 0 -1 0 0 -1 0 0 -1 0 0 -1 0 0 -1 0 0 -1 0 0 0 0 0 0 0 0 0 0 0 0 0 0 0 0 0 0 0 0 0 0 0 0 0 0 0 0 0 0 0 0 0 0 0 0 -1 0 0 -1 0 0 -1 0 0 -1 0 0 -1 0 0 -1 0 0 -1 0 0 -1 0 0 -1 0 0 -1 0 0 -1 0.999769 0 0.0214998 0.999205 0 0.0398789 0.998251 0 0.0591195 0.996921 0 0.078419 0.99519 0 0.0979605 0.993042 0 0.117757 0.990415 0 0.138122 0.987371 0 0.158424 0.983757 0 0.179508 0.979654 0 0.200694 0.975105 0 0.221744 0.96982 0 0.243821 -0.241988 0 0.970279 0 0 -1 0 0 -1 0 0 -1 0 0 -1 0 0 -1 0 0 -1 0 0 -1 0 0 -1 0 0 -1 0 0 -1 0 0 -1 0 0 -1 0.999769 0 0.0214998 0.999205 0 0.0398789 0.998251 0 0.0591195 0.996921 0 0.078419 0.99519 0 0.0979605 0.993042 0 0.117757 0.990415 0 0.138122 0.987371 0 0.158424 0.983757 0 0.179508 0.979654 0 0.200694 0.975105 0 0.221744 0.96982 0 0.243821 -0.241988 0 0.970279 0 -1 0 0 1 0 0 1 0 0 1 0 0 1 0 0 1 0 0 1 0 0 1 0 0 1 0 0 1 0 0 1 0 0 1 0 0 1 0 0 1 0 0 1 0 0 1 0 0 1 0 0 1 0 0 1 0 0 1 0 0 1 0 0 1 0 0 1 0 0 -1 0 0 -1 0 0 -1 0 0 -1 0 0 -1 0 0 -1 0 0 -1 0 0 -1 0 0 -1 0 0 -1 0 0 -1 0 0 -1 0 0 -1 0 0 -1 0 0 -1 0 0 -1 0 0 -1 0 0 -1 0 0 -1 0 0 -1 0 0 -1 0 0 -1 0 0 1 0 0.421594 0 -0.906785 0.421781 0 -0.906698 0.421656 0 -0.906756 0.421703 0 -0.906734 0.421692 0 -0.906739 0.421656 0 -0.906756 0.421781 0 -0.906698 0.421595 0 -0.906784 0.42159 0 -0.906787 0.421951 0 -0.906619 0.421828 0 -0.906676 0.420855 0 -0.907128 0.90167 0 0.432425 0.891413 0 0.453191 0.881116 0 0.4729 0.870382 0 0.492378 0.859479 0 0.511172 0.848549 0 0.529117 0.83737 0 0.546636 0.825567 0 0.564305 0.814213 0 0.580567 0.802284 0 0.596942 0.790169 0 0.612888 0.777958 0 0.628316 -0.629692 0 0.776845 0.421594 0 -0.906785 0.421781 0 -0.906698 0.421656 0 -0.906756 0.421703 0 -0.906734 0.421692 0 -0.906739 0.421656 0 -0.906756 0.421781 0 -0.906698 0.421595 0 -0.906784 0.42159 0 -0.906787 0.421951 0 -0.906619 0.421828 0 -0.906676 0.420855 0 -0.907128 0.90167 0 0.432425 0.891413 0 0.453191 0.881116 0 0.4729 0.870382 0 0.492378 0.859479 0 0.511172 0.848549 0 0.529117 0.83737 0 0.546636 0.825567 0 0.564305 0.814213 0 0.580567 0.802284 0 0.596942 0.790169 0 0.612888 0.777958 0 0.628316 -0.629692 0 0.776845 0 1 0 0 1 0 0 1 0 0 1 0 0 1 0 0 1 0 0 -1 0 0 -1 0 0 -1 0 0 1 0 0 1 0 0.774235 0 -0.632898 0 1 0 0 1 0 0 1 0 0 1 0 0 1 0 0 1 0 0 1 0 0 1 0 0 1 0 0 1 0 0 1 0 0 1 0 0 -1 0 0 1 0 0 -1 0 0 -1 0 0 -1 0 0 -1 0 0 -1 0 0 -1 0 0 -1 0 0 -1 0 0 -1 0 0 -1 0 0 -1 0 0 -1 0 0 -1 0 0 -1 0 0 -1 0 0 -1 0 0 -1 0 0 -1 0 0 1 0 0 1 0 0 -1 0 0.603908 0 0.797054 0.585627 0 0.81058 0.569164 0 0.822224 0.551513 0 0.834166 0.534653 0 0.845072 0.516514 0 0.856279 0.498304 0 0.867003 0.481051 0 0.876692 0.46261 0 0.886562 0.445222 0 0.89542 0.42657 0 0.904455 -0.904994 0 0.425425 0.774082 0 -0.633085 0.774063 0 -0.633109 0.774032 0 -0.633146 0.774075 0 -0.633094 0.774062 0 -0.63311 0.774138 0 -0.633017 0.77408 0 -0.633088 0.773955 0 -0.633241 0.774193 0 -0.63295 0.773906 0 -0.6333 0.774243 0 -0.632889 0.618828 0 0.785526 0.774235 0 -0.632898 0.603908 0 0.797054 0.585627 0 0.81058 0.569164 0 0.822224 0.551513 0 0.834166 0.534653 0 0.845072 0.516514 0 0.856279 0.498304 0 0.867003 0.481051 0 0.876692 0.46261 0 0.886562 0.445222 0 0.89542 0.42657 0 0.904455 -0.904994 0 0.425425 0.774082 0 -0.633085 0.774063 0 -0.633109 0.774032 0 -0.633146 0.774075 0 -0.633094 0.774062 0 -0.63311 0.774138 0 -0.633017 0.77408 0 -0.633088 0.773955 0 -0.633241 0.774193 0 -0.63295 0.773906 0 -0.6333 0.774243 0 -0.632889 0.618828 0 0.785526</float_array>
                    <technique_common>
                        <accessor count="452" source="#shape0-lib-normals-array" stride="3">
                            <param name="X" type="float"/>
                            <param name="Y" type="float"/>
                            <param name="Z" type="float"/>
                        </accessor>
                    </technique_common>
                </source>
                <source id="shape0-lib-vcolor" name="vcolor">
                    <float_array id="shape0-lib-vcolor-array" count="4680">0.156863 0.156863 0.156863 1 0.156863 0.156863 0.156863 1 0.156863 0.156863 0.156863 1 0.156863 0.156863 0.156863 1 0.156863 0.156863 0.156863 1 0.156863 0.156863 0.156863 1 0.156863 0.156863 0.156863 1 0.156863 0.156863 0.156863 1 0.156863 0.156863 0.156863 1 0.156863 0.156863 0.156863 1 0.156863 0.156863 0.156863 1 0.156863 0.156863 0.156863 1 0.156863 0.156863 0.156863 1 0.156863 0.156863 0.156863 1 0.156863 0.156863 0.156863 1 0.156863 0.156863 0.156863 1 0.156863 0.156863 0.156863 1 0.156863 0.156863 0.156863 1 0.156863 0.156863 0.156863 1 0.156863 0.156863 0.156863 1 0.156863 0.156863 0.156863 1 0.156863 0.156863 0.156863 1 0.156863 0.156863 0.156863 1 0.156863 0.156863 0.156863 1 0.156863 0.156863 0.156863 1 0.156863 0.156863 0.156863 1 0.156863 0.156863 0.156863 1 0.156863 0.156863 0.156863 1 0.156863 0.156863 0.156863 1 0.156863 0.156863 0.156863 1 0.156863 0.156863 0.156863 1 0.156863 0.156863 0.156863 1 0.156863 0.156863 0.156863 1 0.156863 0.156863 0.156863 1 0.156863 0.156863 0.156863 1 0.156863 0.156863 0.156863 1 0.156863 0.156863 0.156863 1 0.156863 0.156863 0.156863 1 0.156863 0.156863 0.156863 1 0.156863 0.156863 0.156863 1 0.156863 0.156863 0.156863 1 0.156863 0.156863 0.156863 1 0.156863 0.156863 0.156863 1 0.156863 0.156863 0.156863 1 0.156863 0.156863 0.156863 1 0.156863 0.156863 0.156863 1 0.156863 0.156863 0.156863 1 0.156863 0.156863 0.156863 1 0.156863 0.156863 0.156863 1 0.156863 0.156863 0.156863 1 0.156863 0.156863 0.156863 1 0.156863 0.156863 0.156863 1 0.156863 0.156863 0.156863 1 0.156863 0.156863 0.156863 1 0.156863 0.156863 0.156863 1 0.156863 0.156863 0.156863 1 0.156863 0.156863 0.156863 1 0.156863 0.156863 0.156863 1 0.156863 0.156863 0.156863 1 0.156863 0.156863 0.156863 1 0.156863 0.156863 0.156863 1 0.156863 0.156863 0.156863 1 0.156863 0.156863 0.156863 1 0.156863 0.156863 0.156863 1 0.156863 0.156863 0.156863 1 0.156863 0.156863 0.156863 1 0.156863 0.156863 0.156863 1 0.156863 0.156863 0.156863 1 0.156863 0.156863 0.156863 1 0.156863 0.156863 0.156863 1 0.156863 0.156863 0.156863 1 0.156863 0.156863 0.156863 1 0.156863 0.156863 0.156863 1 0.156863 0.156863 0.156863 1 0.156863 0.156863 0.156863 1 0.156863 0.156863 0.156863 1 0.156863 0.156863 0.156863 1 0.156863 0.156863 0.156863 1 0.156863 0.156863 0.156863 1 0.156863 0.156863 0.156863 1 0.156863 0.156863 0.156863 1 0.156863 0.156863 0.156863 1 0.156863 0.156863 0.156863 1 0.156863 0.156863 0.156863 1 0.156863 0.156863 0.156863 1 0.156863 0.156863 0.156863 1 0.156863 0.156863 0.156863 1 0.156863 0.156863 0.156863 1 0.156863 0.156863 0.156863 1 0.156863 0.156863 0.156863 1 0.156863 0.156863 0.156863 1 0.156863 0.156863 0.156863 1 0.156863 0.156863 0.156863 1 0.156863 0.156863 0.156863 1 0.156863 0.156863 0.156863 1 0.156863 0.156863 0.156863 1 0.156863 0.156863 0.156863 1 0.156863 0.156863 0.156863 1 0.156863 0.156863 0.156863 1 0.156863 0.156863 0.156863 1 0.156863 0.156863 0.156863 1 0.156863 0.156863 0.156863 1 0.156863 0.156863 0.156863 1 0.156863 0.156863 0.156863 1 0.156863 0.156863 0.156863 1 0.156863 0.156863 0.156863 1 0.156863 0.156863 0.156863 1 0.156863 0.156863 0.156863 1 0.156863 0.156863 0.156863 1 0.156863 0.156863 0.156863 1 0.156863 0.156863 0.156863 1 0.156863 0.156863 0.156863 1 0.156863 0.156863 0.156863 1 0.156863 0.156863 0.156863 1 0.156863 0.156863 0.156863 1 0.156863 0.156863 0.156863 1 0.156863 0.156863 0.156863 1 0.156863 0.156863 0.156863 1 0.156863 0.156863 0.156863 1 0.156863 0.156863 0.156863 1 0.156863 0.156863 0.156863 1 0.156863 0.156863 0.156863 1 0.156863 0.156863 0.156863 1 0.156863 0.156863 0.156863 1 0.156863 0.156863 0.156863 1 0.156863 0.156863 0.156863 1 0.156863 0.156863 0.156863 1 0.156863 0.156863 0.156863 1 0.156863 0.156863 0.156863 1 0.156863 0.156863 0.156863 1 0.156863 0.156863 0.156863 1 0.156863 0.156863 0.156863 1 0.156863 0.156863 0.156863 1 0.156863 0.156863 0.156863 1 0.156863 0.156863 0.156863 1 0.156863 0.156863 0.156863 1 0.156863 0.156863 0.156863 1 0.156863 0.156863 0.156863 1 0.156863 0.156863 0.156863 1 0.156863 0.156863 0.156863 1 0.156863 0.156863 0.156863 1 0.156863 0.156863 0.156863 1 0.156863 0.156863 0.156863 1 0.156863 0.156863 0.156863 1 0.156863 0.156863 0.156863 1 0.156863 0.156863 0.156863 1 0.156863 0.156863 0.156863 1 0.156863 0.156863 0.156863 1 0.156863 0.156863 0.156863 1 0.156863 0.156863 0.156863 1 0.156863 0.156863 0.156863 1 0.156863 0.156863 0.156863 1 0.156863 0.156863 0.156863 1 0.156863 0.156863 0.156863 1 0.156863 0.156863 0.156863 1 0.156863 0.156863 0.156863 1 0.156863 0.156863 0.156863 1 0.156863 0.156863 0.156863 1 0.156863 0.156863 0.156863 1 0.156863 0.156863 0.156863 1 0.156863 0.156863 0.156863 1 0.156863 0.156863 0.156863 1 0.156863 0.156863 0.156863 1 0.156863 0.156863 0.156863 1 0.156863 0.156863 0.156863 1 0.156863 0.156863 0.156863 1 0.156863 0.156863 0.156863 1 0.156863 0.156863 0.156863 1 0.156863 0.156863 0.156863 1 0.156863 0.156863 0.156863 1 0.156863 0.156863 0.156863 1 0.156863 0.156863 0.156863 1 0.156863 0.156863 0.156863 1 0.156863 0.156863 0.156863 1 0.156863 0.156863 0.156863 1 0.156863 0.156863 0.156863 1 0.156863 0.156863 0.156863 1 0.156863 0.156863 0.156863 1 0.156863 0.156863 0.156863 1 0.156863 0.156863 0.156863 1 0.156863 0.156863 0.156863 1 0.156863 0.156863 0.156863 1 0.156863 0.156863 0.156863 1 0.156863 0.156863 0.156863 1 0.156863 0.156863 0.156863 1 0.156863 0.156863 0.156863 1 0.156863 0.156863 0.156863 1 0.156863 0.156863 0.156863 1 0.156863 0.156863 0.156863 1 0.156863 0.156863 0.156863 1 0.156863 0.156863 0.156863 1 0.156863 0.156863 0.156863 1 0.156863 0.156863 0.156863 1 0.156863 0.156863 0.156863 1 0.156863 0.156863 0.156863 1 0.156863 0.156863 0.156863 1 0.156863 0.156863 0.156863 1 0.156863 0.156863 0.156863 1 0.156863 0.156863 0.156863 1 0.156863 0.156863 0.156863 1 0.156863 0.156863 0.156863 1 0.156863 0.156863 0.156863 1 0.156863 0.156863 0.156863 1 0.156863 0.156863 0.156863 1 0.156863 0.156863 0.156863 1 0.156863 0.156863 0.156863 1 0.156863 0.156863 0.156863 1 0.156863 0.156863 0.156863 1 0.156863 0.156863 0.156863 1 0.156863 0.156863 0.156863 1 0.156863 0.156863 0.156863 1 0.156863 0.156863 0.156863 1 0.156863 0.156863 0.156863 1 0.156863 0.156863 0.156863 1 0.156863 0.156863 0.156863 1 0.156863 0.156863 0.156863 1 0.156863 0.156863 0.156863 1 0.156863 0.156863 0.156863 1 0.156863 0.156863 0.156863 1 0.156863 0.156863 0.156863 1 0.156863 0.156863 0.156863 1 0.156863 0.156863 0.156863 1 0.156863 0.156863 0.156863 1 0.156863 0.156863 0.156863 1 0.156863 0.156863 0.156863 1 0.156863 0.156863 0.156863 1 0.156863 0.156863 0.156863 1 0.156863 0.156863 0.156863 1 0.156863 0.156863 0.156863 1 0.156863 0.156863 0.156863 1 0.156863 0.156863 0.156863 1 0.156863 0.156863 0.156863 1 0.156863 0.156863 0.156863 1 0.156863 0.156863 0.156863 1 0.156863 0.156863 0.156863 1 0.156863 0.156863 0.156863 1 0.156863 0.156863 0.156863 1 0.156863 0.156863 0.156863 1 0.156863 0.156863 0.156863 1 0.156863 0.156863 0.156863 1 0.156863 0.156863 0.156863 1 0.156863 0.156863 0.156863 1 0.156863 0.156863 0.156863 1 0.156863 0.156863 0.156863 1 0.156863 0.156863 0.156863 1 0.156863 0.156863 0.156863 1 0.156863 0.156863 0.156863 1 0.156863 0.156863 0.156863 1 0.156863 0.156863 0.156863 1 0.156863 0.156863 0.156863 1 0.156863 0.156863 0.156863 1 0.156863 0.156863 0.156863 1 0.156863 0.156863 0.156863 1 0.156863 0.156863 0.156863 1 0.156863 0.156863 0.156863 1 0.156863 0.156863 0.156863 1 0.156863 0.156863 0.156863 1 0.156863 0.156863 0.156863 1 0.156863 0.156863 0.156863 1 0.156863 0.156863 0.156863 1 0.156863 0.156863 0.156863 1 0.156863 0.156863 0.156863 1 0.156863 0.156863 0.156863 1 0.156863 0.156863 0.156863 1 0.156863 0.156863 0.156863 1 0.156863 0.156863 0.156863 1 0.156863 0.156863 0.156863 1 0.156863 0.156863 0.156863 1 0.156863 0.156863 0.156863 1 0.156863 0.156863 0.156863 1 0.156863 0.156863 0.156863 1 0.156863 0.156863 0.156863 1 0.156863 0.156863 0.156863 1 0.156863 0.156863 0.156863 1 0.156863 0.156863 0.156863 1 0.156863 0.156863 0.156863 1 0.156863 0.156863 0.156863 1 0.156863 0.156863 0.156863 1 0.156863 0.156863 0.156863 1 0.156863 0.156863 0.156863 1 0.156863 0.156863 0.156863 1 0.156863 0.156863 0.156863 1 0.156863 0.156863 0.156863 1 0.156863 0.156863 0.156863 1 0.156863 0.156863 0.156863 1 0.156863 0.156863 0.156863 1 0.156863 0.156863 0.156863 1 0.156863 0.156863 0.156863 1 0.156863 0.156863 0.156863 1 0.156863 0.156863 0.156863 1 0.156863 0.156863 0.156863 1 0.156863 0.156863 0.156863 1 0.156863 0.156863 0.156863 1 0.156863 0.156863 0.156863 1 0.156863 0.156863 0.156863 1 0.156863 0.156863 0.156863 1 0.156863 0.156863 0.156863 1 0.156863 0.156863 0.156863 1 0.156863 0.156863 0.156863 1 0.156863 0.156863 0.156863 1 0.156863 0.156863 0.156863 1 0.156863 0.156863 0.156863 1 0.156863 0.156863 0.156863 1 0.156863 0.156863 0.156863 1 0.156863 0.156863 0.156863 1 0.156863 0.156863 0.156863 1 0.156863 0.156863 0.156863 1 0.156863 0.156863 0.156863 1 0.156863 0.156863 0.156863 1 0.156863 0.156863 0.156863 1 0.156863 0.156863 0.156863 1 0.156863 0.156863 0.156863 1 0.156863 0.156863 0.156863 1 0.156863 0.156863 0.156863 1 0.156863 0.156863 0.156863 1 0.156863 0.156863 0.156863 1 0.156863 0.156863 0.156863 1 0.156863 0.156863 0.156863 1 0.156863 0.156863 0.156863 1 0.156863 0.156863 0.156863 1 0.156863 0.156863 0.156863 1 0.156863 0.156863 0.156863 1 0.156863 0.156863 0.156863 1 0.156863 0.156863 0.156863 1 0.156863 0.156863 0.156863 1 0.156863 0.156863 0.156863 1 0.156863 0.156863 0.156863 1 0.156863 0.156863 0.156863 1 0.156863 0.156863 0.156863 1 0.156863 0.156863 0.156863 1 0.156863 0.156863 0.156863 1 0.156863 0.156863 0.156863 1 0.156863 0.156863 0.156863 1 0.156863 0.156863 0.156863 1 0.156863 0.156863 0.156863 1 0.156863 0.156863 0.156863 1 0.156863 0.156863 0.156863 1 0.156863 0.156863 0.156863 1 0.156863 0.156863 0.156863 1 0.156863 0.156863 0.156863 1 0.156863 0.156863 0.156863 1 0.156863 0.156863 0.156863 1 0.156863 0.156863 0.156863 1 0.156863 0.156863 0.156863 1 0.156863 0.156863 0.156863 1 0.156863 0.156863 0.156863 1 0.156863 0.156863 0.156863 1 0.156863 0.156863 0.156863 1 0.156863 0.156863 0.156863 1 0.156863 0.156863 0.156863 1 0.156863 0.156863 0.156863 1 0.156863 0.156863 0.156863 1 0.156863 0.156863 0.156863 1 0.156863 0.156863 0.156863 1 0.156863 0.156863 0.156863 1 0.156863 0.156863 0.156863 1 0.156863 0.156863 0.156863 1 0.156863 0.156863 0.156863 1 0.156863 0.156863 0.156863 1 0.156863 0.156863 0.156863 1 0.156863 0.156863 0.156863 1 0.156863 0.156863 0.156863 1 0.156863 0.156863 0.156863 1 0.156863 0.156863 0.156863 1 0.156863 0.156863 0.156863 1 0.156863 0.156863 0.156863 1 0.156863 0.156863 0.156863 1 0.156863 0.156863 0.156863 1 0.156863 0.156863 0.156863 1 0.156863 0.156863 0.156863 1 0.156863 0.156863 0.156863 1 0.156863 0.156863 0.156863 1 0.156863 0.156863 0.156863 1 0.156863 0.156863 0.156863 1 0.156863 0.156863 0.156863 1 0.156863 0.156863 0.156863 1 0.156863 0.156863 0.156863 1 0.156863 0.156863 0.156863 1 0.156863 0.156863 0.156863 1 0.156863 0.156863 0.156863 1 0.156863 0.156863 0.156863 1 0.156863 0.156863 0.156863 1 0.156863 0.156863 0.156863 1 0.156863 0.156863 0.156863 1 0.156863 0.156863 0.156863 1 0.156863 0.156863 0.156863 1 0.156863 0.156863 0.156863 1 0.156863 0.156863 0.156863 1 0.156863 0.156863 0.156863 1 0.156863 0.156863 0.156863 1 0.156863 0.156863 0.156863 1 0.156863 0.156863 0.156863 1 0.156863 0.156863 0.156863 1 0.156863 0.156863 0.156863 1 0.156863 0.156863 0.156863 1 0.156863 0.156863 0.156863 1 0.156863 0.156863 0.156863 1 0.156863 0.156863 0.156863 1 0.156863 0.156863 0.156863 1 0.156863 0.156863 0.156863 1 0.156863 0.156863 0.156863 1 0.156863 0.156863 0.156863 1 0.156863 0.156863 0.156863 1 0.156863 0.156863 0.156863 1 0.156863 0.156863 0.156863 1 0.156863 0.156863 0.156863 1 0.156863 0.156863 0.156863 1 0.156863 0.156863 0.156863 1 0.156863 0.156863 0.156863 1 0.156863 0.156863 0.156863 1 0.156863 0.156863 0.156863 1 0.156863 0.156863 0.156863 1 0.156863 0.156863 0.156863 1 0.156863 0.156863 0.156863 1 0.156863 0.156863 0.156863 1 0.156863 0.156863 0.156863 1 0.156863 0.156863 0.156863 1 0.156863 0.156863 0.156863 1 0.156863 0.156863 0.156863 1 0.156863 0.156863 0.156863 1 0.156863 0.156863 0.156863 1 0.156863 0.156863 0.156863 1 0.156863 0.156863 0.156863 1 0.156863 0.156863 0.156863 1 0.156863 0.156863 0.156863 1 0.156863 0.156863 0.156863 1 0.156863 0.156863 0.156863 1 0.156863 0.156863 0.156863 1 0.156863 0.156863 0.156863 1 0.156863 0.156863 0.156863 1 0.156863 0.156863 0.156863 1 0.156863 0.156863 0.156863 1 0.156863 0.156863 0.156863 1 0.156863 0.156863 0.156863 1 0.156863 0.156863 0.156863 1 0.156863 0.156863 0.156863 1 0.156863 0.156863 0.156863 1 0.156863 0.156863 0.156863 1 0.156863 0.156863 0.156863 1 0.156863 0.156863 0.156863 1 0.156863 0.156863 0.156863 1 0.156863 0.156863 0.156863 1 0.156863 0.156863 0.156863 1 0.156863 0.156863 0.156863 1 0.156863 0.156863 0.156863 1 0.156863 0.156863 0.156863 1 0.156863 0.156863 0.156863 1 0.156863 0.156863 0.156863 1 0.156863 0.156863 0.156863 1 0.156863 0.156863 0.156863 1 0.156863 0.156863 0.156863 1 0.156863 0.156863 0.156863 1 0.156863 0.156863 0.156863 1 0.156863 0.156863 0.156863 1 0.156863 0.156863 0.156863 1 0.156863 0.156863 0.156863 1 0.156863 0.156863 0.156863 1 0.156863 0.156863 0.156863 1 0.156863 0.156863 0.156863 1 0.156863 0.156863 0.156863 1 0.156863 0.156863 0.156863 1 0.156863 0.156863 0.156863 1 0.156863 0.156863 0.156863 1 0.156863 0.156863 0.156863 1 0.156863 0.156863 0.156863 1 0.156863 0.156863 0.156863 1 0.156863 0.156863 0.156863 1 0.156863 0.156863 0.156863 1 0.156863 0.501961 0.427451 1 0.156863 0.501961 0.427451 1 0.156863 0.501961 0.427451 1 0.156863 0.501961 0.427451 1 0.156863 0.501961 0.427451 1 0.156863 0.501961 0.427451 1 0.156863 0.501961 0.427451 1 0.156863 0.501961 0.427451 1 0.156863 0.501961 0.427451 1 0.156863 0.501961 0.427451 1 0.156863 0.501961 0.427451 1 0.156863 0.501961 0.427451 1 0.156863 0.501961 0.427451 1 0.156863 0.501961 0.427451 1 0.156863 0.501961 0.427451 1 0.156863 0.501961 0.427451 1 0.156863 0.501961 0.427451 1 0.156863 0.501961 0.427451 1 0.156863 0.501961 0.427451 1 0.156863 0.501961 0.427451 1 0.156863 0.501961 0.427451 1 0.156863 0.501961 0.427451 1 0.156863 0.501961 0.427451 1 0.156863 0.501961 0.427451 1 0.156863 0.501961 0.427451 1 0.156863 0.501961 0.427451 1 0.156863 0.501961 0.427451 1 0.156863 0.501961 0.427451 1 0.156863 0.501961 0.427451 1 0.156863 0.501961 0.427451 1 0.156863 0.501961 0.427451 1 0.156863 0.501961 0.427451 1 0.156863 0.501961 0.427451 1 0.156863 0.501961 0.427451 1 0.156863 0.501961 0.427451 1 0.156863 0.501961 0.427451 1 0.156863 0.501961 0.427451 1 0.156863 0.501961 0.427451 1 0.156863 0.501961 0.427451 1 0.156863 0.501961 0.427451 1 0.156863 0.501961 0.427451 1 0.156863 0.501961 0.427451 1 0.156863 0.501961 0.427451 1 0.156863 0.501961 0.427451 1 0.156863 0.501961 0.427451 1 0.156863 0.501961 0.427451 1 0.156863 0.501961 0.427451 1 0.156863 0.501961 0.427451 1 0.156863 0.501961 0.427451 1 0.156863 0.501961 0.427451 1 0.156863 0.501961 0.427451 1 0.156863 0.501961 0.427451 1 0.156863 0.501961 0.427451 1 0.156863 0.501961 0.427451 1 0.156863 0.501961 0.427451 1 0.156863 0.501961 0.427451 1 0.156863 0.501961 0.427451 1 0.156863 0.501961 0.427451 1 0.156863 0.501961 0.427451 1 0.156863 0.501961 0.427451 1 0.156863 0.501961 0.427451 1 0.156863 0.501961 0.427451 1 0.156863 0.501961 0.427451 1 0.156863 0.501961 0.427451 1 0.156863 0.501961 0.427451 1 0.156863 0.501961 0.427451 1 0.156863 0.501961 0.427451 1 0.156863 0.501961 0.427451 1 0.156863 0.501961 0.427451 1 0.156863 0.501961 0.427451 1 0.156863 0.501961 0.427451 1 0.156863 0.501961 0.427451 1 0.156863 0.501961 0.427451 1 0.156863 0.501961 0.427451 1 0.156863 0.501961 0.427451 1 0.156863 0.501961 0.427451 1 0.156863 0.501961 0.427451 1 0.156863 0.501961 0.427451 1 0.156863 0.501961 0.427451 1 0.156863 0.501961 0.427451 1 0.156863 0.501961 0.427451 1 0.156863 0.501961 0.427451 1 0.156863 0.501961 0.427451 1 0.156863 0.501961 0.427451 1 0.156863 0.501961 0.427451 1 0.156863 0.501961 0.427451 1 0.156863 0.501961 0.427451 1 0.156863 0.501961 0.427451 1 0.156863 0.501961 0.427451 1 0.156863 0.501961 0.427451 1 0.156863 0.501961 0.427451 1 0.156863 0.501961 0.427451 1 0.156863 0.501961 0.427451 1 0.156863 0.501961 0.427451 1 0.156863 0.501961 0.427451 1 0.156863 0.501961 0.427451 1 0.156863 0.501961 0.427451 1 0.156863 0.501961 0.427451 1 0.156863 0.501961 0.427451 1 0.156863 0.501961 0.427451 1 0.156863 0.501961 0.427451 1 0.156863 0.501961 0.427451 1 0.156863 0.501961 0.427451 1 0.156863 0.501961 0.427451 1 0.156863 0.501961 0.427451 1 0.156863 0.501961 0.427451 1 0.156863 0.501961 0.427451 1 0.156863 0.501961 0.427451 1 0.156863 0.501961 0.427451 1 0.156863 0.501961 0.427451 1 0.156863 0.501961 0.427451 1 0.156863 0.501961 0.427451 1 0.156863 0.501961 0.427451 1 0.156863 0.501961 0.427451 1 0.156863 0.501961 0.427451 1 0.156863 0.501961 0.427451 1 0.156863 0.501961 0.427451 1 0.156863 0.501961 0.427451 1 0.156863 0.501961 0.427451 1 0.156863 0.501961 0.427451 1 0.156863 0.501961 0.427451 1 0.156863 0.501961 0.427451 1 0.156863 0.501961 0.427451 1 0.156863 0.501961 0.427451 1 0.156863 0.501961 0.427451 1 0.156863 0.501961 0.427451 1 0.156863 0.501961 0.427451 1 0.156863 0.501961 0.427451 1 0.156863 0.501961 0.427451 1 0.156863 0.501961 0.427451 1 0.156863 0.501961 0.427451 1 0.156863 0.501961 0.427451 1 0.156863 0.501961 0.427451 1 0.156863 0.501961 0.427451 1 0.156863 0.501961 0.427451 1 0.156863 0.501961 0.427451 1 0.156863 0.501961 0.427451 1 0.156863 0.501961 0.427451 1 0.156863 0.501961 0.427451 1 0.156863 0.501961 0.427451 1 0.156863 0.501961 0.427451 1 0.156863 0.501961 0.427451 1 0.156863 0.501961 0.427451 1 0.156863 0.501961 0.427451 1 0.156863 0.501961 0.427451 1 0.156863 0.501961 0.427451 1 0.156863 0.501961 0.427451 1 0.156863 0.501961 0.427451 1 0.156863 0.501961 0.427451 1 0.156863 0.501961 0.427451 1 0.156863 0.501961 0.427451 1 0.156863 0.501961 0.427451 1 0.156863 0.501961 0.427451 1 0.156863 0.501961 0.427451 1 0.156863 0.501961 0.427451 1 0.156863 0.501961 0.427451 1 0.156863 0.501961 0.427451 1 0.156863 0.501961 0.427451 1 0.156863 0.501961 0.427451 1 0.156863 0.501961 0.427451 1 0.156863 0.501961 0.427451 1 0.156863 0.501961 0.427451 1 0.156863 0.501961 0.427451 1 0.156863 0.501961 0.427451 1 0.156863 0.501961 0.427451 1 0.156863 0.501961 0.427451 1 0.156863 0.501961 0.427451 1 0.156863 0.501961 0.427451 1 0.156863 0.501961 0.427451 1 0.156863 0.501961 0.427451 1 0.156863 0.501961 0.427451 1 0.156863 0.501961 0.427451 1 0.156863 0.501961 0.427451 1 0.156863 0.501961 0.427451 1 0.156863 0.501961 0.427451 1 0.156863 0.501961 0.427451 1 0.156863 0.501961 0.427451 1 0.156863 0.501961 0.427451 1 0.156863 0.501961 0.427451 1 0.156863 0.501961 0.427451 1 0.156863 0.501961 0.427451 1 0.156863 0.501961 0.427451 1 0.156863 0.501961 0.427451 1 0.156863 0.501961 0.427451 1 0.156863 0.501961 0.427451 1 0.156863 0.501961 0.427451 1 0.156863 0.501961 0.427451 1 0.156863 0.501961 0.427451 1 0.156863 0.501961 0.427451 1 0.156863 0.501961 0.427451 1 0.156863 0.501961 0.427451 1 0.156863 0.501961 0.427451 1 0.156863 0.501961 0.427451 1 0.156863 0.501961 0.427451 1 0.156863 0.501961 0.427451 1 0.156863 0.501961 0.427451 1 0.156863 0.501961 0.427451 1 0.156863 0.501961 0.427451 1 0.156863 0.501961 0.427451 1 0.156863 0.501961 0.427451 1 0.156863 0.501961 0.427451 1 0.156863 0.501961 0.427451 1 0.156863 0.501961 0.427451 1 0.156863 0.501961 0.427451 1 0.156863 0.501961 0.427451 1 0.156863 0.501961 0.427451 1 0.156863 0.501961 0.427451 1 0.156863 0.501961 0.427451 1 0.156863 0.501961 0.427451 1 0.156863 0.501961 0.427451 1 0.156863 0.501961 0.427451 1 0.156863 0.501961 0.427451 1 0.156863 0.501961 0.427451 1 0.156863 0.501961 0.427451 1 0.156863 0.501961 0.427451 1 0.156863 0.501961 0.427451 1 0.156863 0.501961 0.427451 1 0.156863 0.501961 0.427451 1 0.156863 0.501961 0.427451 1 0.156863 0.501961 0.427451 1 0.156863 0.501961 0.427451 1 0.156863 0.501961 0.427451 1 0.156863 0.501961 0.427451 1 0.156863 0.501961 0.427451 1 0.156863 0.501961 0.427451 1 0.156863 0.501961 0.427451 1 0.156863 0.501961 0.427451 1 0.156863 0.501961 0.427451 1 0.156863 0.501961 0.427451 1 0.156863 0.501961 0.427451 1 0.156863 0.501961 0.427451 1 0.156863 0.501961 0.427451 1 0.156863 0.501961 0.427451 1 0.156863 0.501961 0.427451 1 0.156863 0.501961 0.427451 1 0.156863 0.501961 0.427451 1 0.156863 0.501961 0.427451 1 0.156863 0.501961 0.427451 1 0.156863 0.501961 0.427451 1 0.156863 0.501961 0.427451 1 0.156863 0.501961 0.427451 1 0.156863 0.501961 0.427451 1 0.156863 0.501961 0.427451 1 0.156863 0.501961 0.427451 1 0.156863 0.501961 0.427451 1 0.156863 0.501961 0.427451 1 0.156863 0.501961 0.427451 1 0.156863 0.501961 0.427451 1 0.156863 0.501961 0.427451 1 0.156863 0.501961 0.427451 1 0.156863 0.501961 0.427451 1 0.156863 0.501961 0.427451 1 0.156863 0.501961 0.427451 1 0.156863 0.501961 0.427451 1 0.156863 0.501961 0.427451 1 0.156863 0.501961 0.427451 1 0.156863 0.501961 0.427451 1 0.156863 0.501961 0.427451 1 0.156863 0.501961 0.427451 1 0.156863 0.501961 0.427451 1 0.156863 0.501961 0.427451 1 0.156863 0.501961 0.427451 1 0.156863 0.501961 0.427451 1 0.156863 0.501961 0.427451 1 0.156863 0.501961 0.427451 1 0.156863 0.501961 0.427451 1 0.156863 0.501961 0.427451 1 0.156863 0.501961 0.427451 1 0.156863 0.501961 0.427451 1 0.156863 0.501961 0.427451 1 0.156863 0.501961 0.427451 1 0.156863 0.501961 0.427451 1 0.156863 0.501961 0.427451 1 0.156863 0.501961 0.427451 1 0.156863 0.501961 0.427451 1 0.156863 0.501961 0.427451 1 0.156863 0.501961 0.427451 1 0.156863 0.501961 0.427451 1 0.156863 0.501961 0.427451 1 0.156863 0.501961 0.427451 1 0.156863 0.501961 0.427451 1 0.156863 0.501961 0.427451 1 0.156863 0.501961 0.427451 1 0.156863 0.501961 0.427451 1 0.156863 0.501961 0.427451 1 0.156863 0.501961 0.427451 1 0.156863 0.501961 0.427451 1 0.156863 0.501961 0.427451 1 0.156863 0.501961 0.427451 1 0.156863 0.501961 0.427451 1 0.156863 0.501961 0.427451 1 0.156863 0.501961 0.427451 1 0.156863 0.501961 0.427451 1 0.156863 0.501961 0.427451 1 0.156863 0.501961 0.427451 1 0.156863 0.501961 0.427451 1 0.156863 0.501961 0.427451 1 0.156863 0.501961 0.427451 1 0.156863 0.501961 0.427451 1 0.156863 0.501961 0.427451 1 0.156863 0.501961 0.427451 1 0.156863 0.501961 0.427451 1 0.156863 0.501961 0.427451 1 0.156863 0.501961 0.427451 1 0.156863 0.501961 0.427451 1 0.156863 0.501961 0.427451 1 0.156863 0.501961 0.427451 1 0.156863 0.501961 0.427451 1 0.156863 0.501961 0.427451 1 0.156863 0.501961 0.427451 1 0.156863 0.501961 0.427451 1 0.156863 0.501961 0.427451 1 0.156863 0.501961 0.427451 1 0.156863 0.501961 0.427451 1 0.156863 0.501961 0.427451 1 0.156863 0.501961 0.427451 1 0.156863 0.501961 0.427451 1 0.156863 0.501961 0.427451 1 0.156863 0.501961 0.427451 1 0.156863 0.501961 0.427451 1 0.156863 0.501961 0.427451 1 0.156863 0.501961 0.427451 1 0.156863 0.501961 0.427451 1 0.156863 0.501961 0.427451 1 0.156863 0.501961 0.427451 1 0.156863 0.501961 0.427451 1 0.156863 0.501961 0.427451 1 0.156863 0.501961 0.427451 1 0.156863 0.501961 0.427451 1 0.156863 0.501961 0.427451 1 0.156863 0.501961 0.427451 1 0.156863 0.501961 0.427451 1 0.156863 0.501961 0.427451 1 0.156863 0.501961 0.427451 1 0.156863 0.501961 0.427451 1 0.156863 0.501961 0.427451 1 0.156863 0.501961 0.427451 1 0.156863 0.501961 0.427451 1 0.156863 0.501961 0.427451 1 0.156863 0.501961 0.427451 1 0.156863 0.501961 0.427451 1 0.156863 0.501961 0.427451 1 0.156863 0.501961 0.427451 1 0.156863 0.501961 0.427451 1 0.156863 0.501961 0.427451 1 0.156863 0.501961 0.427451 1 0.156863 0.501961 0.427451 1 0.156863 0.501961 0.427451 1 0.156863 0.501961 0.427451 1 0.156863 0.501961 0.427451 1 0.156863 0.501961 0.427451 1 0.156863 0.501961 0.427451 1 0.156863 0.501961 0.427451 1 0.156863 0.501961 0.427451 1 0.156863 0.501961 0.427451 1 0.156863 0.501961 0.427451 1 0.156863 0.501961 0.427451 1 0.156863 0.501961 0.427451 1 0.156863 0.501961 0.427451 1 0.156863 0.501961 0.427451 1 0.156863 0.501961 0.427451 1 0.156863 0.501961 0.427451 1 0.156863 0.501961 0.427451 1 0.156863 0.501961 0.427451 1 0.156863 0.501961 0.427451 1 0.156863 0.501961 0.427451 1 0.156863 0.501961 0.427451 1 0.156863 0.501961 0.427451 1 0.156863 0.501961 0.427451 1 0.156863 0.501961 0.427451 1 0.156863 0.501961 0.427451 1 0.156863 0.501961 0.427451 1 0.156863 0.501961 0.427451 1 0.156863 0.501961 0.427451 1 0.156863 0.501961 0.427451 1 0.156863 0.501961 0.427451 1 0.156863 0.501961 0.427451 1 0.156863 0.501961 0.427451 1 0.156863 0.501961 0.427451 1 0.156863 0.501961 0.427451 1 0.156863 0.501961 0.427451 1 0.156863 0.501961 0.427451 1 0.156863 0.501961 0.427451 1 0.156863 0.501961 0.427451 1 0.156863 0.501961 0.427451 1 0.156863 0.501961 0.427451 1 0.156863 0.501961 0.427451 1 0.156863 0.501961 0.427451 1 0.156863 0.501961 0.427451 1 0.156863 0.501961 0.427451 1 0.156863 0.501961 0.427451 1 0.156863 0.501961 0.427451 1 0.156863 0.501961 0.427451 1 0.156863 0.501961 0.427451 1 0.156863 0.501961 0.427451 1 0.156863 0.501961 0.427451 1 0.156863 0.501961 0.427451 1 0.156863 0.501961 0.427451 1 0.156863 0.501961 0.427451 1 0.156863 0.501961 0.427451 1 0.156863 0.501961 0.427451 1 0.156863 0.501961 0.427451 1 0.156863 0.501961 0.427451 1 0.156863 0.501961 0.427451 1 0.156863 0.501961 0.427451 1 0.156863 0.501961 0.427451 1 0.156863 0.501961 0.427451 1 0.156863 0.501961 0.427451 1 0.156863 0.501961 0.427451 1 0.156863 0.501961 0.427451 1 0.156863 0.501961 0.427451 1 0.156863 0.501961 0.427451 1 0.156863 0.501961 0.427451 1 0.156863 0.501961 0.427451 1 0.156863 0.501961 0.427451 1 0.156863 0.501961 0.427451 1 0.156863 0.501961 0.427451 1 0.156863 0.501961 0.427451 1 0.156863 0.501961 0.427451 1 0.156863 0.501961 0.427451 1 0.156863 0.501961 0.427451 1 0.156863 0.501961 0.427451 1 0.156863 0.501961 0.427451 1 0.156863 0.501961 0.427451 1 0.156863 0.501961 0.427451 1 0.156863 0.501961 0.427451 1 0.156863 0.501961 0.427451 1 0.156863 0.501961 0.427451 1 0.156863 0.501961 0.427451 1 0.156863 0.501961 0.427451 1 0.156863 0.501961 0.427451 1 0.156863 0.501961 0.427451 1 0.156863 0.501961 0.427451 1 0.156863 0.501961 0.427451 1 0.156863 0.501961 0.427451 1 0.156863 0.501961 0.427451 1 0.156863 0.501961 0.427451 1 0.156863 0.501961 0.427451 1 0.156863 0.501961 0.427451 1 0.156863 0.501961 0.427451 1 0.156863 0.501961 0.427451 1 0.156863 0.501961 0.427451 1 0.156863 0.501961 0.427451 1 0.156863 0.501961 0.427451 1 0.156863 0.501961 0.427451 1 0.156863 0.501961 0.427451 1 0.156863 0.501961 0.427451 1 0.156863 0.501961 0.427451 1 0.156863 0.501961 0.427451 1 0.156863 0.501961 0.427451 1 0.156863 0.501961 0.427451 1 0.156863 0.501961 0.427451 1 0.156863 0.501961 0.427451 1 0.156863 0.501961 0.427451 1 0.156863 0.501961 0.427451 1 0.156863 0.501961 0.427451 1 0.156863 0.501961 0.427451 1 0.156863 0.501961 0.427451 1 0.156863 0.501961 0.427451 1 0.156863 0.501961 0.427451 1 0.156863 0.501961 0.427451 1 0.156863 0.501961 0.427451 1 0.156863 0.501961 0.427451 1 0.156863 0.501961 0.427451 1 0.156863 0.501961 0.427451 1 0.156863 0.501961 0.427451 1 0.156863 0.501961 0.427451 1 0.156863 0.501961 0.427451 1 0.156863 0.501961 0.427451 1 0.156863 0.501961 0.427451 1 0.156863 0.501961 0.427451 1 0.156863 0.501961 0.427451 1 0.156863 0.501961 0.427451 1 0.156863 0.501961 0.427451 1 0.156863 0.501961 0.427451 1 0.156863 0.501961 0.427451 1 0.156863 0.501961 0.427451 1 0.156863 0.501961 0.427451 1 0.156863 0.501961 0.427451 1 0.156863 0.501961 0.427451 1 0.156863 0.501961 0.427451 1 0.156863 0.501961 0.427451 1 0.156863 0.501961 0.427451 1 0.156863 0.501961 0.427451 1 0.156863 0.501961 0.427451 1 0.156863 0.501961 0.427451 1 0.156863 0.501961 0.427451 1 0.156863 0.501961 0.427451 1 0.156863 0.501961 0.427451 1 0.156863 0.501961 0.427451 1 0.156863 0.501961 0.427451 1 0.156863 0.501961 0.427451 1 0.156863 0.501961 0.427451 1 0.156863 0.501961 0.427451 1 0.156863 0.501961 0.427451 1 0.156863 0.501961 0.427451 1 0.156863 0.501961 0.427451 1 0.156863 0.501961 0.427451 1 0.156863 0.501961 0.427451 1 0.156863 0.501961 0.427451 1 0.156863 0.501961 0.427451 1 0.156863 0.501961 0.427451 1 0.156863 0.501961 0.427451 1 0.156863 0.501961 0.427451 1 0.156863 0.501961 0.427451 1 0.156863 0.501961 0.427451 1 0.156863 0.501961 0.427451 1 0.156863 0.501961 0.427451 1 0.156863 0.501961 0.427451 1 0.156863 0.501961 0.427451 1 0.156863 0.501961 0.427451 1 0.156863 0.501961 0.427451 1 0.156863 0.501961 0.427451 1 0.156863 0.501961 0.427451 1 0.156863 0.501961 0.427451 1 0.156863 0.501961 0.427451 1 0.156863 0.501961 0.427451 1 0.156863 0.501961 0.427451 1 0.156863 0.501961 0.427451 1 0.156863 0.501961 0.427451 1 0.156863 0.501961 0.427451 1 0.156863 0.501961 0.427451 1 0.156863 0.501961 0.427451 1 0.156863 0.501961 0.427451 1 0.156863 0.501961 0.427451 1 0.156863 0.501961 0.427451 1 0.156863 0.501961 0.427451 1 0.156863 0.501961 0.427451 1 0.156863 0.501961 0.427451 1 0.156863 0.501961 0.427451 1 0.156863 0.501961 0.427451 1 0.156863 0.501961 0.427451 1 0.156863 0.501961 0.427451 1 0.156863 0.501961 0.427451 1 0.156863 0.501961 0.427451 1 0.156863 0.501961 0.427451 1 0.156863 0.501961 0.427451 1 0.156863 0.501961 0.427451 1 0.156863 0.501961 0.427451 1 0.156863 0.501961 0.427451 1 0.156863 0.501961 0.427451 1 0.156863 0.501961 0.427451 1 0.156863 0.501961 0.427451 1 0.156863 0.501961 0.427451 1 0.156863 0.501961 0.427451 1 0.156863 0.501961 0.427451 1 0.156863 0.501961 0.427451 1 0.156863 0.501961 0.427451 1 0.156863 0.501961 0.427451 1 0.156863 0.501961 0.427451 1 0.156863 0.501961 0.427451 1 0.156863 0.501961 0.427451 1 0.156863 0.501961 0.427451 1 0.156863 0.501961 0.427451 1 0.156863 0.501961 0.427451 1 0.156863 0.501961 0.427451 1 0.156863 0.501961 0.427451 1 0.156863 0.501961 0.427451 1 0.156863 0.501961 0.427451 1 0.156863 0.501961 0.427451 1 0.156863 0.501961 0.427451 1 0.156863 0.501961 0.427451 1 0.156863 0.501961 0.427451 1 0.156863 0.501961 0.427451 1 0.156863 0.501961 0.427451 1 0.156863 0.501961 0.427451 1 0.156863 0.501961 0.427451 1 0.156863 0.501961 0.427451 1 0.156863 0.501961 0.427451 1 0.156863 0.501961 0.427451 1 0.156863 0.501961 0.427451 1 0.156863 0.501961 0.427451 1 0.156863 0.501961 0.427451 1 0.156863 0.501961 0.427451 1 0.156863 0.501961 0.427451 1 0.156863 0.501961 0.427451 1 0.156863 0.501961 0.427451 1 0.156863 0.501961 0.427451 1 0.156863 0.501961 0.427451 1 0.156863 0.501961 0.427451 1 0.156863 0.501961 0.427451 1 0.156863 0.501961 0.427451 1 0.156863 0.501961 0.427451 1 0.156863 0.501961 0.427451 1 0.156863 0.501961 0.427451 1 0.156863 0.501961 0.427451 1 0.156863 0.501961 0.427451 1 0.156863 0.501961 0.427451 1 0.156863 0.501961 0.427451 1 0.156863 0.501961 0.427451 1 0.156863 0.501961 0.427451 1 0.156863 0.501961 0.427451 1 0.156863 0.501961 0.427451 1 0.156863 0.501961 0.427451 1 0.156863 0.501961 0.427451 1 0.156863 0.501961 0.427451 1 0.156863 0.501961 0.427451 1 0.156863 0.501961 0.427451 1 0.156863 0.501961 0.427451 1 0.156863 0.501961 0.427451 1 0.156863 0.501961 0.427451 1 0.156863 0.501961 0.427451 1 0.156863 0.501961 0.427451 1 0.156863 0.501961 0.427451 1 0.156863 0.501961 0.427451 1 0.156863 0.501961 0.427451 1 0.156863 0.501961 0.427451 1 0.156863 0.501961 0.427451 1 0.156863 0.501961 0.427451 1 0.156863 0.501961 0.427451 1 0.156863 0.501961 0.427451 1 0.156863 0.501961 0.427451 1 0.156863 0.501961 0.427451 1 0.156863 0.501961 0.427451 1 0.156863 0.501961 0.427451 1 0.156863 0.501961 0.427451 1 0.156863 0.501961 0.427451 1 0.156863 0.501961 0.427451 1 0.156863 0.501961 0.427451 1 0.156863 0.501961 0.427451 1 0.156863 0.501961 0.427451 1 0.156863 0.501961 0.427451 1 0.156863 0.501961 0.427451 1 0.156863 0.501961 0.427451 1 0.156863 0.501961 0.427451 1 0.156863 0.501961 0.427451 1 0.156863 0.501961 0.427451 1 0.156863 0.501961 0.427451 1 0.156863 0.501961 0.427451 1 0.156863 0.501961 0.427451 1 0.156863 0.501961 0.427451 1 0.156863 0.501961 0.427451 1 0.156863 0.501961 0.427451 1 0.156863 0.501961 0.427451 1 0.156863 0.501961 0.427451 1 0.156863 0.501961 0.427451 1 0.156863 0.501961 0.427451 1 0.156863 0.501961 0.427451 1 0.156863 0.501961 0.427451 1 0.156863 0.501961 0.427451 1 0.156863 0.501961 0.427451 1 0.156863 0.501961 0.427451 1 0.156863 0.501961 0.427451 1 0.156863 0.501961 0.427451 1 0.156863 0.501961 0.427451 1 0.156863 0.501961 0.427451 1 0.156863 0.501961 0.427451 1 0.156863 0.501961 0.427451 1 0.156863 0.501961 0.427451 1 0.156863 0.501961 0.427451 1 0.156863 0.501961 0.427451 1 0.156863 0.501961 0.427451 1 0.156863 0.501961 0.427451 1 0.156863 0.501961 0.427451 1 0.156863 0.501961 0.427451 1 0.156863 0.501961 0.427451 1 0.156863 0.501961 0.427451 1 0.156863 0.501961 0.427451 1 0.156863 0.501961 0.427451 1 0.156863 0.501961 0.427451 1 0.156863 0.501961 0.427451 1 0.156863 0.501961 0.427451 1 0.156863 0.501961 0.427451 1 0.156863 0.501961 0.427451 1 0.156863 0.501961 0.427451 1 0.156863 0.501961 0.427451 1 0.156863 0.501961 0.427451 1 0.156863 0.501961 0.427451 1 0.156863 0.501961 0.427451 1 0.156863 0.501961 0.427451 1 0.156863 0.501961 0.427451 1 0.156863 0.501961 0.427451 1 0.156863 0.501961 0.427451 1 0.156863 0.501961 0.427451 1 0.156863 0.501961 0.427451 1 0.156863 0.501961 0.427451 1 0.156863 0.501961 0.427451 1 0.156863 0.501961 0.427451 1 0.156863 0.501961 0.427451 1 0.156863 0.501961 0.427451 1 0.156863 0.501961 0.427451 1 0.156863 0.501961 0.427451 1 0.156863 0.501961 0.427451 1 0.156863 0.501961 0.427451 1 0.156863 0.501961 0.427451 1 0.156863 0.501961 0.427451 1 0.156863 0.501961 0.427451 1 0.156863 0.501961 0.427451 1 0.156863 0.501961 0.427451 1 0.156863 0.501961 0.427451 1 0.156863 0.501961 0.427451 1 0.156863 0.501961 0.427451 1 0.156863 0.501961 0.427451 1 0.156863 0.501961 0.427451 1 0.156863 0.501961 0.427451 1 0.156863 0.501961 0.427451 1 0.156863 0.501961 0.427451 1 0.156863 0.501961 0.427451 1 0.156863 0.501961 0.427451 1 0.156863 0.501961 0.427451 1 0.156863 0.501961 0.427451 1 0.156863 0.501961 0.427451 1</float_array>
                    <technique_common>
                        <accessor count="1170" source="#shape0-lib-vcolor-array" stride="4">
                            <param name="R" type="float"/>
                            <param name="G" type="float"/>
                            <param name="B" type="float"/>
                            <param name="A" type="float"/>
                        </accessor>
                    </technique_common>
                </source>
                <vertices id="shape0-lib-vertices">
                    <input semantic="POSITION" source="#shape0-lib-positions"/>
                </vertices>
                <triangles count="452">
                    <input offset="0" semantic="VERTEX" source="#shape0-lib-vertices"/>
                    <input offset="1" semantic="COLOR" source="#shape0-lib-vcolor"/>
                    <input offset="2" semantic="NORMAL" source="#shape0-lib-normals"/>
                    <p>203 203 0 201 201 0 200 200 0 202 202 1 201 201 1 203 203 1 216 216 2 217 217 2 215 215 2 209 209 3 210 210 3 208 208 3 224 224 4 223 223 4 221 221 4 231 231 5 233 233 5 204 204 5 231 231 6 200 200 6 233 233 6 203 203 7 200 200 7 231 231 7 206 206 8 226 226 8 207 207 8 206 206 9 205 205 9 226 226 9 222 222 10 198 198 10 224 224 10 222 222 11 199 199 11 198 198 11 197 197 12 199 199 12 222 222 12 219 219 13 218 218 13 197 197 13 218 218 14 199 199 14 197 197 14 219 219 15 196 196 15 218 218 15 232 232 16 213 213 16 214 214 16 228 228 17 213 213 17 232 232 17 228 228 18 230 230 18 213 213 18 229 229 19 230 230 19 228 228 19 229 229 20 212 212 20 230 230 20 215 215 21 217 217 21 227 227 21 211 211 22 221 221 22 223 223 22 225 225 23 221 221 23 211 211 23 225 225 24 220 220 24 221 221 24 208 208 25 210 210 25 220 220 25 225 225 26 208 208 26 220 220 26 196 196 27 209 209 27 208 208 27 219 219 28 210 210 28 209 209 28 219 219 29 197 197 29 220 220 29 222 222 30 221 221 30 220 220 30 198 198 31 211 211 31 223 223 31 199 199 32 225 225 32 211 211 32 218 218 33 208 208 33 225 225 33 205 205 34 216 216 34 215 215 34 206 206 35 217 217 35 216 216 35 206 206 36 207 207 36 227 227 36 226 226 37 215 215 37 227 227 37 201 201 38 229 229 38 228 228 38 202 202 39 212 212 39 229 229 39 203 203 40 230 230 40 212 212 40 203 203 41 231 231 41 213 213 41 231 231 42 204 204 42 214 214 42 233 233 43 232 232 43 214 214 43 200 200 44 228 228 44 232 232 44 222 222 45 224 224 45 221 221 45 218 218 46 196 196 46 208 208 46 196 196 47 219 219 47 209 209 47 210 210 48 219 219 48 220 220 48 197 197 49 222 222 49 220 220 49 224 224 50 198 198 50 223 223 50 198 198 51 199 199 51 211 211 51 199 199 52 218 218 52 225 225 52 226 226 53 205 205 53 215 215 53 205 205 54 206 206 54 216 216 54 217 217 55 206 206 55 227 227 55 207 207 56 226 226 56 227 227 56 200 200 57 201 201 57 228 228 57 201 201 58 202 202 58 229 229 58 202 202 59 203 203 59 212 212 59 230 230 60 203 203 60 213 213 60 213 213 61 231 231 61 214 214 61 204 204 62 233 233 62 214 214 62 233 233 63 200 200 63 232 232 63 247 247 64 248 248 64 249 249 64 244 244 65 245 245 65 283 283 65 244 244 66 340 340 66 245 245 66 281 281 67 340 340 67 244 244 67 279 279 68 340 340 68 281 281 68 278 278 69 340 340 69 279 279 69 243 243 70 340 340 70 278 278 70 242 242 71 340 340 71 243 243 71 275 275 72 340 340 72 242 242 72 274 274 73 340 340 73 275 275 73 241 241 74 340 340 74 274 274 74 240 240 75 340 340 75 241 241 75 272 272 76 340 340 76 240 240 76 271 271 77 270 270 77 272 272 77 270 270 78 239 239 78 272 272 78 239 239 79 238 238 79 272 272 79 238 238 80 266 266 80 272 272 80 266 266 81 265 265 81 272 272 81 265 265 82 237 237 82 272 272 82 237 237 83 340 340 83 272 272 83 263 263 84 236 236 84 237 237 84 236 236 85 340 340 85 237 237 85 235 235 86 340 340 86 236 236 86 234 234 87 340 340 87 235 235 87 261 261 88 340 340 88 234 234 88 259 259 89 282 282 89 258 258 89 352 352 90 282 282 90 259 259 90 352 352 91 280 280 91 282 282 91 352 352 92 257 257 92 280 280 92 352 352 93 256 256 93 257 257 93 352 352 94 277 277 94 256 256 94 352 352 95 276 276 95 277 277 95 352 352 96 255 255 96 276 276 96 352 352 97 254 254 97 255 255 97 352 352 98 273 273 98 254 254 98 352 352 99 253 253 99 273 273 99 352 352 100 252 252 100 253 253 100 269 269 101 251 251 101 252 252 101 268 268 102 269 269 102 252 252 102 267 267 103 268 268 103 252 252 103 250 250 104 267 267 104 252 252 104 264 264 105 250 250 105 252 252 105 249 249 106 264 264 106 252 252 106 352 352 107 249 249 107 252 252 107 352 352 108 247 247 108 249 249 108 352 352 109 262 262 109 247 247 109 352 352 110 246 246 110 262 262 110 352 352 111 260 260 111 246 246 111 234 234 112 246 246 112 260 260 112 235 235 113 262 262 113 246 246 113 236 236 114 247 247 114 262 262 114 236 236 115 263 263 115 248 248 115 237 237 116 249 249 116 248 248 116 265 265 117 264 264 117 249 249 117 266 266 118 250 250 118 264 264 118 266 266 119 238 238 119 267 267 119 239 239 120 268 268 120 267 267 120 270 270 121 269 269 121 268 268 121 271 271 122 251 251 122 269 269 122 272 272 123 252 252 123 251 251 123 240 240 124 253 253 124 252 252 124 241 241 125 273 273 125 253 253 125 274 274 126 254 254 126 273 273 126 275 275 127 255 255 127 254 254 127 242 242 128 276 276 128 255 255 128 243 243 129 277 277 129 276 276 129 278 278 130 256 256 130 277 277 130 279 279 131 257 257 131 256 256 131 281 281 132 280 280 132 257 257 132 244 244 133 282 282 133 280 280 133 283 283 134 258 258 134 282 282 134 245 245 135 259 259 135 258 258 135 340 340 136 352 352 136 259 259 136 261 261 137 260 260 137 352 352 137 261 261 138 234 234 138 260 260 138 234 234 139 235 235 139 246 246 139 235 235 140 236 236 140 262 262 140 247 247 141 236 236 141 248 248 141 263 263 142 237 237 142 248 248 142 237 237 143 265 265 143 249 249 143 265 265 144 266 266 144 264 264 144 250 250 145 266 266 145 267 267 145 238 238 146 239 239 146 267 267 146 239 239 147 270 270 147 268 268 147 270 270 148 271 271 148 269 269 148 271 271 149 272 272 149 251 251 149 272 272 150 240 240 150 252 252 150 240 240 151 241 241 151 253 253 151 241 241 152 274 274 152 273 273 152 274 274 153 275 275 153 254 254 153 275 275 154 242 242 154 255 255 154 242 242 155 243 243 155 276 276 155 243 243 156 278 278 156 277 277 156 278 278 157 279 279 157 256 256 157 279 279 158 281 281 158 257 257 158 281 281 159 244 244 159 280 280 159 244 244 160 283 283 160 282 282 160 283 283 161 245 245 161 258 258 161 245 245 162 340 340 162 259 259 162 340 340 163 261 261 163 352 352 163 645 645 164 644 644 164 642 642 164 629 629 165 574 574 165 630 630 165 628 628 166 574 574 166 629 629 166 661 661 167 574 574 167 628 628 167 627 627 168 574 574 168 661 661 168 626 626 169 574 574 169 627 627 169 660 660 170 574 574 170 626 626 170 659 659 171 574 574 171 660 660 171 625 625 172 574 574 172 659 659 172 624 624 173 574 574 173 625 625 173 655 655 174 574 574 174 624 624 174 653 653 175 574 574 175 655 655 175 623 623 176 574 574 176 653 653 176 652 652 177 574 574 177 623 623 177 622 622 178 574 574 178 652 652 178 621 621 179 574 574 179 622 622 179 649 649 180 574 574 180 621 621 180 620 620 181 574 574 181 649 649 181 619 619 182 574 574 182 620 620 182 618 618 183 574 574 183 619 619 183 617 617 184 574 574 184 618 618 184 616 616 185 574 574 185 617 617 185 645 645 186 574 574 186 616 616 186 643 643 187 574 574 187 645 645 187 586 586 188 641 641 188 663 663 188 586 586 189 662 662 189 641 641 189 586 586 190 640 640 190 662 662 190 586 586 191 639 639 191 640 640 191 586 586 192 638 638 192 639 639 192 586 586 193 637 637 193 638 638 193 586 586 194 658 658 194 637 637 194 586 586 195 657 657 195 658 658 195 586 586 196 656 656 196 657 657 196 586 586 197 654 654 197 656 656 197 586 586 198 636 636 198 654 654 198 586 586 199 635 635 199 636 636 199 586 586 200 651 651 200 635 635 200 586 586 201 634 634 201 651 651 201 586 586 202 650 650 202 634 634 202 586 586 203 633 633 203 650 650 203 586 586 204 648 648 204 633 633 204 586 586 205 647 647 205 648 648 205 586 586 206 632 632 206 647 647 206 586 586 207 646 646 207 632 632 207 586 586 208 631 631 208 646 646 208 586 586 209 644 644 209 631 631 209 586 586 210 642 642 210 644 644 210 574 574 211 643 643 211 642 642 211 616 616 212 631 631 212 644 644 212 617 617 213 646 646 213 631 631 213 618 618 214 632 632 214 646 646 214 619 619 215 647 647 215 632 632 215 620 620 216 648 648 216 647 647 216 649 649 217 633 633 217 648 648 217 621 621 218 650 650 218 633 633 218 622 622 219 634 634 219 650 650 219 652 652 220 651 651 220 634 634 220 623 623 221 635 635 221 651 651 221 653 653 222 636 636 222 635 635 222 655 655 223 654 654 223 636 636 223 624 624 224 656 656 224 654 654 224 625 625 225 657 657 225 656 656 225 659 659 226 658 658 226 657 657 226 660 660 227 637 637 227 658 658 227 626 626 228 638 638 228 637 637 228 627 627 229 639 639 229 638 638 229 661 661 230 640 640 230 639 639 230 628 628 231 662 662 231 640 640 231 629 629 232 641 641 232 662 662 232 630 630 233 663 663 233 641 641 233 574 574 234 586 586 234 663 663 234 643 643 235 645 645 235 642 642 235 586 586 236 574 574 236 642 642 236 645 645 237 616 616 237 644 644 237 616 616 238 617 617 238 631 631 238 617 617 239 618 618 239 646 646 239 618 618 240 619 619 240 632 632 240 619 619 241 620 620 241 647 647 241 620 620 242 649 649 242 648 648 242 649 649 243 621 621 243 633 633 243 621 621 244 622 622 244 650 650 244 622 622 245 652 652 245 634 634 245 652 652 246 623 623 246 651 651 246 623 623 247 653 653 247 635 635 247 653 653 248 655 655 248 636 636 248 655 655 249 624 624 249 654 654 249 624 624 250 625 625 250 656 656 250 625 625 251 659 659 251 657 657 251 659 659 252 660 660 252 658 658 252 660 660 253 626 626 253 637 637 253 626 626 254 627 627 254 638 638 254 627 627 255 661 661 255 639 639 255 661 661 256 628 628 256 640 640 256 628 628 257 629 629 257 662 662 257 629 629 258 630 630 258 641 641 258 630 630 259 574 574 259 663 663 259 763 763 260 765 765 260 769 769 260 763 763 261 764 764 261 765 765 261 799 799 262 808 808 262 762 762 262 797 797 263 808 808 263 799 799 263 796 796 264 808 808 264 797 797 264 761 761 265 808 808 265 796 796 265 760 760 266 808 808 266 761 761 266 793 793 267 808 808 267 760 760 267 792 792 268 808 808 268 793 793 268 759 759 269 808 808 269 792 792 269 791 791 270 808 808 270 759 759 270 758 758 271 808 808 271 791 791 271 788 788 272 808 808 272 758 758 272 787 787 273 786 786 273 788 788 273 786 786 274 756 756 274 788 788 274 756 756 275 755 755 275 788 788 275 755 755 276 754 754 276 788 788 276 754 754 277 779 779 277 788 788 277 779 779 278 752 752 278 788 788 278 752 752 279 777 777 279 788 788 279 777 777 280 808 808 280 788 788 280 784 784 281 756 756 281 786 786 281 757 757 282 756 756 282 784 784 282 783 783 283 756 756 283 757 757 283 753 753 284 779 779 284 754 754 284 820 820 285 798 798 285 775 775 285 820 820 286 774 774 286 798 798 286 820 820 287 773 773 287 774 774 287 820 820 288 795 795 288 773 773 288 820 820 289 794 794 289 795 795 289 820 820 290 772 772 290 794 794 290 820 820 291 771 771 291 772 772 291 820 820 292 770 770 292 771 771 292 820 820 293 790 790 293 770 770 293 820 820 294 789 789 294 790 790 294 820 820 295 769 769 295 789 789 295 785 785 296 768 768 296 769 769 296 781 781 297 785 785 297 769 769 297 780 780 298 781 781 298 769 769 298 765 765 299 780 780 299 769 769 299 778 778 300 763 763 300 769 769 300 776 776 301 778 778 301 769 769 301 820 820 302 776 776 302 769 769 302 781 781 303 767 767 303 785 785 303 781 781 304 766 766 304 767 767 304 781 781 305 782 782 305 766 766 305 777 777 306 776 776 306 820 820 306 752 752 307 778 778 307 776 776 307 779 779 308 763 763 308 778 778 308 753 753 309 764 764 309 763 763 309 754 754 310 765 765 310 764 764 310 755 755 311 780 780 311 765 765 311 756 756 312 781 781 312 780 780 312 783 783 313 782 782 313 781 781 313 757 757 314 766 766 314 782 782 314 784 784 315 767 767 315 766 766 315 786 786 316 785 785 316 767 767 316 787 787 317 768 768 317 785 785 317 788 788 318 769 769 318 768 768 318 758 758 319 789 789 319 769 769 319 791 791 320 790 790 320 789 789 320 759 759 321 770 770 321 790 790 321 792 792 322 771 771 322 770 770 322 793 793 323 772 772 323 771 771 323 760 760 324 794 794 324 772 772 324 761 761 325 795 795 325 794 794 325 796 796 326 773 773 326 795 795 326 797 797 327 774 774 327 773 773 327 799 799 328 798 798 328 774 774 328 762 762 329 775 775 329 798 798 329 808 808 330 820 820 330 775 775 330 808 808 331 777 777 331 820 820 331 777 777 332 752 752 332 776 776 332 752 752 333 779 779 333 778 778 333 779 779 334 753 753 334 763 763 334 753 753 335 754 754 335 764 764 335 754 754 336 755 755 336 765 765 336 755 755 337 756 756 337 780 780 337 756 756 338 783 783 338 781 781 338 783 783 339 757 757 339 782 782 339 757 757 340 784 784 340 766 766 340 784 784 341 786 786 341 767 767 341 786 786 342 787 787 342 785 785 342 787 787 343 788 788 343 768 768 343 788 788 344 758 758 344 769 769 344 758 758 345 791 791 345 789 789 345 791 791 346 759 759 346 790 790 346 759 759 347 792 792 347 770 770 347 792 792 348 793 793 348 771 771 348 793 793 349 760 760 349 772 772 349 760 760 350 761 761 350 794 794 350 761 761 351 796 796 351 795 795 351 796 796 352 797 797 352 773 773 352 797 797 353 799 799 353 774 774 353 799 799 354 762 762 354 798 798 354 762 762 355 808 808 355 775 775 355 1039 1039 356 1042 1042 356 1040 1040 356 1038 1038 357 1042 1042 357 1039 1039 357 1036 1036 358 1042 1042 358 1037 1037 358 1035 1035 359 1042 1042 359 1036 1036 359 1034 1034 360 1042 1042 360 1035 1035 360 1044 1044 361 1043 1043 361 1034 1034 361 1045 1045 362 1044 1044 362 1046 1046 362 1054 1054 363 1051 1051 363 1052 1052 363 1058 1058 364 1059 1059 364 1048 1048 364 1054 1054 365 1056 1056 365 1057 1057 365 1054 1054 366 1055 1055 366 1056 1056 366 1083 1083 367 1082 1082 367 1080 1080 367 1041 1041 368 1042 1042 368 1070 1070 368 1068 1068 369 1042 1042 369 1041 1041 369 1040 1040 370 1042 1042 370 1068 1068 370 1065 1065 371 1042 1042 371 1038 1038 371 1064 1064 372 1042 1042 372 1065 1065 372 1037 1037 373 1042 1042 373 1064 1064 373 1083 1083 374 1081 1081 374 1034 1034 374 1081 1081 375 1047 1047 375 1034 1034 375 1047 1047 376 1078 1078 376 1034 1034 376 1078 1078 377 1044 1044 377 1034 1034 377 1043 1043 378 1075 1075 378 1034 1034 378 1075 1075 379 1042 1042 379 1034 1034 379 1044 1044 380 1046 1046 380 1078 1078 380 1073 1073 381 1042 1042 381 1075 1075 381 1072 1072 382 1042 1042 382 1073 1073 382 1071 1071 383 1042 1042 383 1072 1072 383 1054 1054 384 1069 1069 384 1053 1053 384 1054 1054 385 1067 1067 385 1069 1069 385 1054 1054 386 1052 1052 386 1067 1067 386 1054 1054 387 1066 1066 387 1051 1051 387 1054 1054 388 1050 1050 388 1066 1066 388 1054 1054 389 1063 1063 389 1050 1050 389 1054 1054 390 1062 1062 390 1063 1063 390 1054 1054 391 1049 1049 391 1062 1062 391 1054 1054 392 1061 1061 392 1049 1049 392 1054 1054 393 1048 1048 393 1061 1061 393 1080 1080 394 1082 1082 394 1048 1048 394 1079 1079 395 1080 1080 395 1048 1048 395 1077 1077 396 1079 1079 396 1048 1048 396 1059 1059 397 1077 1077 397 1048 1048 397 1074 1074 398 1058 1058 398 1048 1048 398 1054 1054 399 1074 1074 399 1048 1048 399 1060 1060 400 1059 1059 400 1077 1077 400 1059 1059 401 1076 1076 401 1060 1060 401 1054 1054 402 1057 1057 402 1074 1074 402 1035 1035 403 1061 1061 403 1048 1048 403 1036 1036 404 1049 1049 404 1061 1061 404 1037 1037 405 1062 1062 405 1049 1049 405 1064 1064 406 1063 1063 406 1062 1062 406 1065 1065 407 1050 1050 407 1063 1063 407 1038 1038 408 1066 1066 408 1050 1050 408 1039 1039 409 1051 1051 409 1066 1066 409 1040 1040 410 1052 1052 410 1051 1051 410 1068 1068 411 1067 1067 411 1052 1052 411 1041 1041 412 1069 1069 412 1067 1067 412 1070 1070 413 1053 1053 413 1069 1069 413 1042 1042 414 1054 1054 414 1053 1053 414 1071 1071 415 1055 1055 415 1054 1054 415 1072 1072 416 1056 1056 416 1055 1055 416 1073 1073 417 1057 1057 417 1056 1056 417 1073 1073 418 1075 1075 418 1074 1074 418 1043 1043 419 1058 1058 419 1074 1074 419 1044 1044 420 1059 1059 420 1058 1058 420 1045 1045 421 1076 1076 421 1059 1059 421 1046 1046 422 1060 1060 422 1076 1076 422 1078 1078 423 1077 1077 423 1060 1060 423 1047 1047 424 1079 1079 424 1077 1077 424 1081 1081 425 1080 1080 425 1079 1079 425 1034 1034 426 1048 1048 426 1082 1082 426 1081 1081 427 1083 1083 427 1080 1080 427 1034 1034 428 1035 1035 428 1048 1048 428 1035 1035 429 1036 1036 429 1061 1061 429 1036 1036 430 1037 1037 430 1049 1049 430 1037 1037 431 1064 1064 431 1062 1062 431 1064 1064 432 1065 1065 432 1063 1063 432 1065 1065 433 1038 1038 433 1050 1050 433 1038 1038 434 1039 1039 434 1066 1066 434 1039 1039 435 1040 1040 435 1051 1051 435 1040 1040 436 1068 1068 436 1052 1052 436 1068 1068 437 1041 1041 437 1067 1067 437 1041 1041 438 1070 1070 438 1069 1069 438 1070 1070 439 1042 1042 439 1053 1053 439 1042 1042 440 1071 1071 440 1054 1054 440 1071 1071 441 1072 1072 441 1055 1055 441 1072 1072 442 1073 1073 442 1056 1056 442 1057 1057 443 1073 1073 443 1074 1074 443 1075 1075 444 1043 1043 444 1074 1074 444 1043 1043 445 1044 1044 445 1058 1058 445 1044 1044 446 1045 1045 446 1059 1059 446 1045 1045 447 1046 1046 447 1076 1076 447 1046 1046 448 1078 1078 448 1060 1060 448 1078 1078 449 1047 1047 449 1077 1077 449 1047 1047 450 1081 1081 450 1079 1079 450 1083 1083 451 1034 1034 451 1082 1082 451</p>
                </triangles>
            </mesh>
        </geometry>
    </library_geometries>
    <library_visual_scenes>
        <visual_scene id="VisualSceneNode" name="VisualScene">
            <node id="node" name="node">
                <instance_geometry url="#shape0-lib"/>
            </node>
        </visual_scene>
    </library_visual_scenes>
    <scene>
        <instance_visual_scene url="#VisualSceneNode"/>
    </scene>
</COLLADA>
