<?xml version="1.0" encoding="UTF-8"?>
<COLLADA xmlns="http://www.collada.org/2005/11/COLLADASchema" version="1.4.1">
    <asset>
        <contributor>
            <author>VCGLab</author>
            <authoring_tool>VCGLib | MeshLab</authoring_tool>
        </contributor>
        <created>Mi Nov 9 07:47:52 2016 GMT</created>
        <modified>Mi Nov 9 07:47:52 2016 GMT</modified>
        <up_axis>Y_UP</up_axis>
    </asset>
    <library_geometries>
        <geometry id="shape0-lib" name="shape0">
            <mesh>
                <source id="shape0-lib-positions" name="position">
                    <float_array id="shape0-lib-positions-array" count="1773">0.0079542 0.0109268 -0.0224151 0.00361624 0.0383156 -0.0149849 0.00781308 0.0111729 -0.0234044 0.00347518 0.0385617 -0.0159742 0.00747816 0.0113779 -0.0243557 0.0031402 0.0387667 -0.0169255 0.00696222 0.0115341 -0.0252324 0.00262432 0.0389229 -0.0178022 0.00628519 0.0116353 -0.0260009 0.00194723 0.0390241 -0.0185706 0.00547302 0.0116777 -0.0266315 0.00113506 0.0390665 -0.0192013 0.00455691 0.0116598 -0.0271001 0.000218928 0.0390486 -0.0196699 0.0035721 0.0115821 -0.0273887 -0.000765852 0.0389709 -0.0199584 0.00255643 0.0114477 -0.0274861 -0.00178158 0.0388364 -0.0200558 0.00154895 0.0112616 -0.0273887 -0.00278907 0.0386504 -0.0199584 0.000588286 0.0110312 -0.0271001 -0.00374967 0.03842 -0.0196699 -0.000288487 0.0107652 -0.0266315 -0.00462649 0.038154 -0.0192013 -0.00104785 0.0104739 -0.0260009 -0.00538581 0.0378626 -0.0185706 -0.00166049 0.0101684 -0.0252324 -0.00599845 0.0375572 -0.0178022 -0.00210292 0.00986042 -0.0243557 -0.00644088 0.0372492 -0.0169255 -0.00235808 0.00956192 -0.0234044 -0.00669604 0.0369507 -0.0159742 -0.00241625 0.00928438 -0.0224151 -0.0067542 0.0366732 -0.0149849 -0.00227518 0.00903828 -0.0214258 -0.00661308 0.0364271 -0.0139956 -0.0019402 0.00883326 -0.0204746 -0.00627816 0.0362221 -0.0130443 -0.00142432 0.00867713 -0.0195978 -0.00576222 0.0360659 -0.0121676 -0.000747232 0.00857593 -0.0188294 -0.00508519 0.0359647 -0.0113992 6.49407e-05 0.00853347 -0.0181988 -0.00427302 0.0359223 -0.0107685 0.00098107 0.00855144 -0.0177301 -0.00335691 0.0359402 -0.0102999 0.00196591 0.00862915 -0.0174416 -0.00237209 0.0360179 -0.0100113 0.00298158 0.00876356 -0.0173442 -0.00135644 0.0361523 -0.00991386 0.00398907 0.00894958 -0.0174416 -0.000348949 0.0363384 -0.0100113 0.00494968 0.00917999 -0.0177301 0.000611712 0.0365688 -0.0102999 0.00582649 0.00944601 -0.0181988 0.00148854 0.0368348 -0.0107685 0.00658581 0.00973736 -0.0188294 0.00224785 0.0371261 -0.0113992 0.00719845 0.0100428 -0.0195979 0.00286049 0.0374316 -0.0121676 0.00764087 0.0103508 -0.0204746 0.00330292 0.0377396 -0.0130443 0.00789604 0.0106493 -0.0214258 0.00355808 0.0380381 -0.0139956 -0.0159508 -0.0153405 -0.0387204 -0.0159506 -0.0153842 -0.0328543 -0.0153506 -0.0180319 -0.0387204 -0.0153587 -0.0180428 -0.0328543 -0.0145916 -0.0203301 -0.0387204 -0.0145995 -0.0203408 -0.0328543 -0.0136425 -0.0223724 -0.0387204 -0.0136503 -0.0223827 -0.0328543 -0.0125056 -0.0241663 -0.0387204 -0.0125133 -0.0241763 -0.0328543 -0.0111825 -0.0257195 -0.0387204 -0.0111902 -0.0257292 -0.0328543 -0.0096755 -0.0270397 -0.0387204 -0.00968307 -0.027049 -0.0328543 -0.00798636 -0.0281345 -0.0387204 -0.00799387 -0.0281436 -0.0328543 -0.00611704 -0.0290116 -0.0387204 -0.00612449 -0.0290203 -0.0328543 -0.00406956 -0.0296786 -0.0387204 -0.0040769 -0.0296871 -0.0328543 -0.00184589 -0.0301432 -0.0387204 -0.00185311 -0.0301514 -0.0328543 0.000552089 -0.0304132 -0.0387204 0.000544909 -0.030421 -0.0328543 0.0030998 -0.0304637 -0.0387204 0.00309831 -0.0304793 -0.0328543 0.00566405 -0.0301481 -0.0387204 0.00567293 -0.0301696 -0.0328543 0.008057 -0.0293512 -0.0387204 0.00806588 -0.0293698 -0.0328543 0.0102375 -0.0281081 -0.0387204 0.0102463 -0.0281238 -0.0328543 0.0122055 -0.0264894 -0.0387204 0.0122144 -0.0265021 -0.0328543 0.0139611 -0.0245657 -0.0387204 0.01397 -0.0245755 -0.0328543 0.0155044 -0.0224078 -0.0387204 0.0155132 -0.0224146 -0.0328543 0.0168353 -0.0200863 -0.0387204 0.0168442 -0.0200902 -0.0328543 0.017954 -0.017672 -0.0387204 0.0179628 -0.0176729 -0.0328543 0.0188604 -0.0152355 -0.0387204 0.0188692 -0.0152335 -0.0328543 0.0195546 -0.0128475 -0.0387204 0.0195634 -0.0128425 -0.0328543 0.0200366 -0.0105786 -0.0387204 0.0200454 -0.0105707 -0.0328543 0.0203333 -0.00821869 -0.0387204 0.0203355 -0.00827805 -0.0328543 0.0205324 -0.00501243 -0.0387204 0.0205394 -0.00499449 -0.0328543 0.0205876 -0.00191711 -0.0387204 0.0205935 -0.00190197 -0.0328543 0.0205033 0.0117747 -0.0387204 0.0205079 0.0117871 -0.0328543 0.0203077 0.0142083 -0.0387204 0.0203111 0.0142179 -0.0328543 0.0200292 0.0164118 -0.0387204 0.0200315 0.0164186 -0.0328543 0.0196963 0.0184521 -0.0387204 0.0196974 0.0184561 -0.0328543 0.0193373 0.0203965 -0.0387204 0.0193372 0.0203977 -0.0328543 0.0189806 0.0223119 -0.0387204 0.0189793 0.0223103 -0.0328543 0.0186545 0.0242655 -0.0387204 0.018652 0.0242612 -0.0328543 -0.016134 0.0224772 -0.0387204 -0.0161352 0.0224614 -0.0328543 -0.0164816 0.0192016 -0.0387204 -0.0164836 0.0191897 -0.0328543 -0.0167809 0.0162107 -0.0387204 -0.0167837 0.0162028 -0.0328543 -0.0170127 0.0134108 -0.0387204 -0.0170163 0.0134067 -0.0328543 -0.0171579 -0.000252948 -0.0387204 -0.0171623 -0.000253086 -0.0328543 -0.0171975 -0.00295238 -0.0387204 -0.0172027 -0.00294863 -0.0328543 -0.0171122 -0.0057423 -0.0387204 -0.0171182 -0.00573461 -0.0328543 -0.0168831 -0.00871651 -0.0387204 -0.0168899 -0.00870489 -0.0328543 -0.0164909 -0.0119687 -0.0387204 -0.0164985 -0.0119532 -0.0328543 -0.015862 -0.0153481 -0.0223822 -0.0152727 -0.0179944 -0.0223823 -0.0145172 -0.0202813 -0.0223822 -0.0135727 -0.0223134 -0.0223822 -0.0124411 -0.0240984 -0.0223822 -0.0111244 -0.0256438 -0.0223822 -0.00962448 -0.0269573 -0.0223822 -0.00794339 -0.0280466 -0.0223822 -0.00608295 -0.0289191 -0.0223823 -0.00404525 -0.0295827 -0.0223823 -0.00183218 -0.0300448 -0.0223823 0.000554337 -0.0303131 -0.0223823 0.00309539 -0.0303709 -0.0223823 0.00565744 -0.0300627 -0.0223823 0.00803888 -0.0292668 -0.0223822 0.0102089 -0.0280267 -0.0223822 0.0121675 -0.0264129 -0.0223823 0.0139146 -0.0244956 -0.0223823 0.0154505 -0.0223452 -0.0223823 0.016775 -0.020032 -0.0223822 0.0178882 -0.0176264 -0.0223822 0.0187903 -0.0151987 -0.0223822 0.0194812 -0.0128193 -0.0223822 0.0199609 -0.0105585 -0.0223822 0.0202496 -0.00827591 -0.0223822 0.0204524 -0.00500922 -0.0223822 0.0205063 -0.00193153 -0.0223822 0.0204211 0.0117444 -0.0223822 0.0202253 0.0141636 -0.0223822 0.0199471 0.0163537 -0.0223822 0.0196146 0.0183815 -0.0223822 0.0192562 0.0203138 -0.0223822 0.0189 0.0222173 -0.0223822 0.0185743 0.0241588 -0.0223822 -0.0160456 0.0223678 -0.0223822 -0.0163924 0.0191118 -0.0223822 -0.016691 0.0161392 -0.0223822 -0.0169225 0.0133565 -0.0223822 -0.0170678 -0.000290357 -0.0223822 -0.0171079 -0.00297301 -0.0223822 -0.0170239 -0.00574563 -0.0223822 -0.0167966 -0.00870173 -0.0223822 -0.0164071 -0.0119344 -0.0223822 -0.0152033 -0.0150847 -0.0123435 -0.0146353 -0.0176358 -0.0123435 -0.0139069 -0.0198406 -0.0123435 -0.0129962 -0.0217998 -0.0123435 -0.0119053 -0.0235206 -0.0123435 -0.0106358 -0.0250106 -0.0123435 -0.00918984 -0.0262769 -0.0123435 -0.00756907 -0.027327 -0.0123435 -0.00577545 -0.0281683 -0.0123435 -0.00381088 -0.028808 -0.0123435 -0.00167727 -0.0292535 -0.0123435 0.000623563 -0.0295121 -0.0123435 0.00307346 -0.0295681 -0.0123435 0.00554359 -0.0292709 -0.0123435 0.00783956 -0.0285036 -0.0123435 0.00993163 -0.027308 -0.0123435 0.0118198 -0.0257521 -0.0123435 0.0135043 -0.0239036 -0.0123435 0.014985 -0.0218304 -0.0123435 0.016262 -0.0196002 -0.0123435 0.0173353 -0.017281 -0.0123435 0.0182049 -0.0149404 -0.0123435 0.018871 -0.0126464 -0.0123435 0.0193335 -0.0104667 -0.0123435 0.0196118 -0.00826661 -0.0123435 0.0198074 -0.00511656 -0.0123435 0.0198593 -0.00214939 -0.0123435 0.0197772 0.000468141 -0.0123435 0.0195884 0.0137614 -0.0123435 0.0193202 0.0158728 -0.0123435 0.0189996 0.0178278 -0.0123435 0.018654 0.0196906 -0.0123435 0.0183106 0.0215258 -0.0123435 0.0179965 0.0233976 -0.0123435 -0.0153804 0.0216708 -0.0123435 -0.0157147 0.0185317 -0.0123435 -0.0160026 0.0156658 -0.0123435 -0.0162258 0.0129832 -0.0123435 -0.0163659 -0.000567288 -0.0123435 -0.0164046 -0.00315355 -0.0123435 -0.0163236 -0.0058267 -0.0123435 -0.0161045 -0.00867657 -0.0123435 -0.0157289 -0.0117932 -0.0123435 -0.0142131 -0.0146885 -0.00614971 -0.0136769 -0.0170966 -0.00614971 -0.0129893 -0.019178 -0.00614971 -0.0121297 -0.0210274 -0.00614971 -0.0110997 -0.022652 -0.00614971 -0.0099014 -0.0240585 -0.00614971 -0.00853628 -0.025254 -0.00614971 -0.00700628 -0.0262453 -0.00614971 -0.0053131 -0.0270394 -0.00614971 -0.0034585 -0.0276433 -0.00614971 -0.00144434 -0.0280639 -0.00614971 0.000727689 -0.0283081 -0.00614971 0.00304043 -0.0283609 -0.00614971 0.00537235 -0.0280804 -0.00614971 0.00753975 -0.0273559 -0.00614971 0.00951469 -0.0262273 -0.00614971 0.0112972 -0.0247585 -0.00614971 0.0128874 -0.0230135 -0.00614971 0.0142852 -0.0210563 -0.00614971 0.0154907 -0.018951 -0.00614971 0.0165039 -0.0167616 -0.00614971 0.0173249 -0.014552 -0.00614971 0.0179536 -0.0123864 -0.00614971 0.0183902 -0.0103287 -0.00614971 0.0186529 -0.00825207 -0.00614971 0.0188376 -0.00527815 -0.00614971 0.0188866 -0.00247709 -0.00614971 0.0188091 -6.09995e-06 -0.00614971 0.0186309 0.0131565 -0.00614971 0.0183776 0.0151498 -0.00614971 0.018075 0.0169953 -0.00614971 0.0177488 0.0187538 -0.00614971 0.0174246 0.0204862 -0.00614971 0.0171281 0.0222532 -0.00614971 -0.0143803 0.0206231 -0.00614971 -0.0146959 0.0176598 -0.00614971 -0.0149677 0.0149543 -0.00614971 -0.0151783 0.0124219 -0.00614971 -0.0153106 -0.000983608 -0.00614971 -0.0153471 -0.00342511 -0.00614971 -0.0152706 -0.00594853 -0.00614971 -0.0150638 -0.00863884 -0.00614971 -0.0147093 -0.011581 -0.00614971 -0.0131196 -0.0142509 -0.00201714 -0.0126185 -0.0165011 -0.00201714 -0.0119759 -0.0184462 -0.00201714 -0.0111726 -0.0201745 -0.00201714 -0.0102101 -0.0216927 -0.00201714 -0.00909024 -0.0230071 -0.00201714 -0.00781458 -0.0241242 -0.00201714 -0.00638479 -0.0250506 -0.00201714 -0.00480246 -0.0257928 -0.00201714 -0.00306934 -0.0263571 -0.00201714 -0.00118708 -0.0267501 -0.00201714 0.000842674 -0.0269783 -0.00201714 0.00300396 -0.0270277 -0.00201714 0.00518322 -0.0267656 -0.00201714 0.00720865 -0.0260886 -0.00201714 0.00905431 -0.0250339 -0.00201714 0.0107201 -0.0236612 -0.00201714 0.0122061 -0.0220305 -0.00201714 0.0135123 -0.0202015 -0.00201714 0.0146388 -0.0182341 -0.00201714 0.0155857 -0.016188 -0.00201714 0.0163529 -0.0141232 -0.00201714 0.0169405 -0.0120994 -0.00201714 0.0173485 -0.0101765 -0.00201714 0.017594 -0.00823615 -0.00201714 0.0177666 -0.00545655 -0.00201714 0.0178123 -0.00283895 -0.00201714 0.0177399 -0.000529824 -0.00201714 0.0175733 0.0124886 -0.00201714 0.0173367 0.0143513 -0.00201714 0.0170539 0.0160759 -0.00201714 0.016749 0.0177193 -0.00201714 0.016446 0.0193382 -0.00201714 0.016169 0.0209894 -0.00201714 -0.0132758 0.019466 -0.00201714 -0.0135707 0.0166968 -0.00201714 -0.0138247 0.0141686 -0.00201714 -0.0140216 0.011802 -0.00201714 -0.0141452 -0.00144337 -0.00201714 -0.0141793 -0.00372492 -0.00201714 -0.0141079 -0.00608306 -0.00201714 -0.0139146 -0.00859718 -0.00201714 -0.0135833 -0.0113466 -0.00201714 -0.0100024 -0.0135226 0.000240631 -0.009597 -0.0153405 0.000240631 -0.00908398 -0.0168937 0.000240631 -0.00844264 -0.0182739 0.000240631 -0.00767427 -0.0194862 0.000240635 -0.00678015 -0.0205359 0.000240631 -0.00576168 -0.0214281 0.000240631 -0.00462013 -0.022168 0.000240631 -0.00335681 -0.0227607 0.000240631 -0.00197309 -0.0232115 0.000240631 -0.000470312 -0.0235255 0.000240631 0.00115025 -0.0237078 0.000240631 0.00287223 -0.0237422 0.000240631 0.00460547 -0.0235291 0.000240631 0.00622267 -0.0229905 0.000240631 0.00769627 -0.0221503 0.000240631 0.00902629 -0.0210562 0.000240631 0.0102128 -0.0197561 0.000240631 0.0112557 -0.0182977 0.000240631 0.0121552 -0.0167287 0.000240631 0.0129111 -0.015097 0.000240631 0.0135237 -0.0134503 0.000240631 0.0139929 -0.0118363 0.000240635 0.0143186 -0.0103029 0.000240631 0.014519 -0.00871007 0.000240631 0.0146536 -0.00654094 0.000240631 0.0146909 -0.00444917 0.000240631 0.0146339 -0.00260363 0.000240631 0.0145017 -0.000959081 0.000240631 0.0143135 0.000529954 0.000240631 0.0140884 0.0128697 0.000240635 0.013757 0.0147522 0.000240635 0.0134722 0.0168149 0.000150096 0.0131507 0.0193079 0.000280552 0.00131505 0.0262278 -0.0387204 0.00131303 0.0262144 -0.0328543 0.00131869 0.0261027 -0.0223822 -0.00991827 0.0176087 0.000310492 -0.0103612 0.0133757 0.000240639 -0.0105634 0.000393636 0.000240631 -0.0107201 -0.00149845 0.000240635 -0.0108183 -0.00332491 0.000240631 -0.0108451 -0.00514917 0.000240631 -0.0107874 -0.00703453 0.000240631 -0.0106326 -0.00904439 0.000240631 -0.0103676 -0.0112422 0.000240631 0.00136053 0.0252717 -0.0123435 0.00142342 0.0240224 -0.00614971 0.00143367 0.0230217 -0.00201714 0.00201964 0.020932 0.000197697 -0.00350922 0.0205519 0.000192709 -0.00576115 0.0227887 -0.00201714 -0.00630737 0.0239758 -0.00614971 -0.00682873 0.0252224 -0.0123435 -0.00717551 0.0260516 -0.0223822 -0.00722218 0.026163 -0.0328543 -0.00722099 0.0261796 -0.0387204 0.00754857 0.0209842 0.000202686 0.0086286 0.0232548 -0.00201714 0.00915426 0.024069 -0.00614971 0.00954985 0.025321 -0.0123435 0.00981301 0.0261539 -0.0223822 0.00984835 0.0262659 -0.0328543 0.00985122 0.0262762 -0.0387204 0.00283468 -0.0219084 0.000240631 0.00279629 -0.020962 0.000240631 -0.00150728 -0.0206455 0.000240631 0.002747 -0.0198629 0.000240631 0.00700134 -0.0190803 0.000240631 -0.00204629 -0.0195841 0.000240631 0.00268746 -0.0186323 0.000240631 0.00742132 -0.0176805 0.000240631 -0.00252789 -0.0183889 0.000240635 0.00261843 -0.0172916 0.000240635 0.00776482 -0.0161943 0.000240635 0.00254053 -0.0158621 0.000240631 -0.00331479 -0.0156293 0.000240631 0.0024544 -0.014365 0.000240631 0.00822365 -0.0131007 0.000240635 -0.00361806 -0.0140811 0.000240631 0.00236076 -0.0128217 0.000240631 0.0083397 -0.0115623 0.000240631 -0.00387198 -0.0123195 0.000240631 0.0022583 -0.0111163 0.000240631 0.00838864 -0.00991319 0.000240631 0.0083983 -0.00771628 0.000240631 0.00214297 -0.00889157 0.000240631 -0.0041123 -0.0100668 0.000240631 0.00836003 -0.00559799 0.000240631 0.00202912 -0.00674681 0.000240631 -0.00430173 -0.00789557 0.000240631 0.00827855 -0.00371139 0.000240631 0.0019232 -0.00481908 0.000240631 -0.00443208 -0.00592683 0.000240631 0.008165 -0.00200657 0.000240631 0.00182831 -0.00305413 0.000240631 -0.00450838 -0.00410162 0.000240631 0.00803053 -0.000433775 0.000240631 0.00174755 -0.00139747 0.000240631 -0.00453532 -0.00236122 0.000240631 0.00788629 0.00105693 0.000240631 0.00168413 0.000205137 0.000240631 -0.00451797 -0.000646673 0.000240635 0.0076769 0.0139027 0.000240635 0.00159675 0.0130534 0.000240635 -0.00448328 0.00124301 0.000240631 0.00751382 0.0159551 0.000172731 0.0015555 0.0150953 0.000195369 -0.00440282 0.0142355 0.000218 -0.00295102 -0.0170679 0.000240631 0.00803214 -0.0146562 0.000240631 -0.000911912 -0.021565 0.000240631 0.00650454 -0.0203591 0.000240631 0.00593048 -0.0214823 0.000240631 -0.000261055 -0.0223346 0.000240631 0.0203333 -0.00821869 -0.0387204 0.0205324 -0.00501243 -0.0387204 0.0203077 0.0142083 -0.0387204 0.0200292 0.0164118 -0.0387204 0.0196963 0.0184521 -0.0387204 0.0193373 0.0203965 -0.0387204 -0.016134 0.0224772 -0.0387204 -0.016134 0.0224772 -0.0387204 -0.0161352 0.0224614 -0.0328543 -0.00184589 -0.0301432 -0.0387204 0.000552089 -0.0304132 -0.0387204 -0.0171122 -0.0057423 -0.0387204 -0.0168831 -0.00871651 -0.0387204 -0.00611704 -0.0290116 -0.0387204 -0.00406956 -0.0296786 -0.0387204 -0.0171579 -0.000252948 -0.0387204 -0.0171975 -0.00295238 -0.0387204 0.0030998 -0.0304637 -0.0387204 0.00566405 -0.0301481 -0.0387204 0.0188604 -0.0152355 -0.0387204 0.0195546 -0.0128475 -0.0387204 0.008057 -0.0293512 -0.0387204 0.0102375 -0.0281081 -0.0387204 -0.0159508 -0.0153405 -0.0387204 -0.0164909 -0.0119687 -0.0387204 0.0200366 -0.0105786 -0.0387204 -0.0125056 -0.0241663 -0.0387204 -0.0111825 -0.0257195 -0.0387204 -0.0164816 0.0192016 -0.0387204 -0.0096755 -0.0270397 -0.0387204 -0.00798636 -0.0281345 -0.0387204 0.0168353 -0.0200863 -0.0387204 0.017954 -0.017672 -0.0387204 -0.0167809 0.0162107 -0.0387204 -0.0170127 0.0134108 -0.0387204 0.0139611 -0.0245657 -0.0387204 0.0155044 -0.0224078 -0.0387204 0.0189806 0.0223119 -0.0387204 0.0186545 0.0242655 -0.0387204 0.0186545 0.0242655 -0.0387204 -0.0145916 -0.0203301 -0.0387204 -0.0136425 -0.0223724 -0.0387204 0.0205033 0.0117747 -0.0387204 -0.0153506 -0.0180319 -0.0387204 0.0205876 -0.00191711 -0.0387204 0.018652 0.0242612 -0.0328543 0.0122055 -0.0264894 -0.0387204 0.0185743 0.0241588 -0.0223822 -0.0160456 0.0223678 -0.0223822 -0.0153804 0.0216708 -0.0123435 0.0179965 0.0233976 -0.0123435 -0.0143803 0.0206231 -0.00614971 0.0171281 0.0222532 -0.00614971 0.00720865 -0.0260886 -0.00201714 0.00905431 -0.0250339 -0.00201714 0.0155857 -0.016188 -0.00201714 0.0163529 -0.0141232 -0.00201714 0.0169405 -0.0120994 -0.00201714 0.0173485 -0.0101765 -0.00201714 -0.0131196 -0.0142509 -0.00201714 -0.0135833 -0.0113466 -0.00201714 0.0107201 -0.0236612 -0.00201714 -0.0102101 -0.0216927 -0.00201714 -0.00909024 -0.0230071 -0.00201714 0.0135123 -0.0202015 -0.00201714 0.0146388 -0.0182341 -0.00201714 0.016446 0.0193382 -0.00201714 0.016169 0.0209894 -0.00201714 0.016169 0.0209894 -0.00201714 0.016169 0.0209894 -0.00201714 -0.00781458 -0.0241242 -0.00201714 -0.00638479 -0.0250506 -0.00201714 -0.0135707 0.0166968 -0.00201714 -0.0138247 0.0141686 -0.00201714 -0.0119759 -0.0184462 -0.00201714 -0.0111726 -0.0201745 -0.00201714 0.0122061 -0.0220305 -0.00201714 -0.0140216 0.011802 -0.00201714 -0.0141452 -0.00144337 -0.00201714 0.0178123 -0.00283895 -0.00201714 0.0177399 -0.000529824 -0.00201714 -0.0139146 -0.00859718 -0.00201714 -0.0126185 -0.0165011 -0.00201714 0.017594 -0.00823615 -0.00201714 0.0177666 -0.00545655 -0.00201714 0.0175733 0.0124886 -0.00201714 0.0173367 0.0143513 -0.00201714 0.0170539 0.0160759 -0.00201714 0.016749 0.0177193 -0.00201714 0.000842674 -0.0269783 -0.00201714 0.00300396 -0.0270277 -0.00201714 -0.0141793 -0.00372492 -0.00201714 -0.0141079 -0.00608306 -0.00201714 -0.00306934 -0.0263571 -0.00201714 -0.00118708 -0.0267501 -0.00201714 -0.00480246 -0.0257928 -0.00201714 0.00518322 -0.0267656 -0.00201714 -0.0132758 0.019466 -0.00201714 -0.0132758 0.019466 -0.00201714 -0.0132758 0.019466 -0.00201714 -0.00576115 0.0227887 -0.00201714 -0.00722099 0.0261796 -0.0387204 0.00622267 -0.0229905 0.000240631 0.00769627 -0.0221503 0.000240631 0.0129111 -0.015097 0.000240631 0.0135237 -0.0134503 0.000240631 0.0139929 -0.0118363 0.000240635 0.0143186 -0.0103029 0.000240631 -0.0100024 -0.0135226 0.000240631 -0.0103676 -0.0112422 0.000240631 0.00902629 -0.0210562 0.000240631 -0.00767427 -0.0194862 0.000240635 -0.00678015 -0.0205359 0.000240631 0.0112557 -0.0182977 0.000240631 0.0121552 -0.0167287 0.000240631 0.0134722 0.0168149 0.000150096 0.0131507 0.0193079 0.000280552 0.0131507 0.0193079 0.000280552 -0.00576168 -0.0214281 0.000240631 -0.00462013 -0.022168 0.000240631 -0.0103612 0.0133757 0.000240639 -0.0105634 0.000393636 0.000240631 -0.00908398 -0.0168937 0.000240631 -0.00844264 -0.0182739 0.000240631 0.0102128 -0.0197561 0.000240631 -0.0107201 -0.00149845 0.000240635 -0.0108183 -0.00332491 0.000240631 0.0146909 -0.00444917 0.000240631 0.0146339 -0.00260363 0.000240631 -0.0106326 -0.00904439 0.000240631 -0.009597 -0.0153405 0.000240631 0.014519 -0.00871007 0.000240631 0.0146536 -0.00654094 0.000240631 0.0145017 -0.000959081 0.000240631 0.0143135 0.000529954 0.000240631 0.0140884 0.0128697 0.000240635 0.013757 0.0147522 0.000240635 0.00115025 -0.0237078 0.000240631 0.00287223 -0.0237422 0.000240631 -0.0108451 -0.00514917 0.000240631 -0.0107874 -0.00703453 0.000240631 -0.00197309 -0.0232115 0.000240631 -0.000470312 -0.0235255 0.000240631 -0.00335681 -0.0227607 0.000240631 0.00460547 -0.0235291 0.000240631 -0.00991827 0.0176087 0.000310492 -0.00991827 0.0176087 0.000310492 -0.00350922 0.0205519 0.000192709 0.00985122 0.0262762 -0.0387204 0.00131505 0.0262278 -0.0387204 0.0086286 0.0232548 -0.00201714 0.00143367 0.0230217 -0.00201714 0.00754857 0.0209842 0.000202686 0.00201964 0.020932 0.000197697</float_array>
                    <technique_common>
                        <accessor count="591" source="#shape0-lib-positions-array" stride="3">
                            <param name="X" type="float"/>
                            <param name="Y" type="float"/>
                            <param name="Z" type="float"/>
                        </accessor>
                    </technique_common>
                </source>
                <source id="shape0-lib-normals" name="normal">
                    <float_array id="shape0-lib-normals-array" count="2598">0.97897 0.180726 -0.0946402 0.933415 0.223899 -0.280369 0.851992 0.258461 -0.45531 0.737792 0.283099 -0.612796 0.595294 0.296847 -0.746664 0.429876 0.299191 -0.851875 0.247945 0.290035 -0.924339 0.0565302 0.269738 -0.961273 -0.137125 0.239065 -0.961272 -0.325422 0.199223 -0.924344 -0.501307 0.151702 -0.851867 -0.657881 0.0983648 -0.746671 -0.78918 0.0412452 -0.612776 -0.890146 -0.0174569 -0.45534 -0.956919 -0.0755008 -0.280367 -0.986901 -0.130626 -0.0946729 -0.978963 -0.180738 0.0946892 -0.933415 -0.223899 0.280368 -0.85197 -0.258467 0.455347 -0.737813 -0.283096 0.612772 -0.595295 -0.296847 0.746663 -0.429888 -0.299191 0.85187 -0.247944 -0.290034 0.92434 -0.0564832 -0.269732 0.961278 0.137124 -0.239065 0.961272 0.325422 -0.199223 0.924344 0.501308 -0.151703 0.851867 0.657903 -0.0983563 0.746653 0.789174 -0.0412482 0.612783 0.890145 0.0174561 0.455342 -0.151106 0.954033 0.258819 0.986901 0.130628 0.0946678 0.956919 0.0755009 0.280367 0.151101 -0.954034 -0.258818 0.978962 0.18074 -0.0946885 0.933397 0.223908 -0.28042 0.85197 0.258469 -0.455347 0.737813 0.283094 -0.612772 0.595313 0.296845 -0.74665 0.429887 0.29919 -0.85187 0.247928 0.290033 -0.924345 0.0565395 0.269739 -0.961272 -0.137125 0.239065 -0.961272 -0.325408 0.199227 -0.924348 -0.501322 0.151698 -0.851859 -0.657878 0.0983658 -0.746673 -0.789174 0.0412477 -0.612783 -0.890148 -0.0174581 -0.455336 -0.956919 -0.0755011 -0.280366 -0.986901 -0.130628 -0.0946681 -0.978969 -0.180728 0.0946396 -0.933397 -0.223908 0.28042 -0.851993 -0.258462 0.455308 -0.737791 -0.283098 0.612797 -0.595311 -0.296845 0.746651 -0.429877 -0.29919 0.851875 -0.247959 -0.290035 0.924336 -0.0565394 -0.269737 0.961273 0.137125 -0.239065 0.961272 0.325408 -0.199226 0.924348 0.501302 -0.151705 0.85187 0.657884 -0.0983647 0.746668 0.789181 -0.0412447 0.612775 0.890149 0.0174581 0.455336 -0.15055 0.954121 0.25882 -0.151197 0.954024 0.258802 -0.151081 0.954038 0.258815 -0.151085 0.954013 0.258908 -0.151095 0.953986 0.258999 -0.151103 0.954033 0.258822 -0.15102 0.954083 0.258687 -0.151111 0.954036 0.258808 -0.151203 0.954007 0.258859 -0.151362 0.95401 0.258757 -0.150785 0.954028 0.259025 -0.151212 0.954053 0.258685 -0.151102 0.953999 0.258948 -0.151104 0.954014 0.258891 -0.151098 0.954038 0.258807 -0.151241 0.953991 0.258897 -0.151152 0.954026 0.25882 -0.151064 0.954037 0.258831 -0.151104 0.954046 0.258773 -0.15118 0.954012 0.258855 -0.15114 0.954033 0.2588 -0.151069 0.954022 0.258881 -0.151099 0.954038 0.258805 -0.151091 0.954042 0.258796 -0.151122 0.954029 0.258826 -0.151107 0.954033 0.258819 -0.151092 0.954036 0.258819 -0.151106 0.954033 0.258819 -0.151106 0.954033 0.258819 0.986901 0.130626 0.094673 0.956919 0.0755011 0.280366 0.151211 -0.954005 -0.258861 0.151109 -0.954036 -0.258808 0.151027 -0.954079 -0.258696 0.151099 -0.954036 -0.258812 0.151139 -0.954066 -0.258678 0.151193 -0.95405 -0.258706 0.150898 -0.954029 -0.258956 0.151089 -0.954032 -0.258834 0.15056 -0.954119 -0.258821 0.151229 -0.953995 -0.258888 0.151094 -0.954039 -0.258805 0.151059 -0.954093 -0.258627 0.151106 -0.954007 -0.258917 0.151031 -0.953999 -0.258989 0.15115 -0.954047 -0.258743 0.151342 -0.954012 -0.25876 0.151179 -0.954012 -0.258855 0.151111 -0.95403 -0.258827 0.151089 -0.954018 -0.258886 0.151106 -0.954032 -0.258825 0.151108 -0.954033 -0.258821 0.1511 -0.954036 -0.258814 0.15113 -0.954041 -0.258777 0.151288 -0.954018 -0.258771 0.151099 -0.954035 -0.258819 0.151111 -0.954032 -0.258821 0.151103 -0.954032 -0.258825 0.151087 -0.954034 -0.25883 0.151107 -0.954037 -0.258806 -0.976026 -0.217647 -0.00159283 -0.949548 -0.313616 -0.00188967 -0.906868 -0.421411 -0.00199258 -0.844639 -0.535333 -0.00206542 -0.761261 -0.648442 -0.00210972 -0.658932 -0.752199 -0.00210891 -0.543898 -0.839149 -0.00199237 -0.424765 -0.905302 -0.00189146 -0.309762 -0.950813 -0.00175817 -0.204525 -0.97886 -0.00161314 -0.111868 -0.993722 -0.00145808 -0.0198331 -0.9998 -0.00265715 0.122181 -0.992504 -0.00260173 0.31594 -0.948771 -0.00396876 0.495269 -0.868734 -0.00306673 0.63524 -0.77231 -0.00262707 0.738639 -0.674097 -0.00224213 0.813385 -0.581722 -0.00189868 0.867539 -0.497366 -0.00163332 0.907331 -0.420413 -0.00164224 0.937247 -0.348662 -0.00146207 0.960254 -0.279126 -0.00134866 0.978163 -0.207837 -0.00130554 0.992187 -0.124746 -0.00162604 0.998079 -0.0619532 -0.00100816 0.99984 -0.0178496 -0.00114516 0.999981 0.0061598 -0.00101165 0.996784 0.0801247 -0.000958559 0.992111 0.125359 -0.000788582 0.98695 0.161027 -0.00056844 0.983379 0.181566 -0.000303325 0.983091 0.18312 0.000260071 0.986353 0.164645 0.000532412 -0.994414 0.105547 7.22632e-05 -0.995031 0.0995659 -0.000132668 -0.996591 0.0825057 -0.000364412 -0.999943 0.010626 -0.000602923 -0.999892 0.0146571 -0.000893925 -0.999533 -0.0305567 -0.000985724 -0.997045 -0.076808 -0.00100369 -0.992809 -0.11971 -0.000964852 -0.98741 -0.158178 -0.000856237 0.996704 0.0806695 0.00858871 -0.424602 -0.90532 0.0104308 0.998044 -0.0619691 0.00819846 -0.906795 -0.421464 0.00952254 -0.996514 0.0829079 0.00932511 -0.999501 -0.0302957 0.00897328 -0.309599 -0.95081 0.0104174 0.867773 -0.496888 0.0084898 -0.987448 -0.157694 0.00889837 -0.111705 -0.993688 0.0103428 0.992062 -0.125485 0.00815802 0.937351 -0.348291 0.00821985 -0.997018 -0.076656 0.00890503 -0.992782 -0.119603 0.0088766 0.991989 0.126022 0.00877809 -0.976055 -0.217336 0.00901128 0.999946 0.00622393 0.00834397 0.739106 -0.673529 0.0090411 0.982897 0.183931 0.0090811 0.960307 -0.278826 0.00816128 0.999813 -0.0174873 0.00827865 0.119435 -0.992788 0.0103142 0.635883 -0.771728 0.00941524 0.986784 0.161793 0.00895492 -0.949481 -0.31369 0.00924453 0.316958 -0.948385 0.0101451 0.907502 -0.419965 0.00832646 -0.204395 -0.978833 0.0103751 0.986181 0.165428 0.00894129 -0.999902 0.0106474 0.00906376 0.983184 0.182393 0.00907166 0.97819 -0.207552 0.00814176 -0.543752 -0.839182 0.0103931 -0.658783 -0.752262 0.0102786 0.813735 -0.58117 0.00872797 -0.761145 -0.648503 0.010074 -0.0227708 -0.999687 0.0103379 -0.844541 -0.535402 0.00980712 -0.994333 0.105887 0.00945182 -0.994949 0.0999443 0.00941914 -0.999847 0.0149494 0.00908311 0.496136 -0.86819 0.0098184 0.958429 -0.278278 0.0630492 0.984456 0.161418 0.0692128 -0.997492 0.0103153 0.0700294 0.811917 -0.579871 0.067385 -0.99172 0.105623 0.073048 -0.997137 -0.0302142 0.069316 0.494744 -0.86574 0.0756468 0.996708 0.0141576 0.0798341 0.983855 0.165075 0.069133 0.935497 -0.347583 0.0634949 0.997398 0.0312533 0.064962 -0.994697 -0.0764764 0.0687719 -0.993967 0.0826835 0.0720597 -0.542007 -0.836542 0.0801645 0.989743 0.125731 0.0678347 0.90565 -0.419121 0.0643083 -0.656757 -0.749925 0.0792652 -0.203759 -0.975743 0.0800516 0.976285 -0.207145 0.0629099 -0.308604 -0.947791 0.0803444 -0.985149 -0.157331 0.068766 -0.990482 -0.119335 0.0685887 -0.423264 -0.902426 0.080465 0.980803 0.181958 0.0701232 -0.97373 -0.216813 0.0695785 -0.992356 0.0996855 0.0727474 -0.947109 -0.312888 0.0713182 -0.0227434 -0.996563 0.0796532 0.634254 -0.769706 0.0726314 0.316011 -0.94553 0.0781627 -0.904383 -0.420356 0.073435 -0.842159 -0.533894 0.0756736 -0.997425 0.0149173 0.0701505 -0.111343 -0.990573 0.0797974 0.996073 -0.061857 0.0633446 0.997802 -0.0174394 0.0639274 0.990122 -0.125243 0.0630258 -0.758878 -0.64658 0.0777144 0.98051 0.183501 0.0702028 0.737339 -0.671911 0.0697649 0.119051 -0.989707 0.0794113 0.86594 -0.495829 0.0655819 -0.978907 0.10426 0.1757 -0.985514 -0.0298654 0.166946 0.487894 -0.85376 0.181807 0.987758 0.0133742 0.155421 0.972449 0.163166 0.166494 0.926318 -0.344186 0.153202 0.987166 0.0309536 0.156666 -0.983281 -0.0755941 0.165664 -0.981466 0.0816378 0.173375 -0.53362 -0.823566 0.192324 0.978684 0.124351 0.163447 0.896544 -0.414897 0.15514 -0.646789 -0.738566 0.190222 -0.200593 -0.960664 0.192061 0.966884 -0.205153 0.151816 -0.303798 -0.933039 0.192732 -0.973845 -0.155524 0.165642 -0.979174 -0.117971 0.165233 -0.416638 -0.888348 0.193003 0.969105 0.179806 0.168833 -0.962302 -0.214244 0.167552 -0.935427 -0.309059 0.171637 -0.979639 0.0984139 0.174994 -0.0224074 -0.981307 0.191139 0.62615 -0.759872 0.174732 0.311371 -0.931571 0.187681 -0.892577 -0.414863 0.176619 -0.830492 -0.52651 0.181853 -0.985523 0.0147497 0.168902 -0.109659 -0.975357 0.191454 0.986351 -0.0612454 0.152842 0.987883 -0.0172783 0.154233 0.980553 -0.124031 0.152091 -0.747824 -0.637128 0.186619 0.968796 0.181293 0.169019 0.728637 -0.663977 0.167997 0.117237 -0.974645 0.190584 0.856894 -0.490639 0.158137 0.94916 -0.275583 0.152147 0.973019 0.159518 0.166699 -0.985639 0.00972436 0.168588 0.802959 -0.573486 0.162392 0.96767 0.0123837 0.251914 0.949816 0.159359 0.269173 0.907971 -0.337351 0.24856 0.966742 0.0302943 0.253955 -0.960616 -0.0738574 0.267885 -0.956769 0.07959 0.279748 -0.517222 -0.798293 0.30856 0.956707 0.121536 0.264462 0.878344 -0.406483 0.251563 -0.627353 -0.716352 0.305398 -0.194453 -0.931252 0.308151 0.948059 -0.201181 0.246394 -0.29445 -0.904274 0.309172 -0.951407 -0.151911 0.267857 -0.956716 -0.115275 0.267219 -0.403765 -0.860884 0.309601 0.945935 0.175492 0.27278 -0.939629 -0.209219 0.270785 -0.912342 -0.301412 0.277096 -0.954541 0.0958921 0.282236 -0.0217536 -0.951533 0.306775 0.610161 -0.740461 0.281818 0.302253 -0.904281 0.301527 -0.8693 -0.404055 0.284707 -0.80759 -0.511984 0.292695 -0.961943 0.0143981 0.27287 0.966899 -0.0600463 0.247992 -0.106305 -0.945671 0.307256 0.96806 -0.0169087 0.250149 0.961398 -0.121618 0.246825 -0.726134 -0.618687 0.299926 0.945583 0.176958 0.273055 0.711386 -0.648253 0.271474 0.113676 -0.945244 0.305928 0.838837 -0.48031 0.256233 0.930607 -0.270186 0.24692 0.950315 0.155844 0.269469 -0.962162 0.00897989 0.27233 0.785165 -0.560742 0.262838 -0.953636 0.101561 0.28331 -0.962459 -0.0291661 0.269855 0.474456 -0.83022 0.292619 -0.455962 0.0377641 0.889198 -0.302182 -0.466231 0.831454 0.427076 0.0539898 0.902603 0.559151 -0.259051 0.787555 -0.365939 -0.417717 0.831626 -0.115417 -0.552372 0.825569 0.596047 -0.126618 0.792903 -0.173813 -0.533527 0.827731 -0.570062 -0.0913085 0.816512 -0.571756 -0.0689396 0.817522 -0.236939 -0.505028 0.829944 0.536417 0.0944326 0.838654 -0.562568 -0.125446 0.817178 -0.543655 -0.17957 0.819874 -0.544709 0.00848515 0.838582 -0.0113164 -0.566632 0.823893 0.374957 -0.455832 0.807233 0.180242 -0.541199 0.82135 -0.514532 -0.239089 0.823464 -0.474656 -0.300825 0.827168 -0.55827 0.00818945 0.829619 -0.0633568 -0.562939 0.824066 0.595125 -0.0369428 0.802784 0.589481 -0.010514 0.807714 0.597843 -0.0751883 0.798079 -0.424467 -0.361582 0.830112 0.527057 0.109774 0.842711 0.443645 -0.404875 0.799534 0.0691626 -0.562431 0.823947 0.532569 -0.305299 0.789407 0.589316 -0.171325 0.789528 0.567525 0.0103479 0.823291 -0.549801 0.0295492 0.834773 0.495111 -0.354076 0.793407 -0.544565 0.0431586 0.837607 -0.565585 -0.0172918 0.824508 0.286896 -0.50315 0.815188 0.56726 0.0456002 0.822275 0.571486 0.0307876 0.820034 0.577364 -0.214772 0.787734 0.579897 0.0179228 0.814493 -0.570281 -0.0439201 0.820275 -0.383543 0.92352 0.00240441 -0.383519 0.923461 0.0115327 -0.00602 0.999925 0.010669 -0.00565589 0.999981 0.0022839 -0.00566279 0.999982 0.00175632 -0.00602715 0.999925 0.010669 0.222025 0.974977 0.0111703 0.222026 0.975039 0.00182349 0.221201 0.971394 0.0863958 -0.00600535 0.996571 0.0825274 -0.00599836 0.996571 0.0825274 -0.382016 0.919842 0.0891828 -0.374729 0.902302 0.213144 -0.00591124 0.980231 0.197768 -0.00590223 0.980231 0.197768 0.217233 0.95398 0.206719 0.280688 0.934298 0.219778 0.181717 0.641886 0.744957 -0.00748061 0.72635 0.687284 -0.0314662 0.971412 0.235307 -0.0501091 0.719794 0.692377 -0.0314654 0.971412 0.235307 -0.360745 0.86863 0.339625 -0.245006 0.554114 0.795569 0 0 1 0 0 1 0 0 1 0 0 1 0 0 1 0 0 1 0 0 1 0 0 1 0.000597415 0.0221748 0.999754 -0.000963376 0.0329911 0.999455 -5.24745e-08 -3.11822e-07 1 6.41741e-07 2.53952e-08 1 0 0 1 0 0 1 0 0 1 0 0 1 0 0 1 0 0 1 0 0 1 0 0 1 -6.07441e-07 2.76632e-06 1 6.57437e-07 -3.08332e-06 1 0 0 1 0 0 1 0 0 1 0 0 1 6.22731e-07 -3.0973e-06 1 -6.04646e-07 2.83576e-06 1 0 0 1 0 0 1 0 0 1 0 0 1 0 0 1 0 0 1 0 0 1 0 0 1 3.3885e-07 -2.20921e-06 1 -2.93807e-07 2.13935e-06 1 8.63117e-08 -6.17853e-07 1 0.00627452 -0.017156 0.999833 0.00328751 0.00353887 0.999988 0.00390169 -0.000709117 0.999992 -0.0156471 -0.00584734 0.999861 -0.00456895 0.0327046 0.999455 -5.03269e-08 -3.12344e-07 1 0 0 1 0 0 1 0 0 1 0 0 1 0 0 1 0 0 1 0 0 1 -5.75463e-07 2.73202e-06 1 5.80349e-07 -2.64816e-06 1 0 0 1 8.62835e-07 -3.99746e-07 1 0 0 1 0 0 1 0 0 1 0 0 1 6.03859e-07 -2.83223e-06 1 -5.93976e-07 2.70489e-06 1 0 0 1 -5.56792e-07 2.64336e-06 1 0 0 1 0 0 1 0 0 1 0 0 1 0 0 1 0 0 1 0 0 1 4.34196e-08 -3.10816e-07 1 0 0 -1 -0.976098 -0.217323 -0.00174601 -0.949521 -0.313697 -0.0018543 -0.906819 -0.421516 -0.00194817 -0.844579 -0.535428 -0.0020248 -0.761189 -0.648526 -0.00207135 -0.658804 -0.752312 -0.00205077 -0.543779 -0.839226 -0.00204104 -0.424635 -0.905362 -0.00194195 -0.309619 -0.950859 -0.00181324 -0.204389 -0.978888 -0.00166694 -0.111718 -0.993739 -0.00151974 -0.0228266 -0.999739 -0.00135709 0.119409 -0.992838 -0.00383333 0.317004 -0.948418 -0.00348693 0.496156 -0.868226 -0.00350391 0.635936 -0.771736 -0.00301896 0.739136 -0.673552 -0.00256948 0.813773 -0.581178 -0.00220094 0.86781 -0.496893 -0.0018823 0.90753 -0.419985 -0.00142822 0.937383 -0.348298 -0.0012903 0.960339 -0.278831 -0.00121865 0.978224 -0.207551 -0.00119021 0.992092 -0.125509 -0.00132196 0.998077 -0.0619807 -0.000992988 0.999847 -0.0174786 -0.000950513 0.99998 0.00624814 -0.000805683 0.996738 0.0807032 -0.000718222 0.992025 0.126039 -0.0005299 0.986822 0.161807 -0.000290484 0.983224 0.182404 -1.67169e-05 0.982937 0.18394 -1.70345e-05 0.986217 0.165454 0.000255883 -0.994378 0.105889 -0.000119665 -0.99499 0.0999702 -0.00034004 -0.996558 0.082895 -0.000550969 -0.999943 0.0106897 -0.000751299 -0.999888 0.0149677 -0.000751157 -0.99954 -0.0303021 -0.000864835 -0.997058 -0.0766487 -0.000922769 -0.992819 -0.119619 -0.000913966 -0.987488 -0.157689 -0.00114593 0.996702 0.0807002 0.00858168 -0.424613 -0.905315 0.0104332 0.998044 -0.0619786 0.00820141 -0.906779 -0.421498 0.00951469 -0.996515 0.0828914 0.00932945 -0.999501 -0.0303009 0.00897464 -0.309603 -0.950809 0.0104166 0.86778 -0.496876 0.00849345 -0.98745 -0.157683 0.00890197 -0.111712 -0.993687 0.0103411 0.992059 -0.125505 0.00816238 0.937352 -0.348287 0.00822081 -0.997019 -0.0766457 0.00890211 -0.992781 -0.119614 0.00888024 0.991987 0.126035 0.00877541 -0.97606 -0.217315 0.0090167 0.999946 0.00624792 0.00831269 0.739108 -0.673526 0.00904202 0.982897 0.183933 0.00908081 0.960308 -0.278822 0.00816234 0.999813 -0.017478 0.00827595 0.119403 -0.992792 0.0103062 0.635911 -0.771705 0.00942391 0.986783 0.161801 0.00895348 -0.949482 -0.313684 0.00924581 0.31699 -0.948375 0.010153 0.907499 -0.419971 0.00832476 -0.204378 -0.978837 0.0103788 0.986178 0.165448 0.00893776 -0.999902 0.0106893 0.00900934 0.983183 0.182396 0.00907103 0.978192 -0.207544 0.00814356 -0.54375 -0.839183 0.0103927 -0.658771 -0.752273 0.0102754 0.813744 -0.581158 0.00873176 -0.761152 -0.648495 0.010076 -0.0228254 -0.999686 0.0103246 -0.84454 -0.535403 0.00980679 -0.994334 0.105884 0.00945276 -0.994946 0.0999657 0.00941311 -0.999847 0.0149671 0.00907864 0.496135 -0.86819 0.00981831 0.958428 -0.278281 0.0630487 0.984457 0.161412 0.0692138 -0.997517 0.010622 0.069626 0.811917 -0.579871 0.067385 -0.991721 0.105609 0.0730516 -0.997137 -0.030224 0.0693185 0.494738 -0.865744 0.0756452 0.994546 0.0804949 0.0663267 0.983861 0.165039 0.0691377 0.935491 -0.3476 0.0634907 0.99746 0.00620846 0.0709532 -0.994697 -0.0764775 0.0687722 -0.993966 0.082696 0.0720568 -0.542031 -0.836526 0.08017 0.989742 0.125736 0.0678336 0.905655 -0.41911 0.0643113 -0.656745 -0.749935 0.0792623 -0.20375 -0.975744 0.0800536 0.976285 -0.207148 0.0629093 -0.308615 -0.947788 0.080342 -0.985149 -0.157327 0.0687674 -0.990483 -0.119326 0.0685918 -0.423246 -0.902435 0.0804611 0.980804 0.181952 0.0701242 -0.973729 -0.216819 0.0695771 -0.992356 0.0996839 0.0727478 -0.947104 -0.312903 0.0713148 -0.0226996 -0.996563 0.079664 0.634233 -0.769723 0.0726254 0.316003 -0.945533 0.0781607 -0.904387 -0.420345 0.0734374 -0.842159 -0.533892 0.0756739 -0.997425 0.0149132 0.0701515 -0.111355 -0.990572 0.0797945 0.996074 -0.0618468 0.0633415 0.997802 -0.0174521 0.063931 0.990123 -0.12524 0.0630253 -0.758882 -0.646575 0.0777157 0.980512 0.183485 0.070205 0.737335 -0.671916 0.0697635 0.119064 -0.989706 0.0794146 0.865936 -0.495837 0.0655797 -0.978907 0.104258 0.1757 -0.985514 -0.029862 0.166944 0.487896 -0.853758 0.181808 0.987954 0.0140333 0.154108 0.972449 0.163161 0.166495 0.926322 -0.344174 0.153207 0.987166 0.0309327 0.156673 -0.98328 -0.0755986 0.165666 -0.981466 0.0816437 0.173373 -0.533607 -0.823576 0.192319 0.978686 0.124326 0.163453 0.896541 -0.414906 0.155137 -0.6468 -0.738555 0.190227 -0.20061 -0.960661 0.192056 0.966884 -0.205151 0.151817 -0.3038 -0.933038 0.192732 -0.973845 -0.155526 0.165641 -0.979174 -0.117973 0.165232 -0.416656 -0.888339 0.193009 0.969108 0.179789 0.168837 -0.962299 -0.214268 0.167543 -0.935434 -0.309031 0.171646 -0.979639 0.098408 0.174996 -0.0223952 -0.981307 0.191143 0.62615 -0.759872 0.174732 0.311349 -0.93158 0.187673 -0.892575 -0.414868 0.176618 -0.830497 -0.526501 0.181856 -0.985522 0.0147393 0.168905 -0.109632 -0.975358 0.191463 0.98635 -0.0612532 0.152845 0.987884 -0.0172661 0.154228 0.980553 -0.124032 0.152091 -0.747808 -0.637149 0.186612 0.968794 0.181308 0.169016 0.728635 -0.663979 0.167996 0.117239 -0.974645 0.190585 0.856889 -0.490647 0.158133 0.949159 -0.275587 0.152146 0.973016 0.159542 0.166694 -0.985797 0.0101944 0.167633 0.802964 -0.573477 0.162396 0.968189 0.0131092 0.249875 0.949815 0.159368 0.269171 0.907967 -0.337368 0.248552 0.966743 0.0303132 0.253946 -0.960617 -0.0738517 0.267882 -0.956768 0.0795835 0.279751 -0.517237 -0.798281 0.308567 0.956706 0.121559 0.264455 0.878346 -0.406476 0.251567 -0.627344 -0.716362 0.305394 -0.194452 -0.931252 0.308152 0.948061 -0.20116 0.246404 -0.294433 -0.904278 0.309179 -0.951408 -0.151941 0.267837 -0.956716 -0.115266 0.267225 -0.403759 -0.860888 0.309598 0.945934 0.175507 0.272777 -0.939631 -0.209196 0.270796 -0.912339 -0.30143 0.277088 -0.954541 0.0958926 0.282236 -0.0217274 -0.95153 0.306788 0.610158 -0.740465 0.281816 0.30225 -0.904282 0.301526 -0.869303 -0.404045 0.284711 -0.807588 -0.511989 0.292693 -0.961943 0.0143968 0.272871 0.966901 -0.0600377 0.247987 -0.106322 -0.945671 0.307249 0.968056 -0.0169316 0.250161 0.961401 -0.121608 0.24682 -0.726151 -0.618663 0.299936 0.945584 0.176949 0.273057 0.711384 -0.648256 0.271473 0.1137 -0.945237 0.30594 0.83884 -0.480302 0.256237 0.930606 -0.270196 0.246915 0.95032 0.155797 0.269481 -0.962572 0.00949679 0.270859 0.785151 -0.560768 0.262825 -0.953636 0.101568 0.283307 -0.962459 -0.0291668 0.269856 0.474446 -0.830227 0.292614 -0.45562 0.0379013 0.889367 -0.302093 -0.466257 0.831471 0.426532 0.0541846 0.902848 0.559162 -0.258771 0.787639 -0.365889 -0.417796 0.831608 -0.115338 -0.552365 0.825585 0.596108 -0.126496 0.792877 -0.173728 -0.53353 0.827746 -0.570255 -0.0910526 0.816406 -0.571781 -0.0688942 0.817508 -0.23687 -0.50504 0.829956 0.534816 0.0992202 0.839123 -0.56254 -0.125256 0.817227 -0.543655 -0.179608 0.819866 -0.536609 0.0539072 0.842107 -0.0129682 -0.567249 0.823444 0.375257 -0.455393 0.807341 0.180761 -0.540802 0.821498 -0.514521 -0.239152 0.823452 -0.474632 -0.3009 0.827154 -0.558282 0.00835626 0.829609 -0.0632795 -0.562922 0.824084 0.595119 -0.0369581 0.802787 0.589528 -0.010297 0.807682 0.597687 -0.075608 0.798157 -0.424441 -0.361636 0.830102 0.529748 0.0991382 0.842341 0.443846 -0.404456 0.799635 0.0677324 -0.563213 0.823531 0.532623 -0.304974 0.789496 0.589446 -0.171135 0.789472 0.540896 0.0887025 0.836399 -0.550308 0.00513604 0.834946 0.495233 -0.353681 0.793508 -0.546813 0.058235 0.835227 -0.565616 -0.0171403 0.82449 0.287298 -0.502725 0.815308 0.571262 0.00731068 0.820735 0.568748 0.0954241 0.816958 0.577537 -0.21458 0.787659 0.579907 0.0181723 0.81448 -0.570307 -0.0438483 0.820261 -0.383614 0.92349 0.00253067 -0.383519 0.923461 0.0115331 -0.00602643 0.999925 0.0106638 -0.00602675 0.999978 0.00282346 -0.00602536 0.999979 0.00228377 -0.00602503 0.999925 0.0106672 0.222012 0.97498 0.0111815 0.222664 0.974895 0.000815748 0.221209 0.971393 0.0863892 -0.00600693 0.996571 0.0825287 -0.00599981 0.996571 0.0825262 -0.382022 0.919841 0.0891775 -0.374737 0.902301 0.213133 -0.0059 0.980228 0.197781 -0.00590687 0.98023 0.197774 0.217236 0.95398 0.206715 0.209582 0.920383 0.330106 0.195594 0.651056 0.733396 -0.0228179 0.704426 0.709411 -0.00590844 0.981264 0.192577 -0.0223872 0.691147 0.722367 -0.00579473 0.96091 0.276801 -0.385578 0.872036 0.301468 -0.238171 0.55064 0.800044 0 0 1 0 0 1 0 0 1 0 0 1 0 0 1 0 0 1 0 0 1 0 0 1 0 0 1 0 0 1 -0.00342536 0.00176305 0.999993 -0.00308731 0.0221003 0.999751 3.55276e-07 2.11118e-06 1 3.58578e-07 -2.33764e-06 1 0 0 1 0 0 1 0 0 1 0 0 1 0 0 1 0 0 1 0 0 1 0 0 1 -6.04652e-07 2.83576e-06 1 5.93958e-07 -2.95415e-06 1 0 0 1 0 0 1 0 0 1 0 0 1 6.87956e-07 -3.22649e-06 1 -6.36293e-07 2.89757e-06 1 0 0 1 0 0 1 0 0 1 0 0 1 0 0 1 0 0 1 0 0 1 0 0 1 3.20987e-07 -2.33726e-06 1 -2.96595e-07 2.12314e-06 1 0.00355132 0.00171984 0.999992 0.0176852 0.00150143 0.999843 -0.00087956 -0.000328911 1 -0.000846129 -0.00595033 0.999982 0.0111274 -0.0508224 0.998646 -0.00248294 0.043508 0.99905 0 0 1 -2.66297e-08 -3.24786e-07 1 0 0 1 0 0 1 0 0 1 0 0 1 0 0 1 0 0 1 -5.79676e-07 2.64509e-06 1 5.80614e-07 -2.64415e-06 1 2.31438e-07 2.56144e-06 1 5.67761e-07 -2.82389e-06 1 0 0 1 0 0 1 0 0 1 0 0 1 5.93987e-07 -2.95415e-06 1 -5.90009e-07 2.76727e-06 1 -1.3344e-07 -2.55623e-06 1 -6.84537e-07 -4.15345e-08 1 0 0 1 0 0 1 0 0 1 0 0 1 0 0 1 0 0 1 0 0 1 4.27359e-08 -3.11175e-07 1 0 0 -1 0 0 -1 0 0 -1 0 0 -1 0 0 -1 0 0 -1 0 0 -1 0 0 -1 0 0 -1 0 0 -1 0 0 -1 0 0 -1 0 0 -1 0 0 -1 0 0 -1 0 0 -1 0 0 -1 0 0 -1 0 0 -1 0 0 -1 0 0 -1 0 0 -1 0 0 -1 0 0 -1 0 0 -1 0 0 -1 0 0 -1 0 0 -1 0 0 -1 0 0 -1 0 0 -1 0 0 -1 0 0 -1 0 0 -1 0 0 -1 0 0 -1 0 0 -1 0 0 -1 0 0 -1 0 0 -1 0 0 -1 0 0 -1 0 0 -1</float_array>
                    <technique_common>
                        <accessor count="866" source="#shape0-lib-normals-array" stride="3">
                            <param name="X" type="float"/>
                            <param name="Y" type="float"/>
                            <param name="Z" type="float"/>
                        </accessor>
                    </technique_common>
                </source>
                <source id="shape0-lib-vcolor" name="vcolor">
                    <float_array id="shape0-lib-vcolor-array" count="2364">0.0784314 0.0627451 0.0392157 1 0.0784314 0.0627451 0.0392157 1 0.0784314 0.0627451 0.0392157 1 0.0784314 0.0627451 0.0392157 1 0.0784314 0.0627451 0.0392157 1 0.0784314 0.0627451 0.0392157 1 0.0784314 0.0627451 0.0392157 1 0.0784314 0.0627451 0.0392157 1 0.0784314 0.0627451 0.0392157 1 0.0784314 0.0627451 0.0392157 1 0.0784314 0.0627451 0.0392157 1 0.0784314 0.0627451 0.0392157 1 0.0784314 0.0627451 0.0392157 1 0.0784314 0.0627451 0.0392157 1 0.0784314 0.0627451 0.0392157 1 0.0784314 0.0627451 0.0392157 1 0.0784314 0.0627451 0.0392157 1 0.0784314 0.0627451 0.0392157 1 0.0784314 0.0627451 0.0392157 1 0.0784314 0.0627451 0.0392157 1 0.0784314 0.0627451 0.0392157 1 0.0784314 0.0627451 0.0392157 1 0.0784314 0.0627451 0.0392157 1 0.0784314 0.0627451 0.0392157 1 0.0784314 0.0627451 0.0392157 1 0.0784314 0.0627451 0.0392157 1 0.0784314 0.0627451 0.0392157 1 0.0784314 0.0627451 0.0392157 1 0.0784314 0.0627451 0.0392157 1 0.0784314 0.0627451 0.0392157 1 0.0784314 0.0627451 0.0392157 1 0.0784314 0.0627451 0.0392157 1 0.0784314 0.0627451 0.0392157 1 0.0784314 0.0627451 0.0392157 1 0.0784314 0.0627451 0.0392157 1 0.0784314 0.0627451 0.0392157 1 0.0784314 0.0627451 0.0392157 1 0.0784314 0.0627451 0.0392157 1 0.0784314 0.0627451 0.0392157 1 0.0784314 0.0627451 0.0392157 1 0.0784314 0.0627451 0.0392157 1 0.0784314 0.0627451 0.0392157 1 0.0784314 0.0627451 0.0392157 1 0.0784314 0.0627451 0.0392157 1 0.0784314 0.0627451 0.0392157 1 0.0784314 0.0627451 0.0392157 1 0.0784314 0.0627451 0.0392157 1 0.0784314 0.0627451 0.0392157 1 0.0784314 0.0627451 0.0392157 1 0.0784314 0.0627451 0.0392157 1 0.0784314 0.0627451 0.0392157 1 0.0784314 0.0627451 0.0392157 1 0.0784314 0.0627451 0.0392157 1 0.0784314 0.0627451 0.0392157 1 0.0784314 0.0627451 0.0392157 1 0.0784314 0.0627451 0.0392157 1 0.0784314 0.0627451 0.0392157 1 0.0784314 0.0627451 0.0392157 1 0.0784314 0.0627451 0.0392157 1 0.0784314 0.0627451 0.0392157 1 0.0784314 0.0627451 0.0392157 1 0.0784314 0.0627451 0.0392157 1 0.0784314 0.0627451 0.0392157 1 0.0784314 0.0627451 0.0392157 1 0.654902 0.501961 0.313725 1 0.654902 0.501961 0.313725 1 0.654902 0.501961 0.313725 1 0.654902 0.501961 0.313725 1 0.654902 0.501961 0.313725 1 0.654902 0.501961 0.313725 1 0.654902 0.501961 0.313725 1 0.654902 0.501961 0.313725 1 0.654902 0.501961 0.313725 1 0.654902 0.501961 0.313725 1 0.654902 0.501961 0.313725 1 0.654902 0.501961 0.313725 1 0.654902 0.501961 0.313725 1 0.654902 0.501961 0.313725 1 0.654902 0.501961 0.313725 1 0.654902 0.501961 0.313725 1 0.654902 0.501961 0.313725 1 0.654902 0.501961 0.313725 1 0.654902 0.501961 0.313725 1 0.654902 0.501961 0.313725 1 0.654902 0.501961 0.313725 1 0.654902 0.501961 0.313725 1 0.654902 0.501961 0.313725 1 0.654902 0.501961 0.313725 1 0.654902 0.501961 0.313725 1 0.654902 0.501961 0.313725 1 0.654902 0.501961 0.313725 1 0.654902 0.501961 0.313725 1 0.654902 0.501961 0.313725 1 0.654902 0.501961 0.313725 1 0.654902 0.501961 0.313725 1 0.654902 0.501961 0.313725 1 0.654902 0.501961 0.313725 1 0.654902 0.501961 0.313725 1 0.654902 0.501961 0.313725 1 0.654902 0.501961 0.313725 1 0.654902 0.501961 0.313725 1 0.654902 0.501961 0.313725 1 0.654902 0.501961 0.313725 1 0.654902 0.501961 0.313725 1 0.654902 0.501961 0.313725 1 0.654902 0.501961 0.313725 1 0.654902 0.501961 0.313725 1 0.654902 0.501961 0.313725 1 0.654902 0.501961 0.313725 1 0.654902 0.501961 0.313725 1 0.654902 0.501961 0.313725 1 0.654902 0.501961 0.313725 1 0.654902 0.501961 0.313725 1 0.654902 0.501961 0.313725 1 0.654902 0.501961 0.313725 1 0.654902 0.501961 0.313725 1 0.654902 0.501961 0.313725 1 0.654902 0.501961 0.313725 1 0.654902 0.501961 0.313725 1 0.654902 0.501961 0.313725 1 0.654902 0.501961 0.313725 1 0.654902 0.501961 0.313725 1 0.654902 0.501961 0.313725 1 0.654902 0.501961 0.313725 1 0.654902 0.501961 0.313725 1 0.654902 0.501961 0.313725 1 0.654902 0.501961 0.313725 1 0.654902 0.501961 0.313725 1 0.654902 0.501961 0.313725 1 0.654902 0.501961 0.313725 1 0.654902 0.501961 0.313725 1 0.654902 0.501961 0.313725 1 0.654902 0.501961 0.313725 1 0.654902 0.501961 0.313725 1 0.654902 0.501961 0.313725 1 0.654902 0.501961 0.313725 1 0.654902 0.501961 0.313725 1 0.654902 0.501961 0.313725 1 0.654902 0.501961 0.313725 1 0.654902 0.501961 0.313725 1 0.654902 0.501961 0.313725 1 0.654902 0.501961 0.313725 1 0.654902 0.501961 0.313725 1 0.654902 0.501961 0.313725 1 0.654902 0.501961 0.313725 1 0.654902 0.501961 0.313725 1 0.654902 0.501961 0.313725 1 0.654902 0.501961 0.313725 1 0.654902 0.501961 0.313725 1 0.654902 0.501961 0.313725 1 0.654902 0.501961 0.313725 1 0.654902 0.501961 0.313725 1 0.654902 0.501961 0.313725 1 0.654902 0.501961 0.313725 1 0.654902 0.501961 0.313725 1 0.654902 0.501961 0.313725 1 0.654902 0.501961 0.313725 1 0.654902 0.501961 0.313725 1 0.654902 0.501961 0.313725 1 0.654902 0.501961 0.313725 1 0.654902 0.501961 0.313725 1 0.654902 0.501961 0.313725 1 0.654902 0.501961 0.313725 1 0.654902 0.501961 0.313725 1 0.654902 0.501961 0.313725 1 0.654902 0.501961 0.313725 1 0.654902 0.501961 0.313725 1 0.654902 0.501961 0.313725 1 0.654902 0.501961 0.313725 1 0.654902 0.501961 0.313725 1 0.654902 0.501961 0.313725 1 0.654902 0.501961 0.313725 1 0.654902 0.501961 0.313725 1 0.654902 0.501961 0.313725 1 0.654902 0.501961 0.313725 1 0.654902 0.501961 0.313725 1 0.654902 0.501961 0.313725 1 0.654902 0.501961 0.313725 1 0.654902 0.501961 0.313725 1 0.654902 0.501961 0.313725 1 0.654902 0.501961 0.313725 1 0.654902 0.501961 0.313725 1 0.654902 0.501961 0.313725 1 0.654902 0.501961 0.313725 1 0.654902 0.501961 0.313725 1 0.654902 0.501961 0.313725 1 0.654902 0.501961 0.313725 1 0.654902 0.501961 0.313725 1 0.654902 0.501961 0.313725 1 0.654902 0.501961 0.313725 1 0.654902 0.501961 0.313725 1 0.654902 0.501961 0.313725 1 0.654902 0.501961 0.313725 1 0.654902 0.501961 0.313725 1 0.654902 0.501961 0.313725 1 0.654902 0.501961 0.313725 1 0.654902 0.501961 0.313725 1 0.654902 0.501961 0.313725 1 0.654902 0.501961 0.313725 1 0.654902 0.501961 0.313725 1 0.654902 0.501961 0.313725 1 0.654902 0.501961 0.313725 1 0.654902 0.501961 0.313725 1 0.654902 0.501961 0.313725 1 0.654902 0.501961 0.313725 1 0.654902 0.501961 0.313725 1 0.654902 0.501961 0.313725 1 0.654902 0.501961 0.313725 1 0.654902 0.501961 0.313725 1 0.654902 0.501961 0.313725 1 0.654902 0.501961 0.313725 1 0.654902 0.501961 0.313725 1 0.654902 0.501961 0.313725 1 0.654902 0.501961 0.313725 1 0.654902 0.501961 0.313725 1 0.654902 0.501961 0.313725 1 0.654902 0.501961 0.313725 1 0.654902 0.501961 0.313725 1 0.654902 0.501961 0.313725 1 0.654902 0.501961 0.313725 1 0.654902 0.501961 0.313725 1 0.654902 0.501961 0.313725 1 0.654902 0.501961 0.313725 1 0.654902 0.501961 0.313725 1 0.654902 0.501961 0.313725 1 0.654902 0.501961 0.313725 1 0.654902 0.501961 0.313725 1 0.654902 0.501961 0.313725 1 0.654902 0.501961 0.313725 1 0.654902 0.501961 0.313725 1 0.654902 0.501961 0.313725 1 0.654902 0.501961 0.313725 1 0.654902 0.501961 0.313725 1 0.654902 0.501961 0.313725 1 0.654902 0.501961 0.313725 1 0.654902 0.501961 0.313725 1 0.654902 0.501961 0.313725 1 0.654902 0.501961 0.313725 1 0.654902 0.501961 0.313725 1 0.654902 0.501961 0.313725 1 0.654902 0.501961 0.313725 1 0.654902 0.501961 0.313725 1 0.654902 0.501961 0.313725 1 0.654902 0.501961 0.313725 1 0.654902 0.501961 0.313725 1 0.654902 0.501961 0.313725 1 0.654902 0.501961 0.313725 1 0.654902 0.501961 0.313725 1 0.654902 0.501961 0.313725 1 0.654902 0.501961 0.313725 1 0.654902 0.501961 0.313725 1 0.654902 0.501961 0.313725 1 0.654902 0.501961 0.313725 1 0.654902 0.501961 0.313725 1 0.654902 0.501961 0.313725 1 0.654902 0.501961 0.313725 1 0.654902 0.501961 0.313725 1 0.654902 0.501961 0.313725 1 0.654902 0.501961 0.313725 1 0.654902 0.501961 0.313725 1 0.654902 0.501961 0.313725 1 0.654902 0.501961 0.313725 1 0.654902 0.501961 0.313725 1 0.654902 0.501961 0.313725 1 0.654902 0.501961 0.313725 1 0.654902 0.501961 0.313725 1 0.654902 0.501961 0.313725 1 0.654902 0.501961 0.313725 1 0.654902 0.501961 0.313725 1 0.654902 0.501961 0.313725 1 0.654902 0.501961 0.313725 1 0.654902 0.501961 0.313725 1 0.654902 0.501961 0.313725 1 0.654902 0.501961 0.313725 1 0.654902 0.501961 0.313725 1 0.654902 0.501961 0.313725 1 0.654902 0.501961 0.313725 1 0.654902 0.501961 0.313725 1 0.654902 0.501961 0.313725 1 0.654902 0.501961 0.313725 1 0.654902 0.501961 0.313725 1 0.654902 0.501961 0.313725 1 0.654902 0.501961 0.313725 1 0.654902 0.501961 0.313725 1 0.654902 0.501961 0.313725 1 0.654902 0.501961 0.313725 1 0.654902 0.501961 0.313725 1 0.654902 0.501961 0.313725 1 0.654902 0.501961 0.313725 1 0.654902 0.501961 0.313725 1 0.654902 0.501961 0.313725 1 0.654902 0.501961 0.313725 1 0.654902 0.501961 0.313725 1 0.654902 0.501961 0.313725 1 0.654902 0.501961 0.313725 1 0.654902 0.501961 0.313725 1 0.654902 0.501961 0.313725 1 0.654902 0.501961 0.313725 1 0.654902 0.501961 0.313725 1 0.654902 0.501961 0.313725 1 0.654902 0.501961 0.313725 1 0.654902 0.501961 0.313725 1 0.654902 0.501961 0.313725 1 0.654902 0.501961 0.313725 1 0.654902 0.501961 0.313725 1 0.654902 0.501961 0.313725 1 0.654902 0.501961 0.313725 1 0.654902 0.501961 0.313725 1 0.654902 0.501961 0.313725 1 0.654902 0.501961 0.313725 1 0.654902 0.501961 0.313725 1 0.654902 0.501961 0.313725 1 0.654902 0.501961 0.313725 1 0.654902 0.501961 0.313725 1 0.654902 0.501961 0.313725 1 0.654902 0.501961 0.313725 1 0.654902 0.501961 0.313725 1 0.654902 0.501961 0.313725 1 0.654902 0.501961 0.313725 1 0.654902 0.501961 0.313725 1 0.654902 0.501961 0.313725 1 0.654902 0.501961 0.313725 1 0.654902 0.501961 0.313725 1 0.654902 0.501961 0.313725 1 0.654902 0.501961 0.313725 1 0.654902 0.501961 0.313725 1 0.654902 0.501961 0.313725 1 0.654902 0.501961 0.313725 1 0.654902 0.501961 0.313725 1 0.654902 0.501961 0.313725 1 0.654902 0.501961 0.313725 1 0.654902 0.501961 0.313725 1 0.654902 0.501961 0.313725 1 0.654902 0.501961 0.313725 1 0.654902 0.501961 0.313725 1 0.654902 0.501961 0.313725 1 0.654902 0.501961 0.313725 1 0.654902 0.501961 0.313725 1 0.654902 0.501961 0.313725 1 0.654902 0.501961 0.313725 1 0.654902 0.501961 0.313725 1 0.654902 0.501961 0.313725 1 0.654902 0.501961 0.313725 1 0.654902 0.501961 0.313725 1 0.654902 0.501961 0.313725 1 0.654902 0.501961 0.313725 1 0.654902 0.501961 0.313725 1 0.654902 0.501961 0.313725 1 0.654902 0.501961 0.313725 1 0.654902 0.501961 0.313725 1 0.654902 0.501961 0.313725 1 0.654902 0.501961 0.313725 1 0.654902 0.501961 0.313725 1 0.654902 0.501961 0.313725 1 0.654902 0.501961 0.313725 1 0.654902 0.501961 0.313725 1 0.654902 0.501961 0.313725 1 0.654902 0.501961 0.313725 1 0.654902 0.501961 0.313725 1 0.654902 0.501961 0.313725 1 0.654902 0.501961 0.313725 1 0.654902 0.501961 0.313725 1 0.654902 0.501961 0.313725 1 0.654902 0.501961 0.313725 1 0.654902 0.501961 0.313725 1 0.654902 0.501961 0.313725 1 0.654902 0.501961 0.313725 1 0.654902 0.501961 0.313725 1 0.654902 0.501961 0.313725 1 0.654902 0.501961 0.313725 1 0.654902 0.501961 0.313725 1 0.654902 0.501961 0.313725 1 0.654902 0.501961 0.313725 1 0.654902 0.501961 0.313725 1 0.654902 0.501961 0.313725 1 0.654902 0.501961 0.313725 1 0.654902 0.501961 0.313725 1 0.654902 0.501961 0.313725 1 0.654902 0.501961 0.313725 1 0.654902 0.501961 0.313725 1 0.654902 0.501961 0.313725 1 0.654902 0.501961 0.313725 1 0.654902 0.501961 0.313725 1 0.654902 0.501961 0.313725 1 0.654902 0.501961 0.313725 1 0.654902 0.501961 0.313725 1 0.654902 0.501961 0.313725 1 0.654902 0.501961 0.313725 1 0.654902 0.501961 0.313725 1 0.654902 0.501961 0.313725 1 0.654902 0.501961 0.313725 1 0.654902 0.501961 0.313725 1 0.654902 0.501961 0.313725 1 0.654902 0.501961 0.313725 1 0.654902 0.501961 0.313725 1 0.654902 0.501961 0.313725 1 0.654902 0.501961 0.313725 1 0.654902 0.501961 0.313725 1 0.654902 0.501961 0.313725 1 0.654902 0.501961 0.313725 1 0.654902 0.501961 0.313725 1 0.654902 0.501961 0.313725 1 0.654902 0.501961 0.313725 1 0.654902 0.501961 0.313725 1 0.654902 0.501961 0.313725 1 0.654902 0.501961 0.313725 1 0.654902 0.501961 0.313725 1 0.654902 0.501961 0.313725 1 0.654902 0.501961 0.313725 1 0.654902 0.501961 0.313725 1 0.654902 0.501961 0.313725 1 0.654902 0.501961 0.313725 1 0.654902 0.501961 0.313725 1 0.654902 0.501961 0.313725 1 0.654902 0.501961 0.313725 1 0.654902 0.501961 0.313725 1 0.654902 0.501961 0.313725 1 0.654902 0.501961 0.313725 1 0.654902 0.501961 0.313725 1 0.654902 0.501961 0.313725 1 0.654902 0.501961 0.313725 1 0.654902 0.501961 0.313725 1 0.654902 0.501961 0.313725 1 0.654902 0.501961 0.313725 1 0.654902 0.501961 0.313725 1 0.654902 0.501961 0.313725 1 0.654902 0.501961 0.313725 1 0.654902 0.501961 0.313725 1 0.654902 0.501961 0.313725 1 0.654902 0.501961 0.313725 1 0.654902 0.501961 0.313725 1 0.654902 0.501961 0.313725 1 0.654902 0.501961 0.313725 1 0.654902 0.501961 0.313725 1 0.654902 0.501961 0.313725 1 0.654902 0.501961 0.313725 1 0.654902 0.501961 0.313725 1 0.654902 0.501961 0.313725 1 0.654902 0.501961 0.313725 1 0.654902 0.501961 0.313725 1 0.654902 0.501961 0.313725 1 0.654902 0.501961 0.313725 1 0.654902 0.501961 0.313725 1 0.654902 0.501961 0.313725 1 0.654902 0.501961 0.313725 1 0.654902 0.501961 0.313725 1 0.654902 0.501961 0.313725 1 0.654902 0.501961 0.313725 1 0.654902 0.501961 0.313725 1 0.654902 0.501961 0.313725 1 0.654902 0.501961 0.313725 1 0.654902 0.501961 0.313725 1 0.654902 0.501961 0.313725 1 0.654902 0.501961 0.313725 1 0.654902 0.501961 0.313725 1 0.654902 0.501961 0.313725 1 0.654902 0.501961 0.313725 1 0.654902 0.501961 0.313725 1 0.654902 0.501961 0.313725 1 0.654902 0.501961 0.313725 1 0.654902 0.501961 0.313725 1 0.654902 0.501961 0.313725 1 0.654902 0.501961 0.313725 1 0.654902 0.501961 0.313725 1 0.654902 0.501961 0.313725 1 0.654902 0.501961 0.313725 1 0.654902 0.501961 0.313725 1 0.654902 0.501961 0.313725 1 0.654902 0.501961 0.313725 1 0.654902 0.501961 0.313725 1 0.654902 0.501961 0.313725 1 0.654902 0.501961 0.313725 1 0.654902 0.501961 0.313725 1 0.654902 0.501961 0.313725 1 0.654902 0.501961 0.313725 1 0.654902 0.501961 0.313725 1 0.654902 0.501961 0.313725 1 0.654902 0.501961 0.313725 1 0.654902 0.501961 0.313725 1 0.654902 0.501961 0.313725 1 0.654902 0.501961 0.313725 1 0.654902 0.501961 0.313725 1 0.654902 0.501961 0.313725 1 0.654902 0.501961 0.313725 1 0.654902 0.501961 0.313725 1 0.654902 0.501961 0.313725 1 0.654902 0.501961 0.313725 1 0.654902 0.501961 0.313725 1 0.654902 0.501961 0.313725 1 0.654902 0.501961 0.313725 1 0.654902 0.501961 0.313725 1 0.654902 0.501961 0.313725 1 0.654902 0.501961 0.313725 1 0.654902 0.501961 0.313725 1 0.654902 0.501961 0.313725 1 0.654902 0.501961 0.313725 1 0.654902 0.501961 0.313725 1 0.654902 0.501961 0.313725 1 0.654902 0.501961 0.313725 1 0.654902 0.501961 0.313725 1 0.654902 0.501961 0.313725 1 0.654902 0.501961 0.313725 1 0.654902 0.501961 0.313725 1 0.654902 0.501961 0.313725 1 0.654902 0.501961 0.313725 1 0.654902 0.501961 0.313725 1 0.654902 0.501961 0.313725 1 0.654902 0.501961 0.313725 1 0.654902 0.501961 0.313725 1 0.654902 0.501961 0.313725 1 0.654902 0.501961 0.313725 1 0.654902 0.501961 0.313725 1 0.654902 0.501961 0.313725 1 0.654902 0.501961 0.313725 1 0.654902 0.501961 0.313725 1 0.654902 0.501961 0.313725 1 0.654902 0.501961 0.313725 1 0.654902 0.501961 0.313725 1 0.654902 0.501961 0.313725 1 0.654902 0.501961 0.313725 1 0.654902 0.501961 0.313725 1 0.654902 0.501961 0.313725 1 0.654902 0.501961 0.313725 1 0.654902 0.501961 0.313725 1 0.654902 0.501961 0.313725 1 0.654902 0.501961 0.313725 1 0.654902 0.501961 0.313725 1 0.654902 0.501961 0.313725 1 0.654902 0.501961 0.313725 1 0.654902 0.501961 0.313725 1 0.654902 0.501961 0.313725 1 0.654902 0.501961 0.313725 1 0.654902 0.501961 0.313725 1 0.654902 0.501961 0.313725 1 0.654902 0.501961 0.313725 1 0.654902 0.501961 0.313725 1 0.654902 0.501961 0.313725 1 0.654902 0.501961 0.313725 1 0.654902 0.501961 0.313725 1 0.654902 0.501961 0.313725 1 0.654902 0.501961 0.313725 1 0.654902 0.501961 0.313725 1 0.654902 0.501961 0.313725 1 0.654902 0.501961 0.313725 1 0.654902 0.501961 0.313725 1 0.654902 0.501961 0.313725 1 0.654902 0.501961 0.313725 1 0.654902 0.501961 0.313725 1 0.654902 0.501961 0.313725 1 0.654902 0.501961 0.313725 1 0.654902 0.501961 0.313725 1 0.654902 0.501961 0.313725 1 0.654902 0.501961 0.313725 1 0.654902 0.501961 0.313725 1 0.654902 0.501961 0.313725 1 0.654902 0.501961 0.313725 1 0.654902 0.501961 0.313725 1 0.654902 0.501961 0.313725 1 0.654902 0.501961 0.313725 1 0.654902 0.501961 0.313725 1 0.654902 0.501961 0.313725 1 0.654902 0.501961 0.313725 1 0.654902 0.501961 0.313725 1 0.654902 0.501961 0.313725 1 0.654902 0.501961 0.313725 1 0.654902 0.501961 0.313725 1 0.654902 0.501961 0.313725 1 0.654902 0.501961 0.313725 1 0.654902 0.501961 0.313725 1 0.654902 0.501961 0.313725 1 0.654902 0.501961 0.313725 1 0.654902 0.501961 0.313725 1 0.654902 0.501961 0.313725 1 0.654902 0.501961 0.313725 1 0.654902 0.501961 0.313725 1 0.654902 0.501961 0.313725 1 0.654902 0.501961 0.313725 1 0.654902 0.501961 0.313725 1 0.654902 0.501961 0.313725 1 0.654902 0.501961 0.313725 1 0.654902 0.501961 0.313725 1 0.654902 0.501961 0.313725 1 0.654902 0.501961 0.313725 1 0.654902 0.501961 0.313725 1 0.654902 0.501961 0.313725 1 0.654902 0.501961 0.313725 1 0.654902 0.501961 0.313725 1 0.654902 0.501961 0.313725 1 0.654902 0.501961 0.313725 1 0.654902 0.501961 0.313725 1 0.654902 0.501961 0.313725 1</float_array>
                    <technique_common>
                        <accessor count="591" source="#shape0-lib-vcolor-array" stride="4">
                            <param name="R" type="float"/>
                            <param name="G" type="float"/>
                            <param name="B" type="float"/>
                            <param name="A" type="float"/>
                        </accessor>
                    </technique_common>
                </source>
                <vertices id="shape0-lib-vertices">
                    <input semantic="POSITION" source="#shape0-lib-positions"/>
                </vertices>
                <triangles count="866">
                    <input offset="0" semantic="VERTEX" source="#shape0-lib-vertices"/>
                    <input offset="1" semantic="COLOR" source="#shape0-lib-vcolor"/>
                    <input offset="2" semantic="NORMAL" source="#shape0-lib-normals"/>
                    <p>2 2 0 3 3 0 1 1 0 2 2 1 4 4 1 5 5 1 6 6 2 7 7 2 5 5 2 8 8 3 9 9 3 7 7 3 10 10 4 11 11 4 9 9 4 12 12 5 13 13 5 11 11 5 12 12 6 14 14 6 15 15 6 16 16 7 17 17 7 15 15 7 16 16 8 18 18 8 19 19 8 18 18 9 20 20 9 21 21 9 22 22 10 23 23 10 21 21 10 24 24 11 25 25 11 23 23 11 26 26 12 27 27 12 25 25 12 28 28 13 29 29 13 27 27 13 30 30 14 31 31 14 29 29 14 32 32 15 33 33 15 31 31 15 34 34 16 35 35 16 33 33 16 36 36 17 37 37 17 35 35 17 38 38 18 39 39 18 37 37 18 40 40 19 41 41 19 39 39 19 40 40 20 42 42 20 43 43 20 44 44 21 45 45 21 43 43 21 46 46 22 47 47 22 45 45 22 46 46 23 48 48 23 49 49 23 50 50 24 51 51 24 49 49 24 52 52 25 53 53 25 51 51 25 52 52 26 54 54 26 55 55 26 56 56 27 57 57 27 55 55 27 58 58 28 59 59 28 57 57 28 58 58 29 60 60 29 61 61 29 41 41 30 19 19 30 25 25 30 0 0 31 1 1 31 63 63 31 60 60 32 62 62 32 63 63 32 0 0 33 50 50 33 40 40 33 0 0 34 2 2 34 1 1 34 3 3 35 2 2 35 5 5 35 4 4 36 6 6 36 5 5 36 6 6 37 8 8 37 7 7 37 8 8 38 10 10 38 9 9 38 10 10 39 12 12 39 11 11 39 13 13 40 12 12 40 15 15 40 14 14 41 16 16 41 15 15 41 17 17 42 16 16 42 19 19 42 19 19 43 18 18 43 21 21 43 20 20 44 22 22 44 21 21 44 22 22 45 24 24 45 23 23 45 24 24 46 26 26 46 25 25 46 26 26 47 28 28 47 27 27 47 28 28 48 30 30 48 29 29 48 30 30 49 32 32 49 31 31 49 32 32 50 34 34 50 33 33 50 34 34 51 36 36 51 35 35 51 36 36 52 38 38 52 37 37 52 38 38 53 40 40 53 39 39 53 41 41 54 40 40 54 43 43 54 42 42 55 44 44 55 43 43 55 44 44 56 46 46 56 45 45 56 47 47 57 46 46 57 49 49 57 48 48 58 50 50 58 49 49 58 50 50 59 52 52 59 51 51 59 53 53 60 52 52 60 55 55 60 54 54 61 56 56 61 55 55 61 56 56 62 58 58 62 57 57 62 59 59 63 58 58 63 61 61 63 63 63 64 1 1 64 3 3 64 59 59 65 61 61 65 63 63 65 55 55 66 57 57 66 59 59 66 47 47 67 53 53 67 55 55 67 47 47 68 49 49 68 51 51 68 5 5 69 45 45 69 47 47 69 45 45 70 41 41 70 43 43 70 41 41 71 37 37 71 39 39 71 37 37 72 33 33 72 35 35 72 33 33 73 29 29 73 31 31 73 29 29 74 25 25 74 27 27 74 25 25 75 21 21 75 23 23 75 15 15 76 17 17 76 19 19 76 19 19 77 13 13 77 15 15 77 13 13 78 9 9 78 11 11 78 9 9 79 5 5 79 7 7 79 59 59 80 63 63 80 3 3 80 5 5 81 55 55 81 59 59 81 53 53 82 47 47 82 51 51 82 33 33 83 37 37 83 41 41 83 25 25 84 29 29 84 33 33 84 19 19 85 21 21 85 25 25 85 5 5 86 13 13 86 19 19 86 13 13 87 5 5 87 9 9 87 5 5 88 59 59 88 3 3 88 55 55 89 5 5 89 47 47 89 41 41 90 25 25 90 33 33 90 41 41 91 5 5 91 19 19 91 5 5 92 41 41 92 45 45 92 62 62 93 0 0 93 63 63 93 61 61 94 60 60 94 63 63 94 4 4 95 2 2 95 0 0 95 8 8 96 6 6 96 4 4 96 12 12 97 10 10 97 8 8 97 20 20 98 14 14 98 12 12 98 20 20 99 18 18 99 16 16 99 24 24 100 22 22 100 20 20 100 28 28 101 26 26 101 24 24 101 24 24 102 30 30 102 28 28 102 30 30 103 34 34 103 32 32 103 40 40 104 38 38 104 36 36 104 44 44 105 42 42 105 40 40 105 48 48 106 46 46 106 44 44 106 44 44 107 50 50 107 48 48 107 50 50 108 54 54 108 52 52 108 50 50 109 58 58 109 56 56 109 0 0 110 62 62 110 60 60 110 8 8 111 4 4 111 0 0 111 0 0 112 12 12 112 8 8 112 14 14 113 20 20 113 16 16 113 20 20 114 30 30 114 24 24 114 30 30 115 36 36 115 34 34 115 50 50 116 44 44 116 40 40 116 56 56 117 54 54 117 50 50 117 0 0 118 60 60 118 58 58 118 20 20 119 12 12 119 0 0 119 36 36 120 30 30 120 20 20 120 20 20 121 0 0 121 36 36 121 0 0 122 58 58 122 50 50 122 40 40 123 36 36 123 0 0 123 65 65 124 64 64 124 66 66 124 67 67 125 66 66 125 68 68 125 69 69 126 68 68 126 70 70 126 71 71 127 70 70 127 72 72 127 73 73 128 72 72 128 74 74 128 75 75 129 74 74 129 76 76 129 76 76 130 78 78 130 79 79 130 78 78 131 80 80 131 81 81 131 80 80 132 82 82 132 83 83 132 82 82 133 84 84 133 85 85 133 84 84 134 86 86 134 87 87 134 86 86 135 88 88 135 89 89 135 89 89 136 88 88 136 90 90 136 91 91 137 90 90 137 92 92 137 92 92 138 94 94 138 95 95 138 94 94 139 96 96 139 97 97 139 96 96 140 98 98 140 99 99 140 98 98 141 100 100 141 101 101 141 100 100 142 102 102 142 103 103 142 103 103 143 102 102 143 104 104 143 105 105 144 104 104 144 106 106 144 107 107 145 106 106 145 108 108 145 109 109 146 108 108 146 110 110 146 110 110 147 112 112 147 113 113 147 112 112 148 114 114 148 115 115 148 115 115 149 114 114 149 116 116 149 117 117 150 116 116 150 118 118 150 119 119 151 118 118 151 120 120 151 121 121 152 120 120 152 122 122 152 123 123 153 122 122 153 124 124 153 125 125 154 124 124 154 126 126 154 126 126 155 128 128 155 129 129 155 128 128 156 130 130 156 131 131 156 133 133 157 132 132 157 134 134 157 135 135 158 134 134 158 136 136 158 137 137 159 136 136 159 138 138 159 139 139 160 138 138 160 140 140 160 140 140 161 142 142 161 143 143 161 142 142 162 144 144 162 145 145 162 144 144 163 146 146 163 147 147 163 146 146 164 148 148 164 149 149 164 149 149 165 148 148 165 64 64 165 178 178 166 177 177 166 119 119 166 158 158 167 157 157 167 79 79 167 175 175 168 174 174 168 113 113 168 153 153 169 152 152 169 69 69 169 139 139 170 187 187 170 186 186 170 145 145 171 190 190 171 189 189 171 83 83 172 159 159 172 158 158 172 103 103 173 169 169 173 168 168 173 150 150 174 192 192 174 149 149 174 87 87 175 161 161 175 160 160 175 174 174 176 173 173 176 111 111 176 107 107 177 171 171 177 170 170 177 147 147 178 191 191 178 190 190 178 149 149 179 192 192 179 191 191 179 179 179 180 178 178 180 121 121 180 151 151 181 150 150 181 65 65 181 177 177 182 176 176 182 117 117 182 99 99 183 167 167 183 166 166 183 182 182 184 181 181 184 127 127 184 109 109 185 172 172 185 171 171 185 176 176 186 175 175 186 115 115 186 91 91 187 163 163 187 162 162 187 97 97 188 166 166 188 165 165 188 180 180 189 179 179 189 123 123 189 152 152 190 151 151 190 67 67 190 93 93 191 164 164 191 163 163 191 105 105 192 170 170 192 169 169 192 85 85 193 160 160 193 159 159 193 183 183 194 182 182 194 129 129 194 141 141 195 188 188 195 187 187 195 181 181 196 180 180 196 125 125 196 111 111 197 173 173 197 172 172 197 157 157 198 156 156 198 77 77 198 156 156 199 155 155 199 75 75 199 101 101 200 168 168 200 167 167 200 155 155 201 154 154 201 73 73 201 89 89 202 162 162 202 161 161 202 154 154 203 153 153 203 71 71 203 135 135 204 185 185 204 184 184 204 137 137 205 186 186 205 185 185 205 143 143 206 189 189 206 188 188 206 95 95 207 165 165 207 164 164 207 172 172 208 215 215 208 214 214 208 223 223 209 222 222 209 179 179 209 188 188 210 231 231 210 230 230 210 168 168 211 211 211 211 210 210 211 185 185 212 228 228 212 227 227 212 190 190 213 233 233 213 232 232 213 165 165 214 208 208 214 207 207 214 221 221 215 220 220 215 177 177 215 226 226 216 225 225 216 182 182 216 171 171 217 214 214 217 213 213 217 220 220 218 219 219 218 176 176 218 191 191 219 234 234 219 233 233 219 187 187 220 230 230 220 229 229 220 200 200 221 199 199 221 156 156 221 222 222 222 221 221 222 178 178 222 170 170 223 213 213 223 212 212 223 199 199 224 198 198 224 155 155 224 160 160 225 203 203 225 202 202 225 173 173 226 216 216 226 215 215 226 159 159 227 202 202 227 201 201 227 193 193 228 235 235 228 192 192 228 235 235 229 234 234 229 191 191 229 201 201 230 200 200 230 157 157 230 224 224 231 223 223 231 180 180 231 194 194 232 193 193 232 150 150 232 186 186 233 229 229 233 228 228 233 195 195 234 194 194 234 151 151 234 162 162 235 205 205 235 204 204 235 166 166 236 209 209 236 208 208 236 164 164 237 207 207 237 206 206 237 196 196 238 195 195 238 152 152 238 197 197 239 196 196 239 153 153 239 189 189 240 232 232 240 231 231 240 161 161 241 204 204 241 203 203 241 218 218 242 217 217 242 174 174 242 219 219 243 218 218 243 175 175 243 217 217 244 216 216 244 173 173 244 198 198 245 197 197 245 154 154 245 225 225 246 224 224 246 181 181 246 167 167 247 210 210 247 209 209 247 163 163 248 206 206 248 205 205 248 169 169 249 212 212 249 211 211 249 228 228 250 271 271 250 270 270 250 233 233 251 276 276 251 275 275 251 208 208 252 251 251 252 250 250 252 264 264 253 263 263 253 220 220 253 269 269 254 268 268 254 225 225 254 214 214 255 257 257 255 256 256 255 263 263 256 262 262 256 219 219 256 234 234 257 277 277 257 276 276 257 230 230 258 273 273 258 272 272 258 243 243 259 242 242 259 199 199 259 265 265 260 264 264 260 221 221 260 213 213 261 256 256 261 255 255 261 242 242 262 241 241 262 198 198 262 203 203 263 246 246 263 245 245 263 216 216 264 259 259 264 258 258 264 202 202 265 245 245 265 244 244 265 236 236 266 278 278 266 235 235 266 278 278 267 277 277 267 234 234 267 244 244 268 243 243 268 200 200 268 267 267 269 266 266 269 223 223 269 237 237 270 236 236 270 193 193 270 238 238 271 237 237 271 194 194 271 229 229 272 272 272 272 271 271 272 205 205 273 248 248 273 247 247 273 209 209 274 252 252 274 251 251 274 207 207 275 250 250 275 249 249 275 239 239 276 238 238 276 195 195 276 240 240 277 239 239 277 196 196 277 232 232 278 275 275 278 274 274 278 204 204 279 247 247 279 246 246 279 261 261 280 260 260 280 217 217 280 262 262 281 261 261 281 218 218 281 260 260 282 259 259 282 216 216 282 241 241 283 240 240 283 197 197 283 268 268 284 267 267 284 224 224 284 210 210 285 253 253 285 252 252 285 206 206 286 249 249 286 248 248 286 212 212 287 255 255 287 254 254 287 215 215 288 258 258 288 257 257 288 266 266 289 265 265 289 222 222 289 231 231 290 274 274 290 273 273 290 211 211 291 254 254 291 253 253 291 307 307 292 306 306 292 263 263 292 312 312 293 311 311 293 268 268 293 257 257 294 300 300 294 299 299 294 306 306 295 305 305 295 262 262 295 277 277 296 320 320 296 319 319 296 273 273 297 316 316 297 315 315 297 286 286 298 285 285 298 242 242 298 308 308 299 307 307 299 264 264 299 256 256 300 299 299 300 298 298 300 285 285 301 284 284 301 241 241 301 246 246 302 289 289 302 288 288 302 259 259 303 302 302 303 301 301 303 245 245 304 288 288 304 287 287 304 279 279 305 321 321 305 278 278 305 321 321 306 320 320 306 277 277 306 287 287 307 286 286 307 243 243 307 310 310 308 309 309 308 266 266 308 280 280 309 279 279 309 236 236 309 281 281 310 280 280 310 237 237 310 272 272 311 315 315 311 314 314 311 248 248 312 291 291 312 290 290 312 252 252 313 295 295 313 294 294 313 250 250 314 293 293 314 292 292 314 282 282 315 281 281 315 238 238 315 283 283 316 282 282 316 239 239 316 275 275 317 318 318 317 317 317 317 304 304 318 303 303 318 260 260 318 247 247 319 290 290 319 289 289 319 305 305 320 304 304 320 261 261 320 303 303 321 302 302 321 259 259 321 284 284 322 283 283 322 240 240 322 311 311 323 310 310 323 267 267 323 253 253 324 296 296 324 295 295 324 249 249 325 292 292 325 291 291 325 255 255 326 298 298 326 297 297 326 258 258 327 301 301 327 300 300 327 309 309 328 308 308 328 265 265 328 274 274 329 317 317 329 316 316 329 254 254 330 297 297 330 296 296 330 271 271 331 314 314 331 534 534 331 276 276 332 319 319 332 318 318 332 251 251 333 294 294 333 293 293 333 514 514 334 362 362 334 361 361 334 508 508 335 329 329 335 328 328 335 351 351 336 350 350 336 522 522 336 492 492 337 342 342 337 341 341 337 328 328 338 327 327 338 500 500 338 531 531 339 332 332 339 331 331 339 345 345 340 344 344 340 494 494 340 530 530 341 331 331 341 330 330 341 496 496 342 322 322 342 367 367 342 497 497 343 367 367 343 366 366 343 532 532 344 330 330 344 329 329 344 353 353 345 352 352 345 524 524 345 323 323 346 322 322 346 496 496 346 324 324 347 323 323 347 519 519 347 510 510 348 361 361 348 360 360 348 527 527 349 334 334 349 333 333 349 498 498 350 338 338 350 337 337 350 490 490 351 336 336 351 335 335 351 325 325 352 324 324 352 511 511 352 326 326 353 325 325 353 512 512 353 528 528 354 364 364 354 363 363 354 526 526 355 333 333 355 332 332 355 347 347 356 346 346 356 520 520 356 348 348 357 347 347 357 521 521 357 346 346 358 345 345 358 495 495 358 327 327 359 326 326 359 499 499 359 354 354 360 353 353 360 525 525 360 513 513 361 339 339 361 338 338 361 533 533 362 335 335 362 334 334 362 502 502 363 341 341 363 340 340 363 344 344 364 343 343 364 493 493 364 352 352 365 351 351 365 523 523 365 515 515 366 363 363 366 362 362 366 501 501 367 340 340 367 339 339 367 509 509 368 360 360 368 582 582 368 529 529 369 365 365 369 364 364 369 491 491 370 337 337 370 336 336 370 350 350 371 349 349 371 517 517 371 355 355 372 354 354 372 503 503 372 343 343 373 342 342 373 492 492 373 349 349 374 348 348 374 516 516 374 518 518 375 366 366 375 365 365 375 443 443 376 445 445 376 377 377 376 485 485 377 376 376 377 377 377 377 376 376 378 358 358 378 357 357 378 357 357 379 356 356 379 378 378 379 384 384 380 385 385 380 356 356 380 357 357 381 358 358 381 383 383 381 384 384 382 383 383 382 484 484 382 385 385 383 384 384 383 482 482 383 383 383 384 382 382 384 487 487 384 358 358 385 368 368 385 382 382 385 375 375 386 368 368 386 358 358 386 376 376 387 485 485 387 486 486 387 488 488 388 374 374 388 375 375 388 374 374 389 369 369 389 368 368 389 368 368 390 369 369 390 381 381 390 382 382 391 381 381 391 489 489 391 381 381 392 587 587 392 505 505 392 380 380 393 379 379 393 553 553 393 370 370 394 371 371 394 379 379 394 369 369 395 588 588 395 587 587 395 372 372 396 371 371 396 370 370 396 537 537 397 588 588 397 369 369 397 374 374 398 488 488 398 313 313 398 373 373 399 536 536 399 359 359 399 436 436 400 580 580 400 578 578 400 574 574 401 386 386 401 436 436 401 581 581 402 435 435 402 386 386 402 540 540 403 547 547 403 435 435 403 580 580 404 436 436 404 433 433 404 387 387 405 433 433 405 436 436 405 387 387 406 386 386 406 435 435 406 547 547 407 561 561 407 434 434 407 426 426 408 429 429 408 430 430 408 425 425 409 428 428 409 429 429 409 423 423 410 426 426 410 427 427 410 420 420 411 423 423 411 424 424 411 417 417 412 420 420 412 421 421 412 414 414 413 417 417 413 418 418 413 411 411 414 414 414 414 415 415 414 408 408 415 411 411 415 412 412 415 405 405 416 408 408 416 409 409 416 402 402 417 405 405 417 404 404 417 399 399 418 402 402 418 401 401 418 397 397 419 399 399 419 398 398 419 395 395 420 397 397 420 431 431 420 395 395 421 394 394 421 391 391 421 392 392 422 391 391 422 388 388 422 389 389 423 388 388 423 433 433 423 556 556 424 433 433 424 388 388 424 555 555 425 388 388 425 391 391 425 549 549 426 391 391 426 394 394 426 548 548 427 394 394 427 431 431 427 560 560 428 431 431 428 398 398 428 559 559 429 398 398 429 401 401 429 545 545 430 567 567 430 401 401 430 546 546 431 545 545 431 404 404 431 566 566 432 546 546 432 409 409 432 577 577 433 566 566 433 412 412 433 576 576 434 577 577 434 415 415 434 563 563 435 576 576 435 418 418 435 562 562 436 563 563 436 421 421 436 558 558 437 562 562 437 424 424 437 557 557 438 558 558 438 427 427 438 583 583 439 557 557 439 430 430 439 584 584 440 430 430 440 429 429 440 590 590 441 429 429 441 428 428 441 554 554 442 589 589 442 428 428 442 428 428 443 425 425 443 573 573 443 425 425 444 422 422 444 572 572 444 422 422 445 419 419 445 571 571 445 419 419 446 416 416 446 570 570 446 416 416 447 413 413 447 565 565 447 413 413 448 410 410 448 564 564 448 410 410 449 407 407 449 569 569 449 407 407 450 406 406 450 568 568 450 544 544 451 568 568 451 406 406 451 543 543 452 544 544 452 403 403 452 542 542 453 543 543 453 400 400 453 541 541 454 542 542 454 432 432 454 551 551 455 541 541 455 396 396 455 550 550 456 551 551 456 393 393 456 561 561 457 550 550 457 390 390 457 389 389 458 387 387 458 434 434 458 390 390 459 393 393 459 392 392 459 393 393 460 396 396 460 395 395 460 396 396 461 432 432 461 397 397 461 399 399 462 397 397 462 432 432 462 400 400 463 403 403 463 402 402 463 403 403 464 406 406 464 405 405 464 406 406 465 407 407 465 408 408 465 407 407 466 410 410 466 411 411 466 410 410 467 413 413 467 414 414 467 413 413 468 416 416 468 417 417 468 416 416 469 419 419 469 420 420 469 419 419 470 422 422 470 423 423 470 422 422 471 425 425 471 426 426 471 449 449 472 457 457 472 461 461 472 67 67 473 65 65 473 66 66 473 69 69 474 67 67 474 68 68 474 71 71 475 69 69 475 70 70 475 73 73 476 71 71 476 72 72 476 75 75 477 73 73 477 74 74 477 77 77 478 75 75 478 76 76 478 77 77 479 76 76 479 79 79 479 79 79 480 78 78 480 81 81 480 81 81 481 80 80 481 83 83 481 83 83 482 82 82 482 85 85 482 85 85 483 84 84 483 87 87 483 87 87 484 86 86 484 89 89 484 91 91 485 89 89 485 90 90 485 93 93 486 91 91 486 92 92 486 93 93 487 92 92 487 95 95 487 95 95 488 94 94 488 97 97 488 97 97 489 96 96 489 99 99 489 99 99 490 98 98 490 101 101 490 101 101 491 100 100 491 103 103 491 105 105 492 103 103 492 104 104 492 107 107 493 105 105 493 106 106 493 109 109 494 107 107 494 108 108 494 111 111 495 109 109 495 110 110 495 111 111 496 110 110 496 113 113 496 113 113 497 112 112 497 115 115 497 117 117 498 115 115 498 116 116 498 119 119 499 117 117 499 118 118 499 121 121 500 119 119 500 120 120 500 123 123 501 121 121 501 122 122 501 125 125 502 123 123 502 124 124 502 127 127 503 125 125 503 126 126 503 127 127 504 126 126 504 129 129 504 129 129 505 128 128 505 131 131 505 135 135 506 133 133 506 134 134 506 137 137 507 135 135 507 136 136 507 139 139 508 137 137 508 138 138 508 141 141 509 139 139 509 140 140 509 141 141 510 140 140 510 143 143 510 143 143 511 142 142 511 145 145 511 145 145 512 144 144 512 147 147 512 147 147 513 146 146 513 149 149 513 65 65 514 149 149 514 64 64 514 121 121 515 178 178 515 119 119 515 81 81 516 158 158 516 79 79 516 115 115 517 175 175 517 113 113 517 71 71 518 153 153 518 69 69 518 137 137 519 139 139 519 186 186 519 143 143 520 145 145 520 189 189 520 81 81 521 83 83 521 158 158 521 101 101 522 103 103 522 168 168 522 65 65 523 150 150 523 149 149 523 85 85 524 87 87 524 160 160 524 113 113 525 174 174 525 111 111 525 105 105 526 107 107 526 170 170 526 145 145 527 147 147 527 190 190 527 147 147 528 149 149 528 191 191 528 123 123 529 179 179 529 121 121 529 67 67 530 151 151 530 65 65 530 119 119 531 177 177 531 117 117 531 97 97 532 99 99 532 166 166 532 129 129 533 182 182 533 127 127 533 107 107 534 109 109 534 171 171 534 117 117 535 176 176 535 115 115 535 89 89 536 91 91 536 162 162 536 95 95 537 97 97 537 165 165 537 125 125 538 180 180 538 123 123 538 69 69 539 152 152 539 67 67 539 91 91 540 93 93 540 163 163 540 103 103 541 105 105 541 169 169 541 83 83 542 85 85 542 159 159 542 131 131 543 183 183 543 129 129 543 139 139 544 141 141 544 187 187 544 127 127 545 181 181 545 125 125 545 109 109 546 111 111 546 172 172 546 79 79 547 157 157 547 77 77 547 77 77 548 156 156 548 75 75 548 99 99 549 101 101 549 167 167 549 75 75 550 155 155 550 73 73 550 87 87 551 89 89 551 161 161 551 73 73 552 154 154 552 71 71 552 133 133 553 135 135 553 184 184 553 135 135 554 137 137 554 185 185 554 141 141 555 143 143 555 188 188 555 93 93 556 95 95 556 164 164 556 171 171 557 172 172 557 214 214 557 180 180 558 223 223 558 179 179 558 187 187 559 188 188 559 230 230 559 167 167 560 168 168 560 210 210 560 184 184 561 185 185 561 227 227 561 189 189 562 190 190 562 232 232 562 164 164 563 165 165 563 207 207 563 178 178 564 221 221 564 177 177 564 183 183 565 226 226 565 182 182 565 170 170 566 171 171 566 213 213 566 177 177 567 220 220 567 176 176 567 190 190 568 191 191 568 233 233 568 186 186 569 187 187 569 229 229 569 157 157 570 200 200 570 156 156 570 179 179 571 222 222 571 178 178 571 169 169 572 170 170 572 212 212 572 156 156 573 199 199 573 155 155 573 159 159 574 160 160 574 202 202 574 172 172 575 173 173 575 215 215 575 158 158 576 159 159 576 201 201 576 150 150 577 193 193 577 192 192 577 192 192 578 235 235 578 191 191 578 158 158 579 201 201 579 157 157 579 181 181 580 224 224 580 180 180 580 151 151 581 194 194 581 150 150 581 185 185 582 186 186 582 228 228 582 152 152 583 195 195 583 151 151 583 161 161 584 162 162 584 204 204 584 165 165 585 166 166 585 208 208 585 163 163 586 164 164 586 206 206 586 153 153 587 196 196 587 152 152 587 154 154 588 197 197 588 153 153 588 188 188 589 189 189 589 231 231 589 160 160 590 161 161 590 203 203 590 175 175 591 218 218 591 174 174 591 176 176 592 219 219 592 175 175 592 174 174 593 217 217 593 173 173 593 155 155 594 198 198 594 154 154 594 182 182 595 225 225 595 181 181 595 166 166 596 167 167 596 209 209 596 162 162 597 163 163 597 205 205 597 168 168 598 169 169 598 211 211 598 227 227 599 228 228 599 270 270 599 232 232 600 233 233 600 275 275 600 207 207 601 208 208 601 250 250 601 221 221 602 264 264 602 220 220 602 226 226 603 269 269 603 225 225 603 213 213 604 214 214 604 256 256 604 220 220 605 263 263 605 219 219 605 233 233 606 234 234 606 276 276 606 229 229 607 230 230 607 272 272 607 200 200 608 243 243 608 199 199 608 222 222 609 265 265 609 221 221 609 212 212 610 213 213 610 255 255 610 199 199 611 242 242 611 198 198 611 202 202 612 203 203 612 245 245 612 215 215 613 216 216 613 258 258 613 201 201 614 202 202 614 244 244 614 193 193 615 236 236 615 235 235 615 235 235 616 278 278 616 234 234 616 201 201 617 244 244 617 200 200 617 224 224 618 267 267 618 223 223 618 194 194 619 237 237 619 193 193 619 195 195 620 238 238 620 194 194 620 228 228 621 229 229 621 271 271 621 204 204 622 205 205 622 247 247 622 208 208 623 209 209 623 251 251 623 206 206 624 207 207 624 249 249 624 196 196 625 239 239 625 195 195 625 197 197 626 240 240 626 196 196 626 231 231 627 232 232 627 274 274 627 203 203 628 204 204 628 246 246 628 218 218 629 261 261 629 217 217 629 219 219 630 262 262 630 218 218 630 217 217 631 260 260 631 216 216 631 198 198 632 241 241 632 197 197 632 225 225 633 268 268 633 224 224 633 209 209 634 210 210 634 252 252 634 205 205 635 206 206 635 248 248 635 211 211 636 212 212 636 254 254 636 214 214 637 215 215 637 257 257 637 223 223 638 266 266 638 222 222 638 230 230 639 231 231 639 273 273 639 210 210 640 211 211 640 253 253 640 264 264 641 307 307 641 263 263 641 269 269 642 312 312 642 268 268 642 256 256 643 257 257 643 299 299 643 263 263 644 306 306 644 262 262 644 276 276 645 277 277 645 319 319 645 272 272 646 273 273 646 315 315 646 243 243 647 286 286 647 242 242 647 265 265 648 308 308 648 264 264 648 255 255 649 256 256 649 298 298 649 242 242 650 285 285 650 241 241 650 245 245 651 246 246 651 288 288 651 258 258 652 259 259 652 301 301 652 244 244 653 245 245 653 287 287 653 236 236 654 279 279 654 278 278 654 278 278 655 321 321 655 277 277 655 244 244 656 287 287 656 243 243 656 267 267 657 310 310 657 266 266 657 237 237 658 280 280 658 236 236 658 238 238 659 281 281 659 237 237 659 271 271 660 272 272 660 314 314 660 247 247 661 248 248 661 290 290 661 251 251 662 252 252 662 294 294 662 249 249 663 250 250 663 292 292 663 239 239 664 282 282 664 238 238 664 240 240 665 283 283 665 239 239 665 274 274 666 275 275 666 317 317 666 261 261 667 304 304 667 260 260 667 246 246 668 247 247 668 289 289 668 262 262 669 305 305 669 261 261 669 260 260 670 303 303 670 259 259 670 241 241 671 284 284 671 240 240 671 268 268 672 311 311 672 267 267 672 252 252 673 253 253 673 295 295 673 248 248 674 249 249 674 291 291 674 254 254 675 255 255 675 297 297 675 257 257 676 258 258 676 300 300 676 266 266 677 309 309 677 265 265 677 273 273 678 274 274 678 316 316 678 253 253 679 254 254 679 296 296 679 270 270 680 271 271 680 534 534 680 275 275 681 276 276 681 318 318 681 250 250 682 251 251 682 293 293 682 510 510 683 514 514 683 361 361 683 507 507 684 508 508 684 328 328 684 523 523 685 351 351 685 522 522 685 502 502 686 492 492 686 341 341 686 507 507 687 328 328 687 500 500 687 530 530 688 531 531 688 331 331 688 495 495 689 345 345 689 494 494 689 532 532 690 530 530 690 330 330 690 497 497 691 496 496 691 367 367 691 518 518 692 497 497 692 366 366 692 508 508 693 532 532 693 329 329 693 525 525 694 353 353 694 524 524 694 519 519 695 323 323 695 496 496 695 511 511 696 324 324 696 519 519 696 509 509 697 510 510 697 360 360 697 526 526 698 527 527 698 333 333 698 491 491 699 498 498 699 337 337 699 533 533 700 490 490 700 335 335 700 512 512 701 325 325 701 511 511 701 499 499 702 326 326 702 512 512 702 515 515 703 528 528 703 363 363 703 531 531 704 526 526 704 332 332 704 521 521 705 347 347 705 520 520 705 516 516 706 348 348 706 521 521 706 520 520 707 346 346 707 495 495 707 500 500 708 327 327 708 499 499 708 503 503 709 354 354 709 525 525 709 498 498 710 513 513 710 338 338 710 527 527 711 533 533 711 334 334 711 501 501 712 502 502 712 340 340 712 494 494 713 344 344 713 493 493 713 524 524 714 352 352 714 523 523 714 514 514 715 515 515 715 362 362 715 513 513 716 501 501 716 339 339 716 535 535 717 509 509 717 582 582 717 528 528 718 529 529 718 364 364 718 490 490 719 491 491 719 336 336 719 522 522 720 350 350 720 517 517 720 504 504 721 355 355 721 503 503 721 493 493 722 343 343 722 492 492 722 517 517 723 349 349 723 516 516 723 529 529 724 518 518 724 365 365 724 378 378 725 443 443 725 377 377 725 445 445 726 485 485 726 377 377 726 377 377 727 376 376 727 357 357 727 377 377 728 357 357 728 378 378 728 357 357 729 384 384 729 356 356 729 384 384 730 357 357 730 383 383 730 482 482 731 384 384 731 484 484 731 475 475 732 385 385 732 482 482 732 484 484 733 383 383 733 487 487 733 383 383 734 358 358 734 382 382 734 376 376 735 375 375 735 358 358 735 375 375 736 376 376 736 486 486 736 486 486 737 488 488 737 375 375 737 375 375 738 374 374 738 368 368 738 382 382 739 368 368 739 381 381 739 487 487 740 382 382 740 489 489 740 489 489 741 381 381 741 505 505 741 506 506 742 380 380 742 553 553 742 380 380 743 370 370 743 379 379 743 381 381 744 369 369 744 587 587 744 373 373 745 372 372 745 370 370 745 374 374 746 537 537 746 369 369 746 537 537 747 374 374 747 313 313 747 372 372 748 373 373 748 359 359 748 579 579 749 436 436 749 578 578 749 386 386 750 574 574 750 575 575 750 574 574 751 436 436 751 579 579 751 435 435 752 581 581 752 539 539 752 581 581 753 386 386 753 575 575 753 539 539 754 540 540 754 435 435 754 556 556 755 580 580 755 433 433 755 386 386 756 387 387 756 436 436 756 434 434 757 387 387 757 435 435 757 435 435 758 547 547 758 434 434 758 427 427 759 426 426 759 430 430 759 426 426 760 425 425 760 429 429 760 424 424 761 423 423 761 427 427 761 421 421 762 420 420 762 424 424 762 418 418 763 417 417 763 421 421 763 415 415 764 414 414 764 418 418 764 412 412 765 411 411 765 415 415 765 409 409 766 408 408 766 412 412 766 404 404 767 405 405 767 409 409 767 401 401 768 402 402 768 404 404 768 398 398 769 399 399 769 401 401 769 431 431 770 397 397 770 398 398 770 394 394 771 395 395 771 431 431 771 392 392 772 395 395 772 391 391 772 389 389 773 392 392 773 388 388 773 387 387 774 389 389 774 433 433 774 555 555 775 556 556 775 388 388 775 549 549 776 555 555 776 391 391 776 548 548 777 549 549 777 394 394 777 560 560 778 548 548 778 431 431 778 559 559 779 560 560 779 398 398 779 567 567 780 559 559 780 401 401 780 404 404 781 545 545 781 401 401 781 409 409 782 546 546 782 404 404 782 412 412 783 566 566 783 409 409 783 415 415 784 577 577 784 412 412 784 418 418 785 576 576 785 415 415 785 421 421 786 563 563 786 418 418 786 424 424 787 562 562 787 421 421 787 427 427 788 558 558 788 424 424 788 430 430 789 557 557 789 427 427 789 584 584 790 583 583 790 430 430 790 590 590 791 584 584 791 429 429 791 589 589 792 590 590 792 428 428 792 552 552 793 554 554 793 428 428 793 552 552 794 428 428 794 573 573 794 573 573 795 425 425 795 572 572 795 572 572 796 422 422 796 571 571 796 571 571 797 419 419 797 570 570 797 570 570 798 416 416 798 565 565 798 565 565 799 413 413 799 564 564 799 564 564 800 410 410 800 569 569 800 569 569 801 407 407 801 568 568 801 403 403 802 544 544 802 406 406 802 400 400 803 543 543 803 403 403 803 432 432 804 542 542 804 400 400 804 396 396 805 541 541 805 432 432 805 393 393 806 551 551 806 396 396 806 390 390 807 550 550 807 393 393 807 434 434 808 561 561 808 390 390 808 390 390 809 389 389 809 434 434 809 389 389 810 390 390 810 392 392 810 392 392 811 393 393 811 395 395 811 395 395 812 396 396 812 397 397 812 400 400 813 399 399 813 432 432 813 399 399 814 400 400 814 402 402 814 402 402 815 403 403 815 405 405 815 405 405 816 406 406 816 408 408 816 408 408 817 407 407 817 411 411 817 411 411 818 410 410 818 414 414 818 414 414 819 413 413 819 417 417 819 417 417 820 416 416 820 420 420 820 420 420 821 419 419 821 423 423 821 423 423 822 422 422 822 426 426 822 448 448 823 438 438 823 437 437 823 452 452 824 479 479 824 481 481 824 585 585 825 440 440 825 439 439 825 585 585 826 442 442 826 441 441 826 585 585 827 476 476 827 474 474 827 441 441 828 440 440 828 585 585 828 465 465 829 444 444 829 538 538 829 538 538 830 470 470 830 465 465 830 481 481 831 453 453 831 452 452 831 538 538 832 471 471 832 470 470 832 471 471 833 538 538 833 586 586 833 585 585 834 474 474 834 442 442 834 471 471 835 586 586 835 479 479 835 449 449 836 437 437 836 462 462 836 461 461 837 457 457 837 456 456 837 460 460 838 469 469 838 468 468 838 447 447 839 473 473 839 472 472 839 454 454 840 483 483 840 459 459 840 459 459 841 458 458 841 455 455 841 483 483 842 454 454 842 447 447 842 480 480 843 446 446 843 451 451 843 478 478 844 450 450 844 467 467 844 463 463 845 466 466 845 464 464 845 467 467 846 463 463 846 478 478 846 451 451 847 477 477 847 480 480 847 469 469 848 460 460 848 461 461 848 437 437 849 449 449 849 448 448 849 479 479 850 452 452 850 471 471 850 439 439 851 586 586 851 585 585 851 448 448 852 453 453 852 438 438 852 461 461 853 456 456 853 469 469 853 447 447 854 472 472 854 483 483 854 459 459 855 455 455 855 454 454 855 477 477 856 451 451 856 450 450 856 467 467 857 466 466 857 463 463 857 468 468 858 473 473 858 460 460 858 481 481 859 438 438 859 453 453 859 479 479 860 586 586 860 439 439 860 447 447 861 446 446 861 473 473 861 480 480 862 473 473 862 446 446 862 450 450 863 478 478 863 477 477 863 457 457 864 449 449 864 462 462 864 480 480 865 460 460 865 473 473 865</p>
                </triangles>
            </mesh>
        </geometry>
    </library_geometries>
    <library_visual_scenes>
        <visual_scene id="VisualSceneNode" name="VisualScene">
            <node id="node" name="node">
                <instance_geometry url="#shape0-lib"/>
            </node>
        </visual_scene>
    </library_visual_scenes>
    <scene>
        <instance_visual_scene url="#VisualSceneNode"/>
    </scene>
</COLLADA>
