<?xml version="1.0" encoding="utf-8"?>
<COLLADA xmlns="http://www.collada.org/2005/11/COLLADASchema" version="1.4.1">
  <asset>
    <contributor>
      <author>Blender User</author>
      <authoring_tool>Blender 2.78.0</authoring_tool>
    </contributor>
    <created>2017-08-30T17:09:46</created>
    <modified>2017-08-30T17:09:46</modified>
    <unit name="meter" meter="1"/>
    <up_axis>Z_UP</up_axis>
  </asset>
  <library_images>
    <image id="PBRFULL_Top-material_Base_Color_jpg" name="PBRFULL_Top-material_Base_Color_jpg">
      <init_from>PBRFULL_Top-material_Base_Color.jpg</init_from>
    </image>
  </library_images>
  <library_effects>
    <effect id="PBRFULL_Top-effect">
      <profile_COMMON>
        <newparam sid="PBRFULL_Top-material_Base_Color_jpg-surface">
          <surface type="2D">
            <init_from>PBRFULL_Top-material_Base_Color_jpg</init_from>
          </surface>
        </newparam>
        <newparam sid="PBRFULL_Top-material_Base_Color_jpg-sampler">
          <sampler2D>
            <source>PBRFULL_Top-material_Base_Color_jpg-surface</source>
          </sampler2D>
        </newparam>
        <technique sid="common">
          <phong>
            <emission>
              <color sid="emission">0 0 0 1</color>
            </emission>
            <ambient>
              <color sid="ambient">0 0 0 1</color>
            </ambient>
            <diffuse>
              <texture texture="PBRFULL_Top-material_Base_Color_jpg-sampler"/>
            </diffuse>
            <specular>
              <color sid="specular">0.5 0.5 0.5 1</color>
            </specular>
            <shininess>
              <float sid="shininess">50</float>
            </shininess>
            <index_of_refraction>
              <float sid="index_of_refraction">1</float>
            </index_of_refraction>
          </phong>
        </technique>
      </profile_COMMON>
    </effect>
  </library_effects>
  <library_materials>
    <material id="PBRFULL_Top-material" name="PBRFULL_Top">
      <instance_effect url="#PBRFULL_Top-effect"/>
    </material>
  </library_materials>
  <library_geometries>
    <geometry id="Top-mesh" name="Top">
      <mesh>
        <source id="Top-mesh-positions">
          <float_array id="Top-mesh-positions-array" count="936">0.01002508 -0.1001179 -0.00259608 0.03666746 -0.1001179 -0.00259608 0.03666746 -0.1001179 -2.99956e-4 0.01002508 -0.1001179 -2.99956e-4 0.03666746 -0.0305866 -0.00259608 0.01002502 -0.0305866 -0.00259608 0.01002502 -0.0305866 -2.99956e-4 0.03666746 -0.0305866 -2.99956e-4 0.03666746 -0.06535232 -0.00259608 0.01002502 -0.06535232 -0.00259608 0.01002502 -0.06535232 -2.99956e-4 0.03666746 -0.06535232 -2.99956e-4 0.01002508 0.100118 -0.00259608 0.03666746 0.1001179 -0.00259608 0.03666746 0.1001179 -2.99956e-4 0.01002508 0.100118 -2.99956e-4 0.03666746 0.03058665 -0.00259608 0.01002502 0.03058665 -0.00259608 0.01002502 0.03058665 -2.99956e-4 0.03666746 0.03058665 -2.99956e-4 0.03666746 0.06535232 -0.00259608 0.01002502 0.06535232 -0.00259608 0.01002502 0.06535232 -2.99956e-4 0.03666746 0.06535232 -2.99956e-4 -0.2139441 -0.05612218 0.00259608 -0.2053169 -0.08392804 0.00259608 -0.06321221 -0.08231443 0.00259608 -0.06321215 -0.05499279 0.00259608 -0.2201886 -0.0276454 0.00259608 -0.06321221 -0.02701205 0.00259608 -0.2211191 0 0.00259608 -0.06321221 1.49052e-4 0.00259608 -0.06321215 -0.1098557 0.00259608 -0.1909756 -0.1119575 0.00259608 -0.01676917 -0.09522795 0.00259608 -0.01676917 -0.06368547 0.00259608 -0.01676917 -0.03138208 0.00259608 -0.01676923 0 0.00259608 -0.01676917 -0.1270241 0.00259608 0.205317 -0.08392798 0.00259608 0.2139441 -0.05612212 0.00259608 0.1071869 -0.06552726 0.00259608 0.1071869 -0.0977202 0.00259608 0.1071869 -0.03235012 0.00259608 0.2201886 -0.0276454 0.00259608 0.1071869 0 0.00259608 0.2211191 0 0.00259608 0.1909756 -0.1119574 0.00259608 0.1071869 -0.1297076 0.00259608 0.1712667 -0.1399869 0.00259608 0.1071869 -0.1608746 0.00259608 0.1537057 -0.1586974 0.00259608 0.1376698 -0.1731711 0.00259608 0.124176 -0.1834081 0.00259608 0.114241 -0.1887305 0.00259608 0.1071869 -0.1903247 0.00259608 0.02046447 -0.0959652 0.00259608 0.02046447 -0.06423032 0.00259608 0.02046453 -0.03166842 0.00259608 0.02046453 0 0.00259608 0.02046447 -0.1278179 0.00259608 0.02046447 -0.1594279 0.00259608 -0.01676917 -0.1588202 0.00259608 0.02046447 -0.1905301 0.00259608 -0.01676917 -0.1906163 0.00259608 0.02582037 -0.03059077 0.00259608 0.02606451 -0.1006523 0.00259608 0.05042904 -0.03050965 0.00259608 0.05042904 0 0.00259608 0.02313452 -0.1056511 0.00259608 0.02313452 -0.1594675 0.00259608 0.02313452 -0.1905243 0.00259608 -0.03168296 -0.1380376 0.00259608 -0.02740126 -0.139357 0.00259608 -0.02355933 -0.1426815 0.00259608 -0.0224452 -0.1461945 0.00259608 -0.0224452 -0.1490671 0.00259608 -0.02355933 -0.1525801 0.00259608 -0.02740126 -0.1559046 0.00259608 -0.03168296 -0.1572239 0.00259608 -0.05529713 -0.1662843 0.00259608 -0.04953414 -0.1692512 0.00259608 -0.07566499 -0.1572239 0.00259608 -0.06321215 -0.1649383 0.00259608 -0.1375411 -0.1648069 0.00259608 -0.08020704 -0.1559046 0.00259608 -0.08020704 -0.139357 0.00259608 -0.07566499 -0.1380376 0.00259608 -0.08378869 -0.1426815 0.00259608 -0.08378869 -0.1525801 0.00259608 -0.1479986 -0.1620815 0.00259608 -0.08490282 -0.1490671 0.00259608 -0.1563453 -0.1567695 0.00259608 -0.1712667 -0.139987 0.00259608 -0.08490282 -0.1461945 0.00259608 -0.04464274 -0.1730149 0.00259608 -0.03527045 -0.1832617 0.00259608 -0.02938485 -0.1875293 0.00259608 -0.02364897 -0.1897266 0.00259608 -0.06321221 -0.08231443 -9.37205e-4 -0.2053169 -0.08392804 -9.37205e-4 -0.2139441 -0.05612218 -9.37205e-4 -0.06321215 -0.05499279 -9.37205e-4 -0.2201886 -0.0276454 -9.37205e-4 -0.06321221 -0.02701205 -9.37205e-4 -0.2211191 0 -9.37205e-4 -0.06321221 1.49052e-4 -9.37205e-4 -0.06321215 -0.1098557 -9.37205e-4 -0.1909756 -0.1119575 -9.37205e-4 -0.01676917 -0.09522795 -9.37205e-4 -0.01676917 -0.06368547 -9.37205e-4 -0.01676917 -0.03138208 -9.37205e-4 -0.01676923 0 -9.37205e-4 -0.01676917 -0.1270241 -9.37205e-4 0.1071869 -0.06552726 -9.37205e-4 0.2139441 -0.05612212 -9.37205e-4 0.205317 -0.08392798 -9.37205e-4 0.1071869 -0.0977202 -9.37205e-4 0.1071869 -0.03235012 -9.37205e-4 0.2201886 -0.0276454 -9.37205e-4 0.1071869 0 -9.37205e-4 0.2211191 0 -9.37205e-4 0.1909756 -0.1119574 -9.37205e-4 0.1071869 -0.1297076 -9.37205e-4 0.1712667 -0.1399869 -9.37205e-4 0.1071869 -0.1608746 -9.37205e-4 0.1537057 -0.1586974 -9.37206e-4 0.1376698 -0.1731711 -9.37207e-4 0.124176 -0.1834081 -9.37207e-4 0.114241 -0.1887305 -9.37206e-4 0.1071869 -0.1903247 -9.37205e-4 0.02046447 -0.0959652 -9.37205e-4 0.02046447 -0.06423032 -9.37205e-4 0.02046453 -0.03166842 -9.37205e-4 0.02046453 0 -9.37205e-4 0.02046447 -0.1278179 -9.37205e-4 0.02046447 -0.1594279 -9.37205e-4 -0.01676917 -0.1588202 -9.37205e-4 0.02046447 -0.1905301 -9.37205e-4 -0.01676917 -0.1906163 -9.37205e-4 0.02606451 -0.1006523 -9.37205e-4 0.02582037 -0.03059077 -9.37205e-4 0.05042904 -0.03050965 -9.37205e-4 0.05042904 0 -9.37205e-4 0.02313452 -0.1056511 -9.37205e-4 0.02313452 -0.1594675 -9.37205e-4 0.02313452 -0.1905243 -9.37205e-4 -0.02740126 -0.139357 -9.37205e-4 -0.03168296 -0.1380376 -9.37205e-4 -0.02355933 -0.1426815 -9.37205e-4 -0.0224452 -0.1461945 -9.37205e-4 -0.0224452 -0.1490671 -9.37205e-4 -0.02355933 -0.1525801 -9.37205e-4 -0.02740126 -0.1559046 -9.37205e-4 -0.03168296 -0.1572239 -9.37205e-4 -0.04953414 -0.1692512 -9.37205e-4 -0.05529713 -0.1662843 -9.37205e-4 -0.07566499 -0.1572239 -9.37205e-4 -0.06321215 -0.1649383 -9.37205e-4 -0.1375411 -0.1648069 -9.37205e-4 -0.08020704 -0.1559046 -9.37205e-4 -0.07566499 -0.1380376 -9.37205e-4 -0.08020704 -0.139357 -9.37205e-4 -0.08378869 -0.1426815 -9.37205e-4 -0.08378869 -0.1525801 -9.37205e-4 -0.1479986 -0.1620815 -9.37205e-4 -0.08490282 -0.1490671 -9.37205e-4 -0.1563453 -0.1567695 -9.37205e-4 -0.1712667 -0.139987 -9.37205e-4 -0.08490282 -0.1461945 -9.37205e-4 -0.04464274 -0.1730149 -9.37205e-4 -0.03527045 -0.1832617 -9.37205e-4 -0.02938485 -0.1875293 -9.37205e-4 -0.02364897 -0.1897266 -9.37205e-4 -0.2139441 0.05612218 0.00259608 -0.06321215 0.05499279 0.00259608 -0.06321221 0.08231443 0.00259608 -0.2053169 0.08392804 0.00259608 -0.2201886 0.0276454 0.00259608 -0.06321221 0.02701205 0.00259608 -0.06321221 -1.49045e-4 0.00259608 -0.06321215 0.1098557 0.00259608 -0.1909756 0.1119575 0.00259608 -0.01676917 0.06368553 0.00259608 -0.01676917 0.09522795 0.00259608 -0.01676917 0.03138208 0.00259608 -0.01676917 0.1270241 0.00259608 0.205317 0.08392798 0.00259608 0.1071869 0.0977202 0.00259608 0.1071869 0.06552726 0.00259608 0.2139441 0.05612212 0.00259608 0.1071869 0.03235012 0.00259608 0.2201886 0.0276454 0.00259608 0.1909756 0.1119575 0.00259608 0.1071869 0.1297076 0.00259608 0.1712667 0.1399869 0.00259608 0.1071869 0.1608746 0.00259608 0.1537057 0.1586974 0.00259608 0.1376698 0.1731711 0.00259608 0.124176 0.1834081 0.00259608 0.114241 0.1887305 0.00259608 0.1071869 0.1903247 0.00259608 0.02046453 0.06423032 0.00259608 0.02046447 0.0959652 0.00259608 0.02046453 0.03166842 0.00259608 0.02046447 0.1278179 0.00259608 0.02046453 0.159428 0.00259608 -0.01676917 0.1588202 0.00259608 0.02046447 0.1905301 0.00259608 -0.01676917 0.1906163 0.00259608 0.02582037 0.03059077 0.00259608 0.02606451 0.1006523 0.00259608 0.05042904 0.03050965 0.00259608 0.02313452 0.1056511 0.00259608 0.02313452 0.1594675 0.00259608 0.02313452 0.1905243 0.00259608 -0.02740126 0.139357 0.00259608 -0.03168296 0.1380376 0.00259608 -0.02355933 0.1426815 0.00259608 -0.0224452 0.1461945 0.00259608 -0.0224452 0.1490671 0.00259608 -0.02355933 0.1525801 0.00259608 -0.02740126 0.1559046 0.00259608 -0.03168296 0.1572239 0.00259608 -0.05529713 0.1662844 0.00259608 -0.04953414 0.1692512 0.00259608 -0.06321215 0.1649383 0.00259608 -0.07566499 0.1572239 0.00259608 -0.1375411 0.1648069 0.00259608 -0.08020704 0.1559046 0.00259608 -0.07566499 0.1380376 0.00259608 -0.08020704 0.139357 0.00259608 -0.08378869 0.1426815 0.00259608 -0.1479986 0.1620815 0.00259608 -0.08378869 0.1525801 0.00259608 -0.1563453 0.1567695 0.00259608 -0.08490282 0.1490671 0.00259608 -0.1712667 0.139987 0.00259608 -0.08490282 0.1461945 0.00259608 -0.04464274 0.1730149 0.00259608 -0.03527045 0.1832617 0.00259608 -0.02938485 0.1875293 0.00259608 -0.02364897 0.1897266 0.00259608 -0.06321221 0.08231443 -9.37205e-4 -0.06321215 0.05499279 -9.37205e-4 -0.2139441 0.05612218 -9.37205e-4 -0.2053169 0.08392804 -9.37205e-4 -0.06321221 0.02701205 -9.37205e-4 -0.2201886 0.0276454 -9.37205e-4 -0.06321221 -1.49045e-4 -9.37205e-4 -0.1909756 0.1119575 -9.37205e-4 -0.06321215 0.1098557 -9.37205e-4 -0.01676917 0.09522795 -9.37205e-4 -0.01676917 0.06368553 -9.37205e-4 -0.01676917 0.03138208 -9.37205e-4 -0.01676917 0.1270241 -9.37205e-4 0.1071869 0.06552726 -9.37205e-4 0.1071869 0.0977202 -9.37205e-4 0.205317 0.08392798 -9.37205e-4 0.2139441 0.05612212 -9.37205e-4 0.2201886 0.0276454 -9.37205e-4 0.1071869 0.03235012 -9.37205e-4 0.1909756 0.1119575 -9.37205e-4 0.1071869 0.1297076 -9.37205e-4 0.1071869 0.1608746 -9.37205e-4 0.1712667 0.1399869 -9.37205e-4 0.1537057 0.1586974 -9.37206e-4 0.1376698 0.1731711 -9.37207e-4 0.124176 0.1834081 -9.37207e-4 0.114241 0.1887305 -9.37206e-4 0.1071869 0.1903247 -9.37205e-4 0.02046447 0.0959652 -9.37205e-4 0.02046453 0.06423032 -9.37205e-4 0.02046453 0.03166842 -9.37205e-4 0.02046447 0.1278179 -9.37205e-4 -0.01676917 0.1588202 -9.37205e-4 0.02046453 0.159428 -9.37205e-4 -0.01676917 0.1906163 -9.37205e-4 0.02046447 0.1905301 -9.37205e-4 0.02582037 0.03059077 -9.37205e-4 0.02606451 0.1006523 -9.37205e-4 0.05042904 0.03050965 -9.37205e-4 0.02313452 0.1056511 -9.37205e-4 0.02313452 0.1594675 -9.37205e-4 0.02313452 0.1905243 -9.37205e-4 -0.02740126 0.139357 -9.37205e-4 -0.03168296 0.1380376 -9.37205e-4 -0.02355933 0.1426815 -9.37205e-4 -0.0224452 0.1461945 -9.37205e-4 -0.0224452 0.1490671 -9.37205e-4 -0.02355933 0.1525801 -9.37205e-4 -0.02740126 0.1559046 -9.37205e-4 -0.03168296 0.1572239 -9.37205e-4 -0.04953414 0.1692512 -9.37205e-4 -0.05529713 0.1662844 -9.37205e-4 -0.07566499 0.1572239 -9.37205e-4 -0.06321215 0.1649383 -9.37205e-4 -0.08020704 0.1559046 -9.37205e-4 -0.1375411 0.1648069 -9.37205e-4 -0.07566499 0.1380376 -9.37205e-4 -0.08020704 0.139357 -9.37205e-4 -0.08378869 0.1426815 -9.37205e-4 -0.08378869 0.1525801 -9.37205e-4 -0.1479986 0.1620815 -9.37205e-4 -0.08490282 0.1490671 -9.37205e-4 -0.1563453 0.1567695 -9.37205e-4 -0.08490282 0.1461945 -9.37205e-4 -0.1712667 0.139987 -9.37205e-4 -0.04464274 0.1730149 -9.37205e-4 -0.03527045 0.1832617 -9.37205e-4 -0.02938485 0.1875293 -9.37205e-4 -0.02364897 0.1897266 -9.37205e-4</float_array>
          <technique_common>
            <accessor source="#Top-mesh-positions-array" count="312" stride="3">
              <param name="X" type="float"/>
              <param name="Y" type="float"/>
              <param name="Z" type="float"/>
            </accessor>
          </technique_common>
        </source>
        <source id="Top-mesh-normals">
          <float_array id="Top-mesh-normals-array" count="867">0 -1 0 0 1 0 0 0 -1 -1 0 0 -1 -1.7318e-6 0 -1 -1.77738e-6 0 1 0 0 0 0 1 -3.63546e-6 -1 0 -3.63546e-6 -1 0 0 0 1 1 -1.7318e-6 0 1 -1.77737e-6 0 0 0 -1 0 0 1 0 0 1 0 0 1 0 0 1 0 0 1 0 0 1 0 0 1 0 0 1 0 0 1 0 0 1 0 0 1 0 0 1 0 0 1 0 0 1 0 0 1 0 0 1 0 0 1 0 0 1 0 0 1 0 0 1 0 0 1 0 0 1 0 0 1 0 0 1 0 0 1 0 0 1 0 0 1 0 0 1 0 0 1 0 0 1 0 0 1 0 0 1 0 0 1 0 0 1 0 0 1 0 0 1 0 0 1 0 0 1 0 0 1 0 0 1 0 0 1 0 0 1 0 0 1 0 0 1 0 0 1 0 0 1 0 0 1 0 0 1 0 0 1 0 0 1 0 0 -1 0 0 -1 0 0 -1 0 0 -1 0 0 -1 0 0 -1 0 0 -1 0 0 -1 0 0 -1 0 0 -1 0 0 -1 0 0 -1 0 0 -1 0 0 -1 0 0 -1 0 0 -1 0 0 -1 -1.52134e-7 0 -1 0 0 -1 0 0 -1 0 0 -1 0 0 -1 0 0 -1 0 0 -1 0 0 -1 0 0 -1 0 0 -1 0 0 -1 0 0 -1 0 0 -1 0 0 -1 0 0 -1 0 0 -1 0 0 -1 0 0 -1 0 0 -1 0 0 -1 0 0 -1 0 0 -1 0 0 -1 0 0 -1 0 0 -1 0 0 -1 0 0 -1 0 0 -1 0 0 -1 0 0 -1 0 0 1 0 0 1 0 0 1 0 0 1 0 0 1 0 0 1 0 0 1 0 0 1 0 0 1 0 0 1 0 0 -1 0 0 -1 0 0 -1 0 0 -1 0 0 -1 0 0 -1 0 0 -1 0 0 -1 0 0 -1 0 0 -1 0 0 -1 0 0 -1 0 0 -1 0 0 -1 -0.9994341 0.03364008 0 -0.9994341 0.03363889 0 -0.9767912 0.214194 0 -0.976791 0.2141951 0 -0.9550855 0.2963307 0 -0.9550854 0.2963307 0 -0.89024 0.4554919 0 -0.8180205 0.5751891 0 -0.8180201 0.5751897 0 -0.1676625 0.9858445 0 -0.4577082 0.8891025 0 -0.4577077 0.8891028 0 -0.6098251 0.7925361 0 -0.609825 0.7925361 0 -0.7378913 0.6749196 0 -0.7378913 0.6749196 0 -0.5870152 0.809576 0 -0.3577343 0.9338235 0 -0.3577345 0.9338234 0 -0.12825 0.991742 0 -0.1282499 0.991742 0 -0.001767754 0.9999985 0 -0.001767754 0.9999985 0 -0.2521937 0.9676768 0 -0.252193 0.967677 0 -0.5369102 0.8436394 0 -0.5369086 0.8436403 0 -0.7473289 0.6644544 0 -0.7473282 0.6644552 0 0.002314746 0.9999974 0 0.002314746 0.9999973 0 -0.9999939 0.003484547 0 -0.9999939 0.003484606 0 -0.8627284 -0.5056677 0 -0.8627284 -0.5056678 0 -0.9994341 -0.03363889 0 -0.9994341 -0.03364008 0 -0.976791 -0.2141951 0 -0.9767912 -0.214194 0 -0.9550854 -0.2963307 0 -0.9550855 -0.2963307 0 -0.89024 -0.4554919 0 -0.8180201 -0.5751897 0 -0.8180205 -0.5751891 0 -0.1676498 -0.9858467 0 -0.4577204 -0.8890963 0 -0.4577209 -0.8890959 0 -0.609825 -0.7925361 0 -0.6098251 -0.7925361 0 -0.7378913 -0.6749196 0 -0.7378913 -0.6749196 0 -0.5870152 -0.809576 0 -0.3577345 -0.9338234 0 -0.3577343 -0.9338235 0 -0.1282499 -0.991742 0 -0.12825 -0.991742 0 -0.001767754 -0.9999985 0 -0.001767754 -0.9999985 0 -0.252193 -0.967677 0 -0.2521937 -0.9676768 0 -0.5369086 -0.8436403 0 -0.5369102 -0.8436394 0 -0.7473282 -0.6644552 0 -0.7473289 -0.6644544 0 0.002314746 -0.9999973 0 0.002314746 -0.9999974 0 -0.9999939 -0.003484606 0 -0.9999939 -0.003484547 0 -0.8627284 0.5056678 0 -0.8627284 0.5056677 0 -0.278953 0.9603048 0 -0.6803074 0.732927 0 -0.9532111 0.3023056 0 -0.9532111 0.3023056 0 0.9532108 0.3023066 0 0.9532108 0.3023066 0 0.6543438 0.7561972 0 0.6543442 0.7561969 0 0.294483 0.9556568 0 0.294483 -0.9556568 0 0.6543425 -0.7561983 0 0.6543421 -0.7561987 0 0.9532112 -0.3023055 0 -0.9532115 -0.3023044 0 -0.6803057 -0.7329285 0 -0.278953 -0.9603048 0 -0.6803074 -0.732927 0 -0.9532111 -0.3023056 0 -0.9532111 -0.3023056 0 0.9532108 -0.3023066 0 0.9532108 -0.3023066 0 0.6543442 -0.7561969 0 0.6543438 -0.7561972 0 0.6543421 0.7561987 0 0.6543425 0.7561983 0 0.9532112 0.3023055 0 -0.9532115 0.3023044 0 -0.6803057 0.7329285 0 0.003296375 0.9999946 0 0.003296375 0.9999946 0 0.003296375 -0.9999946 0 0.003296375 -0.9999946 0 0.0023759 -0.9999973 0 0.0023759 -0.9999972 0 0.2204372 -0.9754012 0 0.2204369 -0.9754012 0 0.4722264 -0.8814774 0 0.472227 -0.8814771 0 0.6043983 -0.7966824 0 0.6043983 -0.7966824 0 0.6700223 -0.7423411 0 0.6700233 -0.74234 0 0.7291498 -0.6843542 0 0.7291496 -0.6843544 0 0.8180205 -0.5751892 0 0.81802 -0.5751898 0 0.8902385 -0.4554948 0 0.890238 -0.4554957 0 0.9994341 -0.03364008 0 0.9994341 -0.03363889 0 0.9767913 -0.2141934 0 0.9767918 -0.2141912 0 0.9550858 -0.2963297 0 0.9550858 -0.2963296 0 0.0023759 0.9999972 0 0.0023759 0.9999973 0 0.2204369 0.9754012 0 0.2204372 0.9754012 0 0.472227 0.8814771 0 0.4722264 0.8814774 0 0.6043983 0.7966824 0 0.6043983 0.7966824 0 0.6700233 0.74234 0 0.6700223 0.7423411 0 0.7291496 0.6843544 0 0.7291498 0.6843542 0 0.818019 0.5751912 0 0.8180195 0.5751905 0 0.8902391 0.4554936 0 0.8902388 0.4554944 0 0.9994341 0.03363889 0 0.9994341 0.03364008 0 0.9767918 0.2141912 0 0.9767913 0.2141934 0 0.9550858 0.2963296 0 0.9550858 0.2963297 0 -1 1.77076e-6 0 -1 1.89724e-6 0 -1 -1.98629e-6 0 -1 -1.85387e-6 0 -1 1.82408e-6 0 -1 1.95437e-6 0 -1 -1.94669e-6 0 -1 -1.81691e-6 0</float_array>
          <technique_common>
            <accessor source="#Top-mesh-normals-array" count="289" stride="3">
              <param name="X" type="float"/>
              <param name="Y" type="float"/>
              <param name="Z" type="float"/>
            </accessor>
          </technique_common>
        </source>
        <source id="Top-mesh-map-0">
          <float_array id="Top-mesh-map-0-array" count="3672">0.2552132 0.5002412 0.2552132 0.5351364 0.2518768 0.5351364 0.2552132 0.5002412 0.2518768 0.5351364 0.2518768 0.5002412 0.2485405 0.5002412 0.2485405 0.5351365 0.2452042 0.5351365 0.2485405 0.5002412 0.2452042 0.5351365 0.2452042 0.5002412 0.07742452 0.5458596 0.07742452 0.5914779 0.03871238 0.5914779 0.07742452 0.5458596 0.03871238 0.5914779 0.03871226 0.5458596 0.03871226 0.5458596 0.03871226 0.5002412 0.07742452 0.5002412 0.03871226 0.5458596 0.07742452 0.5002412 0.07742452 0.5458596 0.2249272 0.5002412 0.2249272 0.5458596 0.2215909 0.5458596 0.2249272 0.5002412 0.2215909 0.5458596 0.2215909 0.5002412 0.2249272 0.5458596 0.2249272 0.5914779 0.2215909 0.5914779 0.2249272 0.5458596 0.2215909 0.5914779 0.2215909 0.5458596 0.2315999 0.5002412 0.2315999 0.5458595 0.2282636 0.5458595 0.2315999 0.5002412 0.2282636 0.5458595 0.2282636 0.5002412 0.2315999 0.5458595 0.2315999 0.5914779 0.2282636 0.5914779 0.2315999 0.5458595 0.2282636 0.5914779 0.2282636 0.5458595 0.1161368 0.5914778 0.1161368 0.5458595 0.1548491 0.5458595 0.1161368 0.5914778 0.1548491 0.5458595 0.1548491 0.5914778 0.1161368 0.5458595 0.1161369 0.5002412 0.1548491 0.5002412 0.1161368 0.5458595 0.1548491 0.5002412 0.1548491 0.5458595 0.2585495 0.5002412 0.2585495 0.5351364 0.2552132 0.5351364 0.2585495 0.5002412 0.2552132 0.5351364 0.2552132 0.5002412 0.2518768 0.5002412 0.2518768 0.5351365 0.2485405 0.5351365 0.2518768 0.5002412 0.2485405 0.5351365 0.2485405 0.5002412 0.1161368 0.5458595 0.1161368 0.5914778 0.07742464 0.5914779 0.1161368 0.5458595 0.07742464 0.5914779 0.07742452 0.5458595 0.07742452 0.5458595 0.07742452 0.5002412 0.1161368 0.5002412 0.07742452 0.5458595 0.1161368 0.5002412 0.1161368 0.5458595 0.2282635 0.5002412 0.2282636 0.5458595 0.2249272 0.5458595 0.2282635 0.5002412 0.2249272 0.5458595 0.2249272 0.5002412 0.2282636 0.5458595 0.2282636 0.5914779 0.2249272 0.5914779 0.2282636 0.5458595 0.2249272 0.5914779 0.2249272 0.5458595 0.2349362 0.5002412 0.2349362 0.5458595 0.2315999 0.5458595 0.2349362 0.5002412 0.2315999 0.5458595 0.2315999 0.5002412 0.2349362 0.5458595 0.2349362 0.5914778 0.2315999 0.5914778 0.2349362 0.5458595 0.2315999 0.5914778 0.2315999 0.5458595 0 0.5914779 0 0.5458596 0.03871226 0.5458596 0 0.5914779 0.03871226 0.5458596 0.03871226 0.5914779 0 0.5458596 0 0.5002412 0.0387122 0.5002413 0 0.5458596 0.0387122 0.5002413 0.03871226 0.5458596 0.3614531 0.1764788 0.3739886 0.1399928 0.5804706 0.1421102 0.3614531 0.1764788 0.5804706 0.1421102 0.5804706 0.1779608 0.3523796 0.213845 0.3614531 0.1764788 0.5804706 0.1779608 0.3523796 0.213845 0.5804706 0.1779608 0.5804705 0.2146762 0.3510276 0.2501205 0.3523796 0.213845 0.5804705 0.2146762 0.3510276 0.2501205 0.5804705 0.2146762 0.5804705 0.2503162 0.5804706 0.1059714 0.5804706 0.1421102 0.3739886 0.1399928 0.5804706 0.1059714 0.3739886 0.1399928 0.3948269 0.1032135 0.5804706 0.1779608 0.5804706 0.1421102 0.6479535 0.1251655 0.5804706 0.1779608 0.6479535 0.1251655 0.6479535 0.1665545 0.5804705 0.2146762 0.5804706 0.1779608 0.6479535 0.1665545 0.5804705 0.2146762 0.6479535 0.1665545 0.6479535 0.208942 0.5804705 0.2503162 0.5804705 0.2146762 0.6479535 0.208942 0.5804705 0.2503162 0.6479535 0.208942 0.6479534 0.2501206 0.6479535 0.08344364 0.6479535 0.1251655 0.5804706 0.1421102 0.6479535 0.08344364 0.5804706 0.1421102 0.5804706 0.1059714 0.725016 0.8601276 0.7124805 0.8236417 0.8676017 0.8359828 0.725016 0.8601276 0.8676017 0.8359828 0.8676017 0.8782253 0.8676017 0.7924488 0.8676017 0.8359828 0.7124805 0.8236417 0.8676017 0.7924488 0.7124805 0.8236417 0.7034072 0.7862755 0.8676017 0.75 0.8676017 0.7924488 0.7034072 0.7862755 0.8676017 0.75 0.7034072 0.7862755 0.7020552 0.75 0.7458544 0.8969069 0.725016 0.8601276 0.8676017 0.8782253 0.7458544 0.8969069 0.8676017 0.8782253 0.8676017 0.9201982 0.774492 0.9336864 0.7458544 0.8969069 0.8676017 0.9201982 0.774492 0.9336864 0.8676017 0.9201982 0.8676017 0.9610945 0.774492 0.9336864 0.8676017 0.9610945 0.8000087 0.9582377 0.8000087 0.9582377 0.8676017 0.9610945 0.8233093 0.9772295 0.8233093 0.9772295 0.8676017 0.9610945 0.8429161 0.9906622 0.8429161 0.9906622 0.8676017 0.9610945 0.8573519 0.9976461 0.8573519 0.9976461 0.8676017 0.9610945 0.8676017 0.999738 0.6479535 0.1665545 0.6479535 0.1251655 0.702055 0.1241981 0.6479535 0.1665545 0.702055 0.1241981 0.702055 0.1658396 0.6479535 0.208942 0.6479535 0.1665545 0.702055 0.1658396 0.6479535 0.208942 0.702055 0.1658396 0.7020552 0.2085663 0.6479534 0.2501206 0.6479535 0.208942 0.7020552 0.2085663 0.6479534 0.2501206 0.7020552 0.2085663 0.7020552 0.2501206 0.702055 0.08240199 0.702055 0.1241981 0.6479535 0.1251655 0.702055 0.08240199 0.6479535 0.1251655 0.6479535 0.08344364 0.702055 0.04092437 0.702055 0.08240199 0.6479535 0.08344364 0.702055 0.04092437 0.6479535 0.08344364 0.6479535 0.04172182 0.7020551 1.13094e-4 0.702055 0.04092437 0.6479535 0.04172182 0.7020551 1.13094e-4 0.6479535 0.04172182 0.6479535 0 0.9858294 0.7901402 0.9854747 0.8820727 0.8676017 0.8782253 0.9858294 0.7901402 0.8676017 0.8782253 0.8676017 0.8359828 0.9500723 0.7900338 0.9858294 0.7901402 0.8676017 0.8359828 0.9500723 0.7900338 0.8676017 0.8359828 0.8676017 0.7924488 0.9500723 0.75 0.9500723 0.7900338 0.8676017 0.7924488 0.9500723 0.75 0.8676017 0.7924488 0.8676017 0.75 0.8676017 0.9201982 0.8676017 0.8782253 0.9854747 0.8820727 0.8676017 0.9201982 0.9854747 0.8820727 0.989732 0.888632 0.8676017 0.9610945 0.8676017 0.9201982 0.989732 0.888632 0.8676017 0.9610945 0.989732 0.888632 0.989732 0.9592481 0.8676017 0.999738 0.8676017 0.9610945 0.989732 0.9592481 0.8676017 0.999738 0.989732 0.9592481 0.989732 1 0.6479535 0.08344364 0.6262833 0.06899201 0.6325047 0.0672608 0.6479535 0.08344364 0.6325047 0.0672608 0.6380872 0.06289851 0.6479535 0.08344364 0.6380872 0.06289851 0.6397061 0.05828881 0.6479535 0.08344364 0.6397061 0.05828881 0.6397061 0.05451947 0.6479535 0.08344364 0.6397061 0.05451947 0.6479535 0.04172182 0.6479535 0.04172182 0.6397061 0.05451947 0.6380872 0.04990983 0.6479535 0.04172182 0.6380872 0.04990983 0.6325047 0.04554754 0.6479535 0.04172182 0.6325047 0.04554754 0.6262833 0.04381626 0.5919713 0.03192764 0.6003451 0.02803456 0.6262833 0.04381626 0.5919713 0.03192764 0.6262833 0.04381626 0.5623763 0.04381626 0.5919713 0.03192764 0.5623763 0.04381626 0.5804706 0.03369379 0.4724687 0.03386622 0.5804706 0.03369379 0.5623763 0.04381626 0.4724687 0.03386622 0.5623763 0.04381626 0.5557766 0.04554754 0.5804706 0.1059714 0.5557766 0.06726074 0.5623763 0.06899201 0.5804706 0.1059714 0.5623763 0.06899201 0.6262833 0.06899201 0.5804706 0.1059714 0.6262833 0.06899201 0.6479535 0.08344364 0.3948269 0.1032135 0.5505723 0.06289845 0.5557766 0.06726074 0.3948269 0.1032135 0.5557766 0.06726074 0.5804706 0.1059714 0.4724687 0.03386622 0.5557766 0.04554754 0.5505723 0.04990983 0.4724687 0.03386622 0.5505723 0.04990983 0.4572737 0.03744238 0.4572737 0.03744238 0.5505723 0.04990983 0.5489535 0.05451947 0.4572737 0.03744238 0.5489535 0.05451947 0.4451457 0.04441261 0.4234645 0.06643408 0.4451457 0.04441261 0.5489535 0.05451947 0.4234645 0.06643408 0.5489535 0.05451947 0.5489535 0.05828881 0.3948269 0.1032135 0.4234645 0.06643408 0.5489535 0.05828881 0.3948269 0.1032135 0.5489535 0.05828881 0.5505723 0.06289845 0.6003451 0.02803456 0.6074524 0.02309596 0.6262833 0.04381626 0.6074524 0.02309596 0.6210707 0.009650409 0.6262833 0.04381626 0.6210707 0.009650409 0.6296226 0.004050612 0.6262833 0.04381626 0.6296226 0.004050612 0.6379569 0.001167416 0.6262833 0.04381626 0.6479535 0 0.6262833 0.04381626 0.6379569 0.001167416 0.6479535 0 0.6479535 0.04172182 0.6262833 0.04381626 0.2294429 0.3581309 0.02296096 0.3602482 0.01042538 0.3237623 0.2294429 0.3581309 0.01042538 0.3237623 0.229443 0.3222804 0.229443 0.3222804 0.01042538 0.3237623 0.001352012 0.286396 0.229443 0.3222804 0.001352012 0.286396 0.2294429 0.2855649 0.2294429 0.2855649 0.001352012 0.286396 0 0.2501206 0.2294429 0.2855649 0 0.2501206 0.2294429 0.249925 0.02296096 0.3602482 0.2294429 0.3581309 0.229443 0.3942697 0.02296096 0.3602482 0.229443 0.3942697 0.04379928 0.3970276 0.2969259 0.3750756 0.2294429 0.3581309 0.229443 0.3222804 0.2969259 0.3750756 0.229443 0.3222804 0.2969259 0.3336866 0.2969259 0.3336866 0.229443 0.3222804 0.2294429 0.2855649 0.2969259 0.3336866 0.2294429 0.2855649 0.2969259 0.2912991 0.2969259 0.2912991 0.2294429 0.2855649 0.2294429 0.249925 0.2969259 0.2912991 0.2294429 0.249925 0.2969258 0.2501206 0.2294429 0.3581309 0.2969259 0.3750756 0.2969259 0.4167975 0.2294429 0.3581309 0.2969259 0.4167975 0.229443 0.3942697 0.8676017 0.1640172 0.7124805 0.1763583 0.7250161 0.1398723 0.8676017 0.1640172 0.7250161 0.1398723 0.8676017 0.1217747 0.7124805 0.1763583 0.8676017 0.1640172 0.8676017 0.2075511 0.7124805 0.1763583 0.8676017 0.2075511 0.7034072 0.2137244 0.7034072 0.2137244 0.8676017 0.2075511 0.8676017 0.25 0.7034072 0.2137244 0.8676017 0.25 0.7020552 0.25 0.7458545 0.103093 0.8676017 0.07980179 0.8676017 0.1217747 0.7458545 0.103093 0.8676017 0.1217747 0.7250161 0.1398723 0.8676017 0.07980179 0.7458545 0.103093 0.7744921 0.06631362 0.8676017 0.07980179 0.7744921 0.06631362 0.8676018 0.03890544 0.8676018 0.03890544 0.7744921 0.06631362 0.8000087 0.04176229 0.8676018 0.03890544 0.8000087 0.04176229 0.8233093 0.0227704 0.8676018 0.03890544 0.8233093 0.0227704 0.8429161 0.009337723 0.8676018 0.03890544 0.8429161 0.009337723 0.857352 0.002353847 0.8676018 0.03890544 0.857352 0.002353847 0.8676018 2.62008e-4 0.3510274 0.376043 0.2969259 0.3750756 0.2969259 0.3336866 0.3510274 0.376043 0.2969259 0.3336866 0.3510274 0.3344016 0.3510274 0.3344016 0.2969259 0.3336866 0.2969259 0.2912991 0.3510274 0.3344016 0.2969259 0.2912991 0.3510276 0.2916749 0.3510276 0.2916749 0.2969259 0.2912991 0.2969258 0.2501206 0.3510276 0.2916749 0.2969258 0.2501206 0.3510276 0.2501206 0.2969259 0.3750756 0.3510274 0.376043 0.3510274 0.4178391 0.2969259 0.3750756 0.3510274 0.4178391 0.2969259 0.4167975 0.2969259 0.4167975 0.3510274 0.4178391 0.3510274 0.4593167 0.2969259 0.4167975 0.3510274 0.4593167 0.2969259 0.4585193 0.2969259 0.4585193 0.3510274 0.4593167 0.3510274 0.5001281 0.2969259 0.4585193 0.3510274 0.5001281 0.2969259 0.5002412 0.8676017 0.1217747 0.9854747 0.1179273 0.9858294 0.2098597 0.8676017 0.1217747 0.9858294 0.2098597 0.8676017 0.1640172 0.8676017 0.1640172 0.9858294 0.2098597 0.9500723 0.2099662 0.8676017 0.1640172 0.9500723 0.2099662 0.8676017 0.2075511 0.8676017 0.2075511 0.9500723 0.2099662 0.9500723 0.25 0.8676017 0.2075511 0.9500723 0.25 0.8676017 0.25 0.9854747 0.1179273 0.8676017 0.1217747 0.8676017 0.07980179 0.9854747 0.1179273 0.8676017 0.07980179 0.989732 0.111368 0.989732 0.111368 0.8676017 0.07980179 0.8676018 0.03890544 0.989732 0.111368 0.8676018 0.03890544 0.989732 0.04075181 0.989732 0.04075181 0.8676018 0.03890544 0.8676018 2.62008e-4 0.989732 0.04075181 0.8676018 2.62008e-4 0.989732 0 0.2814771 0.4329804 0.2752557 0.4312491 0.2969259 0.4167975 0.2870596 0.4373427 0.2814771 0.4329804 0.2969259 0.4167975 0.2886785 0.4419523 0.2870596 0.4373427 0.2969259 0.4167975 0.2886785 0.4457216 0.2886785 0.4419523 0.2969259 0.4167975 0.2886785 0.4457216 0.2969259 0.4167975 0.2969259 0.4585193 0.2886785 0.4457216 0.2969259 0.4585193 0.2870596 0.4503313 0.2870596 0.4503313 0.2969259 0.4585193 0.2814771 0.4546936 0.2814771 0.4546936 0.2969259 0.4585193 0.2752557 0.4564248 0.2493175 0.4722065 0.2409436 0.4683135 0.2752557 0.4564248 0.2113487 0.4564248 0.2752557 0.4564248 0.2409436 0.4683135 0.2113487 0.4564248 0.2409436 0.4683135 0.229443 0.4665473 0.2113487 0.4564248 0.229443 0.4665473 0.1214411 0.4663749 0.2113487 0.4564248 0.1214411 0.4663749 0.2047489 0.4546936 0.2113487 0.4312491 0.2047489 0.4329804 0.229443 0.3942697 0.2752557 0.4312491 0.2113487 0.4312491 0.229443 0.3942697 0.2752557 0.4312491 0.229443 0.3942697 0.2969259 0.4167975 0.2047489 0.4329804 0.1995447 0.4373427 0.04379928 0.3970276 0.2047489 0.4329804 0.04379928 0.3970276 0.229443 0.3942697 0.1995447 0.4503313 0.2047489 0.4546936 0.1214411 0.4663749 0.1995447 0.4503313 0.1214411 0.4663749 0.106246 0.4627987 0.1979259 0.4457216 0.1995447 0.4503313 0.106246 0.4627987 0.1979259 0.4457216 0.106246 0.4627987 0.09411799 0.4558284 0.1979259 0.4457216 0.09411799 0.4558284 0.0724368 0.433807 0.1979259 0.4457216 0.0724368 0.433807 0.1979259 0.4419523 0.1979259 0.4419523 0.0724368 0.433807 0.04379928 0.3970276 0.1979259 0.4419523 0.04379928 0.3970276 0.1995447 0.4373427 0.2564248 0.4771451 0.2493175 0.4722065 0.2752557 0.4564248 0.270043 0.4905907 0.2564248 0.4771451 0.2752557 0.4564248 0.278595 0.4961905 0.270043 0.4905907 0.2752557 0.4564248 0.2869293 0.4990738 0.278595 0.4961905 0.2752557 0.4564248 0.2752557 0.4564248 0.2969259 0.5002412 0.2869293 0.4990738 0.2969259 0.4585193 0.2969259 0.5002412 0.2752557 0.4564248 0.361453 0.3237623 0.5804706 0.3222804 0.5804705 0.3581309 0.361453 0.3237623 0.5804705 0.3581309 0.3739886 0.3602482 0.3523796 0.286396 0.5804705 0.2855649 0.5804706 0.3222804 0.3523796 0.286396 0.5804706 0.3222804 0.361453 0.3237623 0.3510276 0.2501205 0.5804705 0.249925 0.5804705 0.2855649 0.3510276 0.2501205 0.5804705 0.2855649 0.3523796 0.286396 0.5804706 0.3942697 0.3948268 0.3970276 0.3739886 0.3602482 0.5804706 0.3942697 0.3739886 0.3602482 0.5804705 0.3581309 0.5804706 0.3222804 0.6479535 0.3336867 0.6479535 0.3750756 0.5804706 0.3222804 0.6479535 0.3750756 0.5804705 0.3581309 0.5804705 0.2855649 0.6479535 0.2912991 0.6479535 0.3336867 0.5804705 0.2855649 0.6479535 0.3336867 0.5804706 0.3222804 0.5804705 0.249925 0.6479534 0.2501206 0.6479535 0.2912991 0.5804705 0.249925 0.6479535 0.2912991 0.5804705 0.2855649 0.6479535 0.4167975 0.5804706 0.3942697 0.5804705 0.3581309 0.6479535 0.4167975 0.5804705 0.3581309 0.6479535 0.3750756 0.725016 0.6398724 0.8676017 0.6217747 0.8676017 0.6640173 0.725016 0.6398724 0.8676017 0.6640173 0.7124805 0.6763584 0.8676017 0.7075513 0.7034072 0.7137246 0.7124805 0.6763584 0.8676017 0.7075513 0.7124805 0.6763584 0.8676017 0.6640173 0.8676017 0.75 0.7020552 0.75 0.7034072 0.7137246 0.8676017 0.75 0.7034072 0.7137246 0.8676017 0.7075513 0.8676017 0.6217747 0.725016 0.6398724 0.7458544 0.603093 0.8676017 0.6217747 0.7458544 0.603093 0.8676017 0.5798019 0.774492 0.5663138 0.8676017 0.5389055 0.8676017 0.5798019 0.774492 0.5663138 0.8676017 0.5798019 0.7458544 0.603093 0.774492 0.5663138 0.8000087 0.5417624 0.8676017 0.5389055 0.8000087 0.5417624 0.8233092 0.5227705 0.8676017 0.5389055 0.8233092 0.5227705 0.8429161 0.5093378 0.8676017 0.5389055 0.8429161 0.5093378 0.8573519 0.5023539 0.8676017 0.5389055 0.8573519 0.5023539 0.8676017 0.500262 0.8676017 0.5389055 0.6479535 0.3336867 0.7020552 0.3344016 0.702055 0.376043 0.6479535 0.3336867 0.702055 0.376043 0.6479535 0.3750756 0.6479535 0.2912991 0.7020552 0.2916749 0.7020552 0.3344016 0.6479535 0.2912991 0.7020552 0.3344016 0.6479535 0.3336867 0.6479534 0.2501206 0.7020552 0.2501206 0.7020552 0.2916749 0.6479534 0.2501206 0.7020552 0.2916749 0.6479535 0.2912991 0.702055 0.4178391 0.6479535 0.4167975 0.6479535 0.3750756 0.702055 0.4178391 0.6479535 0.3750756 0.702055 0.376043 0.7020551 0.4593169 0.6479535 0.4585193 0.6479535 0.4167975 0.7020551 0.4593169 0.6479535 0.4167975 0.702055 0.4178391 0.702055 0.5001281 0.6479535 0.5002412 0.6479535 0.4585193 0.702055 0.5001281 0.6479535 0.4585193 0.7020551 0.4593169 0.9858294 0.7098598 0.8676017 0.6640173 0.8676017 0.6217747 0.9858294 0.7098598 0.8676017 0.6217747 0.9854747 0.6179273 0.9500723 0.7099663 0.8676017 0.7075513 0.8676017 0.6640173 0.9500723 0.7099663 0.8676017 0.6640173 0.9858294 0.7098598 0.9500723 0.75 0.8676017 0.75 0.8676017 0.7075513 0.9500723 0.75 0.8676017 0.7075513 0.9500723 0.7099663 0.8676017 0.5798019 0.989732 0.611368 0.9854747 0.6179273 0.8676017 0.5798019 0.9854747 0.6179273 0.8676017 0.6217747 0.8676017 0.5389055 0.9897319 0.5407519 0.989732 0.611368 0.8676017 0.5389055 0.989732 0.611368 0.8676017 0.5798019 0.8676017 0.500262 0.9897319 0.5 0.9897319 0.5407519 0.8676017 0.500262 0.9897319 0.5407519 0.8676017 0.5389055 0.6479535 0.4167975 0.6325047 0.4329804 0.6262832 0.4312491 0.6479535 0.4167975 0.6380872 0.4373427 0.6325047 0.4329804 0.6479535 0.4167975 0.6397061 0.4419523 0.6380872 0.4373427 0.6479535 0.4167975 0.6479535 0.4585193 0.6397061 0.4457216 0.6479535 0.4167975 0.6397061 0.4457216 0.6397061 0.4419523 0.6479535 0.4585193 0.6380872 0.4503313 0.6397061 0.4457216 0.6479535 0.4585193 0.6325047 0.4546936 0.6380872 0.4503313 0.6479535 0.4585193 0.6262832 0.4564248 0.6325047 0.4546936 0.5919712 0.4683136 0.6262832 0.4564248 0.6003451 0.4722065 0.5919712 0.4683136 0.5804706 0.4665473 0.5623763 0.4564248 0.5919712 0.4683136 0.5623763 0.4564248 0.6262832 0.4564248 0.4724686 0.4663749 0.5557765 0.4546936 0.5623763 0.4564248 0.4724686 0.4663749 0.5623763 0.4564248 0.5804706 0.4665473 0.5804706 0.3942697 0.5623763 0.4312491 0.5557765 0.4329804 0.5804706 0.3942697 0.6479535 0.4167975 0.6262832 0.4312491 0.5804706 0.3942697 0.6262832 0.4312491 0.5623763 0.4312491 0.3948268 0.3970276 0.5804706 0.3942697 0.5557765 0.4329804 0.3948268 0.3970276 0.5557765 0.4329804 0.5505723 0.4373427 0.4724686 0.4663749 0.4572736 0.4627987 0.5505723 0.4503313 0.4724686 0.4663749 0.5505723 0.4503313 0.5557765 0.4546936 0.4572736 0.4627987 0.4451456 0.4558284 0.5489535 0.4457216 0.4572736 0.4627987 0.5489535 0.4457216 0.5505723 0.4503313 0.4234644 0.433807 0.5489535 0.4419523 0.5489535 0.4457216 0.4234644 0.433807 0.5489535 0.4457216 0.4451456 0.4558284 0.3948268 0.3970276 0.5505723 0.4373427 0.5489535 0.4419523 0.3948268 0.3970276 0.5489535 0.4419523 0.4234644 0.433807 0.6003451 0.4722065 0.6262832 0.4564248 0.6074523 0.4771451 0.6074523 0.4771451 0.6262832 0.4564248 0.6210706 0.4905907 0.6210706 0.4905907 0.6262832 0.4564248 0.6296226 0.4961905 0.6296226 0.4961905 0.6262832 0.4564248 0.6379569 0.4990738 0.6479535 0.5002412 0.6379569 0.4990738 0.6262832 0.4564248 0.6479535 0.5002412 0.6262832 0.4564248 0.6479535 0.4585193 0.2294429 0.1421102 0.229443 0.1779608 0.01042544 0.1764788 0.2294429 0.1421102 0.01042544 0.1764788 0.02296102 0.1399928 0.229443 0.1779608 0.2294429 0.2146762 0.001352012 0.2138451 0.229443 0.1779608 0.001352012 0.2138451 0.01042544 0.1764788 0.2294429 0.2146762 0.2294429 0.2503162 0 0.2501206 0.2294429 0.2146762 0 0.2501206 0.001352012 0.2138451 0.02296102 0.1399928 0.04379928 0.1032135 0.229443 0.1059714 0.02296102 0.1399928 0.229443 0.1059714 0.2294429 0.1421102 0.2969259 0.1251655 0.2969259 0.1665545 0.229443 0.1779608 0.2969259 0.1251655 0.229443 0.1779608 0.2294429 0.1421102 0.2969259 0.1665545 0.2969259 0.208942 0.2294429 0.2146762 0.2969259 0.1665545 0.2294429 0.2146762 0.229443 0.1779608 0.2969259 0.208942 0.2969258 0.2501206 0.2294429 0.2503162 0.2969259 0.208942 0.2294429 0.2503162 0.2294429 0.2146762 0.2294429 0.1421102 0.229443 0.1059714 0.2969259 0.08344364 0.2294429 0.1421102 0.2969259 0.08344364 0.2969259 0.1251655 0.8676017 0.3359827 0.8676017 0.3782253 0.725016 0.3601276 0.8676017 0.3359827 0.725016 0.3601276 0.7124805 0.3236416 0.7124805 0.3236416 0.7034072 0.2862755 0.8676017 0.2924488 0.7124805 0.3236416 0.8676017 0.2924488 0.8676017 0.3359827 0.7034072 0.2862755 0.7020552 0.25 0.8676017 0.25 0.7034072 0.2862755 0.8676017 0.25 0.8676017 0.2924488 0.7458544 0.396907 0.725016 0.3601276 0.8676017 0.3782253 0.7458544 0.396907 0.8676017 0.3782253 0.8676017 0.4201981 0.8676017 0.4201981 0.8676016 0.4610944 0.774492 0.4336863 0.8676017 0.4201981 0.774492 0.4336863 0.7458544 0.396907 0.8676016 0.4610944 0.8000086 0.4582376 0.774492 0.4336863 0.8676016 0.4610944 0.8233092 0.4772295 0.8000086 0.4582376 0.8676016 0.4610944 0.842916 0.4906622 0.8233092 0.4772295 0.8676016 0.4610944 0.8573518 0.497646 0.842916 0.4906622 0.8676016 0.4610944 0.8676016 0.4997379 0.8573518 0.497646 0.3510275 0.1241981 0.3510276 0.1658396 0.2969259 0.1665545 0.3510275 0.1241981 0.2969259 0.1665545 0.2969259 0.1251655 0.3510276 0.1658396 0.3510276 0.2085663 0.2969259 0.208942 0.3510276 0.1658396 0.2969259 0.208942 0.2969259 0.1665545 0.3510276 0.2085663 0.3510276 0.2501206 0.2969258 0.2501206 0.3510276 0.2085663 0.2969258 0.2501206 0.2969259 0.208942 0.2969259 0.1251655 0.2969259 0.08344364 0.3510275 0.08240199 0.2969259 0.1251655 0.3510275 0.08240199 0.3510275 0.1241981 0.2969259 0.08344364 0.2969259 0.04172182 0.3510276 0.04092425 0.2969259 0.08344364 0.3510276 0.04092425 0.3510275 0.08240199 0.2969259 0.04172182 0.2969259 0 0.3510275 1.13094e-4 0.2969259 0.04172182 0.3510275 1.13094e-4 0.3510276 0.04092425 0.8676017 0.3782253 0.8676017 0.3359827 0.9858294 0.2901402 0.8676017 0.3782253 0.9858294 0.2901402 0.9854747 0.3820727 0.8676017 0.3359827 0.8676017 0.2924488 0.9500723 0.2900338 0.8676017 0.3359827 0.9500723 0.2900338 0.9858294 0.2901402 0.8676017 0.2924488 0.8676017 0.25 0.9500723 0.25 0.8676017 0.2924488 0.9500723 0.25 0.9500723 0.2900338 0.9854747 0.3820727 0.9897319 0.3886319 0.8676017 0.4201981 0.9854747 0.3820727 0.8676017 0.4201981 0.8676017 0.3782253 0.9897319 0.3886319 0.9897319 0.4592481 0.8676016 0.4610944 0.9897319 0.3886319 0.8676016 0.4610944 0.8676017 0.4201981 0.9897319 0.4592481 0.9897319 0.5 0.8676016 0.4997379 0.9897319 0.4592481 0.8676016 0.4997379 0.8676016 0.4610944 0.2814771 0.0672608 0.2969259 0.08344364 0.2752557 0.06899201 0.2870596 0.06289851 0.2969259 0.08344364 0.2814771 0.0672608 0.2886785 0.05828881 0.2969259 0.08344364 0.2870596 0.06289851 0.2886785 0.05451947 0.2969259 0.04172182 0.2969259 0.08344364 0.2886785 0.05451947 0.2969259 0.08344364 0.2886785 0.05828881 0.2886785 0.05451947 0.2870596 0.04990983 0.2969259 0.04172182 0.2870596 0.04990983 0.2814771 0.04554754 0.2969259 0.04172182 0.2814771 0.04554754 0.2752557 0.04381626 0.2969259 0.04172182 0.2493175 0.02803456 0.2752557 0.04381626 0.2409437 0.03192746 0.2113487 0.04381626 0.229443 0.03369379 0.2409437 0.03192746 0.2113487 0.04381626 0.2409437 0.03192746 0.2752557 0.04381626 0.2113487 0.04381626 0.204749 0.04554754 0.1214411 0.03386622 0.2113487 0.04381626 0.1214411 0.03386622 0.229443 0.03369379 0.2113487 0.06899201 0.229443 0.1059714 0.204749 0.06726074 0.2752557 0.06899201 0.2969259 0.08344364 0.229443 0.1059714 0.2752557 0.06899201 0.229443 0.1059714 0.2113487 0.06899201 0.204749 0.06726074 0.229443 0.1059714 0.04379928 0.1032135 0.204749 0.06726074 0.04379928 0.1032135 0.1995447 0.06289845 0.1995447 0.04990983 0.106246 0.03744238 0.1214411 0.03386622 0.1995447 0.04990983 0.1214411 0.03386622 0.204749 0.04554754 0.1979259 0.05451947 0.09411811 0.04441261 0.106246 0.03744238 0.1979259 0.05451947 0.106246 0.03744238 0.1995447 0.04990983 0.1979259 0.05451947 0.1979259 0.05828881 0.07243686 0.06643408 0.1979259 0.05451947 0.07243686 0.06643408 0.09411811 0.04441261 0.1979259 0.05828881 0.1995447 0.06289845 0.04379928 0.1032135 0.1979259 0.05828881 0.04379928 0.1032135 0.07243686 0.06643408 0.2564248 0.02309596 0.2752557 0.04381626 0.2493175 0.02803456 0.2700431 0.009650409 0.2752557 0.04381626 0.2564248 0.02309596 0.278595 0.004050612 0.2752557 0.04381626 0.2700431 0.009650409 0.2869293 0.001167416 0.2752557 0.04381626 0.278595 0.004050612 0.2752557 0.04381626 0.2869293 0.001167416 0.2969259 0 0.2969259 0.04172182 0.2752557 0.04381626 0.2969259 0 0.994866 0.6221833 0.994866 0.5859078 1 0.5859078 0.994866 0.6221833 1 0.5859078 1 0.6221833 0.994866 0.5859078 0.994866 0.5485416 1 0.5485416 0.994866 0.5859078 1 0.5485416 1 0.5859078 0.994866 0.5485416 0.994866 0.5120556 1 0.5120556 0.994866 0.5485416 1 0.5120556 1 0.5485416 0.994866 0.5120556 0.994866 0.4752762 1 0.4752762 0.994866 0.5120556 1 0.4752762 1 0.5120556 0.994866 0.4384968 1 0.4384968 1 0.4752762 0.994866 0.4384968 1 0.4752762 0.994866 0.4752762 0.180519 0.6228722 0.180519 0.6333459 0.1753851 0.6333459 0.180519 0.6228722 0.1753851 0.6333459 0.1753851 0.6228722 0.180519 0.6333459 0.180519 0.6411297 0.1753851 0.6411297 0.180519 0.6333459 0.1753851 0.6411297 0.1753851 0.6333459 0.180519 0.6411297 0.180519 0.6478351 0.1753851 0.6478351 0.180519 0.6411297 0.1753851 0.6478351 0.1753851 0.6411297 0.2585495 0.5136867 0.2585495 0.5002412 0.2636834 0.5002412 0.2585495 0.5136867 0.2636834 0.5002412 0.2636834 0.5136867 0.2113229 0.573818 0.2113229 0.5657703 0.2164568 0.5657703 0.2113229 0.573818 0.2164568 0.5657703 0.2164568 0.573818 0.2113229 0.5657703 0.2113229 0.5580832 0.2164568 0.5580832 0.2113229 0.5657703 0.2164568 0.5580832 0.2164568 0.5657703 0.2113229 0.5580832 0.2113229 0.5490016 0.2164568 0.5490016 0.2113229 0.5580832 0.2164568 0.5490016 0.2164568 0.5580832 0.180519 0.5255086 0.180519 0.6228722 0.1753851 0.6228722 0.180519 0.5255086 0.1753851 0.6228722 0.1753851 0.5255086 0.180519 0.5115953 0.180519 0.5255086 0.1753851 0.5255086 0.180519 0.5115953 0.1753851 0.5255086 0.1753851 0.5115953 0.180519 0.5002412 0.180519 0.5115953 0.1753851 0.5115953 0.180519 0.5002412 0.1753851 0.5115953 0.1753851 0.5002412 0.994866 0.4384968 0.994866 0.4164753 1 0.4164753 0.994866 0.4384968 1 0.4164753 1 0.4384968 0.2113229 0.5490016 0.2113229 0.5002412 0.2164568 0.5002412 0.2113229 0.5490016 0.2164568 0.5002412 0.2164568 0.5490016 0.1548491 0.710101 0.1548491 0.6181685 0.159983 0.6181685 0.1548491 0.710101 0.159983 0.6181685 0.159983 0.710101 0.190787 0.540275 0.185653 0.540275 0.185653 0.5002412 0.190787 0.540275 0.185653 0.5002412 0.190787 0.5002412 0.1548491 0.6181685 0.1548491 0.6116092 0.159983 0.6116092 0.1548491 0.6181685 0.159983 0.6116092 0.159983 0.6181685 0.1548491 0.6116092 0.1548491 0.540993 0.159983 0.540993 0.1548491 0.6116092 0.159983 0.540993 0.159983 0.6116092 0.1548491 0.540993 0.1548491 0.5002412 0.159983 0.5002412 0.1548491 0.540993 0.159983 0.5002412 0.159983 0.540993 0.994866 0.6221833 1 0.6221833 1 0.6584588 0.994866 0.6221833 1 0.6584588 0.9948661 0.6584588 0.9948661 0.6584588 1 0.6584588 1 0.695825 0.9948661 0.6584588 1 0.695825 0.994866 0.695825 0.994866 0.695825 1 0.695825 1 0.732311 0.994866 0.695825 1 0.732311 0.9948661 0.732311 0.9948661 0.732311 1 0.732311 1 0.7690904 0.9948661 0.732311 1 0.7690904 0.9948661 0.7690904 0.994866 0.8058698 0.9948661 0.7690904 1 0.7690904 0.994866 0.8058698 1 0.7690904 1 0.8058698 0.1805191 0.6228722 0.185653 0.6228722 0.185653 0.6333459 0.1805191 0.6228722 0.185653 0.6333459 0.1805191 0.6333459 0.1805191 0.6333459 0.185653 0.6333459 0.185653 0.6411297 0.1805191 0.6333459 0.185653 0.6411297 0.1805191 0.6411297 0.1805191 0.6411297 0.185653 0.6411297 0.185653 0.6478352 0.1805191 0.6411297 0.185653 0.6478352 0.1805191 0.6478352 0.2636834 0.5002412 0.2688174 0.5002412 0.2688174 0.5136867 0.2636834 0.5002412 0.2688174 0.5136867 0.2636834 0.5136867 0.2215909 0.573818 0.2164569 0.573818 0.2164569 0.5657703 0.2215909 0.573818 0.2164569 0.5657703 0.2215908 0.5657703 0.2215908 0.5657703 0.2164569 0.5657703 0.2164569 0.5580832 0.2215908 0.5657703 0.2164569 0.5580832 0.2215909 0.5580832 0.2215909 0.5580832 0.2164569 0.5580832 0.2164569 0.5490016 0.2215909 0.5580832 0.2164569 0.5490016 0.2215908 0.5490016 0.1805191 0.5255086 0.185653 0.5255086 0.185653 0.6228722 0.1805191 0.5255086 0.185653 0.6228722 0.1805191 0.6228722 0.1805191 0.5115953 0.185653 0.5115953 0.185653 0.5255086 0.1805191 0.5115953 0.185653 0.5255086 0.1805191 0.5255086 0.1805191 0.5002412 0.185653 0.5002412 0.185653 0.5115953 0.1805191 0.5002412 0.185653 0.5115953 0.1805191 0.5115953 0.994866 0.8058698 1 0.8058698 1 0.8278912 0.994866 0.8058698 1 0.8278912 0.9948661 0.8278912 0.2215908 0.5490016 0.2164569 0.5490016 0.2164569 0.5002412 0.2215908 0.5490016 0.2164569 0.5002412 0.2215909 0.5002412 0.165117 0.710101 0.1599831 0.710101 0.159983 0.6181685 0.165117 0.710101 0.159983 0.6181685 0.165117 0.6181685 0.190787 0.540275 0.190787 0.5803087 0.185653 0.5803087 0.190787 0.540275 0.185653 0.5803087 0.185653 0.540275 0.165117 0.6181685 0.159983 0.6181685 0.159983 0.6116092 0.165117 0.6181685 0.159983 0.6116092 0.165117 0.6116092 0.165117 0.6116092 0.159983 0.6116092 0.159983 0.540993 0.165117 0.6116092 0.159983 0.540993 0.165117 0.540993 0.165117 0.540993 0.159983 0.540993 0.159983 0.5002412 0.165117 0.540993 0.159983 0.5002412 0.165117 0.5002412 0.1959209 0.5112501 0.190787 0.5112501 0.190787 0.5051963 0.1959209 0.5112501 0.190787 0.5051963 0.1959209 0.5051963 0.1959209 0.5051963 0.190787 0.5051963 0.190787 0.5002412 0.1959209 0.5051963 0.190787 0.5002412 0.1959209 0.5002412 0.3510276 0.5002412 0.3561615 0.5002412 0.3561615 0.5048508 0.3510276 0.5002412 0.3561615 0.5048508 0.3510276 0.5048508 0.2739514 0.5086202 0.2790853 0.5086202 0.2790853 0.5132298 0.2739514 0.5086202 0.2790853 0.5132298 0.2739514 0.5132298 0.195921 0.5791273 0.190787 0.5791273 0.190787 0.5743592 0.195921 0.5791273 0.190787 0.5743592 0.1959209 0.5743592 0.1959209 0.5743592 0.190787 0.5743592 0.190787 0.568856 0.1959209 0.5743592 0.190787 0.568856 0.1959209 0.568856 0.1959209 0.568856 0.190787 0.568856 0.190787 0.5112501 0.1959209 0.568856 0.190787 0.5112501 0.1959209 0.5112501 0.195921 0.5688561 0.195921 0.5112501 0.2010549 0.5112501 0.195921 0.5688561 0.2010549 0.5112501 0.2010549 0.5688561 0.195921 0.5743592 0.195921 0.5688561 0.2010549 0.5688561 0.195921 0.5743592 0.2010549 0.5688561 0.2010549 0.5743592 0.195921 0.5791273 0.195921 0.5743592 0.2010549 0.5743592 0.195921 0.5791273 0.2010549 0.5743592 0.2010549 0.5791273 0.2739514 0.5048508 0.2739514 0.5002412 0.2790853 0.5002412 0.2739514 0.5048508 0.2790853 0.5002412 0.2790853 0.5048508 0.3510276 0.5132298 0.3510276 0.5086202 0.3561615 0.5086202 0.3510276 0.5132298 0.3561615 0.5086202 0.3561615 0.5132298 0.195921 0.5051963 0.195921 0.5002412 0.2010549 0.5002412 0.195921 0.5051963 0.2010549 0.5002412 0.2010549 0.5051963 0.195921 0.5112501 0.195921 0.5051963 0.2010549 0.5051963 0.195921 0.5112501 0.2010549 0.5051963 0.2010549 0.5112501 0.2739514 0.5048508 0.2790853 0.5048508 0.2790853 0.5086202 0.2739514 0.5048508 0.2790853 0.5086202 0.2739514 0.5086202 0.3510276 0.5048508 0.3561615 0.5048508 0.3561615 0.5086202 0.3510276 0.5048508 0.3561615 0.5086202 0.3510276 0.5086202 0.2113229 0.5681183 0.2113229 0.5741721 0.2061889 0.5741721 0.2113229 0.5681183 0.2061889 0.5741721 0.2061889 0.5681183 0.2113229 0.5741721 0.2113229 0.5791273 0.2061889 0.5791273 0.2113229 0.5741721 0.2061889 0.5791273 0.2061889 0.5741721 0.2688174 0.5132298 0.2688174 0.5086202 0.2739514 0.5086202 0.2688174 0.5132298 0.2739514 0.5086202 0.2739514 0.5132298 0.2842193 0.5086202 0.2842193 0.5132298 0.2790853 0.5132298 0.2842193 0.5086202 0.2790853 0.5132298 0.2790853 0.5086202 0.2113229 0.5002412 0.2113229 0.5050092 0.2061889 0.5050092 0.2113229 0.5002412 0.2061889 0.5050092 0.2061889 0.5002412 0.2113229 0.5050092 0.2113229 0.5105124 0.2061889 0.5105124 0.2113229 0.5050092 0.2061889 0.5105124 0.2061889 0.5050092 0.2113229 0.5105124 0.2113229 0.5681183 0.2061889 0.5681183 0.2113229 0.5105124 0.2061889 0.5681183 0.2061889 0.5105124 0.2010549 0.5105124 0.2061889 0.5105124 0.2061889 0.5681183 0.2010549 0.5105124 0.2061889 0.5681183 0.2010549 0.5681183 0.2010549 0.5050092 0.2061889 0.5050092 0.2061889 0.5105124 0.2010549 0.5050092 0.2061889 0.5105124 0.2010549 0.5105124 0.2010549 0.5002412 0.2061889 0.5002412 0.2061889 0.5050092 0.2010549 0.5002412 0.2061889 0.5050092 0.2010549 0.5050092 0.2842193 0.5048508 0.2790853 0.5048508 0.2790853 0.5002412 0.2842193 0.5048508 0.2790853 0.5002412 0.2842193 0.5002412 0.2688174 0.5002412 0.2739514 0.5002412 0.2739514 0.5048508 0.2688174 0.5002412 0.2739514 0.5048508 0.2688174 0.5048508 0.2010549 0.5741721 0.2061889 0.5741721 0.2061889 0.5791273 0.2010549 0.5741721 0.2061889 0.5791273 0.2010549 0.5791273 0.2010549 0.5681183 0.2061889 0.5681183 0.2061889 0.5741721 0.2010549 0.5681183 0.2061889 0.5741721 0.2010549 0.5741721 0.2842193 0.5048508 0.2842193 0.5086202 0.2790853 0.5086202 0.2842193 0.5048508 0.2790853 0.5086202 0.2790853 0.5048508 0.2688174 0.5086202 0.2688174 0.5048508 0.2739514 0.5048508 0.2688174 0.5086202 0.2739514 0.5048508 0.2739514 0.5086202 0.2400702 0.5002412 0.2452042 0.5002412 0.2452042 0.5324663 0.2400702 0.5002412 0.2452042 0.5324663 0.2400702 0.5324663 0.2349362 0.5324663 0.2349362 0.5002412 0.2400702 0.5002412 0.2349362 0.5324663 0.2400702 0.5002412 0.2400702 0.5324663 0.170251 0.5002412 0.175385 0.5002412 0.175385 0.6103138 0.170251 0.5002412 0.175385 0.6103138 0.1702511 0.6103138 0.1702511 0.6103138 0.175385 0.6103138 0.175385 0.6194264 0.1702511 0.6103138 0.175385 0.6194264 0.1702511 0.6194263 0.1702511 0.6194263 0.175385 0.6194264 0.175385 0.6320161 0.1702511 0.6194263 0.175385 0.6320161 0.1702511 0.6320161 0.1702511 0.6320161 0.175385 0.6320161 0.175385 0.6488766 0.1702511 0.6320161 0.175385 0.6488766 0.1702511 0.6488766 0.1702511 0.6488766 0.175385 0.6488766 0.175385 0.6687301 0.1702511 0.6488766 0.175385 0.6687301 0.1702511 0.6687301 0.994866 0 1 0 1 0.02455127 0.994866 0 1 0.02455127 0.994866 0.02455127 0.994866 0.02455127 1 0.02455127 1 0.06133073 0.994866 0.02455127 1 0.06133073 0.994866 0.06133073 1 0.09811002 0.994866 0.09811002 0.994866 0.06133073 1 0.09811002 0.994866 0.06133073 1 0.06133073 0.994866 0.1719622 1 0.1719622 1 0.2082377 0.994866 0.1719622 1 0.2082377 0.994866 0.2082377 0.994866 0.134596 1 0.134596 1 0.1719622 0.994866 0.134596 1 0.1719622 0.994866 0.1719622 0.994866 0.09811002 1 0.09811002 1 0.134596 0.994866 0.09811002 1 0.134596 0.994866 0.134596 0.165117 0.66873 0.165117 0.5586575 0.170251 0.5586575 0.165117 0.66873 0.170251 0.5586575 0.170251 0.6687301 0.165117 0.5586575 0.165117 0.5495449 0.170251 0.5495449 0.165117 0.5586575 0.170251 0.5495449 0.170251 0.5586575 0.165117 0.5495449 0.165117 0.5369552 0.170251 0.5369552 0.165117 0.5495449 0.170251 0.5369552 0.170251 0.5495449 0.165117 0.5369552 0.165117 0.5200947 0.170251 0.5200947 0.165117 0.5369552 0.170251 0.5200947 0.170251 0.5369552 0.165117 0.5200947 0.1651171 0.5002412 0.170251 0.5002412 0.165117 0.5200947 0.170251 0.5002412 0.170251 0.5200947 0.9948661 0.4164753 0.9948661 0.391924 1 0.391924 0.9948661 0.4164753 1 0.391924 1 0.4164753 0.9948661 0.391924 0.9948661 0.3551447 1 0.3551447 0.9948661 0.391924 1 0.3551447 1 0.391924 0.9948661 0.3551447 0.9948661 0.3183653 1 0.3183653 0.9948661 0.3551447 1 0.3183653 1 0.3551447 0.9948661 0.2445132 0.994866 0.2082377 1 0.2082377 0.9948661 0.2445132 1 0.2082377 1 0.2445132 0.9948661 0.2818793 0.9948661 0.2445132 1 0.2445132 0.9948661 0.2818793 1 0.2445132 1 0.2818793 0.9948661 0.3183653 0.9948661 0.2818793 1 0.2818793 0.9948661 0.3183653 1 0.2818793 1 0.3183653 0.9897321 0.5000151 0.9897321 0.4592037 0.994866 0.4592037 0.9897321 0.5000151 0.994866 0.4592037 0.994866 0.5000151 0.9897321 0.4592037 0.9897321 0.4177261 0.994866 0.4177261 0.9897321 0.4592037 0.994866 0.4177261 0.994866 0.4592037 0.9897321 0.4177261 0.9897321 0.37593 0.994866 0.37593 0.9897321 0.4177261 0.994866 0.37593 0.994866 0.4177261 0.9897321 0.2915618 0.989732 0.2500075 0.994866 0.2500075 0.9897321 0.2915618 0.994866 0.2500075 0.994866 0.2915618 0.9897321 0.3342885 0.9897321 0.2915618 0.994866 0.2915618 0.9897321 0.3342885 0.994866 0.2915618 0.994866 0.3342885 0.9897321 0.37593 0.9897321 0.3342885 0.994866 0.3342885 0.9897321 0.37593 0.994866 0.3342885 0.994866 0.37593 0.989732 0 0.994866 0 0.994866 0.04081118 0.989732 0 0.994866 0.04081118 0.989732 0.04081118 0.989732 0.04081118 0.994866 0.04081118 0.994866 0.08228892 0.989732 0.04081118 0.994866 0.08228892 0.989732 0.08228892 0.989732 0.08228892 0.994866 0.08228892 0.994866 0.124085 0.989732 0.08228892 0.994866 0.124085 0.989732 0.124085 0.989732 0.2084532 0.994866 0.2084532 0.994866 0.2500075 0.989732 0.2084532 0.994866 0.2500075 0.989732 0.2500075 0.989732 0.1657266 0.994866 0.1657266 0.994866 0.2084532 0.989732 0.1657266 0.994866 0.2084532 0.989732 0.2084532 0.989732 0.124085 0.994866 0.124085 0.994866 0.1657266 0.989732 0.124085 0.994866 0.1657266 0.989732 0.1657266</float_array>
          <technique_common>
            <accessor source="#Top-mesh-map-0-array" count="1836" stride="2">
              <param name="S" type="float"/>
              <param name="T" type="float"/>
            </accessor>
          </technique_common>
        </source>
        <vertices id="Top-mesh-vertices">
          <input semantic="POSITION" source="#Top-mesh-positions"/>
        </vertices>
        <polylist material="PBRFULL_Top-material" count="612">
          <input semantic="VERTEX" source="#Top-mesh-vertices" offset="0"/>
          <input semantic="NORMAL" source="#Top-mesh-normals" offset="1"/>
          <input semantic="TEXCOORD" source="#Top-mesh-map-0" offset="2" set="0"/>
          <vcount>3 3 3 3 3 3 3 3 3 3 3 3 3 3 3 3 3 3 3 3 3 3 3 3 3 3 3 3 3 3 3 3 3 3 3 3 3 3 3 3 3 3 3 3 3 3 3 3 3 3 3 3 3 3 3 3 3 3 3 3 3 3 3 3 3 3 3 3 3 3 3 3 3 3 3 3 3 3 3 3 3 3 3 3 3 3 3 3 3 3 3 3 3 3 3 3 3 3 3 3 3 3 3 3 3 3 3 3 3 3 3 3 3 3 3 3 3 3 3 3 3 3 3 3 3 3 3 3 3 3 3 3 3 3 3 3 3 3 3 3 3 3 3 3 3 3 3 3 3 3 3 3 3 3 3 3 3 3 3 3 3 3 3 3 3 3 3 3 3 3 3 3 3 3 3 3 3 3 3 3 3 3 3 3 3 3 3 3 3 3 3 3 3 3 3 3 3 3 3 3 3 3 3 3 3 3 3 3 3 3 3 3 3 3 3 3 3 3 3 3 3 3 3 3 3 3 3 3 3 3 3 3 3 3 3 3 3 3 3 3 3 3 3 3 3 3 3 3 3 3 3 3 3 3 3 3 3 3 3 3 3 3 3 3 3 3 3 3 3 3 3 3 3 3 3 3 3 3 3 3 3 3 3 3 3 3 3 3 3 3 3 3 3 3 3 3 3 3 3 3 3 3 3 3 3 3 3 3 3 3 3 3 3 3 3 3 3 3 3 3 3 3 3 3 3 3 3 3 3 3 3 3 3 3 3 3 3 3 3 3 3 3 3 3 3 3 3 3 3 3 3 3 3 3 3 3 3 3 3 3 3 3 3 3 3 3 3 3 3 3 3 3 3 3 3 3 3 3 3 3 3 3 3 3 3 3 3 3 3 3 3 3 3 3 3 3 3 3 3 3 3 3 3 3 3 3 3 3 3 3 3 3 3 3 3 3 3 3 3 3 3 3 3 3 3 3 3 3 3 3 3 3 3 3 3 3 3 3 3 3 3 3 3 3 3 3 3 3 3 3 3 3 3 3 3 3 3 3 3 3 3 3 3 3 3 3 3 3 3 3 3 3 3 3 3 3 3 3 3 3 3 3 3 3 3 3 3 3 3 3 3 3 3 3 3 3 3 3 3 3 3 3 3 3 3 3 3 3 3 3 3 3 3 3 3 3 3 3 3 3 3 3 3 3 3 3 3 3 3 3 3 3 3 3 3 3 3 3 3 3 3 3 3 3 3 3 3 3 3 3 3 3 3 3 3 3 3 3 3 3 3 3 3 3 3 3 3 3 3 3 3 3 3 3 3 3 3 3 3 3 3 3 3 3 3 3 3 3 3 3 3 3 3 3 3 3 3 3 3 3 3 3 3 3 3 3 3 3 3 3 3 3 </vcount>
          <p>0 0 0 1 0 1 2 0 2 0 0 3 2 0 4 3 0 5 4 1 6 5 1 7 6 1 8 4 1 9 6 1 10 7 1 11 8 2 12 1 2 13 0 2 14 8 2 15 0 2 16 9 2 17 9 2 18 5 2 19 4 2 20 9 2 21 4 2 22 8 2 23 5 3 24 9 3 25 10 3 26 5 3 27 10 3 28 6 3 29 9 4 30 0 4 31 3 4 32 9 5 33 3 5 34 10 5 35 1 6 36 8 6 37 11 6 38 1 6 39 11 6 40 2 6 41 8 6 42 4 6 43 7 6 44 8 6 45 7 6 46 11 6 47 6 7 48 10 7 49 11 7 50 6 7 51 11 7 52 7 7 53 10 7 54 3 7 55 2 7 56 10 7 57 2 7 58 11 7 59 12 8 60 13 8 61 14 8 62 12 9 63 14 9 64 15 9 65 16 1 66 17 1 67 18 1 68 16 1 69 18 1 70 19 1 71 20 10 72 13 10 73 12 10 74 20 7 75 12 7 76 21 7 77 21 7 78 17 7 79 16 7 80 21 7 81 16 7 82 20 7 83 17 6 84 21 6 85 22 6 86 17 6 87 22 6 88 18 6 89 21 11 90 12 11 91 15 11 92 21 12 93 15 12 94 22 12 95 13 3 96 20 3 97 23 3 98 13 3 99 23 3 100 14 3 101 20 3 102 16 3 103 19 3 104 20 3 105 19 3 106 23 3 107 18 2 108 22 2 109 23 2 110 18 2 111 23 2 112 19 2 113 22 13 114 15 13 115 14 13 116 22 2 117 14 2 118 23 2 119 24 14 120 25 14 121 26 14 122 24 15 123 26 15 124 27 15 125 28 16 126 24 16 127 27 16 128 28 7 129 27 7 130 29 7 131 30 17 132 28 17 133 29 17 134 30 7 135 29 7 136 31 7 137 32 18 138 26 18 139 25 18 140 32 7 141 25 7 142 33 7 143 27 19 144 26 19 145 34 19 146 27 20 147 34 20 148 35 20 149 29 21 150 27 21 151 35 21 152 29 7 153 35 7 154 36 7 155 31 22 156 29 22 157 36 22 158 31 7 159 36 7 160 37 7 161 38 23 162 34 23 163 26 23 164 38 24 165 26 24 166 32 24 167 39 25 168 40 25 169 41 25 170 39 7 171 41 7 172 42 7 173 43 26 174 41 26 175 40 26 176 43 27 177 40 27 178 44 27 179 45 28 180 43 28 181 44 28 182 45 7 183 44 7 184 46 7 185 47 7 186 39 7 187 42 7 188 47 29 189 42 29 190 48 29 191 49 7 192 47 7 193 48 7 194 49 30 195 48 30 196 50 30 197 49 31 198 50 31 199 51 31 200 51 7 201 50 7 202 52 7 203 52 32 204 50 32 205 53 32 206 53 7 207 50 7 208 54 7 209 54 7 210 50 7 211 55 7 212 35 33 213 34 33 214 56 33 215 35 7 216 56 7 217 57 7 218 36 34 219 35 34 220 57 34 221 36 7 222 57 7 223 58 7 224 37 35 225 36 35 226 58 35 227 37 7 228 58 7 229 59 7 230 60 36 231 56 36 232 34 36 233 60 37 234 34 37 235 38 37 236 61 38 237 60 38 238 38 38 239 61 7 240 38 7 241 62 7 242 63 39 243 61 39 244 62 39 245 63 7 246 62 7 247 64 7 248 65 40 249 66 40 250 42 40 251 65 41 252 42 41 253 41 41 254 67 42 255 65 42 256 41 42 257 67 7 258 41 7 259 43 7 260 68 43 261 67 43 262 43 43 263 68 7 264 43 7 265 45 7 266 48 44 267 42 44 268 66 44 269 48 45 270 66 45 271 69 45 272 50 7 273 48 7 274 69 7 275 50 7 276 69 7 277 70 7 278 55 46 279 50 46 280 70 46 281 55 7 282 70 7 283 71 7 284 38 47 285 72 47 286 73 47 287 38 48 288 73 48 289 74 48 290 38 49 291 74 49 292 75 49 293 38 50 294 75 50 295 76 50 296 38 51 297 76 51 298 62 51 299 62 7 300 76 7 301 77 7 302 62 52 303 77 52 304 78 52 305 62 7 306 78 7 307 79 7 308 80 7 309 81 7 310 79 7 311 80 7 312 79 7 313 82 7 314 80 53 315 82 53 316 83 53 317 84 7 318 83 7 319 82 7 320 84 54 321 82 54 322 85 54 323 32 55 324 86 55 325 87 55 326 32 7 327 87 7 328 72 7 329 32 7 330 72 7 331 38 7 332 33 56 333 88 56 334 86 56 335 33 7 336 86 7 337 32 7 338 84 57 339 85 57 340 89 57 341 84 7 342 89 7 343 90 7 344 90 58 345 89 58 346 91 58 347 90 7 348 91 7 349 92 7 350 93 7 351 92 7 352 91 7 353 93 59 354 91 59 355 94 59 356 33 60 357 93 60 358 94 60 359 33 61 360 94 61 361 88 61 362 81 62 363 95 62 364 79 62 365 95 7 366 96 7 367 79 7 368 96 7 369 97 7 370 79 7 371 97 7 372 98 7 373 79 7 374 64 7 375 79 7 376 98 7 377 64 63 378 62 63 379 79 63 380 99 2 381 100 2 382 101 2 383 99 64 384 101 64 385 102 64 386 102 65 387 101 65 388 103 65 389 102 66 390 103 66 391 104 66 392 104 2 393 103 2 394 105 2 395 104 67 396 105 67 397 106 67 398 100 2 399 99 2 400 107 2 401 100 68 402 107 68 403 108 68 404 109 69 405 99 69 406 102 69 407 109 70 408 102 70 409 110 70 410 110 2 411 102 2 412 104 2 413 110 71 414 104 71 415 111 71 416 111 72 417 104 72 418 106 72 419 111 73 420 106 73 421 112 73 422 99 2 423 109 2 424 113 2 425 99 2 426 113 2 427 107 2 428 114 2 429 115 2 430 116 2 431 114 74 432 116 74 433 117 74 434 115 2 435 114 2 436 118 2 437 115 75 438 118 75 439 119 75 440 119 2 441 118 2 442 120 2 443 119 2 444 120 2 445 121 2 446 122 2 447 123 2 448 117 2 449 122 2 450 117 2 451 116 2 452 123 76 453 122 76 454 124 76 455 123 2 456 124 2 457 125 2 458 125 77 459 124 77 460 126 77 461 125 78 462 126 78 463 127 78 464 125 79 465 127 79 466 128 79 467 125 80 468 128 80 469 129 80 470 125 81 471 129 81 472 130 81 473 131 2 474 109 2 475 110 2 476 131 2 477 110 2 478 132 2 479 132 2 480 110 2 481 111 2 482 132 82 483 111 82 484 133 82 485 133 83 486 111 83 487 112 83 488 133 2 489 112 2 490 134 2 491 109 2 492 131 2 493 135 2 494 109 84 495 135 84 496 113 84 497 113 85 498 135 85 499 136 85 500 113 86 501 136 86 502 137 86 503 137 2 504 136 2 505 138 2 506 137 87 507 138 87 508 139 87 509 117 2 510 140 2 511 141 2 512 117 88 513 141 88 514 114 88 515 114 89 516 141 89 517 142 89 518 114 90 519 142 90 520 118 90 521 118 2 522 142 2 523 143 2 524 118 2 525 143 2 526 120 2 527 140 2 528 117 2 529 123 2 530 140 2 531 123 2 532 144 2 533 144 2 534 123 2 535 125 2 536 144 91 537 125 91 538 145 91 539 145 2 540 125 2 541 130 2 542 145 92 543 130 92 544 146 92 545 147 93 546 148 93 547 113 93 548 149 2 549 147 2 550 113 2 551 150 94 552 149 94 553 113 94 554 151 2 555 150 2 556 113 2 557 151 2 558 113 2 559 137 2 560 151 2 561 137 2 562 152 2 563 152 2 564 137 2 565 153 2 566 153 95 567 137 95 568 154 95 569 155 2 570 156 2 571 154 2 572 157 2 573 154 2 574 156 2 575 157 96 576 156 96 577 158 96 578 157 97 579 158 97 580 159 97 581 157 2 582 159 2 583 160 2 584 161 98 585 162 98 586 107 98 587 148 2 588 161 2 589 107 2 590 148 99 591 107 99 592 113 99 593 162 2 594 163 2 595 108 2 596 162 100 597 108 100 598 107 100 599 164 2 600 160 2 601 159 2 602 164 101 603 159 101 604 165 101 605 166 2 606 164 2 607 165 2 608 166 102 609 165 102 610 167 102 611 166 103 612 167 103 613 168 103 614 166 104 615 168 104 616 169 104 617 169 105 618 168 105 619 108 105 620 169 106 621 108 106 622 163 106 623 170 2 624 155 2 625 154 2 626 171 107 627 170 107 628 154 107 629 172 108 630 171 108 631 154 108 632 173 109 633 172 109 634 154 109 635 154 110 636 139 110 637 173 110 638 137 2 639 139 2 640 154 2 641 174 15 642 175 15 643 176 15 644 174 14 645 176 14 646 177 14 647 178 7 648 179 7 649 175 7 650 178 16 651 175 16 652 174 16 653 30 111 654 180 111 655 179 111 656 30 17 657 179 17 658 178 17 659 181 7 660 182 7 661 177 7 662 181 18 663 177 18 664 176 18 665 175 7 666 183 7 667 184 7 668 175 19 669 184 19 670 176 19 671 179 7 672 185 7 673 183 7 674 179 112 675 183 112 676 175 112 677 180 113 678 37 113 679 185 113 680 180 114 681 185 114 682 179 114 683 186 24 684 181 24 685 176 24 686 186 23 687 176 23 688 184 23 689 187 7 690 188 7 691 189 7 692 187 25 693 189 25 694 190 25 695 191 27 696 192 27 697 190 27 698 191 26 699 190 26 700 189 26 701 45 7 702 46 7 703 192 7 704 45 28 705 192 28 706 191 28 707 188 7 708 187 7 709 193 7 710 188 115 711 193 115 712 194 115 713 195 30 714 196 30 715 194 30 716 195 116 717 194 116 718 193 116 719 195 31 720 197 31 721 196 31 722 197 7 723 198 7 724 196 7 725 198 32 726 199 32 727 196 32 728 199 7 729 200 7 730 196 7 731 200 7 732 201 7 733 196 7 734 183 7 735 202 7 736 203 7 737 183 117 738 203 117 739 184 117 740 185 7 741 204 7 742 202 7 743 185 118 744 202 118 745 183 118 746 37 7 747 59 7 748 204 7 749 37 35 750 204 35 751 185 35 752 205 37 753 186 37 754 184 37 755 205 36 756 184 36 757 203 36 758 206 7 759 207 7 760 186 7 761 206 119 762 186 119 763 205 119 764 208 7 765 209 7 766 207 7 767 208 120 768 207 120 769 206 120 770 210 41 771 189 41 772 188 41 773 210 40 774 188 40 775 211 40 776 212 7 777 191 7 778 189 7 779 212 42 780 189 42 781 210 42 782 68 7 783 45 7 784 191 7 785 68 43 786 191 43 787 212 43 788 194 45 789 213 45 790 211 45 791 194 44 792 211 44 793 188 44 794 196 7 795 214 7 796 213 7 797 196 7 798 213 7 799 194 7 800 201 7 801 215 7 802 214 7 803 201 46 804 214 46 805 196 46 806 186 47 807 216 47 808 217 47 809 186 48 810 218 48 811 216 48 812 186 49 813 219 49 814 218 49 815 186 51 816 207 51 817 220 51 818 186 50 819 220 50 820 219 50 821 207 7 822 221 7 823 220 7 824 207 52 825 222 52 826 221 52 827 207 7 828 223 7 829 222 7 830 224 7 831 223 7 832 225 7 833 224 7 834 226 7 835 227 7 836 224 7 837 227 7 838 223 7 839 228 54 840 229 54 841 227 54 842 228 7 843 227 7 844 226 7 845 181 55 846 230 55 847 231 55 848 181 7 849 186 7 850 217 7 851 181 7 852 217 7 853 230 7 854 182 7 855 181 7 856 231 7 857 182 56 858 231 56 859 232 56 860 228 7 861 233 7 862 234 7 863 228 57 864 234 57 865 229 57 866 233 7 867 235 7 868 236 7 869 233 58 870 236 58 871 234 58 872 237 59 873 238 59 874 236 59 875 237 7 876 236 7 877 235 7 878 182 61 879 232 61 880 238 61 881 182 60 882 238 60 883 237 60 884 225 62 885 223 62 886 239 62 887 239 7 888 223 7 889 240 7 890 240 7 891 223 7 892 241 7 893 241 7 894 223 7 895 242 7 896 209 7 897 242 7 898 223 7 899 209 63 900 223 63 901 207 63 902 243 64 903 244 64 904 245 64 905 243 2 906 245 2 907 246 2 908 244 66 909 247 66 910 248 66 911 244 65 912 248 65 913 245 65 914 247 121 915 249 121 916 105 121 917 247 2 918 105 2 919 248 2 920 246 68 921 250 68 922 251 68 923 246 2 924 251 2 925 243 2 926 252 122 927 253 122 928 244 122 929 252 69 930 244 69 931 243 69 932 253 123 933 254 123 934 247 123 935 253 124 936 247 124 937 244 124 938 254 125 939 112 125 940 249 125 941 254 126 942 249 126 943 247 126 944 243 2 945 251 2 946 255 2 947 243 2 948 255 2 949 252 2 950 256 74 951 257 74 952 258 74 953 256 2 954 258 2 955 259 2 956 259 75 957 260 75 958 261 75 959 259 2 960 261 2 961 256 2 962 260 2 963 121 2 964 120 2 965 260 2 966 120 2 967 261 2 968 262 127 969 258 127 970 257 127 971 262 2 972 257 2 973 263 2 974 263 2 975 264 2 976 265 2 977 263 128 978 265 128 979 262 128 980 264 129 981 266 129 982 265 129 983 264 130 984 267 130 985 266 130 986 264 131 987 268 131 988 267 131 989 264 132 990 269 132 991 268 132 992 264 81 993 270 81 994 269 81 995 271 133 996 272 133 997 253 133 998 271 2 999 253 2 1000 252 2 1001 272 82 1002 273 82 1003 254 82 1004 272 2 1005 254 2 1006 253 2 1007 273 2 1008 134 2 1009 112 2 1010 273 83 1011 112 83 1012 254 83 1013 252 84 1014 255 84 1015 274 84 1016 252 2 1017 274 2 1018 271 2 1019 255 134 1020 275 134 1021 276 134 1022 255 2 1023 276 2 1024 274 2 1025 275 87 1026 277 87 1027 278 87 1028 275 2 1029 278 2 1030 276 2 1031 257 88 1032 256 88 1033 279 88 1034 257 2 1035 279 2 1036 280 2 1037 256 90 1038 261 90 1039 281 90 1040 256 89 1041 281 89 1042 279 89 1043 261 2 1044 120 2 1045 143 2 1046 261 2 1047 143 2 1048 281 2 1049 280 2 1050 282 2 1051 263 2 1052 280 2 1053 263 2 1054 257 2 1055 282 91 1056 283 91 1057 264 91 1058 282 2 1059 264 2 1060 263 2 1061 283 92 1062 284 92 1063 270 92 1064 283 2 1065 270 2 1066 264 2 1067 285 93 1068 255 93 1069 286 93 1070 287 2 1071 255 2 1072 285 2 1073 288 94 1074 255 94 1075 287 94 1076 289 2 1077 275 2 1078 255 2 1079 289 2 1080 255 2 1081 288 2 1082 289 2 1083 290 2 1084 275 2 1085 290 2 1086 291 2 1087 275 2 1088 291 95 1089 292 95 1090 275 95 1091 293 2 1092 292 2 1093 294 2 1094 295 2 1095 296 2 1096 294 2 1097 295 2 1098 294 2 1099 292 2 1100 295 2 1101 297 2 1102 298 2 1103 295 97 1104 298 97 1105 296 97 1106 299 98 1107 251 98 1108 300 98 1109 286 99 1110 255 99 1111 251 99 1112 286 2 1113 251 2 1114 299 2 1115 300 100 1116 251 100 1117 250 100 1118 300 2 1119 250 2 1120 301 2 1121 302 101 1122 303 101 1123 298 101 1124 302 2 1125 298 2 1126 297 2 1127 304 102 1128 305 102 1129 303 102 1130 304 2 1131 303 2 1132 302 2 1133 304 104 1134 306 104 1135 307 104 1136 304 103 1137 307 103 1138 305 103 1139 306 106 1140 301 106 1141 250 106 1142 306 105 1143 250 105 1144 307 105 1145 308 2 1146 292 2 1147 293 2 1148 309 107 1149 292 107 1150 308 107 1151 310 108 1152 292 108 1153 309 108 1154 311 109 1155 292 109 1156 310 109 1157 292 110 1158 311 110 1159 277 110 1160 275 2 1161 292 2 1162 277 2 1163 30 135 1164 178 135 1165 248 135 1166 30 136 1167 248 136 1168 105 136 1169 178 137 1170 174 137 1171 245 137 1172 178 138 1173 245 138 1174 248 138 1175 174 139 1176 177 139 1177 246 139 1178 174 140 1179 246 140 1180 245 140 1181 177 141 1182 182 141 1183 250 141 1184 177 141 1185 250 141 1186 246 141 1187 237 142 1188 307 142 1189 250 142 1190 237 143 1191 250 143 1192 182 143 1193 226 144 1194 224 144 1195 294 144 1196 226 144 1197 294 144 1198 296 144 1199 224 145 1200 225 145 1201 293 145 1202 224 146 1203 293 146 1204 294 146 1205 225 147 1206 239 147 1207 308 147 1208 225 148 1209 308 148 1210 293 148 1211 239 149 1212 240 149 1213 309 149 1214 239 150 1215 309 150 1216 308 150 1217 240 151 1218 241 151 1219 310 151 1220 240 151 1221 310 151 1222 309 151 1223 241 152 1224 242 152 1225 311 152 1226 241 153 1227 311 153 1228 310 153 1229 242 154 1230 209 154 1231 277 154 1232 242 155 1233 277 155 1234 311 155 1235 228 156 1236 226 156 1237 296 156 1238 228 157 1239 296 157 1240 298 157 1241 233 158 1242 228 158 1243 298 158 1244 233 159 1245 298 159 1246 303 159 1247 235 160 1248 233 160 1249 303 160 1250 235 161 1251 303 161 1252 305 161 1253 237 162 1254 235 162 1255 305 162 1256 237 163 1257 305 163 1258 307 163 1259 209 164 1260 208 164 1261 278 164 1262 209 165 1263 278 165 1264 277 165 1265 210 166 1266 211 166 1267 280 166 1268 210 167 1269 280 167 1270 279 167 1271 68 6 1272 143 6 1273 281 6 1274 68 6 1275 281 6 1276 212 6 1277 211 168 1278 213 168 1279 282 168 1280 211 169 1281 282 169 1282 280 169 1283 213 3 1284 214 3 1285 283 3 1286 213 3 1287 283 3 1288 282 3 1289 214 3 1290 215 3 1291 284 3 1292 214 3 1293 284 3 1294 283 3 1295 30 170 1296 105 170 1297 103 170 1298 30 171 1299 103 171 1300 28 171 1301 28 172 1302 103 172 1303 101 172 1304 28 173 1305 101 173 1306 24 173 1307 24 174 1308 101 174 1309 100 174 1310 24 175 1311 100 175 1312 25 175 1313 25 176 1314 100 176 1315 108 176 1316 25 176 1317 108 176 1318 33 176 1319 93 177 1320 33 177 1321 108 177 1322 93 178 1323 108 178 1324 168 178 1325 83 179 1326 158 179 1327 156 179 1328 83 179 1329 156 179 1330 80 179 1331 80 180 1332 156 180 1333 155 180 1334 80 181 1335 155 181 1336 81 181 1337 81 182 1338 155 182 1339 170 182 1340 81 183 1341 170 183 1342 95 183 1343 95 184 1344 170 184 1345 171 184 1346 95 185 1347 171 185 1348 96 185 1349 96 186 1350 171 186 1351 172 186 1352 96 186 1353 172 186 1354 97 186 1355 97 187 1356 172 187 1357 173 187 1358 97 188 1359 173 188 1360 98 188 1361 98 189 1362 173 189 1363 139 189 1364 98 190 1365 139 190 1366 64 190 1367 84 191 1368 159 191 1369 158 191 1370 84 192 1371 158 192 1372 83 192 1373 90 193 1374 165 193 1375 159 193 1376 90 194 1377 159 194 1378 84 194 1379 92 195 1380 167 195 1381 165 195 1382 92 196 1383 165 196 1384 90 196 1385 93 197 1386 168 197 1387 167 197 1388 93 198 1389 167 198 1390 92 198 1391 64 199 1392 139 199 1393 138 199 1394 64 200 1395 138 200 1396 63 200 1397 65 201 1398 141 201 1399 140 201 1400 65 202 1401 140 202 1402 66 202 1403 68 6 1404 67 6 1405 142 6 1406 68 6 1407 142 6 1408 143 6 1409 66 203 1410 140 203 1411 144 203 1412 66 204 1413 144 204 1414 69 204 1415 69 3 1416 144 3 1417 145 3 1418 69 3 1419 145 3 1420 70 3 1421 70 3 1422 145 3 1423 146 3 1424 70 3 1425 146 3 1426 71 3 1427 227 205 1428 295 205 1429 297 205 1430 227 205 1431 297 205 1432 229 205 1433 229 206 1434 297 206 1435 302 206 1436 229 206 1437 302 206 1438 234 206 1439 234 207 1440 302 207 1441 304 207 1442 234 208 1443 304 208 1444 236 208 1445 220 209 1446 289 209 1447 290 209 1448 220 210 1449 290 210 1450 221 210 1451 221 211 1452 290 211 1453 291 211 1454 221 212 1455 291 212 1456 222 212 1457 222 213 1458 291 213 1459 292 213 1460 222 213 1461 292 213 1462 223 213 1463 223 1 1464 292 1 1465 295 1 1466 223 1 1467 295 1 1468 227 1 1469 217 0 1470 230 0 1471 299 0 1472 217 0 1473 299 0 1474 286 0 1475 216 214 1476 217 214 1477 286 214 1478 216 214 1479 286 214 1480 285 214 1481 218 215 1482 216 215 1483 285 215 1484 218 216 1485 285 216 1486 287 216 1487 219 217 1488 218 217 1489 287 217 1490 219 217 1491 287 217 1492 288 217 1493 232 218 1494 238 218 1495 306 218 1496 232 218 1497 306 218 1498 301 218 1499 231 219 1500 232 219 1501 301 219 1502 231 219 1503 301 219 1504 300 219 1505 230 220 1506 231 220 1507 300 220 1508 230 220 1509 300 220 1510 299 220 1511 219 6 1512 288 6 1513 289 6 1514 219 6 1515 289 6 1516 220 6 1517 236 3 1518 304 3 1519 306 3 1520 236 3 1521 306 3 1522 238 3 1523 82 220 1524 85 220 1525 160 220 1526 82 220 1527 160 220 1528 157 220 1529 85 221 1530 89 221 1531 164 221 1532 85 221 1533 164 221 1534 160 221 1535 89 222 1536 91 222 1537 166 222 1538 89 223 1539 166 223 1540 164 223 1541 76 224 1542 77 224 1543 152 224 1544 76 225 1545 152 225 1546 151 225 1547 77 226 1548 78 226 1549 153 226 1550 77 227 1551 153 227 1552 152 227 1553 78 214 1554 79 214 1555 154 214 1556 78 214 1557 154 214 1558 153 214 1559 79 0 1560 82 0 1561 157 0 1562 79 0 1563 157 0 1564 154 0 1565 72 1 1566 148 1 1567 161 1 1568 72 1 1569 161 1 1570 87 1 1571 73 213 1572 147 213 1573 148 213 1574 73 213 1575 148 213 1576 72 213 1577 74 228 1578 149 228 1579 147 228 1580 74 229 1581 147 229 1582 73 229 1583 75 230 1584 150 230 1585 149 230 1586 75 230 1587 149 230 1588 74 230 1589 88 231 1590 163 231 1591 169 231 1592 88 231 1593 169 231 1594 94 231 1595 86 232 1596 162 232 1597 163 232 1598 86 232 1599 163 232 1600 88 232 1601 87 205 1602 161 205 1603 162 205 1604 87 205 1605 162 205 1606 86 205 1607 75 6 1608 76 6 1609 151 6 1610 75 6 1611 151 6 1612 150 6 1613 91 3 1614 94 3 1615 169 3 1616 91 3 1617 169 3 1618 166 3 1619 212 233 1620 281 233 1621 279 233 1622 212 234 1623 279 234 1624 210 234 1625 67 235 1626 65 235 1627 141 235 1628 67 236 1629 141 236 1630 142 236 1631 71 237 1632 146 237 1633 130 237 1634 71 238 1635 130 238 1636 55 238 1637 55 239 1638 130 239 1639 129 239 1640 55 240 1641 129 240 1642 54 240 1643 54 241 1644 129 241 1645 128 241 1646 54 242 1647 128 242 1648 53 242 1649 53 243 1650 128 243 1651 127 243 1652 53 244 1653 127 244 1654 52 244 1655 52 245 1656 127 245 1657 126 245 1658 52 246 1659 126 246 1660 51 246 1661 51 247 1662 126 247 1663 124 247 1664 51 248 1665 124 248 1666 49 248 1667 49 249 1668 124 249 1669 122 249 1670 49 250 1671 122 250 1672 47 250 1673 116 251 1674 39 251 1675 47 251 1676 116 252 1677 47 252 1678 122 252 1679 44 253 1680 119 253 1681 121 253 1682 44 254 1683 121 254 1684 46 254 1685 40 255 1686 115 255 1687 119 255 1688 40 256 1689 119 256 1690 44 256 1691 39 257 1692 116 257 1693 115 257 1694 39 258 1695 115 258 1696 40 258 1697 215 259 1698 201 259 1699 270 259 1700 215 260 1701 270 260 1702 284 260 1703 201 261 1704 200 261 1705 269 261 1706 201 262 1707 269 262 1708 270 262 1709 200 263 1710 199 263 1711 268 263 1712 200 264 1713 268 264 1714 269 264 1715 199 265 1716 198 265 1717 267 265 1718 199 266 1719 267 266 1720 268 266 1721 198 267 1722 197 267 1723 266 267 1724 198 268 1725 266 268 1726 267 268 1727 197 269 1728 195 269 1729 265 269 1730 197 270 1731 265 270 1732 266 270 1733 195 271 1734 193 271 1735 262 271 1736 195 272 1737 262 272 1738 265 272 1739 193 273 1740 187 273 1741 258 273 1742 193 274 1743 258 274 1744 262 274 1745 192 275 1746 46 275 1747 121 275 1748 192 276 1749 121 276 1750 260 276 1751 190 277 1752 192 277 1753 260 277 1754 190 278 1755 260 278 1756 259 278 1757 187 279 1758 190 279 1759 259 279 1760 187 280 1761 259 280 1762 258 280 1763 63 3 1764 61 3 1765 136 3 1766 63 3 1767 136 3 1768 138 3 1769 61 3 1770 60 3 1771 135 3 1772 61 3 1773 135 3 1774 136 3 1775 60 3 1776 56 3 1777 131 3 1778 60 3 1779 131 3 1780 135 3 1781 58 3 1782 59 3 1783 134 3 1784 58 3 1785 134 3 1786 133 3 1787 57 281 1788 58 281 1789 133 281 1790 57 282 1791 133 282 1792 132 282 1793 56 3 1794 57 3 1795 132 3 1796 56 3 1797 132 3 1798 131 3 1799 208 283 1800 278 283 1801 276 283 1802 208 284 1803 276 284 1804 206 284 1805 206 285 1806 276 285 1807 274 285 1808 206 286 1809 274 286 1810 205 286 1811 205 3 1812 274 3 1813 271 3 1814 205 3 1815 271 3 1816 203 3 1817 204 3 1818 273 3 1819 134 3 1820 204 3 1821 134 3 1822 59 3 1823 202 3 1824 272 3 1825 273 3 1826 202 3 1827 273 3 1828 204 3 1829 203 287 1830 271 287 1831 272 287 1832 203 288 1833 272 288 1834 202 288 1835</p>
        </polylist>
      </mesh>
    </geometry>
  </library_geometries>
  <library_controllers/>
  <library_visual_scenes>
    <visual_scene id="Scene" name="Scene">
      <node id="Top" name="Top" type="NODE">
        <matrix sid="transform">1 0 0 0 0 1 0 0 0 0 1 0 0 0 0 1</matrix>
        <instance_geometry url="#Top-mesh" name="Top">
          <bind_material>
            <technique_common>
              <instance_material symbol="PBRFULL_Top-material" target="#PBRFULL_Top-material"/>
            </technique_common>
          </bind_material>
        </instance_geometry>
      </node>
    </visual_scene>
  </library_visual_scenes>
  <scene>
    <instance_visual_scene url="#Scene"/>
  </scene>
</COLLADA>