<?xml version="1.0" encoding="utf-8"?>
<COLLADA xmlns="http://www.collada.org/2005/11/COLLADASchema" version="1.4.1">
  <asset>
    <contributor>
      <author>Blender User</author>
      <authoring_tool>Blender 2.77.0 commit date:2016-04-05, commit time:18:12, hash:abf6f08</authoring_tool>
    </contributor>
    <created>2017-05-17T14:37:23</created>
    <modified>2017-05-17T14:37:23</modified>
    <unit name="meter" meter="1"/>
    <up_axis>Z_UP</up_axis>
  </asset>
  <library_images>
    <image id="PBRFULL_Poster2-material_Base_Color_jpg" name="PBRFULL_Poster2-material_Base_Color_jpg">
      <init_from>PBRFULL_Poster2-material_Base_Color.jpg</init_from>
    </image>
  </library_images>
  <library_effects>
    <effect id="PBRFULL_Poster2-effect">
      <profile_COMMON>
        <newparam sid="PBRFULL_Poster2-material_Base_Color_jpg-surface">
          <surface type="2D">
            <init_from>PBRFULL_Poster2-material_Base_Color_jpg</init_from>
          </surface>
        </newparam>
        <newparam sid="PBRFULL_Poster2-material_Base_Color_jpg-sampler">
          <sampler2D>
            <source>PBRFULL_Poster2-material_Base_Color_jpg-surface</source>
          </sampler2D>
        </newparam>
        <technique sid="common">
          <phong>
            <emission>
              <color sid="emission">0 0 0 1</color>
            </emission>
            <ambient>
              <color sid="ambient">0 0 0 1</color>
            </ambient>
            <diffuse>
              <texture texture="PBRFULL_Poster2-material_Base_Color_jpg-sampler"/>
            </diffuse>
            <specular>
              <color sid="specular">0.5 0.5 0.5 1</color>
            </specular>
            <shininess>
              <float sid="shininess">50</float>
            </shininess>
            <index_of_refraction>
              <float sid="index_of_refraction">1</float>
            </index_of_refraction>
          </phong>
        </technique>
        <extra>
          <technique profile="GOOGLEEARTH">
            <double_sided>1</double_sided>
          </technique>
        </extra>
      </profile_COMMON>
      <extra><technique profile="MAX3D"><double_sided>1</double_sided></technique></extra>
    </effect>
  </library_effects>
  <library_materials>
    <material id="PBRFULL_Poster2-material" name="PBRFULL_Poster2">
      <instance_effect url="#PBRFULL_Poster2-effect"/>
    </material>
  </library_materials>
  <library_geometries>
    <geometry id="Cube-mesh" name="Cube">
      <mesh>
        <source id="Cube-mesh-positions">
          <float_array id="Cube-mesh-positions-array" count="60">0.00999999 0.3062557 -0.3750001 0.00999999 -0.3062557 -0.3750001 -0.00999999 -0.3062556 -0.3750001 -0.00999999 0.3062558 -0.3750001 0.00999999 0.3062555 0.3750001 0.00999993 -0.3062559 0.3750001 -0.00999999 -0.3062556 0.3750001 -0.00999999 0.3062557 0.3750001 0.01041543 0.3189793 -0.3827436 0.01041543 -0.3189793 -0.3827436 -0.01041543 -0.3189792 -0.3827436 -0.01041543 0.3189794 -0.3827436 0.01041543 0.3189791 0.3825149 0.01041543 -0.3189795 0.3825149 -0.01041543 -0.3189792 0.3825149 -0.01041543 0.3189793 0.3825149 -0.003401339 -0.3062556 -0.3750001 -0.003401339 0.3062558 -0.3750001 -0.003401339 -0.3062556 0.3750001 -0.003401339 0.3062557 0.3750001</float_array>
          <technique_common>
            <accessor source="#Cube-mesh-positions-array" count="20" stride="3">
              <param name="X" type="float"/>
              <param name="Y" type="float"/>
              <param name="Z" type="float"/>
            </accessor>
          </technique_common>
        </source>
        <source id="Cube-mesh-normals">
          <float_array id="Cube-mesh-normals-array" count="99">-0.9994674 0.03263443 0 -0.9994674 -0.03263467 0 1 0 0 0.9984753 0 -0.05520033 0 0 -1 -0.9984753 0 -0.05520015 1.98529e-6 0 1 -2.86136e-6 -1 -2.92115e-7 7.15339e-6 1 0 -0.9985639 0 0.05357402 0.9994674 0.03263485 0 0.9994674 -0.03263467 0 0.998564 0 0.05357354 -1 0 0 0 -1 0 0 1 0 0 0 1 -0.9994674 0.03263485 0 -0.9994674 -0.03263473 0 1 0 0 0.9984754 0 -0.05519908 -0.9984754 0 -0.05519908 1.19076e-6 0 -1 -2.24259e-6 0 1 -1.28761e-5 -1 0 5.72272e-6 1 1.49086e-7 -0.998564 0 0.05357408 0.9994674 0.03263473 0 0.9994674 -0.03263485 0 0.998564 0 0.05357414 -1 0 0 0 -1 0 0 1 0</float_array>
          <technique_common>
            <accessor source="#Cube-mesh-normals-array" count="33" stride="3">
              <param name="X" type="float"/>
              <param name="Y" type="float"/>
              <param name="Z" type="float"/>
            </accessor>
          </technique_common>
        </source>
        <source id="Cube-mesh-map-0">
          <float_array id="Cube-mesh-map-0-array" count="216">0.9284079 0.01501476 0.9371268 0.2406101 0.9284079 0.238372 0.5086842 0.01501476 0.4999654 0.2406101 0.4999653 0.01270866 0.03611028 0.9849368 0.9243543 0.2619383 0.9231719 0.9863851 0.4912464 0.238372 0.06280374 0.2406101 0.07152259 0.238372 0.9653212 0.1951205 0.9630603 0.01270866 0.9653211 0.01270866 0.9284079 0.238372 0.4999654 0.2406101 0.5086842 0.2383721 0.9585385 0.202699 0.9514013 0.3926892 0.9514013 0.2026989 0.9514013 0.01270872 0.9585385 0.2026988 0.9514013 0.2026989 0.9442641 0.01270866 0.9514012 0.24061 0.9442641 0.24061 0.9371267 0.01270866 0.9442639 0.2406101 0.9371268 0.2406101 0.5086842 0.01501476 0.9371267 0.01270866 0.9284079 0.01501476 0.07152271 0.01501476 0.06280374 0.2406101 0.06280392 0.01270866 0.4912465 0.01501476 0.4999651 0.2406101 0.4912464 0.238372 0.07152271 0.01501476 0.4999653 0.01270866 0.4912465 0.01501476 0.08367711 0.02589976 0.4656514 0.2291684 0.08367711 0.2291685 0.9607994 0.2360659 0.9585385 0.01270866 0.9607994 0.01270866 0.9607995 0.01270866 0.9630603 0.236066 0.9607994 0.236066 0.9630603 0.1951205 0.9653211 0.3775323 0.9630603 0.3775323 0.9284079 0.01501476 0.9371267 0.01270866 0.9371268 0.2406101 0.5086842 0.01501476 0.5086842 0.2383721 0.4999654 0.2406101 0.03611028 0.9849368 0.03729301 0.2604899 0.9243543 0.2619383 0.4912464 0.238372 0.4999651 0.2406101 0.06280374 0.2406101 0.9653212 0.1951205 0.9630603 0.1951205 0.9630603 0.01270866 0.9284079 0.238372 0.9371268 0.2406101 0.4999654 0.2406101 0.9585385 0.202699 0.9585384 0.3926892 0.9514013 0.3926892 0.9514013 0.01270872 0.9585384 0.01270866 0.9585385 0.2026988 0.9442641 0.01270866 0.9514011 0.01270866 0.9514012 0.24061 0.9371267 0.01270866 0.9442639 0.01270866 0.9442639 0.2406101 0.5086842 0.01501476 0.4999653 0.01270866 0.9371267 0.01270866 0.07152271 0.01501476 0.07152259 0.238372 0.06280374 0.2406101 0.4912465 0.01501476 0.4999653 0.01270866 0.4999651 0.2406101 0.07152271 0.01501476 0.06280392 0.01270866 0.4999653 0.01270866 0.08367711 0.02589976 0.4656512 0.02589976 0.4656514 0.2291684 0.9607994 0.2360659 0.9585387 0.2360659 0.9585385 0.01270866 0.9607995 0.01270866 0.9630603 0.01270866 0.9630603 0.236066 0.9630603 0.1951205 0.9653212 0.1951205 0.9653211 0.3775323</float_array>
          <technique_common>
            <accessor source="#Cube-mesh-map-0-array" count="108" stride="2">
              <param name="S" type="float"/>
              <param name="T" type="float"/>
            </accessor>
          </technique_common>
        </source>
        <vertices id="Cube-mesh-vertices">
          <input semantic="POSITION" source="#Cube-mesh-positions"/>
        </vertices>
        <polylist material="PBRFULL_Poster2-material" count="36">
          <input semantic="VERTEX" source="#Cube-mesh-vertices" offset="0"/>
          <input semantic="NORMAL" source="#Cube-mesh-normals" offset="1"/>
          <input semantic="TEXCOORD" source="#Cube-mesh-map-0" offset="2" set="0"/>
          <vcount>3 3 3 3 3 3 3 3 3 3 3 3 3 3 3 3 3 3 3 3 3 3 3 3 3 3 3 3 3 3 3 3 3 3 3 3 </vcount>
          <p>2 0 0 14 0 1 6 0 2 3 1 3 15 1 4 11 1 5 4 2 6 1 2 7 0 2 8 4 3 9 13 3 10 5 3 11 7 4 12 18 4 13 6 4 14 6 5 15 15 5 16 7 5 17 8 4 18 10 4 19 11 4 20 12 6 21 14 6 22 13 6 23 13 7 24 10 7 25 9 7 26 8 8 27 15 8 28 12 8 29 3 9 30 10 9 31 2 9 32 1 10 33 13 10 34 9 10 35 0 11 36 12 11 37 4 11 38 1 12 39 8 12 40 0 12 41 18 13 42 17 13 43 16 13 44 3 14 45 19 14 46 7 14 47 6 15 48 16 15 49 2 15 50 2 16 51 17 16 52 3 16 53 2 17 54 10 17 55 14 17 56 3 18 57 7 18 58 15 18 59 4 19 60 5 19 61 1 19 62 4 20 63 12 20 64 13 20 65 7 4 66 19 4 67 18 4 68 6 21 69 14 21 70 15 21 71 8 22 72 9 22 73 10 22 74 12 23 75 15 23 76 14 23 77 13 24 78 14 24 79 10 24 80 8 25 81 11 25 82 15 25 83 3 26 84 11 26 85 10 26 86 1 27 87 5 27 88 13 27 89 0 28 90 8 28 91 12 28 92 1 29 93 9 29 94 8 29 95 18 30 96 19 30 97 17 30 98 3 31 99 17 31 100 19 31 101 6 32 102 18 32 103 16 32 104 2 16 105 16 16 106 17 16 107</p>
        </polylist>
      </mesh>
      <extra><technique profile="MAYA"><double_sided>1</double_sided></technique></extra>
    </geometry>
  </library_geometries>
  <library_controllers/>
  <library_visual_scenes>
    <visual_scene id="Scene" name="Scene">
      <node id="Cube" name="Cube" type="NODE">
        <matrix sid="transform">1 0 0 0.01011105 0 1 0 -0.004873625 0 0 1 -0.02252663 0 0 0 1</matrix>
        <instance_geometry url="#Cube-mesh" name="Cube">
          <bind_material>
            <technique_common>
              <instance_material symbol="PBRFULL_Poster2-material" target="#PBRFULL_Poster2-material"/>
            </technique_common>
          </bind_material>
        </instance_geometry>
      </node>
    </visual_scene>
  </library_visual_scenes>
  <scene>
    <instance_visual_scene url="#Scene"/>
  </scene>
</COLLADA>