<?xml version="1.0" encoding="utf-8"?>
<COLLADA xmlns="http://www.collada.org/2005/11/COLLADASchema" version="1.4.1">
  <asset>
    <contributor>
      <author>Blender User</author>
      <authoring_tool>Blender 2.78.0</authoring_tool>
    </contributor>
    <created>2017-09-27T11:24:09</created>
    <modified>2017-09-27T11:24:09</modified>
    <unit name="meter" meter="1"/>
    <up_axis>Z_UP</up_axis>
  </asset>
  <library_images>
    <image id="PBRFULL_LaboRoomShelf-material_Base_Color_jpg" name="PBRFULL_LaboRoomShelf-material_Base_Color_jpg">
      <init_from>PBRFULL_LaboRoomShelf-material_Base_Color.jpg</init_from>
    </image>
  </library_images>
  <library_effects>
    <effect id="PBRFULL_LaboRoomShelf-effect">
      <profile_COMMON>
        <newparam sid="PBRFULL_LaboRoomShelf-material_Base_Color_jpg-surface">
          <surface type="2D">
            <init_from>PBRFULL_LaboRoomShelf-material_Base_Color_jpg</init_from>
          </surface>
        </newparam>
        <newparam sid="PBRFULL_LaboRoomShelf-material_Base_Color_jpg-sampler">
          <sampler2D>
            <source>PBRFULL_LaboRoomShelf-material_Base_Color_jpg-surface</source>
          </sampler2D>
        </newparam>
        <technique sid="common">
          <phong>
            <emission>
              <color sid="emission">0 0 0 1</color>
            </emission>
            <ambient>
              <color sid="ambient">0 0 0 1</color>
            </ambient>
            <diffuse>
              <texture texture="PBRFULL_LaboRoomShelf-material_Base_Color_jpg-sampler"/>
            </diffuse>
            <specular>
              <color sid="specular">0.25 0.25 0.25 1</color>
            </specular>
            <shininess>
              <float sid="shininess">300</float>
            </shininess>
            <index_of_refraction>
              <float sid="index_of_refraction">1</float>
            </index_of_refraction>
          </phong>
        </technique>
      </profile_COMMON>
    </effect>
  </library_effects>
  <library_materials>
    <material id="PBRFULL_LaboRoomShelf-material" name="PBRFULL_LaboRoomShelf">
      <instance_effect url="#PBRFULL_LaboRoomShelf-effect"/>
    </material>
  </library_materials>
  <library_geometries>
    <geometry id="Cube_079-mesh" name="Cube.079">
      <mesh>
        <source id="Cube_079-mesh-positions">
          <float_array id="Cube_079-mesh-positions-array" count="1050">-0.06203383 -0.802232 0.08416265 -0.06203383 -0.802232 0.1115128 -0.06203383 0.7975832 0.08416265 -0.06203383 0.7975832 0.1115128 0.2048962 -0.802232 0.08416265 0.2048962 -0.802232 0.1115128 0.2048962 0.7975832 0.08416265 0.2048962 0.7975832 0.1115128 0.02586472 0.7325249 -0.1056377 0.02586472 0.718042 -0.1056377 -0.06203389 0.718042 -0.1854568 -0.06203377 0.7325249 -0.1854568 0.2048963 0.7325249 0.08147335 0.2048962 0.718042 0.08147335 -0.06203389 0.718042 0.08147335 -0.06203383 0.7325249 0.08147335 0.2048963 0.7325249 0.0514698 0.2048962 0.718042 0.0514698 -0.06203389 0.718042 0.0514698 -0.06203383 0.7325249 0.0514698 -0.02442884 0.7325249 -0.1854568 -0.0244289 0.718042 -0.1854568 -0.0244289 0.7325249 0.08147335 -0.02442902 0.718042 0.08147335 -0.02442884 0.7325249 0.0514698 -0.02442902 0.718042 0.0514698 0.1414611 0.7325249 0.01816511 0.141461 0.718042 0.01816511 -0.06203389 0.718042 -0.0134322 -0.06203383 0.7325249 -0.0134322 -0.0244289 0.718042 0.02415883 -0.02442884 0.7325249 0.02415883 -0.0244289 0.718042 -0.02897357 0.07772904 0.7325249 -0.02554482 0.07772898 0.718042 -0.02554482 -0.06203389 0.718042 -0.05814164 -0.06203383 0.7325249 -0.05814164 -0.02442884 0.7325249 -0.02897357 -0.0244289 0.718042 -0.1092359 0.04586404 0.7325249 -0.06662559 0.04586392 0.718042 -0.06662559 -0.06203389 0.718042 -0.1234431 -0.06203383 0.7325249 -0.1234431 -0.02442884 0.7325249 -0.1092359 -0.01168721 0.7325249 -0.1691079 -0.01168721 0.718042 -0.1691079 0.09023368 0.7325249 0.08147335 0.09023362 0.718042 0.08147335 0.09023368 0.7325249 0.0514698 0.09023362 0.718042 0.0514698 0.05851608 0.7325249 0.02116197 0.05851602 0.718042 0.02116197 0.02665001 0.718042 -0.02725917 0.02665007 0.7325249 -0.02725917 0.01071745 0.718042 -0.08793073 0.01071751 0.7325249 -0.08793073 0.2048963 0.7325249 0.07645207 0.2048962 0.718042 0.07645207 -0.06203389 0.718042 0.07645207 -0.06203383 0.7325249 0.07645207 -0.0244289 0.7325249 0.07645207 -0.02442902 0.718042 0.07645207 0.09023362 0.718042 0.07645207 0.09023368 0.7325249 0.07645207 -0.05360293 0.7325249 -0.1854568 -0.05360299 0.718042 -0.1854568 -0.05360299 0.7325249 0.08147335 -0.05360305 0.718042 0.08147335 -0.05360299 0.7325249 0.0514698 -0.05360305 0.718042 0.0514698 -0.05360299 0.718042 -0.005004584 -0.05360299 0.7325249 -0.005004584 -0.05360299 0.718042 -0.05160206 -0.05360293 0.7325249 -0.05160206 -0.05360299 0.718042 -0.120258 -0.05360293 0.7325249 -0.120258 -0.05360299 0.7325249 0.07645207 -0.05360305 0.718042 0.07645207 -0.05360293 0.7673815 -0.1548163 -0.06203377 0.7673815 -0.1548163 -0.05360299 0.6831852 -0.1548163 -0.06203389 0.6831852 -0.1548163 -0.06203389 0.6831852 0.05765044 -0.06203389 0.6831852 0.06172442 -0.06203383 0.7673815 0.05765044 -0.06203383 0.7673815 0.06172442 -0.05360299 0.7673815 0.06172442 -0.05360305 0.6831852 0.06172442 -0.06203389 0.6831852 -0.01526552 -0.06203389 0.6831852 0.03738486 -0.06203383 0.7673815 -0.01526552 -0.06203383 0.7673815 0.03738486 -0.05360293 0.7673815 0.03738486 -0.05360305 0.6831852 0.03738486 -0.06203389 0.6831852 -0.05153489 -0.06203383 0.7673815 -0.05153489 -0.05360299 0.6831852 -0.008428812 -0.05360293 0.7673815 -0.008428812 -0.06203389 0.6831852 -0.1045092 -0.06203383 0.7673815 -0.1045092 -0.05360299 0.6831852 -0.04622977 -0.05360293 0.7673815 -0.04622977 -0.05360299 0.6831852 -0.1019255 -0.05360293 0.7673815 -0.1019255 -0.05360299 0.7673815 0.05765044 -0.05360305 0.6831852 0.05765044 0.1829649 0.7687062 0.07645207 0.1829649 0.7687062 0.08147335 0.1829649 0.6818607 0.07645207 0.1829649 0.6818607 0.08147335 0.08499783 0.7687062 0.08147335 -0.01296919 0.7687062 0.08147335 0.08499771 0.6818607 0.08147335 -0.01296925 0.6818607 0.08147335 -0.01296919 0.7687062 0.07645207 0.08499783 0.7687062 0.07645207 -0.01296925 0.6818607 0.07645207 0.08499771 0.6818607 0.07645207 -0.03789532 0.7687062 0.08147335 -0.03789538 0.6818607 0.08147335 -0.03789532 0.7687062 0.07645207 -0.03789538 0.6818607 0.07645207 0.0258646 0.01593518 -0.1056377 0.0258646 0.001452386 -0.1056377 -0.06203401 0.001452386 -0.1854568 -0.06203389 0.01593518 -0.1854568 0.2048962 0.01593518 0.08147335 0.2048961 0.001452386 0.08147335 -0.06203401 0.001452386 0.08147335 -0.06203395 0.01593518 0.08147335 0.2048962 0.01593518 0.0514698 0.2048961 0.001452386 0.0514698 -0.06203401 0.001452386 0.0514698 -0.06203395 0.01593518 0.0514698 -0.02442902 0.01593518 -0.1854568 -0.02442902 0.001452386 -0.1854568 -0.02442902 0.01593518 0.08147335 -0.02442908 0.001452386 0.08147335 -0.02442902 0.01593518 0.0514698 -0.02442908 0.001452386 0.0514698 0.141461 0.01593518 0.01816511 0.1414608 0.001452386 0.01816511 -0.06203401 0.001452386 -0.0134322 -0.06203395 0.01593518 -0.0134322 -0.02442902 0.001452386 0.02415883 -0.02442902 0.01593518 0.02415883 -0.02442902 0.001452386 -0.02897357 0.07772892 0.01593518 -0.02554434 0.07772886 0.001452386 -0.02554434 -0.06203401 0.001452386 -0.05814123 -0.06203395 0.01593518 -0.05814123 -0.02442902 0.01593518 -0.02897357 -0.02442902 0.001452386 -0.1092355 0.04586392 0.01593518 -0.06662517 0.0458638 0.001452386 -0.06662517 -0.06203401 0.001452386 -0.1234431 -0.06203395 0.01593518 -0.1234431 -0.02442902 0.01593518 -0.1092359 -0.01168733 0.01593518 -0.1691079 -0.01168733 0.001452386 -0.1691074 0.09023362 0.01593518 0.08147335 0.09023344 0.001452386 0.08147335 0.09023362 0.01593518 0.0514698 0.09023344 0.001452386 0.0514698 0.05851596 0.01593518 0.02116197 0.05851584 0.001452386 0.02116197 0.02664989 0.001452386 -0.02725875 0.02664995 0.01593518 -0.02725875 0.01071733 0.001452386 -0.08793032 0.01071739 0.01593518 -0.08793032 0.2048962 0.01593518 0.07645207 0.2048961 0.001452386 0.07645207 -0.06203401 0.001452386 0.07645207 -0.06203395 0.01593518 0.07645207 -0.02442902 0.01593518 0.07645207 -0.02442908 0.001452386 0.07645207 0.09023344 0.001452386 0.07645207 0.09023362 0.01593518 0.07645207 -0.05360305 0.01593518 -0.1854568 -0.05360311 0.001452386 -0.1854568 -0.05360311 0.01593518 0.08147335 -0.05360317 0.001452386 0.08147335 -0.05360311 0.01593518 0.0514698 -0.05360317 0.001452386 0.0514698 -0.05360311 0.001452386 -0.005004167 -0.05360311 0.01593518 -0.005004167 -0.05360311 0.001452386 -0.05160206 -0.05360305 0.01593518 -0.05160206 -0.05360311 0.001452386 -0.1202576 -0.05360305 0.01593518 -0.1202576 -0.05360311 0.01593518 0.07645207 -0.05360317 0.001452386 0.07645207 -0.05360305 0.05079215 -0.1548163 -0.06203389 0.05079215 -0.1548163 -0.05360311 -0.03340405 -0.1548163 -0.06203401 -0.03340405 -0.1548163 -0.06203401 -0.03340405 0.05765128 -0.06203401 -0.03340405 0.06172442 -0.06203395 0.05079215 0.05765128 -0.06203395 0.05079215 0.06172442 -0.05360311 0.05079215 0.06172442 -0.05360317 -0.03340405 0.06172442 -0.06203401 -0.03340405 -0.0152651 -0.06203401 -0.03340405 0.03738486 -0.06203395 0.05079215 -0.0152651 -0.06203395 0.05079215 0.03738486 -0.05360305 0.05079215 0.03738486 -0.05360317 -0.03340405 0.03738486 -0.06203401 -0.03340405 -0.05153447 -0.06203389 0.05079215 -0.05153447 -0.05360311 -0.03340405 -0.008428394 -0.05360305 0.05079215 -0.008428394 -0.06203401 -0.03340405 -0.1045092 -0.06203389 0.05079215 -0.1045092 -0.05360311 -0.03340405 -0.04622977 -0.05360305 0.05079215 -0.04622977 -0.05360311 -0.03340405 -0.1019251 -0.05360305 0.05079215 -0.1019251 -0.05360311 0.05079215 0.05765128 -0.05360317 -0.03340405 0.05765128 0.1829649 0.05211681 0.07645207 0.1829649 0.05211681 0.08147335 0.1829647 -0.03472876 0.07645207 0.1829647 -0.03472876 0.08147335 0.08499771 0.05211681 0.08147335 -0.01296931 0.05211681 0.08147335 0.08499759 -0.03472876 0.08147335 -0.01296937 -0.03472876 0.08147335 -0.01296931 0.05211681 0.07645207 0.08499771 0.05211681 0.07645207 -0.01296937 -0.03472876 0.07645207 0.08499759 -0.03472876 0.07645207 -0.03789544 0.05211681 0.08147335 -0.0378955 -0.03472876 0.08147335 -0.03789544 0.05211681 0.07645207 -0.0378955 -0.03472876 0.07645207 0.0258646 -0.7265678 -0.1056377 0.0258646 -0.7410506 -0.1056377 -0.06203401 -0.7410506 -0.1854568 -0.06203389 -0.7265678 -0.1854568 0.2048962 -0.7265678 0.08147335 0.2048961 -0.7410506 0.08147335 -0.06203401 -0.7410506 0.08147335 -0.06203395 -0.7265678 0.08147335 0.2048962 -0.7265678 0.0514698 0.2048961 -0.7410506 0.0514698 -0.06203401 -0.7410506 0.0514698 -0.06203395 -0.7265678 0.0514698 -0.02442902 -0.7265678 -0.1854568 -0.02442902 -0.7410506 -0.1854568 -0.02442902 -0.7265678 0.08147335 -0.02442908 -0.7410506 0.08147335 -0.02442902 -0.7265678 0.0514698 -0.02442908 -0.7410506 0.0514698 0.141461 -0.7265678 0.01816511 0.1414608 -0.7410506 0.01816511 -0.06203401 -0.7410506 -0.0134322 -0.06203395 -0.7265678 -0.0134322 -0.02442902 -0.7410506 0.02415883 -0.02442902 -0.7265678 0.02415883 -0.02442902 -0.7410506 -0.02897357 0.07772892 -0.7265678 -0.02554434 0.07772886 -0.7410506 -0.02554434 -0.06203401 -0.7410506 -0.05814123 -0.06203395 -0.7265678 -0.05814123 -0.02442902 -0.7265678 -0.02897357 -0.02442902 -0.7410506 -0.1092355 0.04586392 -0.7265678 -0.06662517 0.0458638 -0.7410506 -0.06662517 -0.06203401 -0.7410506 -0.1234431 -0.06203395 -0.7265678 -0.1234431 -0.02442902 -0.7265678 -0.1092359 -0.01168733 -0.7265678 -0.1691079 -0.01168733 -0.7410506 -0.1691074 0.09023362 -0.7265678 0.08147335 0.09023344 -0.7410506 0.08147335 0.09023362 -0.7265678 0.0514698 0.09023344 -0.7410506 0.0514698 0.05851596 -0.7265678 0.02116197 0.05851584 -0.7410506 0.02116197 0.02664989 -0.7410506 -0.02725875 0.02664995 -0.7265678 -0.02725875 0.01071733 -0.7410506 -0.08793032 0.01071739 -0.7265678 -0.08793032 0.2048962 -0.7265678 0.07645207 0.2048961 -0.7410506 0.07645207 -0.06203401 -0.7410506 0.07645207 -0.06203395 -0.7265678 0.07645207 -0.02442902 -0.7265678 0.07645207 -0.02442908 -0.7410506 0.07645207 0.09023344 -0.7410506 0.07645207 0.09023362 -0.7265678 0.07645207 -0.05360305 -0.7265678 -0.1854568 -0.05360311 -0.7410506 -0.1854568 -0.05360311 -0.7265678 0.08147335 -0.05360317 -0.7410506 0.08147335 -0.05360311 -0.7265678 0.0514698 -0.05360317 -0.7410506 0.0514698 -0.05360311 -0.7410506 -0.005004167 -0.05360311 -0.7265678 -0.005004167 -0.05360311 -0.7410506 -0.05160206 -0.05360305 -0.7265678 -0.05160206 -0.05360311 -0.7410506 -0.1202576 -0.05360305 -0.7265678 -0.1202576 -0.05360311 -0.7265678 0.07645207 -0.05360317 -0.7410506 0.07645207 -0.05360305 -0.6917109 -0.1548163 -0.06203389 -0.6917109 -0.1548163 -0.05360311 -0.7759071 -0.1548163 -0.06203401 -0.7759071 -0.1548163 -0.06203401 -0.7759071 0.05765128 -0.06203401 -0.7759071 0.06172442 -0.06203395 -0.6917109 0.05765128 -0.06203395 -0.6917109 0.06172442 -0.05360311 -0.6917109 0.06172442 -0.05360317 -0.7759071 0.06172442 -0.06203401 -0.7759071 -0.0152651 -0.06203401 -0.7759071 0.03738486 -0.06203395 -0.6917109 -0.0152651 -0.06203395 -0.6917109 0.03738486 -0.05360305 -0.6917109 0.03738486 -0.05360317 -0.7759071 0.03738486 -0.06203401 -0.7759071 -0.05153447 -0.06203389 -0.6917109 -0.05153447 -0.05360311 -0.7759071 -0.008428394 -0.05360305 -0.6917109 -0.008428394 -0.06203401 -0.7759071 -0.1045092 -0.06203389 -0.6917109 -0.1045092 -0.05360311 -0.7759071 -0.04622977 -0.05360305 -0.6917109 -0.04622977 -0.05360311 -0.7759071 -0.1019251 -0.05360305 -0.6917109 -0.1019251 -0.05360311 -0.6917109 0.05765128 -0.05360317 -0.7759071 0.05765128 0.1829649 -0.6903862 0.07645207 0.1829649 -0.6903862 0.08147335 0.1829647 -0.7772317 0.07645207 0.1829647 -0.7772317 0.08147335 0.08499771 -0.6903862 0.08147335 -0.01296931 -0.6903862 0.08147335 0.08499759 -0.7772317 0.08147335 -0.01296937 -0.7772317 0.08147335 -0.01296931 -0.6903862 0.07645207 0.08499771 -0.6903862 0.07645207 -0.01296937 -0.7772317 0.07645207 0.08499759 -0.7772317 0.07645207 -0.03789544 -0.6903862 0.08147335 -0.0378955 -0.7772317 0.08147335 -0.03789544 -0.6903862 0.07645207 -0.0378955 -0.7772317 0.07645207</float_array>
          <technique_common>
            <accessor source="#Cube_079-mesh-positions-array" count="350" stride="3">
              <param name="X" type="float"/>
              <param name="Y" type="float"/>
              <param name="Z" type="float"/>
            </accessor>
          </technique_common>
        </source>
        <source id="Cube_079-mesh-normals">
          <float_array id="Cube_079-mesh-normals-array" count="780">-1 0 0 0 1 0 1 0 0 0 -1 0 0 0 -1 0 0 1 1 -9.60486e-6 0 -1 4.00202e-6 0 1 -1.94584e-7 0 0 -0.6602218 -0.7510709 -1 4.95402e-6 0 1 -1.02475e-6 0 0.4648468 -4.48767e-6 -0.8853912 0 -1 -1.346e-6 0.7887477 -3.49016e-6 -0.6147171 0.5655989 -4.99258e-6 -0.8246805 -1 1.54379e-7 0 -1 4.31487e-6 0 -1 4.92372e-6 0 0.7901573 -3.09215e-6 -0.6129041 0 1 3.08044e-6 0 0.6602234 -0.7510693 0 -1 -1.56805e-6 0.8898815 -4.40048e-6 -0.456192 -1 5.18475e-6 -8.41011e-7 0 1 -2.07775e-6 0 1 -1.54022e-6 0 -1 -3.64557e-6 0 -1 1.95219e-6 0.8606485 0 -0.5091997 0.8551632 -0.518359 0 0 1 -2.29062e-6 -1 4.50456e-6 0 1 -7.7221e-6 0 0 1 1.39947e-6 0 -1 -4.67548e-6 0.855162 0.518361 0 0 1 0 1 -3.22534e-7 1.11924e-6 -1 0 0 -1 4.09898e-7 0 -1 7.96668e-7 -1.03672e-6 -1 0 0 -1 0 0 1 -1.45801e-6 0 -1 -2.52185e-7 0 0 0.4929528 0.870056 1 -5.91385e-7 1.25332e-6 0 -0.4929499 0.8700577 1 -3.29606e-7 2.57353e-6 -0.9172866 0.3982276 0 -0.9172867 -0.3982275 0 1 -9.60489e-6 0 -1 4.00204e-6 0 1 -1.94583e-7 0 0 -0.6602253 -0.7510678 -1 3.96324e-6 0 1 6.14968e-7 0 0.4648464 -3.59015e-6 -0.8853915 0 -1 0 0.7887554 -1.90018e-5 -0.6147072 0.5655952 -5.82473e-6 -0.8246831 -1 3.60214e-7 0 -1 5.03409e-6 0 -1 4.92371e-6 0 -1 -2.67374e-7 0 0.7901596 -2.47374e-6 -0.6129013 0 1 0 0 0.6602202 -0.7510722 0 -1 0 0.8898841 -4.76717e-6 -0.4561868 -1 5.18478e-6 -1.02122e-6 0 1 0 0 -1 0 0 1 0 0.8606465 0 -0.5092031 0.8551617 -0.5183613 0 0 1 0 -1 5.14809e-6 0 1 -7.72214e-6 0 0 1 0 0 1 0 0.8551655 0.5183551 0 0 1 0 1 0 1.35907e-6 -1 4.09985e-7 0 -1 1.59332e-6 0 -1 0 0 -1 0 0 1 -1.458e-6 0 -1 1.51308e-6 0 -1 -3.68333e-7 -1.7461e-6 0 0.492949 0.8700582 1 -5.91395e-7 1.25333e-6 0 -0.4929547 0.870055 1 -6.59179e-7 3.12487e-6 -0.9172878 0.3982251 0 -0.9172865 -0.3982279 0 1 -1.94584e-7 0 -1 3.96322e-6 0 1 6.1497e-7 0 0.464845 -3.59012e-6 -0.8853921 0 -1 0 0.788756 -1.90017e-5 -0.6147065 0 1 -2.85579e-6 0.5655937 -5.82468e-6 -0.824684 -1 3.60215e-7 0 -1 5.03406e-6 0 -1 4.92369e-6 0 -1 -2.67375e-7 0 0.7901574 -2.47372e-6 -0.6129041 0 0.660221 -0.7510714 0 -1 -1.56805e-6 0.8898847 -4.76715e-6 -0.4561856 -1 5.18475e-6 -1.02122e-6 0 1 -2.07775e-6 0 -1 -3.64557e-6 0 1 1.4279e-6 0.860647 0 -0.5092021 0.8551612 -0.5183623 0 -1 5.14807e-6 0 0 1 8.13033e-7 0.855165 0.5183561 0 0 1 -2.21354e-7 1 0 1.35908e-6 -1 4.09984e-7 0 -1 1.59333e-6 0 -1 0 0 -1 0 0 1 -1.45801e-6 0 -1 1.51309e-6 0 -1 -3.68334e-7 -1.7461e-6 0 0.4929499 0.8700577 1 -5.91395e-7 1.25333e-6 0 -0.4929552 0.8700548 1 -6.59181e-7 3.12488e-6 -0.9172875 0.398226 0 -0.9172855 -0.3982305 0 1 -9.60482e-6 0 1 0 0 -1 5.60281e-6 0 1 -2.39863e-7 0 0 -0.6602221 -0.7510704 0.4648465 -3.59013e-6 -0.8853913 0.7887508 0 -0.6147131 0 -1 -3.08044e-6 0.5655986 -2.49629e-6 -0.8246808 -1 5.03401e-6 0 -1 1.64803e-7 0 0.7901598 -4.32903e-6 -0.6129009 0 0.6602246 -0.7510682 0.8898815 0 -0.4561918 -1 -4.11675e-7 0 -1 7.77713e-6 0 -1 0 0 0 1 -9.11392e-7 0 -1 1.03887e-6 0 -1 3.08044e-6 0.8606486 0 -0.5091995 0.8551639 -0.5183578 0 0 1 3.9419e-6 0 -1 -2.8558e-6 -1 5.14806e-6 0 1 -1.02961e-5 0 0 -1 2.26105e-6 0.8551622 0.5183606 0 1 -1.76706e-6 0 -1 -6.65127e-7 0 1 1.94583e-7 0 -1 7.53989e-7 -8.41006e-7 -1 2.52184e-7 0 1 -1.65589e-6 0 -1 2.98803e-7 0 0 0.4929535 0.8700557 1 0 1.54496e-6 0 -0.4929516 0.8700567 1 0 0 -0.9172868 0.3982275 0 -0.9172866 -0.3982278 0 1 -6.40326e-6 0 -1 5.60285e-6 0 0 -0.6602252 -0.7510677 -1 4.95405e-6 0 0.4648463 -5.38523e-6 -0.8853914 0 -1 0 0 1 0 0.7887492 -2.71459e-6 -0.6147153 0.5655959 -8.32105e-7 -0.8246826 -1 2.53736e-7 0 -1 5.03409e-6 0 -1 4.92371e-6 0 -1 0 0 0.7901597 -3.71061e-6 -0.6129011 0 0.6602202 -0.7510722 0.8898833 0 -0.4561882 -1 -2.05839e-7 0 -1 9.3326e-6 0 0 1 0 -1 -1.33689e-7 0 0 -1 0 0 1 0 0 -1 0 0 -1 0 0.860648 -1.575e-5 -0.5092005 0 1 0 1 8.1997e-7 0 -1 5.14809e-6 0 1 -7.72214e-6 0 0 -1 0 0.8551657 0.5183549 0 0 1 -3.40668e-7 1 -2.12043e-6 0 1 1.94586e-7 0 -1 7.53981e-7 -1.02122e-6 1 -1.89244e-6 0 -1 2.04576e-6 0 -1 1.79282e-6 0 0 0.4929496 0.870058 1 -2.91605e-7 1.54498e-6 0 -0.4929543 0.8700553 1 -2.0053e-7 0 -0.9172881 0.3982242 0 -0.9172857 -0.3982297 0 1 -6.40322e-6 0 0.4648465 -5.3852e-6 -0.8853913 0 -1 5.71159e-6 0 1 5.20195e-6 0 1 7.84023e-7 0.7887483 -2.71457e-6 -0.6147162 0.5655979 -8.32103e-7 -0.8246811 -1 2.53737e-7 0 -1 0 0 0.7901598 -3.71059e-6 -0.612901 0 0.6602223 -0.7510703 0.8898835 0 -0.456188 -1 -2.05839e-7 0 -1 9.33256e-6 0 0 1 1.21277e-6 -1 -1.33689e-7 0 0 1 9.11392e-7 0 -1 1.1453e-6 0 1 -1.46416e-6 0 -1 7.70116e-7 0.8606469 -1.57499e-5 -0.5092023 0.8551614 -0.5183619 0 0 1 3.94183e-6 1 8.19968e-7 0 1 -7.7221e-6 0 0.8551651 0.5183559 0 1 -2.12044e-6 0 1 1.94586e-7 0 -1 7.53984e-7 -1.02123e-6 1 -1.89244e-6 0 -1 2.04577e-6 0 -1 1.79282e-6 0 0 0.4929516 0.8700567 1 -2.91605e-7 1.54498e-6 0 -0.4929535 0.8700557 1 -2.00531e-7 0 -0.9172855 -0.3982306 0</float_array>
          <technique_common>
            <accessor source="#Cube_079-mesh-normals-array" count="260" stride="3">
              <param name="X" type="float"/>
              <param name="Y" type="float"/>
              <param name="Z" type="float"/>
            </accessor>
          </technique_common>
        </source>
        <source id="Cube_079-mesh-map-0">
          <float_array id="Cube_079-mesh-map-0-array" count="4104">0.7747492 0.1022374 0.7747492 0 0.9080861 0 0.7747492 0.5111873 0.7747492 0.4089499 0.9080852 0.4089497 0.7747492 0.5111873 0.9080258 0.5111873 0.9080258 0.6134247 0.9080852 0.3067123 0.9080853 0.4089497 0.7747492 0.4089496 0.908086 0.3067122 0.7747492 0.3067122 0.7747492 0.2044748 0.908086 0.1022374 0.9080861 0.2044748 0.7747492 0.2044748 0.9080861 0.1022374 0.7747492 0.1022374 0.9080861 0 0.9080852 0.5111871 0.7747492 0.5111873 0.9080852 0.4089497 0.7747493 0.6134247 0.7747492 0.5111873 0.9080258 0.6134247 0.7747492 0.3067122 0.9080852 0.3067123 0.7747492 0.4089496 0.908086 0.2044748 0.908086 0.3067122 0.7747492 0.2044748 0.7747492 0.1022375 0.908086 0.1022374 0.7747492 0.2044748 0.7759563 0.7236065 0.7759563 0.7268356 0.7747492 0.7268356 0.9749119 0.2012451 0.9761191 0.2012451 0.9761191 0.2044742 0.9975845 1 0.9963775 1 0.9963775 0.9812383 0.9602752 0.2436084 0.9573701 0.3121058 0.9573701 0.1144852 0.9192157 0.9978085 0.9180087 0.9978085 0.9180087 0.9790384 0.9602755 0.500134 0.9602754 0.2436084 0.9631806 0.3121059 0.9333691 0.9978082 0.9333595 0.883272 0.9375709 0.883272 0.9192157 0.8856525 0.9180087 0.8856525 0.9180086 0.6430431 0.9602755 0.9785948 0.9631807 0.9083446 0.9631807 0.9235666 0.9975845 0.7627242 0.9975848 0.8878948 0.9963777 0.8878948 0.05727589 0.09338587 0.1145519 0.09338593 0.1145519 0.1954767 0.5737754 0.9790378 0.5737754 0.885652 0.6310513 0.8856519 0.6246867 0.06111383 0.6310514 0 0.6310514 0.2849203 0.976119 0.2595654 0.9791346 0.25756 0.9791346 0.2950825 0.9749119 0.2156482 0.976119 0.2156482 0.976119 0.2595654 0.9963778 0.06123316 0.9963778 0 0.9975849 0 0.5737754 0.885652 0.5896189 0.7723588 0.6310513 0.7835613 0.0731194 0.2066791 0.1145519 0.1954767 0.1145519 0.3940904 0.9975844 0.5986719 0.9975845 0.7627242 0.9963775 0.7627242 0.9180086 0.6430431 0.9180087 0.8856525 0.9151036 0.8330019 0.9192157 0.6430431 0.9180086 0.6430431 0.9180086 0.4759152 0.9602754 0.8852512 0.9602754 0.9785948 0.9573702 0.9083446 0.9192157 0.4759152 0.9180086 0.4759152 0.9180086 0.2318128 0.9180087 0.8856525 0.9180087 0.9790384 0.9151036 0.9087564 0.9975844 0.5986719 0.9963773 0.5986719 0.9963774 0.4448105 0.09699565 0.6144773 0.08903706 0.3876818 0.1145519 0.3940904 0.5896189 0.7723588 0.6055365 0.5913562 0.6310513 0.5849477 0.9460226 0 0.946013 0.1145361 0.9418017 0.1145361 0.1081873 0.9179243 0.09699565 0.6144773 0.1145519 0.6941178 0.9975845 0.4448105 0.9963774 0.4448105 0.9963775 0.2988155 0.9192157 0.6430431 0.9221209 0.63619 0.9221209 0.8330019 0.9192157 0.2318128 0.9180086 0.2318128 0.9180086 0 0.6134951 0.3645607 0.6310514 0.2849203 0.6310513 0.5849477 0.9192157 0.8856525 0.9221209 0.8330019 0.9221209 0.9087564 0.5959388 0.4442012 0.6134951 0.3645607 0.6055365 0.5913562 0.08942937 0.6806673 0.0794394 0.5348368 0.09699565 0.6144773 0.5800217 0.5977647 0.6055365 0.5913562 0.5896189 0.7723588 0.0794394 0.5348368 0.06352221 0.3812732 0.08903706 0.3876818 0.06352221 0.3812732 0.03168702 0.2178815 0.0731194 0.2066791 0.5481865 0.7611564 0.5896189 0.7723588 0.5737754 0.885652 0.9963775 0.2988155 0.9963778 0.06123316 0.9975848 0.06123316 0.9749119 0.2595654 0.976119 0.2595654 0.976119 0.3034825 0.8237111 0.6134247 0.8237099 0.621817 0.7992302 0.621817 0.6059288 0.2983708 0.6246867 0.06111383 0.6134951 0.3645607 0.5164995 0.885652 0.5737754 0.885652 0.5737754 0.9790378 0.03168702 0.2178815 0 0.09338581 0.05727589 0.09338587 0.9718964 0.5565903 0.9749119 0.5545849 0.9749119 0.5921074 0 0 0.05727589 0 0.05727589 0.09338587 0.05727589 0 0.1145518 0 0.1145519 0.09338593 0.9749119 0.2595654 0.9749119 0.3034825 0.9718964 0.2950825 0.9602754 0.9785948 0.9602754 0.9973564 0.9573702 0.9235666 0.9192157 0.9790384 0.9180087 0.9790384 0.9180087 0.8856525 0.9602754 0.2436084 0.9602754 0 0.9631805 0.1144852 0.9975846 0.9812383 0.9963775 0.9812383 0.9963777 0.8878948 0.1145518 0 0.1291247 1.21876e-7 0.1291248 0.09338599 0.9749119 0.4136648 0.9718964 0.4180541 0.9718964 0.4085071 0.6310514 0.2849203 0.6456243 0.2437186 0.6456242 0.5003604 0.114552 0.9790382 0.1145519 0.6941178 0.1291248 0.7353194 0.6310513 0.5849477 0.6456242 0.5003604 0.6456242 0.6745457 0.1145519 0.6941178 0.1145519 0.3940904 0.1291248 0.4786777 0.6310513 0.7835613 0.6456242 0.6745457 0.6456242 0.8856519 0.1145519 0.3940904 0.1145519 0.1954767 0.1291248 0.3044923 0.1145519 0.1954767 0.1145519 0.09338593 0.1291248 0.09338599 0.6310513 0.9790378 0.6310513 0.8856519 0.6456242 0.8856519 0.6310514 0 0.6456243 0 0.6456243 0.2437186 0.8726741 0.7124324 0.872673 0.7040401 0.8971527 0.7040401 0.9749119 0.2044743 0.9761191 0.2044742 0.976119 0.2156482 0.7759563 0.7124325 0.7759563 0.7236065 0.7747492 0.7236065 0.9333595 0.07382404 0.9375708 0.07382404 0.9375708 0.08905291 0.9418017 0.1145361 0.946013 0.1145361 0.946013 0.3025882 0.9418016 0.8330006 0.946013 0.8330006 0.9460129 0.908755 0.9333595 0.3360631 0.9333595 0.1648074 0.9375708 0.1648074 0.9333595 0.4773665 0.9333595 0.3360631 0.9375708 0.3616193 0.9418016 0.6617449 0.946013 0.6361888 0.946013 0.8330006 0.9333595 0.6855618 0.9333595 0.4773665 0.9375708 0.4971973 0.9418016 0.5204416 0.946013 0.5006107 0.946013 0.6361888 0.9333595 0.883272 0.9333595 0.6855618 0.9375709 0.6952198 0.9418017 0.3122463 0.946013 0.3025882 0.946013 0.5006107 0.9418016 0.908755 0.9460129 0.908755 0.9460129 0.9239839 0.9333595 0.08905291 0.9375708 0.08905291 0.9375708 0.1648074 0.9602755 0.6742405 0.9602755 0.500134 0.9631806 0.5202069 0.9192157 0.2318128 0.9192157 0 0.9221208 0.1145371 0.9192157 0.9790384 0.9221209 0.9087564 0.9221209 0.9239853 0.9602753 0.5001339 0.9573702 0.5202069 0.9573701 0.3121058 0.9180086 0.2318128 0.9151035 0.3025894 0.9151034 0.1145371 0.9192157 0.4759152 0.9192157 0.2318128 0.9221208 0.3025894 0.9180087 0.9790384 0.9180087 0.9978085 0.9151036 0.9239853 0.9192157 0.6430431 0.9192157 0.4759152 0.9221209 0.5006119 0.9602755 0.6742405 0.9631806 0.6614463 0.9631806 0.8326244 0.9180086 0.4759152 0.9151035 0.5006119 0.9151035 0.3025894 0.9180086 0.6430431 0.9151035 0.63619 0.9151035 0.5006119 0.9602754 0.6742405 0.9573702 0.6614463 0.9573702 0.5202069 0.9418112 0.9978079 0.9418016 0.9239839 0.9460129 0.9239839 0.9602754 0.6742405 0.9602754 0.8852512 0.9573702 0.8326244 0.9375804 0 0.9375708 0.07382404 0.9333595 0.07382404 0.9602755 0.8852512 0.9631806 0.8326244 0.9631807 0.9083446 0.8237099 0.6593394 0.8237099 0.6968616 0.7992301 0.6968617 0.8237099 0.621817 0.8237099 0.6593394 0.7992302 0.6593394 0.872673 0.7040401 0.872673 0.6665178 0.8971528 0.6665178 0.872673 0.6665178 0.872673 0.6289955 0.8971528 0.6289955 0.872673 0.6289955 0.872673 0.6194486 0.8971528 0.6194486 0.8237099 0.6968616 0.8237099 0.7064086 0.7992302 0.7064086 0.8971539 0.6134247 0.8971528 0.6194486 0.872673 0.6194486 0.9749119 0.4575819 0.9749119 0.5014991 0.9718964 0.4930992 0.9749119 0.4575819 0.9718964 0.4555765 0.9718964 0.4180541 0.9749119 0.2156482 0.9718964 0.2200375 0.9718964 0.2104905 0.9718964 0.5565903 0.9718964 0.5126731 0.9749119 0.5170623 0.7992313 0.7124325 0.7992302 0.7064086 0.8237099 0.7064086 0.9749119 0.2595654 0.9718964 0.25756 0.9718964 0.2200375 0.976119 0.2156482 0.9761191 0.2044742 0.9791346 0.2104905 0.976119 0.2595654 0.976119 0.2156482 0.9791346 0.2200375 0.9718964 0.5126731 0.9718964 0.5014991 0.9749119 0.5075153 0.7771633 0.7156616 0.7771633 0.7124325 0.7783704 0.7124325 0.9001695 0.6134247 0.9013766 0.6134247 0.9013766 0.6166538 0.9999997 1 0.9987926 1 0.9987927 0.9812384 0.9689911 0.24361 0.966086 0.3121074 0.9660859 0.1144851 0.9121983 0.9978085 0.9109913 0.9978085 0.9109913 0.9790384 0.9718964 0.4972224 0.9718964 0.7537463 0.9689912 0.685249 0.9333497 0 0.9333594 0.1145362 0.929148 0.1145362 0.9121983 0.8856525 0.9109913 0.8856525 0.9109913 0.6430431 0.9718964 0.01876157 0.9689912 0.08900862 0.9689912 0.07378977 0.9999997 0.7627242 0.9999999 0.8878948 0.9987928 0.8878948 0.1864008 0.09338587 0.2436767 0.09338593 0.2436767 0.1954767 0.4446505 0.9790378 0.4446505 0.885652 0.5019264 0.885652 0.4955618 0.06111383 0.5019266 0 0.5019265 0.2849203 0.9013766 0.671745 0.9043921 0.6697396 0.9043921 0.7072621 0.9001695 0.6278278 0.9013766 0.6278278 0.9013766 0.671745 1 0.06123316 0.9987929 0.06123465 0.998793 0 0.4446505 0.885652 0.460494 0.7723588 0.5019264 0.7835613 0.2022443 0.2066791 0.2436767 0.1954767 0.2436767 0.3940904 0.9999995 0.5986735 0.9999997 0.7627242 0.9987926 0.7627242 0.9109913 0.6430431 0.9109913 0.8856525 0.9080861 0.8330019 0.9121983 0.6430431 0.9109913 0.6430431 0.9109912 0.4759168 0.9689912 0.8852512 0.9689912 0.9785947 0.9660861 0.9083477 0.9121983 0.4759168 0.9109912 0.4759168 0.9109912 0.2318128 0.9109913 0.8856525 0.9109913 0.9790384 0.9080861 0.9087595 0.9999995 0.5986735 0.9987924 0.5986735 0.9987925 0.4448121 0.2261205 0.6144757 0.218162 0.3876802 0.2436767 0.3940904 0.460494 0.7723588 0.4764117 0.5913578 0.5019264 0.5849477 0.9418016 0 0.941792 0.1145362 0.9375806 0.1145362 0.2373121 0.9179228 0.2261205 0.6144757 0.2436768 0.6941162 0.9999996 0.4448121 0.9987925 0.4448121 0.9987927 0.2988156 0.9121983 0.6430431 0.9151034 0.6361915 0.9151034 0.8330019 0.9121983 0.2318128 0.9109912 0.2318128 0.9109911 0 0.4843702 0.3645624 0.5019265 0.2849203 0.5019264 0.5849477 0.9121983 0.8856525 0.9151034 0.8330019 0.9151034 0.9087595 0.4668139 0.4442028 0.4843702 0.3645624 0.4764117 0.5913578 0.2185541 0.6806673 0.2085642 0.5348352 0.2261205 0.6144757 0.4508968 0.5977663 0.4764117 0.5913578 0.460494 0.7723588 0.2085642 0.5348352 0.192647 0.3812716 0.218162 0.3876802 0.192647 0.3812716 0.1608119 0.2178815 0.2022443 0.2066791 0.4190616 0.7611564 0.460494 0.7723588 0.4446505 0.885652 0.9999998 0.2988156 0.9987927 0.2988156 0.9987929 0.06123465 0.9001695 0.671745 0.9013766 0.671745 0.9013766 0.7156621 0.8237111 0.7124325 0.8237122 0.7040402 0.848192 0.7040401 0.476804 0.2983708 0.4955618 0.06111383 0.4843702 0.3645624 0.3873746 0.8856521 0.4446505 0.885652 0.4446505 0.9790378 0.1608119 0.2178815 0.1291249 0.09338587 0.1864008 0.09338587 0.9080258 0.6573418 0.9050102 0.6593472 0.9050102 0.6218247 0.1291249 0 0.1864008 0 0.1864008 0.09338587 0.1864008 0 0.2436767 0 0.2436767 0.09338593 0.9001695 0.671745 0.9001695 0.7156621 0.897154 0.7072622 0.9689912 0.9785947 0.9689912 0.9973564 0.9660861 0.9235666 0.9121983 0.9790384 0.9109913 0.9790384 0.9109913 0.8856525 0.9718964 0.7537463 0.9718964 0.9973564 0.9689912 0.8828712 0.9999997 0.9812384 0.9987927 0.9812384 0.9987928 0.8878948 0.2436767 0 0.2582497 1.46252e-7 0.2582497 0.09338599 0.9779275 0.3146566 0.974912 0.3190458 0.974912 0.3094988 0.5019265 0.2849203 0.5164994 0.2437202 0.5164994 0.5003604 0.2436768 0.9790382 0.2436768 0.6941162 0.2582497 0.7353178 0.5019264 0.5849477 0.5164994 0.5003604 0.5164994 0.6745473 0.2436768 0.6941162 0.2436767 0.3940904 0.2582497 0.4786777 0.5019264 0.7835613 0.5164994 0.6745473 0.5164994 0.8856519 0.2436767 0.3940904 0.2436767 0.1954767 0.2582497 0.3044908 0.2436767 0.1954767 0.2436767 0.09338593 0.2582497 0.09338599 0.5019264 0.9790378 0.5019264 0.885652 0.5164994 0.8856519 0.5019266 0 0.5164995 0 0.5164994 0.2437202 0.9963762 0 0.9963773 0.008392274 0.9718976 0.008392214 0.9001695 0.6166539 0.9013766 0.6166538 0.9013766 0.6278278 0.7771633 0.7268356 0.7771633 0.7156616 0.7783704 0.7156616 0.9333595 0.9239842 0.9291481 0.9239842 0.9291481 0.9087584 0.9375806 0.1145362 0.941792 0.1145362 0.941792 0.3025883 0.9375805 0.8330006 0.9417919 0.8330006 0.9417919 0.9087581 0.9333595 0.6617467 0.9333595 0.8330008 0.9291481 0.8330008 0.9333595 0.5204418 0.9333595 0.6617467 0.9291481 0.6361905 0.9375805 0.6617465 0.9417919 0.6361903 0.9417919 0.8330006 0.9333594 0.312248 0.9333595 0.5204418 0.929148 0.5006124 0.9375805 0.5204417 0.9417919 0.5006123 0.9417919 0.6361903 0.9333594 0.1145362 0.9333594 0.312248 0.929148 0.3025884 0.9375806 0.3122479 0.941792 0.3025883 0.9417919 0.5006123 0.9375805 0.9087581 0.9417919 0.9087581 0.9417919 0.9239839 0.9333595 0.9087584 0.9291481 0.9087584 0.9291481 0.8330008 0.9718964 0.3231143 0.9718964 0.4972224 0.9689912 0.4771494 0.9121983 0.2318128 0.9121983 0 0.9151034 0.1145371 0.9121983 0.9790384 0.9151034 0.9087595 0.9151034 0.9239853 0.9689912 0.5001339 0.966086 0.5202069 0.966086 0.3121074 0.9109912 0.2318128 0.908086 0.3025894 0.908086 0.1145371 0.9121983 0.4759168 0.9121983 0.2318128 0.9151034 0.3025894 0.9109913 0.9790384 0.9109913 0.9978085 0.9080861 0.9239853 0.9121983 0.6430431 0.9121983 0.4759168 0.9151034 0.5006134 0.9718964 0.3231143 0.9689912 0.3359085 0.9689912 0.1647319 0.9109912 0.4759168 0.9080861 0.5006134 0.908086 0.3025894 0.9109913 0.6430431 0.9080861 0.6361915 0.9080861 0.5006134 0.9689912 0.674242 0.966086 0.6614478 0.966086 0.5202069 0.9375901 0.9978079 0.9375805 0.9239839 0.9417919 0.9239839 0.9689912 0.674242 0.9689912 0.8852512 0.9660861 0.8326244 0.9291385 0.9978082 0.9291481 0.9239842 0.9333595 0.9239842 0.9718964 0.1121051 0.9689912 0.1647319 0.9689912 0.08900862 0.8237122 0.6665178 0.8237122 0.6289955 0.848192 0.6289955 0.8237122 0.7040402 0.8237122 0.6665178 0.848192 0.6665178 0.9963773 0.008392274 0.9963773 0.04591459 0.9718976 0.04591459 0.9963773 0.04591459 0.9963773 0.08343696 0.9718976 0.0834369 0.9963773 0.08343696 0.9963772 0.0929839 0.9718975 0.09298384 0.8237122 0.6289955 0.8237122 0.6194486 0.848192 0.6194486 0.9718964 0.09900766 0.9718975 0.09298384 0.9963772 0.0929839 0.9779275 0.3585737 0.9779275 0.4024908 0.974912 0.3940908 0.9779275 0.3585737 0.974912 0.3565683 0.974912 0.3190458 0.9001695 0.6278278 0.897154 0.6322171 0.897154 0.6226701 0.9080258 0.6573418 0.9080258 0.701259 0.9050102 0.6968698 0.8481909 0.6134247 0.848192 0.6194486 0.8237122 0.6194486 0.9001695 0.671745 0.897154 0.6697396 0.897154 0.6322171 0.9013766 0.6278278 0.9013766 0.6166538 0.9043921 0.6226701 0.9013766 0.671745 0.9013766 0.6278278 0.9043921 0.6322171 0.9080258 0.701259 0.9080258 0.712433 0.9050102 0.7064168 0.7771633 0.7236065 0.7771633 0.7268356 0.7759562 0.7268356 0.974912 0.09900772 0.9761191 0.09900772 0.9761191 0.1022368 0.9987921 1 0.997585 1 0.9975851 0.9812384 0.9660858 0.2436099 0.9631807 0.3121073 0.9631807 0.1144852 0.9262332 0.9978085 0.9250261 0.9978085 0.9250261 0.9790383 0.9544649 0.500134 0.9544649 0.24361 0.95737 0.3121074 0.9460324 0.9978082 0.9460227 0.883272 0.9502341 0.883272 0.9262332 0.8856524 0.9250261 0.8856524 0.9250261 0.6430431 0.954465 0.9785948 0.9573701 0.9083477 0.9573701 0.9235666 0.9987921 0.7627243 0.9987924 0.8878948 0.9975853 0.8878948 0.3155257 0.09338587 0.3728016 0.09338593 0.3728016 0.1954766 0.7029002 0.9790378 0.7029002 0.885652 0.7601761 0.885652 0.7538115 0.06111389 0.7601763 0 0.7601762 0.2849203 0.9761191 0.157328 0.9791346 0.1553226 0.9791346 0.1928451 0.9749119 0.1134108 0.9761191 0.1134108 0.9761191 0.157328 0.9987924 0.0612331 0.9975854 0.06123465 0.9975854 0 0.7029002 0.885652 0.7187438 0.7723588 0.7601761 0.7835613 0.3313692 0.2066791 0.3728016 0.1954766 0.3728016 0.3940903 0.9987919 0.5986735 0.9987921 0.7627243 0.997585 0.7627243 0.9250261 0.6430431 0.9250261 0.8856524 0.922121 0.8330019 0.9262332 0.6430431 0.9250261 0.6430431 0.9250261 0.4759167 0.9660859 0.8852511 0.9660859 0.9785947 0.9631808 0.9083477 0.9262332 0.4759167 0.9250261 0.4759167 0.9250261 0.2318127 0.9250261 0.8856524 0.9250261 0.9790383 0.922121 0.9087595 0.9987919 0.5986735 0.9975849 0.5986735 0.9975849 0.4448122 0.3552454 0.6144757 0.3472868 0.3876802 0.3728016 0.3940903 0.7187438 0.7723588 0.7346614 0.5913578 0.7601762 0.5849477 0.9544648 0 0.9544552 0.1145361 0.9502438 0.1145361 0.366437 0.9179227 0.3552454 0.6144757 0.3728016 0.6941162 0.998792 0.4448122 0.9975849 0.4448122 0.9975851 0.2988156 0.9262332 0.6430431 0.9291383 0.6361914 0.9291383 0.8330019 0.9262331 0.2318127 0.9250261 0.2318127 0.9250261 0 0.7426199 0.3645624 0.7601762 0.2849203 0.7601762 0.5849477 0.9262332 0.8856524 0.9291383 0.8330019 0.9291383 0.9087595 0.7250637 0.4442029 0.7426199 0.3645624 0.7346614 0.5913578 0.3476791 0.6806672 0.3376891 0.5348351 0.3552454 0.6144757 0.7091466 0.5977664 0.7346614 0.5913578 0.7187438 0.7723588 0.3376891 0.5348351 0.321772 0.3812716 0.3472868 0.3876802 0.321772 0.3812716 0.2899368 0.2178815 0.3313692 0.2066791 0.6773113 0.7611564 0.7187438 0.7723588 0.7029002 0.885652 0.9987922 0.2988156 0.9975851 0.2988156 0.9975854 0.06123465 0.9749119 0.157328 0.9761191 0.157328 0.9761191 0.2012451 0.7992301 0.6134247 0.799229 0.621817 0.7747492 0.621817 0.7350537 0.2983708 0.7538115 0.06111389 0.7426199 0.3645624 0.6456243 0.8856521 0.7029002 0.885652 0.7029002 0.9790378 0.2899368 0.2178815 0.2582498 0.09338581 0.3155257 0.09338587 0.9718964 0.3585737 0.9749119 0.3565683 0.9749119 0.3940909 0.2582498 0 0.3155257 0 0.3155257 0.09338587 0.3155257 0 0.3728016 0 0.3728016 0.09338593 0.9749119 0.157328 0.9749119 0.2012451 0.9718964 0.1928452 0.9660859 0.9785947 0.9660859 0.9973564 0.9631808 0.9235666 0.9262332 0.9790384 0.9250261 0.9790383 0.9250261 0.8856524 0.9544649 0.24361 0.9544648 0 0.95737 0.1144852 0.9987921 0.9812384 0.9975851 0.9812384 0.9975853 0.8878948 0.3728016 0 0.3873745 1.21876e-7 0.3873745 0.09338593 0.9749119 0.6116814 0.9718964 0.6160706 0.9718964 0.6065236 0.7601762 0.2849203 0.7747491 0.2437202 0.7747491 0.5003604 0.3728017 0.9790382 0.3728016 0.6941162 0.3873745 0.7353178 0.7601762 0.5849477 0.7747491 0.5003604 0.7747491 0.6745473 0.3728016 0.6941162 0.3728016 0.3940903 0.3873745 0.4786776 0.7601761 0.7835613 0.7747491 0.6745473 0.7747491 0.885652 0.3728016 0.3940903 0.3728016 0.1954766 0.3873745 0.3044907 0.3728016 0.1954766 0.3728016 0.09338593 0.3873745 0.09338593 0.7601761 0.9790378 0.7601761 0.885652 0.7747491 0.885652 0.7601763 0 0.7747492 0 0.7747491 0.2437202 0.8726719 0.6134247 0.872673 0.621817 0.8481932 0.621817 0.974912 0.1022368 0.9761191 0.1022368 0.9761191 0.1134108 0.7771633 0.7124325 0.7771633 0.7236065 0.7759562 0.7236065 0.9460226 0.07382404 0.950234 0.07382404 0.950234 0.08904981 0.9502438 0.1145361 0.9544552 0.1145361 0.9544551 0.3025882 0.9502437 0.8330006 0.9544551 0.8330006 0.9544551 0.9087581 0.9460226 0.3360615 0.9460227 0.1648074 0.950234 0.1648074 0.9460227 0.4773665 0.9460226 0.3360615 0.9502341 0.3616178 0.9502437 0.6617465 0.9544551 0.6361902 0.9544551 0.8330006 0.9460227 0.6855602 0.9460227 0.4773665 0.9502341 0.4971958 0.9502438 0.5204416 0.9544551 0.5006122 0.9544551 0.6361902 0.9460227 0.883272 0.9460227 0.6855602 0.9502341 0.6952199 0.9502438 0.3122478 0.9544551 0.3025882 0.9544551 0.5006122 0.9502437 0.9087581 0.9544551 0.9087581 0.9544551 0.9239839 0.9460226 0.08904981 0.950234 0.08904981 0.950234 0.1648074 0.9544649 0.674242 0.9544649 0.500134 0.9573701 0.5202069 0.9262331 0.2318127 0.9262331 0 0.9291383 0.114537 0.9262332 0.9790384 0.9291383 0.9087595 0.9291384 0.9239853 0.9660859 0.5001339 0.9631807 0.5202069 0.9631807 0.3121073 0.9250261 0.2318127 0.9221209 0.3025893 0.9221209 0.114537 0.9262332 0.4759167 0.9262331 0.2318127 0.9291383 0.3025893 0.9250261 0.9790383 0.9250261 0.9978085 0.922121 0.9239853 0.9262332 0.6430431 0.9262332 0.4759167 0.9291383 0.5006133 0.9544649 0.674242 0.9573701 0.6614479 0.9573701 0.8326244 0.9250261 0.4759167 0.9221209 0.5006133 0.9221209 0.3025893 0.9250261 0.6430431 0.9221209 0.6361914 0.9221209 0.5006133 0.9660859 0.674242 0.9631807 0.6614478 0.9631807 0.5202069 0.9502533 0.9978079 0.9502437 0.9239839 0.9544551 0.9239839 0.9660859 0.674242 0.9660859 0.8852511 0.9631808 0.8326244 0.9502436 0 0.950234 0.07382404 0.9460226 0.07382404 0.954465 0.8852512 0.9573701 0.8326244 0.9573701 0.9083477 0.799229 0.6593394 0.799229 0.6968617 0.7747492 0.6968617 0.799229 0.621817 0.799229 0.6593394 0.7747492 0.6593394 0.872673 0.621817 0.872673 0.6593394 0.8481932 0.6593393 0.872673 0.6593394 0.872673 0.6968617 0.8481932 0.6968616 0.872673 0.6968617 0.872673 0.7064086 0.8481932 0.7064086 0.799229 0.6968617 0.799229 0.7064086 0.7747492 0.7064086 0.848192 0.7124324 0.8481932 0.7064086 0.872673 0.7064086 0.9749119 0.6555985 0.9749119 0.6995157 0.9718964 0.6911157 0.9749119 0.6555985 0.9718964 0.6535931 0.9718964 0.6160706 0.9749119 0.1134108 0.9718964 0.1178001 0.9718964 0.1082531 0.9718964 0.3585737 0.9718964 0.3146566 0.9749119 0.3190458 0.7747504 0.7124325 0.7747492 0.7064086 0.799229 0.7064086 0.9749119 0.157328 0.9718964 0.1553226 0.9718964 0.1178001 0.9761191 0.1134108 0.9761191 0.1022368 0.9791346 0.108253 0.9761191 0.157328 0.9761191 0.1134108 0.9791346 0.1177999 0.9718964 0.3146566 0.9718964 0.3034825 0.9749119 0.3094988 0.7747492 0.7236065 0.7759563 0.7236065 0.7747492 0.7268356 0.9749119 0.2044743 0.9749119 0.2012451 0.9761191 0.2044742 0.9975846 0.9812383 0.9975845 1 0.9963775 0.9812383 0.9602752 0 0.9602752 0.2436084 0.9573701 0.1144852 0.9192157 0.9790384 0.9192157 0.9978085 0.9180087 0.9790384 0.9631806 0.5202069 0.9602755 0.500134 0.9631806 0.3121059 0.9375805 0.9978082 0.9333691 0.9978082 0.9375709 0.883272 0.9192157 0.6430431 0.9192157 0.8856525 0.9180086 0.6430431 0.9602755 0.9973564 0.9602755 0.9785948 0.9631807 0.9235666 0.9963775 0.7627242 0.9975845 0.7627242 0.9963777 0.8878948 0.0731194 0.2066791 0.05727589 0.09338587 0.1145519 0.1954767 0.6310513 0.9790378 0.5737754 0.9790378 0.6310513 0.8856519 0.6134951 0.3645607 0.6246867 0.06111383 0.6310514 0.2849203 0.976119 0.3034825 0.976119 0.2595654 0.9791346 0.2950825 0.9749119 0.2595654 0.9749119 0.2156482 0.976119 0.2595654 0.9975848 0.06123316 0.9963778 0.06123316 0.9975849 0 0.6310513 0.8856519 0.5737754 0.885652 0.6310513 0.7835613 0.08903706 0.3876818 0.0731194 0.2066791 0.1145519 0.3940904 0.9963773 0.5986719 0.9975844 0.5986719 0.9963775 0.7627242 0.9151035 0.63619 0.9180086 0.6430431 0.9151036 0.8330019 0.9192157 0.4759152 0.9192157 0.6430431 0.9180086 0.4759152 0.9573702 0.8326244 0.9602754 0.8852512 0.9573702 0.9083446 0.9192157 0.2318128 0.9192157 0.4759152 0.9180086 0.2318128 0.9151036 0.8330019 0.9180087 0.8856525 0.9151036 0.9087564 0.9975845 0.4448105 0.9975844 0.5986719 0.9963774 0.4448105 0.1145519 0.6941178 0.09699565 0.6144773 0.1145519 0.3940904 0.6310513 0.7835613 0.5896189 0.7723588 0.6310513 0.5849477 0.9418113 0 0.9460226 0 0.9418017 0.1145361 0.114552 0.9790382 0.1081873 0.9179243 0.1145519 0.6941178 0.9975847 0.2988155 0.9975845 0.4448105 0.9963775 0.2988155 0.9192157 0.8856525 0.9192157 0.6430431 0.9221209 0.8330019 0.9192157 0 0.9192157 0.2318128 0.9180086 0 0.6055365 0.5913562 0.6134951 0.3645607 0.6310513 0.5849477 0.9192157 0.9790384 0.9192157 0.8856525 0.9221209 0.9087564 0.5800217 0.5977647 0.5959388 0.4442012 0.6055365 0.5913562 0.1081873 0.9179243 0.08942937 0.6806673 0.09699565 0.6144773 0.5481865 0.7611564 0.5800217 0.5977647 0.5896189 0.7723588 0.09699565 0.6144773 0.0794394 0.5348368 0.08903706 0.3876818 0.08903706 0.3876818 0.06352221 0.3812732 0.0731194 0.2066791 0.5164995 0.885652 0.5481865 0.7611564 0.5737754 0.885652 0.9975847 0.2988155 0.9963775 0.2988155 0.9975848 0.06123316 0.9749119 0.3034825 0.9749119 0.2595654 0.976119 0.3034825 0.7992313 0.6134247 0.8237111 0.6134247 0.7992302 0.621817 0.5959388 0.4442012 0.6059288 0.2983708 0.6134951 0.3645607 0.5164995 0.9790378 0.5164995 0.885652 0.5737754 0.9790378 0.0731194 0.2066791 0.03168702 0.2178815 0.05727589 0.09338587 0.9718964 0.6005074 0.9718964 0.5565903 0.9749119 0.5921074 0 0.09338581 0 0 0.05727589 0.09338587 0.05727589 0.09338587 0.05727589 0 0.1145519 0.09338593 0.9718964 0.25756 0.9749119 0.2595654 0.9718964 0.2950825 0.9573702 0.9083446 0.9602754 0.9785948 0.9573702 0.9235666 0.9192157 0.8856525 0.9192157 0.9790384 0.9180087 0.8856525 0.9631806 0.3121059 0.9602754 0.2436084 0.9631805 0.1144852 0.9975848 0.8878948 0.9975846 0.9812383 0.9963777 0.8878948 0.1145519 0.09338593 0.1145518 0 0.1291248 0.09338599 0.9749119 0.4024909 0.9749119 0.4136648 0.9718964 0.4085071 0.6310513 0.5849477 0.6310514 0.2849203 0.6456242 0.5003604 0.1291249 0.9790382 0.114552 0.9790382 0.1291248 0.7353194 0.6310513 0.7835613 0.6310513 0.5849477 0.6456242 0.6745457 0.1291248 0.7353194 0.1145519 0.6941178 0.1291248 0.4786777 0.6310513 0.8856519 0.6310513 0.7835613 0.6456242 0.8856519 0.1291248 0.4786777 0.1145519 0.3940904 0.1291248 0.3044923 0.1291248 0.3044923 0.1145519 0.1954767 0.1291248 0.09338599 0.6456242 0.9790378 0.6310513 0.9790378 0.6456242 0.8856519 0.6310514 0.2849203 0.6310514 0 0.6456243 0.2437186 0.8971539 0.7124325 0.8726741 0.7124324 0.8971527 0.7040401 0.9749119 0.2156482 0.9749119 0.2044743 0.976119 0.2156482 0.7747492 0.7124325 0.7759563 0.7124325 0.7747492 0.7236065 0.9333595 0.08905291 0.9333595 0.07382404 0.9375708 0.08905291 0.9418017 0.3122463 0.9418017 0.1145361 0.946013 0.3025882 0.9418016 0.908755 0.9418016 0.8330006 0.9460129 0.908755 0.9375708 0.3616193 0.9333595 0.3360631 0.9375708 0.1648074 0.9375708 0.4971973 0.9333595 0.4773665 0.9375708 0.3616193 0.9418016 0.8330006 0.9418016 0.6617449 0.946013 0.8330006 0.9375709 0.6952198 0.9333595 0.6855618 0.9375708 0.4971973 0.9418016 0.6617449 0.9418016 0.5204416 0.946013 0.6361888 0.9375709 0.883272 0.9333595 0.883272 0.9375709 0.6952198 0.9418016 0.5204416 0.9418017 0.3122463 0.946013 0.5006107 0.9418016 0.9239839 0.9418016 0.908755 0.9460129 0.9239839 0.9333595 0.1648074 0.9333595 0.08905291 0.9375708 0.1648074 0.9631806 0.6614463 0.9602755 0.6742405 0.9631806 0.5202069 0.9221208 0.3025894 0.9192157 0.2318128 0.9221208 0.1145371 0.9192157 0.9978085 0.9192157 0.9790384 0.9221209 0.9239853 0.9602752 0.2436084 0.9602753 0.5001339 0.9573701 0.3121058 0.9180086 0 0.9180086 0.2318128 0.9151034 0.1145371 0.9221209 0.5006119 0.9192157 0.4759152 0.9221208 0.3025894 0.9151036 0.9087564 0.9180087 0.9790384 0.9151036 0.9239853 0.9221209 0.63619 0.9192157 0.6430431 0.9221209 0.5006119 0.9602755 0.8852512 0.9602755 0.6742405 0.9631806 0.8326244 0.9180086 0.2318128 0.9180086 0.4759152 0.9151035 0.3025894 0.9180086 0.4759152 0.9180086 0.6430431 0.9151035 0.5006119 0.9602753 0.5001339 0.9602754 0.6742405 0.9573702 0.5202069 0.9460225 0.9978079 0.9418112 0.9978079 0.9460129 0.9239839 0.9573702 0.6614463 0.9602754 0.6742405 0.9573702 0.8326244 0.9333691 0 0.9375804 0 0.9333595 0.07382404 0.9602755 0.9785948 0.9602755 0.8852512 0.9631807 0.9083446 0.7992302 0.6593394 0.8237099 0.6593394 0.7992301 0.6968617 0.7992302 0.621817 0.8237099 0.621817 0.7992302 0.6593394 0.8971527 0.7040401 0.872673 0.7040401 0.8971528 0.6665178 0.8971528 0.6665178 0.872673 0.6665178 0.8971528 0.6289955 0.8971528 0.6289955 0.872673 0.6289955 0.8971528 0.6194486 0.7992301 0.6968617 0.8237099 0.6968616 0.7992302 0.7064086 0.8726742 0.6134247 0.8971539 0.6134247 0.872673 0.6194486 0.9718964 0.4555765 0.9749119 0.4575819 0.9718964 0.4930992 0.9749119 0.4136648 0.9749119 0.4575819 0.9718964 0.4180541 0.9749119 0.2044743 0.9749119 0.2156482 0.9718964 0.2104905 0.9749119 0.5545849 0.9718964 0.5565903 0.9749119 0.5170623 0.8237111 0.7124325 0.7992313 0.7124325 0.8237099 0.7064086 0.9749119 0.2156482 0.9749119 0.2595654 0.9718964 0.2200375 0.9791346 0.2200375 0.976119 0.2156482 0.9791346 0.2104905 0.9791346 0.25756 0.976119 0.2595654 0.9791346 0.2200375 0.9749119 0.5170623 0.9718964 0.5126731 0.9749119 0.5075153 0.7783704 0.7156616 0.7771633 0.7156616 0.7783704 0.7124325 0.9001695 0.6166539 0.9001695 0.6134247 0.9013766 0.6166538 0.9999997 0.9812384 0.9999997 1 0.9987927 0.9812384 0.9689911 0 0.9689911 0.24361 0.9660859 0.1144851 0.9121983 0.9790384 0.9121983 0.9978085 0.9109913 0.9790384 0.9689912 0.4771494 0.9718964 0.4972224 0.9689912 0.685249 0.9291384 0 0.9333497 0 0.929148 0.1145362 0.9121983 0.6430431 0.9121983 0.8856525 0.9109913 0.6430431 0.9718964 0 0.9718964 0.01876157 0.9689912 0.07378977 0.9987926 0.7627242 0.9999997 0.7627242 0.9987928 0.8878948 0.2022443 0.2066791 0.1864008 0.09338587 0.2436767 0.1954767 0.5019264 0.9790378 0.4446505 0.9790378 0.5019264 0.885652 0.4843702 0.3645624 0.4955618 0.06111383 0.5019265 0.2849203 0.9013766 0.7156621 0.9013766 0.671745 0.9043921 0.7072621 0.9001695 0.671745 0.9001695 0.6278278 0.9013766 0.671745 1 0 1 0.06123316 0.998793 0 0.5019264 0.885652 0.4446505 0.885652 0.5019264 0.7835613 0.218162 0.3876802 0.2022443 0.2066791 0.2436767 0.3940904 0.9987924 0.5986735 0.9999995 0.5986735 0.9987926 0.7627242 0.9080861 0.6361915 0.9109913 0.6430431 0.9080861 0.8330019 0.9121983 0.4759168 0.9121983 0.6430431 0.9109912 0.4759168 0.9660861 0.8326244 0.9689912 0.8852512 0.9660861 0.9083477 0.9121983 0.2318128 0.9121983 0.4759168 0.9109912 0.2318128 0.9080861 0.8330019 0.9109913 0.8856525 0.9080861 0.9087595 0.9999996 0.4448121 0.9999995 0.5986735 0.9987925 0.4448121 0.2436768 0.6941162 0.2261205 0.6144757 0.2436767 0.3940904 0.5019264 0.7835613 0.460494 0.7723588 0.5019264 0.5849477 0.9375903 0 0.9418016 0 0.9375806 0.1145362 0.2436768 0.9790382 0.2373121 0.9179228 0.2436768 0.6941162 0.9999998 0.2988156 0.9999996 0.4448121 0.9987927 0.2988156 0.9121983 0.8856525 0.9121983 0.6430431 0.9151034 0.8330019 0.9121983 0 0.9121983 0.2318128 0.9109911 0 0.4764117 0.5913578 0.4843702 0.3645624 0.5019264 0.5849477 0.9121983 0.9790384 0.9121983 0.8856525 0.9151034 0.9087595 0.4508968 0.5977663 0.4668139 0.4442028 0.4764117 0.5913578 0.2373121 0.9179228 0.2185541 0.6806673 0.2261205 0.6144757 0.4190616 0.7611564 0.4508968 0.5977663 0.460494 0.7723588 0.2261205 0.6144757 0.2085642 0.5348352 0.218162 0.3876802 0.218162 0.3876802 0.192647 0.3812716 0.2022443 0.2066791 0.3873746 0.8856521 0.4190616 0.7611564 0.4446505 0.885652 1 0.06123316 0.9999998 0.2988156 0.9987929 0.06123465 0.9001695 0.7156621 0.9001695 0.671745 0.9013766 0.7156621 0.8481909 0.7124324 0.8237111 0.7124325 0.848192 0.7040401 0.4668139 0.4442028 0.476804 0.2983708 0.4843702 0.3645624 0.3873746 0.9790379 0.3873746 0.8856521 0.4446505 0.9790378 0.2022443 0.2066791 0.1608119 0.2178815 0.1864008 0.09338587 0.9080257 0.6134247 0.9080258 0.6573418 0.9050102 0.6218247 0.1291249 0.09338587 0.1291249 0 0.1864008 0.09338587 0.1864008 0.09338587 0.1864008 0 0.2436767 0.09338593 0.897154 0.6697396 0.9001695 0.671745 0.897154 0.7072622 0.9660861 0.9083477 0.9689912 0.9785947 0.9660861 0.9235666 0.9121983 0.8856525 0.9121983 0.9790384 0.9109913 0.8856525 0.9689912 0.685249 0.9718964 0.7537463 0.9689912 0.8828712 0.9999999 0.8878948 0.9999997 0.9812384 0.9987928 0.8878948 0.2436767 0.09338593 0.2436767 0 0.2582497 0.09338599 0.9779275 0.3034825 0.9779275 0.3146566 0.974912 0.3094988 0.5019264 0.5849477 0.5019265 0.2849203 0.5164994 0.5003604 0.2582498 0.9790382 0.2436768 0.9790382 0.2582497 0.7353178 0.5019264 0.7835613 0.5019264 0.5849477 0.5164994 0.6745473 0.2582497 0.7353178 0.2436768 0.6941162 0.2582497 0.4786777 0.5019264 0.885652 0.5019264 0.7835613 0.5164994 0.8856519 0.2582497 0.4786777 0.2436767 0.3940904 0.2582497 0.3044908 0.2582497 0.3044908 0.2436767 0.1954767 0.2582497 0.09338599 0.5164994 0.9790378 0.5019264 0.9790378 0.5164994 0.8856519 0.5019265 0.2849203 0.5019266 0 0.5164994 0.2437202 0.9718964 0 0.9963762 0 0.9718976 0.008392214 0.9001695 0.6278278 0.9001695 0.6166539 0.9013766 0.6278278 0.7783704 0.7268356 0.7771633 0.7268356 0.7783704 0.7156616 0.9333595 0.9087584 0.9333595 0.9239842 0.9291481 0.9087584 0.9375806 0.3122479 0.9375806 0.1145362 0.941792 0.3025883 0.9375805 0.9087581 0.9375805 0.8330006 0.9417919 0.9087581 0.9291481 0.6361905 0.9333595 0.6617467 0.9291481 0.8330008 0.929148 0.5006124 0.9333595 0.5204418 0.9291481 0.6361905 0.9375805 0.8330006 0.9375805 0.6617465 0.9417919 0.8330006 0.929148 0.3025884 0.9333594 0.312248 0.929148 0.5006124 0.9375805 0.6617465 0.9375805 0.5204417 0.9417919 0.6361903 0.929148 0.1145362 0.9333594 0.1145362 0.929148 0.3025884 0.9375805 0.5204417 0.9375806 0.3122479 0.9417919 0.5006123 0.9375805 0.9239839 0.9375805 0.9087581 0.9417919 0.9239839 0.9333595 0.8330008 0.9333595 0.9087584 0.9291481 0.8330008 0.9689912 0.3359085 0.9718964 0.3231143 0.9689912 0.4771494 0.9151034 0.3025894 0.9121983 0.2318128 0.9151034 0.1145371 0.9121983 0.9978085 0.9121983 0.9790384 0.9151034 0.9239853 0.9689911 0.24361 0.9689912 0.5001339 0.966086 0.3121074 0.9109911 0 0.9109912 0.2318128 0.908086 0.1145371 0.9151034 0.5006134 0.9121983 0.4759168 0.9151034 0.3025894 0.9080861 0.9087595 0.9109913 0.9790384 0.9080861 0.9239853 0.9151034 0.6361915 0.9121983 0.6430431 0.9151034 0.5006134 0.9718964 0.1121051 0.9718964 0.3231143 0.9689912 0.1647319 0.9109912 0.2318128 0.9109912 0.4759168 0.908086 0.3025894 0.9109912 0.4759168 0.9109913 0.6430431 0.9080861 0.5006134 0.9689912 0.5001339 0.9689912 0.674242 0.966086 0.5202069 0.9418015 0.9978079 0.9375901 0.9978079 0.9417919 0.9239839 0.966086 0.6614478 0.9689912 0.674242 0.9660861 0.8326244 0.9333499 0.9978082 0.9291385 0.9978082 0.9333595 0.9239842 0.9718964 0.01876157 0.9718964 0.1121051 0.9689912 0.08900862 0.848192 0.6665178 0.8237122 0.6665178 0.848192 0.6289955 0.848192 0.7040401 0.8237122 0.7040402 0.848192 0.6665178 0.9718976 0.008392214 0.9963773 0.008392274 0.9718976 0.04591459 0.9718976 0.04591459 0.9963773 0.04591459 0.9718976 0.0834369 0.9718976 0.0834369 0.9963773 0.08343696 0.9718975 0.09298384 0.848192 0.6289955 0.8237122 0.6289955 0.848192 0.6194486 0.9963762 0.09900772 0.9718964 0.09900766 0.9963772 0.0929839 0.974912 0.3565683 0.9779275 0.3585737 0.974912 0.3940908 0.9779275 0.3146566 0.9779275 0.3585737 0.974912 0.3190458 0.9001695 0.6166539 0.9001695 0.6278278 0.897154 0.6226701 0.9050102 0.6593472 0.9080258 0.6573418 0.9050102 0.6968698 0.8237112 0.6134247 0.8481909 0.6134247 0.8237122 0.6194486 0.9001695 0.6278278 0.9001695 0.671745 0.897154 0.6322171 0.9043921 0.6322171 0.9013766 0.6278278 0.9043921 0.6226701 0.9043921 0.6697396 0.9013766 0.671745 0.9043921 0.6322171 0.9050102 0.6968698 0.9080258 0.701259 0.9050102 0.7064168 0.7759562 0.7236065 0.7771633 0.7236065 0.7759562 0.7268356 0.974912 0.1022368 0.974912 0.09900772 0.9761191 0.1022368 0.9987921 0.9812384 0.9987921 1 0.9975851 0.9812384 0.9660857 0 0.9660858 0.2436099 0.9631807 0.1144852 0.9262332 0.9790384 0.9262332 0.9978085 0.9250261 0.9790383 0.9573701 0.5202069 0.9544649 0.500134 0.95737 0.3121074 0.9502437 0.9978082 0.9460324 0.9978082 0.9502341 0.883272 0.9262332 0.6430431 0.9262332 0.8856524 0.9250261 0.6430431 0.954465 0.9973564 0.954465 0.9785948 0.9573701 0.9235666 0.997585 0.7627243 0.9987921 0.7627243 0.9975853 0.8878948 0.3313692 0.2066791 0.3155257 0.09338587 0.3728016 0.1954766 0.7601761 0.9790378 0.7029002 0.9790378 0.7601761 0.885652 0.7426199 0.3645624 0.7538115 0.06111389 0.7601762 0.2849203 0.9761191 0.2012451 0.9761191 0.157328 0.9791346 0.1928451 0.9749119 0.157328 0.9749119 0.1134108 0.9761191 0.157328 0.9987924 0 0.9987924 0.0612331 0.9975854 0 0.7601761 0.885652 0.7029002 0.885652 0.7601761 0.7835613 0.3472868 0.3876802 0.3313692 0.2066791 0.3728016 0.3940903 0.9975849 0.5986735 0.9987919 0.5986735 0.997585 0.7627243 0.9221209 0.6361914 0.9250261 0.6430431 0.922121 0.8330019 0.9262332 0.4759167 0.9262332 0.6430431 0.9250261 0.4759167 0.9631808 0.8326244 0.9660859 0.8852511 0.9631808 0.9083477 0.9262331 0.2318127 0.9262332 0.4759167 0.9250261 0.2318127 0.922121 0.8330019 0.9250261 0.8856524 0.922121 0.9087595 0.998792 0.4448122 0.9987919 0.5986735 0.9975849 0.4448122 0.3728016 0.6941162 0.3552454 0.6144757 0.3728016 0.3940903 0.7601761 0.7835613 0.7187438 0.7723588 0.7601762 0.5849477 0.9502534 0 0.9544648 0 0.9502438 0.1145361 0.3728017 0.9790382 0.366437 0.9179227 0.3728016 0.6941162 0.9987922 0.2988156 0.998792 0.4448122 0.9975851 0.2988156 0.9262332 0.8856524 0.9262332 0.6430431 0.9291383 0.8330019 0.9262331 0 0.9262331 0.2318127 0.9250261 0 0.7346614 0.5913578 0.7426199 0.3645624 0.7601762 0.5849477 0.9262332 0.9790384 0.9262332 0.8856524 0.9291383 0.9087595 0.7091466 0.5977664 0.7250637 0.4442029 0.7346614 0.5913578 0.366437 0.9179227 0.3476791 0.6806672 0.3552454 0.6144757 0.6773113 0.7611564 0.7091466 0.5977664 0.7187438 0.7723588 0.3552454 0.6144757 0.3376891 0.5348351 0.3472868 0.3876802 0.3472868 0.3876802 0.321772 0.3812716 0.3313692 0.2066791 0.6456243 0.8856521 0.6773113 0.7611564 0.7029002 0.885652 0.9987924 0.0612331 0.9987922 0.2988156 0.9975854 0.06123465 0.9749119 0.2012451 0.9749119 0.157328 0.9761191 0.2012451 0.7747503 0.6134247 0.7992301 0.6134247 0.7747492 0.621817 0.7250637 0.4442029 0.7350537 0.2983708 0.7426199 0.3645624 0.6456243 0.9790379 0.6456243 0.8856521 0.7029002 0.9790378 0.3313692 0.2066791 0.2899368 0.2178815 0.3155257 0.09338587 0.9718964 0.4024909 0.9718964 0.3585737 0.9749119 0.3940909 0.2582498 0.09338581 0.2582498 0 0.3155257 0.09338587 0.3155257 0.09338587 0.3155257 0 0.3728016 0.09338593 0.9718964 0.1553226 0.9749119 0.157328 0.9718964 0.1928452 0.9631808 0.9083477 0.9660859 0.9785947 0.9631808 0.9235666 0.9262332 0.8856524 0.9262332 0.9790384 0.9250261 0.8856524 0.95737 0.3121074 0.9544649 0.24361 0.95737 0.1144852 0.9987924 0.8878948 0.9987921 0.9812384 0.9975853 0.8878948 0.3728016 0.09338593 0.3728016 0 0.3873745 0.09338593 0.9749119 0.6005074 0.9749119 0.6116814 0.9718964 0.6065236 0.7601762 0.5849477 0.7601762 0.2849203 0.7747491 0.5003604 0.3873746 0.9790382 0.3728017 0.9790382 0.3873745 0.7353178 0.7601761 0.7835613 0.7601762 0.5849477 0.7747491 0.6745473 0.3873745 0.7353178 0.3728016 0.6941162 0.3873745 0.4786776 0.7601761 0.885652 0.7601761 0.7835613 0.7747491 0.885652 0.3873745 0.4786776 0.3728016 0.3940903 0.3873745 0.3044907 0.3873745 0.3044907 0.3728016 0.1954766 0.3873745 0.09338593 0.7747491 0.9790378 0.7601761 0.9790378 0.7747491 0.885652 0.7601762 0.2849203 0.7601763 0 0.7747491 0.2437202 0.848192 0.6134247 0.8726719 0.6134247 0.8481932 0.621817 0.9749119 0.1134108 0.974912 0.1022368 0.9761191 0.1134108 0.7759562 0.7124325 0.7771633 0.7124325 0.7759562 0.7236065 0.9460226 0.08904981 0.9460226 0.07382404 0.950234 0.08904981 0.9502438 0.3122478 0.9502438 0.1145361 0.9544551 0.3025882 0.9502437 0.9087581 0.9502437 0.8330006 0.9544551 0.9087581 0.9502341 0.3616178 0.9460226 0.3360615 0.950234 0.1648074 0.9502341 0.4971958 0.9460227 0.4773665 0.9502341 0.3616178 0.9502437 0.8330006 0.9502437 0.6617465 0.9544551 0.8330006 0.9502341 0.6952199 0.9460227 0.6855602 0.9502341 0.4971958 0.9502437 0.6617465 0.9502438 0.5204416 0.9544551 0.6361902 0.9502341 0.883272 0.9460227 0.883272 0.9502341 0.6952199 0.9502438 0.5204416 0.9502438 0.3122478 0.9544551 0.5006122 0.9502437 0.9239839 0.9502437 0.9087581 0.9544551 0.9239839 0.9460227 0.1648074 0.9460226 0.08904981 0.950234 0.1648074 0.9573701 0.6614479 0.9544649 0.674242 0.9573701 0.5202069 0.9291383 0.3025893 0.9262331 0.2318127 0.9291383 0.114537 0.9262332 0.9978085 0.9262332 0.9790384 0.9291384 0.9239853 0.9660858 0.2436099 0.9660859 0.5001339 0.9631807 0.3121073 0.9250261 0 0.9250261 0.2318127 0.9221209 0.114537 0.9291383 0.5006133 0.9262332 0.4759167 0.9291383 0.3025893 0.922121 0.9087595 0.9250261 0.9790383 0.922121 0.9239853 0.9291383 0.6361914 0.9262332 0.6430431 0.9291383 0.5006133 0.954465 0.8852512 0.9544649 0.674242 0.9573701 0.8326244 0.9250261 0.2318127 0.9250261 0.4759167 0.9221209 0.3025893 0.9250261 0.4759167 0.9250261 0.6430431 0.9221209 0.5006133 0.9660859 0.5001339 0.9660859 0.674242 0.9631807 0.5202069 0.9544647 0.9978079 0.9502533 0.9978079 0.9544551 0.9239839 0.9631807 0.6614478 0.9660859 0.674242 0.9631808 0.8326244 0.9460322 0 0.9502436 0 0.9460226 0.07382404 0.954465 0.9785948 0.954465 0.8852512 0.9573701 0.9083477 0.7747492 0.6593394 0.799229 0.6593394 0.7747492 0.6968617 0.7747492 0.621817 0.799229 0.621817 0.7747492 0.6593394 0.8481932 0.621817 0.872673 0.621817 0.8481932 0.6593393 0.8481932 0.6593393 0.872673 0.6593394 0.8481932 0.6968616 0.8481932 0.6968616 0.872673 0.6968617 0.8481932 0.7064086 0.7747492 0.6968617 0.799229 0.6968617 0.7747492 0.7064086 0.8726719 0.7124325 0.848192 0.7124324 0.872673 0.7064086 0.9718964 0.6535931 0.9749119 0.6555985 0.9718964 0.6911157 0.9749119 0.6116814 0.9749119 0.6555985 0.9718964 0.6160706 0.974912 0.1022368 0.9749119 0.1134108 0.9718964 0.1082531 0.9749119 0.3565683 0.9718964 0.3585737 0.9749119 0.3190458 0.7992301 0.7124325 0.7747504 0.7124325 0.799229 0.7064086 0.9749119 0.1134108 0.9749119 0.157328 0.9718964 0.1178001 0.9791346 0.1177999 0.9761191 0.1134108 0.9791346 0.108253 0.9791346 0.1553226 0.9761191 0.157328 0.9791346 0.1177999 0.9749119 0.3190458 0.9718964 0.3146566 0.9749119 0.3094988</float_array>
          <technique_common>
            <accessor source="#Cube_079-mesh-map-0-array" count="2052" stride="2">
              <param name="S" type="float"/>
              <param name="T" type="float"/>
            </accessor>
          </technique_common>
        </source>
        <vertices id="Cube_079-mesh-vertices">
          <input semantic="POSITION" source="#Cube_079-mesh-positions"/>
        </vertices>
        <polylist material="PBRFULL_LaboRoomShelf-material" count="684">
          <input semantic="VERTEX" source="#Cube_079-mesh-vertices" offset="0"/>
          <input semantic="NORMAL" source="#Cube_079-mesh-normals" offset="1"/>
          <input semantic="TEXCOORD" source="#Cube_079-mesh-map-0" offset="2" set="0"/>
          <vcount>3 3 3 3 3 3 3 3 3 3 3 3 3 3 3 3 3 3 3 3 3 3 3 3 3 3 3 3 3 3 3 3 3 3 3 3 3 3 3 3 3 3 3 3 3 3 3 3 3 3 3 3 3 3 3 3 3 3 3 3 3 3 3 3 3 3 3 3 3 3 3 3 3 3 3 3 3 3 3 3 3 3 3 3 3 3 3 3 3 3 3 3 3 3 3 3 3 3 3 3 3 3 3 3 3 3 3 3 3 3 3 3 3 3 3 3 3 3 3 3 3 3 3 3 3 3 3 3 3 3 3 3 3 3 3 3 3 3 3 3 3 3 3 3 3 3 3 3 3 3 3 3 3 3 3 3 3 3 3 3 3 3 3 3 3 3 3 3 3 3 3 3 3 3 3 3 3 3 3 3 3 3 3 3 3 3 3 3 3 3 3 3 3 3 3 3 3 3 3 3 3 3 3 3 3 3 3 3 3 3 3 3 3 3 3 3 3 3 3 3 3 3 3 3 3 3 3 3 3 3 3 3 3 3 3 3 3 3 3 3 3 3 3 3 3 3 3 3 3 3 3 3 3 3 3 3 3 3 3 3 3 3 3 3 3 3 3 3 3 3 3 3 3 3 3 3 3 3 3 3 3 3 3 3 3 3 3 3 3 3 3 3 3 3 3 3 3 3 3 3 3 3 3 3 3 3 3 3 3 3 3 3 3 3 3 3 3 3 3 3 3 3 3 3 3 3 3 3 3 3 3 3 3 3 3 3 3 3 3 3 3 3 3 3 3 3 3 3 3 3 3 3 3 3 3 3 3 3 3 3 3 3 3 3 3 3 3 3 3 3 3 3 3 3 3 3 3 3 3 3 3 3 3 3 3 3 3 3 3 3 3 3 3 3 3 3 3 3 3 3 3 3 3 3 3 3 3 3 3 3 3 3 3 3 3 3 3 3 3 3 3 3 3 3 3 3 3 3 3 3 3 3 3 3 3 3 3 3 3 3 3 3 3 3 3 3 3 3 3 3 3 3 3 3 3 3 3 3 3 3 3 3 3 3 3 3 3 3 3 3 3 3 3 3 3 3 3 3 3 3 3 3 3 3 3 3 3 3 3 3 3 3 3 3 3 3 3 3 3 3 3 3 3 3 3 3 3 3 3 3 3 3 3 3 3 3 3 3 3 3 3 3 3 3 3 3 3 3 3 3 3 3 3 3 3 3 3 3 3 3 3 3 3 3 3 3 3 3 3 3 3 3 3 3 3 3 3 3 3 3 3 3 3 3 3 3 3 3 3 3 3 3 3 3 3 3 3 3 3 3 3 3 3 3 3 3 3 3 3 3 3 3 3 3 3 3 3 3 3 3 3 3 3 3 3 3 3 3 3 3 3 3 3 3 3 3 3 3 3 3 3 3 3 3 3 3 3 3 3 3 3 3 3 3 3 3 3 3 3 3 3 3 3 3 3 3 3 3 3 3 3 3 3 3 3 3 3 3 3 3 3 3 3 3 3 3 3 3 3 3 3 3 3 3 3 3 3 3 3 3 3 3 3 3 </vcount>
          <p>3 0 0 2 0 1 0 0 2 7 1 3 6 1 4 2 1 5 5 2 6 4 2 7 6 2 8 1 3 9 0 3 10 4 3 11 2 4 12 6 4 13 4 4 14 7 5 15 3 5 16 1 5 17 1 0 18 3 0 19 0 0 20 3 1 21 7 1 22 2 1 23 7 2 24 5 2 25 6 2 26 5 3 27 1 3 28 4 3 29 0 4 30 2 4 31 4 4 32 5 5 33 7 5 34 1 5 35 65 4 36 10 4 37 11 4 38 15 5 39 14 5 40 67 5 41 12 6 42 13 6 43 57 6 44 74 2 45 102 2 46 80 2 47 14 7 48 15 7 49 59 7 50 73 8 51 75 8 52 103 8 53 65 9 54 80 9 55 81 9 56 18 10 57 19 10 58 29 10 59 76 11 60 104 11 61 86 11 62 26 12 63 16 12 64 17 12 65 49 13 66 25 13 67 30 13 68 63 1 69 48 1 70 24 1 71 44 1 72 20 1 73 43 1 74 47 5 75 112 5 76 109 5 77 22 5 78 23 5 79 47 5 80 45 14 81 21 14 82 20 14 83 48 1 84 50 1 85 31 1 86 51 3 87 30 3 88 32 3 89 33 15 90 26 15 91 27 15 92 29 16 93 19 16 94 91 16 95 28 17 96 29 17 97 36 17 98 69 2 99 77 2 100 105 2 101 35 18 102 36 18 103 42 18 104 19 0 105 59 0 106 84 0 107 33 19 108 34 19 109 40 19 110 54 3 111 52 3 112 32 3 113 50 20 114 53 20 115 37 20 116 11 21 117 79 21 118 78 21 119 45 22 120 54 22 121 38 22 122 39 23 123 40 23 124 9 23 125 28 0 126 88 0 127 89 0 128 41 24 129 42 24 130 11 24 131 55 1 132 43 1 133 37 1 134 18 0 135 89 0 136 82 0 137 39 25 138 55 25 139 53 25 140 9 3 141 40 3 142 54 3 143 33 26 144 53 26 145 50 26 146 40 27 147 34 27 148 52 27 149 34 28 150 27 28 151 51 28 152 26 1 153 50 1 154 48 1 155 9 29 156 45 29 157 44 29 158 46 5 159 47 5 160 13 5 161 13 30 162 109 30 163 108 30 164 8 31 165 44 31 166 55 31 167 16 1 168 48 1 169 63 1 170 27 3 171 17 3 172 49 3 173 63 4 174 115 4 175 106 4 176 57 3 177 62 3 178 49 3 179 62 3 180 61 3 181 25 3 182 46 5 183 12 5 184 107 5 185 77 2 186 67 2 187 87 2 188 58 32 189 59 32 190 19 32 191 75 2 192 64 2 193 78 2 194 56 33 195 57 33 196 17 33 197 61 3 198 77 3 199 69 3 200 61 4 201 116 4 202 121 4 203 43 1 204 75 1 205 73 1 206 21 3 207 38 3 208 74 3 209 37 34 210 73 34 211 71 34 212 38 3 213 32 3 214 72 3 215 31 1 216 71 1 217 68 1 218 32 3 219 30 3 220 70 3 221 30 35 222 25 35 223 69 35 224 60 1 225 24 1 226 68 1 227 20 1 228 64 1 229 75 1 230 56 36 231 106 36 232 107 36 233 66 5 234 67 5 235 23 5 236 21 4 237 65 4 238 64 4 239 87 3 240 83 3 241 82 3 242 78 37 243 79 37 244 99 37 245 92 1 246 91 1 247 84 1 248 96 3 249 93 3 250 89 3 251 100 3 252 96 3 253 88 3 254 97 1 255 90 1 256 91 1 257 102 3 258 100 3 259 94 3 260 101 1 261 95 1 262 90 1 263 80 3 264 102 3 265 98 3 266 103 1 267 99 1 268 95 1 269 104 1 270 84 1 271 85 1 272 105 3 273 82 3 274 89 3 275 71 38 276 73 38 277 101 38 278 41 39 279 10 39 280 81 39 281 58 40 282 82 40 283 83 40 284 72 2 285 100 2 286 102 2 287 42 41 288 99 41 289 79 41 290 35 42 291 41 42 292 98 42 293 59 0 294 15 0 295 85 0 296 28 43 297 35 43 298 94 43 299 71 44 300 97 44 301 92 44 302 36 45 303 95 45 304 99 45 305 29 0 306 90 0 307 95 0 308 70 2 309 96 2 310 100 2 311 66 46 312 86 46 313 85 46 314 70 47 315 69 47 316 93 47 317 14 48 318 83 48 319 87 48 320 68 49 321 92 49 322 104 49 323 112 3 324 113 3 325 116 3 326 109 3 327 112 3 328 117 3 329 106 1 330 115 1 331 110 1 332 115 1 333 114 1 334 111 1 335 114 1 336 120 1 337 118 1 338 113 3 339 119 3 340 121 3 341 66 50 342 118 50 343 120 50 344 62 4 345 57 4 346 108 4 347 62 4 348 117 4 349 116 4 350 22 5 351 111 5 352 118 5 353 63 4 354 60 4 355 114 4 356 77 51 357 121 51 358 119 51 359 46 5 360 110 5 361 111 5 362 23 5 363 67 5 364 119 5 365 47 5 366 23 5 367 113 5 368 60 4 369 76 4 370 120 4 371 179 4 372 124 4 373 125 4 374 129 5 375 128 5 376 181 5 377 126 52 378 127 52 379 171 52 380 188 2 381 216 2 382 194 2 383 128 53 384 129 53 385 173 53 386 187 54 387 189 54 388 217 54 389 179 55 390 194 55 391 195 55 392 132 56 393 133 56 394 143 56 395 190 57 396 218 57 397 200 57 398 140 58 399 130 58 400 131 58 401 163 59 402 139 59 403 144 59 404 177 1 405 162 1 406 138 1 407 158 1 408 134 1 409 157 1 410 161 5 411 226 5 412 223 5 413 136 5 414 137 5 415 161 5 416 158 60 417 159 60 418 135 60 419 162 1 420 164 1 421 145 1 422 165 3 423 144 3 424 146 3 425 147 61 426 140 61 427 141 61 428 143 62 429 133 62 430 205 62 431 142 63 432 143 63 433 150 63 434 183 2 435 191 2 436 219 2 437 149 64 438 150 64 439 156 64 440 133 65 441 173 65 442 198 65 443 147 66 444 148 66 445 154 66 446 168 3 447 166 3 448 146 3 449 164 67 450 167 67 451 151 67 452 125 68 453 193 68 454 192 68 455 159 69 456 168 69 457 152 69 458 153 70 459 154 70 460 123 70 461 142 0 462 202 0 463 203 0 464 155 71 465 156 71 466 125 71 467 169 1 468 157 1 469 151 1 470 132 0 471 203 0 472 196 0 473 153 72 474 169 72 475 167 72 476 123 73 477 154 73 478 168 73 479 147 1 480 167 1 481 164 1 482 154 3 483 148 3 484 166 3 485 148 3 486 141 3 487 165 3 488 140 74 489 164 74 490 162 74 491 122 75 492 123 75 493 159 75 494 160 5 495 161 5 496 127 5 497 127 76 498 223 76 499 222 76 500 122 77 501 158 77 502 169 77 503 130 1 504 162 1 505 177 1 506 141 3 507 131 3 508 163 3 509 177 4 510 229 4 511 220 4 512 171 3 513 176 3 514 163 3 515 176 3 516 175 3 517 139 3 518 160 5 519 126 5 520 221 5 521 191 2 522 181 2 523 201 2 524 172 78 525 173 78 526 133 78 527 189 2 528 178 2 529 192 2 530 170 79 531 171 79 532 131 79 533 175 3 534 191 3 535 183 3 536 175 4 537 230 4 538 235 4 539 157 1 540 189 1 541 187 1 542 135 3 543 152 3 544 188 3 545 151 80 546 187 80 547 185 80 548 152 3 549 146 3 550 186 3 551 145 1 552 185 1 553 182 1 554 146 3 555 144 3 556 184 3 557 144 3 558 139 3 559 183 3 560 174 81 561 138 81 562 182 81 563 134 1 564 178 1 565 189 1 566 170 82 567 220 82 568 221 82 569 180 5 570 181 5 571 137 5 572 135 4 573 179 4 574 178 4 575 201 3 576 197 3 577 196 3 578 192 1 579 193 1 580 213 1 581 206 1 582 205 1 583 198 1 584 210 3 585 207 3 586 203 3 587 214 3 588 210 3 589 202 3 590 211 1 591 204 1 592 205 1 593 216 3 594 214 3 595 208 3 596 215 83 597 209 83 598 204 83 599 194 3 600 216 3 601 212 3 602 217 1 603 213 1 604 209 1 605 218 1 606 198 1 607 199 1 608 219 3 609 196 3 610 203 3 611 185 84 612 187 84 613 215 84 614 155 0 615 124 0 616 195 0 617 172 85 618 196 85 619 197 85 620 186 2 621 214 2 622 216 2 623 156 86 624 213 86 625 193 86 626 149 87 627 155 87 628 212 87 629 173 0 630 129 0 631 199 0 632 142 88 633 149 88 634 208 88 635 185 89 636 211 89 637 206 89 638 150 90 639 209 90 640 213 90 641 143 91 642 204 91 643 209 91 644 184 2 645 210 2 646 214 2 647 180 92 648 200 92 649 199 92 650 184 93 651 183 93 652 207 93 653 128 94 654 197 94 655 201 94 656 182 95 657 206 95 658 218 95 659 226 3 660 227 3 661 230 3 662 223 3 663 226 3 664 231 3 665 220 1 666 229 1 667 224 1 668 229 1 669 228 1 670 225 1 671 228 1 672 234 1 673 232 1 674 227 3 675 233 3 676 235 3 677 180 96 678 232 96 679 234 96 680 176 4 681 171 4 682 222 4 683 176 4 684 231 4 685 230 4 686 136 5 687 225 5 688 232 5 689 177 4 690 174 4 691 228 4 692 191 97 693 235 97 694 233 97 695 160 5 696 224 5 697 225 5 698 137 5 699 181 5 700 233 5 701 161 5 702 137 5 703 227 5 704 174 4 705 190 4 706 234 4 707 293 4 708 238 4 709 239 4 710 243 5 711 242 5 712 295 5 713 240 6 714 241 6 715 285 6 716 302 2 717 330 2 718 308 2 719 242 7 720 243 7 721 287 7 722 301 98 723 303 98 724 331 98 725 293 55 726 308 55 727 309 55 728 246 99 729 247 99 730 257 99 731 304 100 732 332 100 733 314 100 734 254 101 735 244 101 736 245 101 737 277 102 738 253 102 739 258 102 740 291 1 741 276 1 742 252 1 743 272 1 744 248 1 745 271 1 746 275 5 747 340 5 748 337 5 749 250 5 750 251 5 751 275 5 752 272 103 753 273 103 754 249 103 755 276 104 756 278 104 757 259 104 758 279 3 759 258 3 760 260 3 761 261 105 762 254 105 763 255 105 764 257 106 765 247 106 766 319 106 767 256 107 768 257 107 769 264 107 770 297 2 771 305 2 772 333 2 773 263 108 774 264 108 775 270 108 776 247 109 777 287 109 778 312 109 779 261 110 780 262 110 781 268 110 782 282 3 783 280 3 784 260 3 785 278 1 786 281 1 787 265 1 788 239 111 789 307 111 790 306 111 791 273 112 792 282 112 793 266 112 794 267 113 795 268 113 796 237 113 797 256 0 798 316 0 799 317 0 800 269 114 801 270 114 802 239 114 803 283 1 804 271 1 805 265 1 806 246 0 807 317 0 808 310 0 809 267 115 810 283 115 811 281 115 812 237 3 813 268 3 814 282 3 815 261 1 816 281 1 817 278 1 818 268 116 819 262 116 820 280 116 821 262 3 822 255 3 823 279 3 824 254 117 825 278 117 826 276 117 827 236 118 828 237 118 829 273 118 830 274 5 831 275 5 832 241 5 833 241 119 834 337 119 835 336 119 836 236 1 837 272 1 838 283 1 839 244 1 840 276 1 841 291 1 842 255 3 843 245 3 844 277 3 845 291 4 846 343 4 847 334 4 848 285 3 849 290 3 850 277 3 851 290 3 852 289 3 853 253 3 854 274 5 855 240 5 856 335 5 857 305 2 858 295 2 859 315 2 860 286 120 861 287 120 862 247 120 863 303 2 864 292 2 865 306 2 866 284 33 867 285 33 868 245 33 869 289 3 870 305 3 871 297 3 872 289 4 873 344 4 874 349 4 875 271 1 876 303 1 877 301 1 878 249 3 879 266 3 880 302 3 881 265 121 882 301 121 883 299 121 884 266 3 885 260 3 886 300 3 887 259 1 888 299 1 889 296 1 890 260 3 891 258 3 892 298 3 893 258 3 894 253 3 895 297 3 896 288 1 897 252 1 898 296 1 899 248 1 900 292 1 901 303 1 902 284 122 903 334 122 904 335 122 905 294 5 906 295 5 907 251 5 908 249 4 909 293 4 910 292 4 911 315 3 912 311 3 913 310 3 914 306 1 915 307 1 916 327 1 917 320 1 918 319 1 919 312 1 920 324 3 921 321 3 922 317 3 923 328 3 924 324 3 925 316 3 926 325 1 927 318 1 928 319 1 929 330 3 930 328 3 931 322 3 932 329 123 933 323 123 934 318 123 935 308 3 936 330 3 937 326 3 938 331 1 939 327 1 940 323 1 941 332 1 942 312 1 943 313 1 944 333 3 945 310 3 946 317 3 947 299 124 948 301 124 949 329 124 950 269 0 951 238 0 952 309 0 953 286 125 954 310 125 955 311 125 956 300 2 957 328 2 958 330 2 959 270 126 960 327 126 961 307 126 962 263 127 963 269 127 964 326 127 965 287 0 966 243 0 967 313 0 968 256 128 969 263 128 970 322 128 971 299 129 972 325 129 973 320 129 974 264 130 975 323 130 976 327 130 977 257 131 978 318 131 979 323 131 980 298 2 981 324 2 982 328 2 983 294 132 984 314 132 985 313 132 986 298 133 987 297 133 988 321 133 989 242 134 990 311 134 991 315 134 992 296 135 993 320 135 994 332 135 995 340 3 996 341 3 997 344 3 998 337 3 999 340 3 1000 345 3 1001 334 1 1002 343 1 1003 338 1 1004 343 1 1005 342 1 1006 339 1 1007 342 1 1008 348 1 1009 346 1 1010 341 3 1011 347 3 1012 349 3 1013 294 136 1014 346 136 1015 348 136 1016 290 4 1017 285 4 1018 336 4 1019 290 4 1020 345 4 1021 344 4 1022 250 5 1023 339 5 1024 346 5 1025 291 4 1026 288 4 1027 342 4 1028 305 137 1029 349 137 1030 347 137 1031 274 5 1032 338 5 1033 339 5 1034 251 5 1035 295 5 1036 347 5 1037 275 5 1038 251 5 1039 341 5 1040 288 4 1041 304 4 1042 348 4 1043 64 4 1044 65 4 1045 11 4 1046 66 5 1047 15 5 1048 67 5 1049 56 138 1050 12 138 1051 57 138 1052 65 139 1053 74 139 1054 80 139 1055 58 140 1056 14 140 1057 59 140 1058 101 141 1059 73 141 1060 103 141 1061 10 142 1062 65 142 1063 81 142 1064 28 10 1065 18 10 1066 29 10 1067 66 2 1068 76 2 1069 86 2 1070 27 143 1071 26 143 1072 17 143 1073 51 3 1074 49 3 1075 30 3 1076 60 1 1077 63 1 1078 24 1 1079 55 1 1080 44 1 1081 43 1 1082 13 5 1083 47 5 1084 109 5 1085 46 5 1086 22 5 1087 47 5 1088 44 144 1089 45 144 1090 20 144 1091 24 1 1092 48 1 1093 31 1 1094 52 145 1095 51 145 1096 32 145 1097 34 146 1098 33 146 1099 27 146 1100 90 0 1101 29 0 1102 91 0 1103 35 147 1104 28 147 1105 36 147 1106 93 2 1107 69 2 1108 105 2 1109 41 18 1110 35 18 1111 42 18 1112 91 148 1113 19 148 1114 84 148 1115 39 149 1116 33 149 1117 40 149 1118 38 3 1119 54 3 1120 32 3 1121 31 1 1122 50 1 1123 37 1 1124 64 150 1125 11 150 1126 78 150 1127 21 3 1128 45 3 1129 38 3 1130 8 151 1131 39 151 1132 9 151 1133 18 152 1134 28 152 1135 89 152 1136 10 153 1137 41 153 1138 11 153 1139 53 1 1140 55 1 1141 37 1 1142 58 154 1143 18 154 1144 82 154 1145 33 155 1146 39 155 1147 53 155 1148 45 3 1149 9 3 1150 54 3 1151 26 1 1152 33 1 1153 50 1 1154 54 156 1155 40 156 1156 52 156 1157 52 157 1158 34 157 1159 51 157 1160 16 1 1161 26 1 1162 48 1 1163 8 158 1164 9 158 1165 44 158 1166 12 5 1167 46 5 1168 13 5 1169 57 159 1170 13 159 1171 108 159 1172 39 160 1173 8 160 1174 55 160 1175 56 1 1176 16 1 1177 63 1 1178 51 161 1179 27 161 1180 49 161 1181 56 4 1182 63 4 1183 106 4 1184 17 3 1185 57 3 1186 49 3 1187 49 3 1188 62 3 1189 25 3 1190 110 5 1191 46 5 1192 107 5 1193 105 2 1194 77 2 1195 87 2 1196 18 162 1197 58 162 1198 19 162 1199 103 2 1200 75 2 1201 78 2 1202 16 163 1203 56 163 1204 17 163 1205 25 3 1206 61 3 1207 69 3 1208 77 4 1209 61 4 1210 121 4 1211 37 1 1212 43 1 1213 73 1 1214 65 3 1215 21 3 1216 74 3 1217 31 1 1218 37 1 1219 71 1 1220 74 3 1221 38 3 1222 72 3 1223 24 1 1224 31 1 1225 68 1 1226 72 3 1227 32 3 1228 70 3 1229 70 164 1230 30 164 1231 69 164 1232 76 1 1233 60 1 1234 68 1 1235 43 1 1236 20 1 1237 75 1 1238 12 165 1239 56 165 1240 107 165 1241 22 5 1242 66 5 1243 23 5 1244 20 4 1245 21 4 1246 64 4 1247 105 3 1248 87 3 1249 82 3 1250 103 1 1251 78 1 1252 99 1 1253 104 1 1254 92 1 1255 84 1 1256 88 3 1257 96 3 1258 89 3 1259 94 3 1260 100 3 1261 88 3 1262 92 1 1263 97 1 1264 91 1 1265 98 3 1266 102 3 1267 94 3 1268 97 1 1269 101 1 1270 90 1 1271 81 3 1272 80 3 1273 98 3 1274 101 1 1275 103 1 1276 95 1 1277 86 1 1278 104 1 1279 85 1 1280 93 3 1281 105 3 1282 89 3 1283 97 166 1284 71 166 1285 101 166 1286 98 0 1287 41 0 1288 81 0 1289 14 167 1290 58 167 1291 83 167 1292 74 168 1293 72 168 1294 102 168 1295 11 169 1296 42 169 1297 79 169 1298 94 170 1299 35 170 1300 98 170 1301 84 0 1302 59 0 1303 85 0 1304 88 0 1305 28 0 1306 94 0 1307 68 171 1308 71 171 1309 92 171 1310 42 0 1311 36 0 1312 99 0 1313 36 172 1314 29 172 1315 95 172 1316 72 2 1317 70 2 1318 100 2 1319 15 173 1320 66 173 1321 85 173 1322 96 174 1323 70 174 1324 93 174 1325 67 175 1326 14 175 1327 87 175 1328 76 176 1329 68 176 1330 104 176 1331 117 3 1332 112 3 1333 116 3 1334 108 3 1335 109 3 1336 117 3 1337 107 1 1338 106 1 1339 110 1 1340 110 1 1341 115 1 1342 111 1 1343 111 1 1344 114 1 1345 118 1 1346 116 3 1347 113 3 1348 121 3 1349 76 177 1350 66 177 1351 120 177 1352 117 4 1353 62 4 1354 108 4 1355 61 4 1356 62 4 1357 116 4 1358 66 5 1359 22 5 1360 118 5 1361 115 4 1362 63 4 1363 114 4 1364 67 178 1365 77 178 1366 119 178 1367 22 5 1368 46 5 1369 111 5 1370 113 5 1371 23 5 1372 119 5 1373 112 5 1374 47 5 1375 113 5 1376 114 4 1377 60 4 1378 120 4 1379 178 4 1380 179 4 1381 125 4 1382 180 5 1383 129 5 1384 181 5 1385 170 179 1386 126 179 1387 171 179 1388 179 2 1389 188 2 1390 194 2 1391 172 180 1392 128 180 1393 173 180 1394 215 2 1395 187 2 1396 217 2 1397 124 181 1398 179 181 1399 195 181 1400 142 182 1401 132 182 1402 143 182 1403 180 2 1404 190 2 1405 200 2 1406 141 183 1407 140 183 1408 131 183 1409 165 184 1410 163 184 1411 144 184 1412 174 1 1413 177 1 1414 138 1 1415 169 185 1416 158 185 1417 157 185 1418 127 5 1419 161 5 1420 223 5 1421 160 5 1422 136 5 1423 161 5 1424 134 186 1425 158 186 1426 135 186 1427 138 1 1428 162 1 1429 145 1 1430 166 3 1431 165 3 1432 146 3 1433 148 187 1434 147 187 1435 141 187 1436 204 188 1437 143 188 1438 205 188 1439 149 189 1440 142 189 1441 150 189 1442 207 2 1443 183 2 1444 219 2 1445 155 190 1446 149 190 1447 156 190 1448 205 191 1449 133 191 1450 198 191 1451 153 192 1452 147 192 1453 154 192 1454 152 3 1455 168 3 1456 146 3 1457 145 1 1458 164 1 1459 151 1 1460 178 193 1461 125 193 1462 192 193 1463 135 3 1464 159 3 1465 152 3 1466 122 194 1467 153 194 1468 123 194 1469 132 195 1470 142 195 1471 203 195 1472 124 196 1473 155 196 1474 125 196 1475 167 197 1476 169 197 1477 151 197 1478 172 198 1479 132 198 1480 196 198 1481 147 1 1482 153 1 1483 167 1 1484 159 199 1485 123 199 1486 168 199 1487 140 200 1488 147 200 1489 164 200 1490 168 201 1491 154 201 1492 166 201 1493 166 202 1494 148 202 1495 165 202 1496 130 1 1497 140 1 1498 162 1 1499 158 203 1500 122 203 1501 159 203 1502 126 5 1503 160 5 1504 127 5 1505 171 30 1506 127 30 1507 222 30 1508 153 204 1509 122 204 1510 169 204 1511 170 1 1512 130 1 1513 177 1 1514 165 3 1515 141 3 1516 163 3 1517 170 4 1518 177 4 1519 220 4 1520 131 3 1521 171 3 1522 163 3 1523 163 3 1524 176 3 1525 139 3 1526 224 5 1527 160 5 1528 221 5 1529 219 205 1530 191 205 1531 201 205 1532 132 206 1533 172 206 1534 133 206 1535 217 2 1536 189 2 1537 192 2 1538 130 207 1539 170 207 1540 131 207 1541 139 3 1542 175 3 1543 183 3 1544 191 4 1545 175 4 1546 235 4 1547 151 1 1548 157 1 1549 187 1 1550 179 3 1551 135 3 1552 188 3 1553 145 1 1554 151 1 1555 185 1 1556 188 3 1557 152 3 1558 186 3 1559 138 1 1560 145 1 1561 182 1 1562 186 3 1563 146 3 1564 184 3 1565 184 208 1566 144 208 1567 183 208 1568 190 1 1569 174 1 1570 182 1 1571 157 1 1572 134 1 1573 189 1 1574 126 209 1575 170 209 1576 221 209 1577 136 5 1578 180 5 1579 137 5 1580 134 4 1581 135 4 1582 178 4 1583 219 3 1584 201 3 1585 196 3 1586 217 1 1587 192 1 1588 213 1 1589 218 210 1590 206 210 1591 198 210 1592 202 3 1593 210 3 1594 203 3 1595 208 3 1596 214 3 1597 202 3 1598 206 1 1599 211 1 1600 205 1 1601 212 3 1602 216 3 1603 208 3 1604 211 1 1605 215 1 1606 204 1 1607 195 3 1608 194 3 1609 212 3 1610 215 1 1611 217 1 1612 209 1 1613 200 1 1614 218 1 1615 199 1 1616 207 3 1617 219 3 1618 203 3 1619 211 211 1620 185 211 1621 215 211 1622 212 0 1623 155 0 1624 195 0 1625 128 0 1626 172 0 1627 197 0 1628 188 212 1629 186 212 1630 216 212 1631 125 213 1632 156 213 1633 193 213 1634 208 0 1635 149 0 1636 212 0 1637 198 0 1638 173 0 1639 199 0 1640 202 0 1641 142 0 1642 208 0 1643 182 214 1644 185 214 1645 206 214 1646 156 215 1647 150 215 1648 213 215 1649 150 216 1650 143 216 1651 209 216 1652 186 2 1653 184 2 1654 214 2 1655 129 217 1656 180 217 1657 199 217 1658 210 218 1659 184 218 1660 207 218 1661 181 219 1662 128 219 1663 201 219 1664 190 220 1665 182 220 1666 218 220 1667 231 3 1668 226 3 1669 230 3 1670 222 3 1671 223 3 1672 231 3 1673 221 1 1674 220 1 1675 224 1 1676 224 1 1677 229 1 1678 225 1 1679 225 1 1680 228 1 1681 232 1 1682 230 3 1683 227 3 1684 235 3 1685 190 221 1686 180 221 1687 234 221 1688 231 4 1689 176 4 1690 222 4 1691 175 4 1692 176 4 1693 230 4 1694 180 5 1695 136 5 1696 232 5 1697 229 4 1698 177 4 1699 228 4 1700 181 222 1701 191 222 1702 233 222 1703 136 5 1704 160 5 1705 225 5 1706 227 5 1707 137 5 1708 233 5 1709 226 5 1710 161 5 1711 227 5 1712 228 4 1713 174 4 1714 234 4 1715 292 4 1716 293 4 1717 239 4 1718 294 5 1719 243 5 1720 295 5 1721 284 223 1722 240 223 1723 285 223 1724 293 2 1725 302 2 1726 308 2 1727 286 140 1728 242 140 1729 287 140 1730 329 2 1731 301 2 1732 331 2 1733 238 55 1734 293 55 1735 309 55 1736 256 10 1737 246 10 1738 257 10 1739 294 2 1740 304 2 1741 314 2 1742 255 224 1743 254 224 1744 245 224 1745 279 225 1746 277 225 1747 258 225 1748 288 226 1749 291 226 1750 252 226 1751 283 227 1752 272 227 1753 271 227 1754 241 5 1755 275 5 1756 337 5 1757 274 5 1758 250 5 1759 275 5 1760 248 228 1761 272 228 1762 249 228 1763 252 1 1764 276 1 1765 259 1 1766 280 3 1767 279 3 1768 260 3 1769 262 229 1770 261 229 1771 255 229 1772 318 230 1773 257 230 1774 319 230 1775 263 107 1776 256 107 1777 264 107 1778 321 2 1779 297 2 1780 333 2 1781 269 108 1782 263 108 1783 270 108 1784 319 231 1785 247 231 1786 312 231 1787 267 232 1788 261 232 1789 268 232 1790 266 3 1791 282 3 1792 260 3 1793 259 1 1794 278 1 1795 265 1 1796 292 233 1797 239 233 1798 306 233 1799 249 3 1800 273 3 1801 266 3 1802 236 234 1803 267 234 1804 237 234 1805 246 235 1806 256 235 1807 317 235 1808 238 236 1809 269 236 1810 239 236 1811 281 237 1812 283 237 1813 265 237 1814 286 238 1815 246 238 1816 310 238 1817 261 239 1818 267 239 1819 281 239 1820 273 240 1821 237 240 1822 282 240 1823 254 241 1824 261 241 1825 278 241 1826 282 3 1827 268 3 1828 280 3 1829 280 242 1830 262 242 1831 279 242 1832 244 1 1833 254 1 1834 276 1 1835 272 243 1836 236 243 1837 273 243 1838 240 5 1839 274 5 1840 241 5 1841 285 244 1842 241 244 1843 336 244 1844 267 245 1845 236 245 1846 283 245 1847 284 1 1848 244 1 1849 291 1 1850 279 3 1851 255 3 1852 277 3 1853 284 4 1854 291 4 1855 334 4 1856 245 3 1857 285 3 1858 277 3 1859 277 3 1860 290 3 1861 253 3 1862 338 5 1863 274 5 1864 335 5 1865 333 246 1866 305 246 1867 315 246 1868 246 162 1869 286 162 1870 247 162 1871 331 2 1872 303 2 1873 306 2 1874 244 247 1875 284 247 1876 245 247 1877 253 3 1878 289 3 1879 297 3 1880 305 4 1881 289 4 1882 349 4 1883 265 1 1884 271 1 1885 301 1 1886 293 3 1887 249 3 1888 302 3 1889 259 1 1890 265 1 1891 299 1 1892 302 3 1893 266 3 1894 300 3 1895 252 1 1896 259 1 1897 296 1 1898 300 3 1899 260 3 1900 298 3 1901 298 3 1902 258 3 1903 297 3 1904 304 1 1905 288 1 1906 296 1 1907 271 1 1908 248 1 1909 303 1 1910 240 248 1911 284 248 1912 335 248 1913 250 5 1914 294 5 1915 251 5 1916 248 4 1917 249 4 1918 292 4 1919 333 3 1920 315 3 1921 310 3 1922 331 1 1923 306 1 1924 327 1 1925 332 1 1926 320 1 1927 312 1 1928 316 3 1929 324 3 1930 317 3 1931 322 3 1932 328 3 1933 316 3 1934 320 1 1935 325 1 1936 319 1 1937 326 3 1938 330 3 1939 322 3 1940 325 1 1941 329 1 1942 318 1 1943 309 3 1944 308 3 1945 326 3 1946 329 1 1947 331 1 1948 323 1 1949 314 1 1950 332 1 1951 313 1 1952 321 3 1953 333 3 1954 317 3 1955 325 249 1956 299 249 1957 329 249 1958 326 0 1959 269 0 1960 309 0 1961 242 0 1962 286 0 1963 311 0 1964 302 250 1965 300 250 1966 330 250 1967 239 251 1968 270 251 1969 307 251 1970 322 0 1971 263 0 1972 326 0 1973 312 0 1974 287 0 1975 313 0 1976 316 0 1977 256 0 1978 322 0 1979 296 252 1980 299 252 1981 320 252 1982 270 253 1983 264 253 1984 327 253 1985 264 254 1986 257 254 1987 323 254 1988 300 2 1989 298 2 1990 328 2 1991 243 255 1992 294 255 1993 313 255 1994 324 256 1995 298 256 1996 321 256 1997 295 257 1998 242 257 1999 315 257 2000 304 258 2001 296 258 2002 332 258 2003 345 3 2004 340 3 2005 344 3 2006 336 3 2007 337 3 2008 345 3 2009 335 1 2010 334 1 2011 338 1 2012 338 1 2013 343 1 2014 339 1 2015 339 1 2016 342 1 2017 346 1 2018 344 3 2019 341 3 2020 349 3 2021 304 96 2022 294 96 2023 348 96 2024 345 4 2025 290 4 2026 336 4 2027 289 4 2028 290 4 2029 344 4 2030 294 5 2031 250 5 2032 346 5 2033 343 4 2034 291 4 2035 342 4 2036 295 259 2037 305 259 2038 347 259 2039 250 5 2040 274 5 2041 339 5 2042 341 5 2043 251 5 2044 347 5 2045 340 5 2046 275 5 2047 341 5 2048 342 4 2049 288 4 2050 348 4 2051</p>
        </polylist>
      </mesh>
    </geometry>
  </library_geometries>
  <library_controllers/>
  <library_visual_scenes>
    <visual_scene id="Scene" name="Scene">
      <node id="RegalAblage" name="RegalAblage" type="NODE">
        <matrix sid="transform">-4.37114e-8 1 0 0 -1 -4.37114e-8 0 -5.96046e-8 0 0 1 4.76837e-7 0 0 0 1</matrix>
        <instance_geometry url="#Cube_079-mesh" name="RegalAblage">
          <bind_material>
            <technique_common>
              <instance_material symbol="PBRFULL_LaboRoomShelf-material" target="#PBRFULL_LaboRoomShelf-material"/>
            </technique_common>
          </bind_material>
        </instance_geometry>
      </node>
    </visual_scene>
  </library_visual_scenes>
  <scene>
    <instance_visual_scene url="#Scene"/>
  </scene>
</COLLADA>