<?xml version="1.0" encoding="utf-8"?>
<COLLADA xmlns="http://www.collada.org/2005/11/COLLADASchema" version="1.4.1">
  <asset>
    <contributor>
      <author>Blender User</author>
      <authoring_tool>Blender 2.78.0</authoring_tool>
    </contributor>
    <created>2017-11-29T08:41:00</created>
    <modified>2017-11-29T08:41:00</modified>
    <unit name="meter" meter="1"/>
    <up_axis>Z_UP</up_axis>
  </asset>
  <library_images/>
  <library_effects/>
  <library_geometries>
    <geometry id="Cube_002-mesh" name="Cube.002">
      <mesh>
        <source id="Cube_002-mesh-positions">
          <float_array id="Cube_002-mesh-positions-array" count="492">-2.618271 -0.4027281 0.005825281 -2.618271 -0.4027281 1.337283 -2.618271 0.4930718 0.005825281 -2.618271 0.4930718 1.337283 2.558042 -0.4027281 0.005825281 2.558042 -0.4027281 1.337283 2.558042 0.4930718 0.005825281 2.558042 0.4930718 1.337283 -2.618271 -0.4027281 1.236415 -2.618271 0.4930718 1.236415 2.558042 0.4930718 1.236415 2.558042 -0.4027281 1.236415 -2.618271 0.6195562 1.337283 2.558042 0.6195562 1.337283 -2.618271 0.6195562 1.236415 2.558042 0.6195562 1.236415 -2.618271 -0.3131481 0.005825281 -2.618271 -0.3131481 1.337283 2.558042 -0.3131481 0.005825281 2.558042 -0.3131481 1.337283 2.558042 -0.3131481 1.236415 -2.618271 -0.3131481 1.236415 2.558042 -0.3131481 1.877583 2.558042 -0.4027281 1.877583 -2.618271 -0.4027281 1.877583 -2.618271 -0.3131481 1.877583 0.183126 0.4930718 0.005825281 0.1831262 0.4930718 1.337283 0.1831262 -0.4027281 0.005825281 0.183126 -0.4027281 1.337283 0.183126 -0.4027281 1.236415 0.1831262 0.4930718 1.236415 0.1831262 0.6195562 1.337283 0.1831262 0.6195562 1.236415 0.1831262 -0.3131481 1.337283 0.183126 -0.3131481 0.005825281 0.183126 -0.4027281 1.877583 0.1831262 -0.3131481 1.877583 -0.1764562 0.4930718 0.005825281 -0.1764562 -0.4027281 1.337283 -0.1764562 -0.4027281 1.236415 -0.1764562 -0.3131481 0.005825281 -0.1764562 -0.4027281 1.877583 -0.176456 0.4930718 1.337283 -0.176456 -0.4027281 0.005825281 -0.176456 0.4930718 1.236415 -0.176456 0.6195562 1.337283 -0.176456 0.6195562 1.236415 -0.176456 -0.3131481 1.337283 -0.176456 -0.3131481 1.877583 2.121662 0.4930718 1.337283 2.121662 -0.4027281 0.005825281 2.121662 0.4930718 1.236415 2.121662 0.6195562 1.337283 2.121662 0.6195562 1.236415 2.121662 -0.3131481 1.337283 2.121662 -0.3131481 1.877583 2.121662 0.4930718 0.005825281 2.121662 -0.4027281 1.337283 2.121662 -0.4027281 1.236415 2.121662 -0.3131481 0.005825281 2.121662 -0.4027281 1.877583 2.495103 0.4930718 1.337283 2.495103 -0.4027281 0.005825281 2.495103 0.4930718 1.236415 2.495103 0.6195562 1.337283 2.495103 0.6195562 1.236415 2.495103 -0.3131481 1.337283 2.495103 -0.3131481 1.877583 2.495103 0.4930718 0.005825281 2.495103 -0.4027281 1.337283 2.495103 -0.4027281 1.236415 2.495103 -0.3131481 0.005825281 2.495103 -0.4027281 1.877583 -2.149978 0.4930718 0.005825281 -2.149978 -0.4027281 1.337283 -2.149978 -0.4027281 1.236415 -2.149978 -0.3131481 0.005825281 -2.149978 -0.4027281 1.877583 -2.149978 0.4930718 1.337283 -2.149978 -0.4027281 0.005825281 -2.149978 0.4930718 1.236415 -2.149978 0.6195562 1.337283 -2.149978 0.6195562 1.236415 -2.149978 -0.3131481 1.337283 -2.149978 -0.3131481 1.877583 -2.526285 0.4930718 0.005825281 -2.526285 -0.4027281 1.337283 -2.526285 -0.4027281 1.236415 -2.526285 -0.3131481 0.005825281 -2.526285 -0.4027281 1.877583 -2.526285 0.4930718 1.337283 -2.526285 -0.4027281 0.005825281 -2.526285 0.4930718 1.236415 -2.526285 0.6195562 1.337283 -2.526285 0.6195562 1.236415 -2.526285 -0.3131481 1.337283 -2.526285 -0.3131481 1.877583 -2.618271 -0.4027281 1.696076 -2.618271 -0.3131481 1.696076 2.558042 -0.3131481 1.696076 2.558042 -0.4027281 1.696076 0.183126 -0.4027281 1.696076 0.1831262 -0.3131481 1.696076 -0.1764562 -0.4027281 1.696076 -0.176456 -0.3131481 1.696076 2.121662 -0.3131481 1.696076 2.121662 -0.4027281 1.696076 2.495103 -0.3131481 1.696076 2.495103 -0.4027281 1.696076 -2.149978 -0.4027281 1.696076 -2.149978 -0.3131481 1.696076 -2.526285 -0.4027281 1.696076 -2.526285 -0.3131481 1.696076 -2.618271 -0.3131481 1.503865 2.558042 -0.3131481 1.503865 2.558042 -0.4027281 1.503865 -2.618271 -0.4027281 1.503865 0.183126 -0.4027281 1.503865 0.1831262 -0.3131481 1.503865 -0.1764562 -0.4027281 1.503865 -0.176456 -0.3131481 1.503865 2.121662 -0.3131481 1.503865 2.121662 -0.4027281 1.503865 2.495103 -0.3131481 1.503865 2.495103 -0.4027281 1.503865 -2.149978 -0.4027281 1.503865 -2.149978 -0.3131481 1.503865 -2.526285 -0.4027281 1.503865 -2.526285 -0.3131481 1.503865 -2.149978 -0.04198372 1.532441 -2.526285 -0.04198372 1.532441 -2.526285 -0.1646882 1.677586 -2.149978 -0.1646882 1.677586 2.495103 -0.04198372 1.532441 2.121662 -0.04198372 1.532441 2.121662 -0.1646882 1.677586 2.495103 -0.1646882 1.677586 0.1831262 -0.04198372 1.532441 -0.176456 -0.04198372 1.532441 -0.176456 -0.1646882 1.677586 0.1831262 -0.1646882 1.677586 2.495103 -0.3131481 1.612204 0.183126 -0.4027281 1.612204 2.121662 -0.4027281 1.612204 2.495103 -0.4027281 1.612204 0.1831262 -0.3131481 1.612204 2.121662 -0.03738355 1.597076 -2.149978 -0.03738355 1.597076 -2.149978 -0.4027281 1.612204 -0.1764562 -0.4027281 1.612204 -2.618271 -0.4027281 1.612204 -2.149978 -0.3131481 1.612204 -0.176456 -0.03738355 1.597076 2.495103 -0.03738355 1.597076 -2.618271 -0.3131481 1.612204 -0.176456 -0.3131481 1.612204 -2.526285 -0.4027281 1.612204 2.121662 -0.3131481 1.612204 2.558042 -0.3131481 1.612204 -2.526285 -0.3131481 1.612204 0.1831262 -0.03738355 1.597076 2.558042 -0.4027281 1.612204 -2.526285 -0.03738355 1.597076</float_array>
          <technique_common>
            <accessor source="#Cube_002-mesh-positions-array" count="164" stride="3">
              <param name="X" type="float"/>
              <param name="Y" type="float"/>
              <param name="Z" type="float"/>
            </accessor>
          </technique_common>
        </source>
        <source id="Cube_002-mesh-normals">
          <float_array id="Cube_002-mesh-normals-array" count="129">-1 0 0 0 0 -1 1 0 0 0 -1 0 0 1 0 0 0 1 0 -1 0 0 1 0 0 -1 0 0 0.9974769 -0.07099109 0 0.1047987 -0.9944936 0 0.1235887 0.9923335 0 0.997477 -0.07099103 0 0.1047987 -0.9944935 0 0.1235888 0.9923335 0 0.997477 -0.07099115 0 0.1047988 -0.9944935 0 0.1235887 0.9923336 0 0.534505 0.8451654 -1 1.01446e-6 0 0 0.5345046 0.8451656 1 0 0 0 0.5345051 0.8451654 -1 -7.60845e-7 0 1 -5.9836e-7 0 0 1 0 0 -1 0 0 1 0 0 -1 0 0 0.9974769 -0.07099115 0 0.1047989 -0.9944934 0 0.1235887 0.9923336 0 0.997477 -0.07099127 -1 3.67457e-7 0 0 0.1235886 0.9923336 0 0.1047988 -0.9944934 -1 0 0 0 0.1235887 0.9923335 0 0.5345041 0.8451659 0 0.5345045 0.8451656 -1 0 0 0 0.5345042 0.8451659 -1 1.66552e-6 0</float_array>
          <technique_common>
            <accessor source="#Cube_002-mesh-normals-array" count="43" stride="3">
              <param name="X" type="float"/>
              <param name="Y" type="float"/>
              <param name="Z" type="float"/>
            </accessor>
          </technique_common>
        </source>
        <vertices id="Cube_002-mesh-vertices">
          <input semantic="POSITION" source="#Cube_002-mesh-positions"/>
        </vertices>
        <polylist count="324">
          <input semantic="VERTEX" source="#Cube_002-mesh-vertices" offset="0"/>
          <input semantic="NORMAL" source="#Cube_002-mesh-normals" offset="1"/>
          <vcount>3 3 3 3 3 3 3 3 3 3 3 3 3 3 3 3 3 3 3 3 3 3 3 3 3 3 3 3 3 3 3 3 3 3 3 3 3 3 3 3 3 3 3 3 3 3 3 3 3 3 3 3 3 3 3 3 3 3 3 3 3 3 3 3 3 3 3 3 3 3 3 3 3 3 3 3 3 3 3 3 3 3 3 3 3 3 3 3 3 3 3 3 3 3 3 3 3 3 3 3 3 3 3 3 3 3 3 3 3 3 3 3 3 3 3 3 3 3 3 3 3 3 3 3 3 3 3 3 3 3 3 3 3 3 3 3 3 3 3 3 3 3 3 3 3 3 3 3 3 3 3 3 3 3 3 3 3 3 3 3 3 3 3 3 3 3 3 3 3 3 3 3 3 3 3 3 3 3 3 3 3 3 3 3 3 3 3 3 3 3 3 3 3 3 3 3 3 3 3 3 3 3 3 3 3 3 3 3 3 3 3 3 3 3 3 3 3 3 3 3 3 3 3 3 3 3 3 3 3 3 3 3 3 3 3 3 3 3 3 3 3 3 3 3 3 3 3 3 3 3 3 3 3 3 3 3 3 3 3 3 3 3 3 3 3 3 3 3 3 3 3 3 3 3 3 3 3 3 3 3 3 3 3 3 3 3 3 3 3 3 3 3 3 3 3 3 3 3 3 3 3 3 3 3 3 3 3 3 3 3 3 3 3 3 3 3 3 3 3 3 3 3 3 3 </vcount>
          <p>17 0 9 0 21 0 9 1 95 1 93 1 19 2 11 2 20 2 87 3 8 3 88 3 18 1 63 1 72 1 98 0 25 0 99 0 88 3 0 3 92 3 20 2 4 2 18 2 64 4 6 4 69 4 21 0 2 0 16 0 65 4 15 4 66 4 7 5 65 5 62 5 10 2 13 2 7 2 3 0 14 0 9 0 8 0 16 0 0 0 10 2 18 2 6 2 3 5 96 5 91 5 6 1 72 1 69 1 7 2 20 2 10 2 1 0 21 0 8 0 25 5 90 5 97 5 99 4 97 4 113 4 100 2 23 2 101 2 101 3 73 3 109 3 102 3 42 3 104 3 103 4 56 4 106 4 37 5 61 5 56 5 26 1 41 1 38 1 27 5 55 5 50 5 27 5 46 5 43 5 46 4 33 4 47 4 45 4 26 4 38 4 59 3 28 3 51 3 35 1 44 1 41 1 58 3 30 3 59 3 31 1 54 1 52 1 41 1 80 1 77 1 81 4 38 4 74 4 82 4 47 4 83 4 43 5 82 5 79 5 38 1 77 1 74 1 104 3 78 3 110 3 105 4 37 4 103 4 49 5 36 5 37 5 43 5 34 5 27 5 30 6 44 6 28 6 29 3 40 3 30 3 45 1 33 1 31 1 52 1 66 1 64 1 70 3 59 3 71 3 71 3 51 3 63 3 50 5 67 5 62 5 56 5 73 5 68 5 106 4 68 4 108 4 107 3 36 3 102 3 57 1 35 1 26 1 50 5 32 5 27 5 32 4 54 4 33 4 31 7 57 7 26 7 60 1 28 1 35 1 108 4 22 4 100 4 68 5 23 5 22 5 62 5 19 5 7 5 11 3 63 3 4 3 5 3 71 3 11 3 64 1 15 1 10 1 109 3 61 3 107 3 69 1 60 1 57 1 62 5 53 5 50 5 53 4 66 4 54 4 52 4 69 4 57 4 72 1 51 1 60 1 110 3 90 3 112 3 74 1 89 1 86 1 79 5 94 5 91 5 94 4 83 4 95 4 93 4 74 4 86 4 77 1 92 1 89 1 111 4 49 4 105 4 85 5 42 5 49 5 79 5 48 5 43 5 40 8 80 8 44 8 39 3 76 3 40 3 81 1 47 1 45 1 89 1 0 1 16 1 9 4 86 4 2 4 12 4 95 4 14 4 91 5 12 5 3 5 86 1 16 1 2 1 112 3 24 3 98 3 113 4 85 4 111 4 97 5 78 5 85 5 91 5 84 5 79 5 76 3 92 3 80 3 75 3 88 3 76 3 93 1 83 1 81 1 152 4 105 4 156 4 128 3 151 3 117 3 127 4 156 4 121 4 126 3 157 3 128 3 125 3 144 3 123 3 124 4 159 4 115 4 123 3 143 3 118 3 144 3 102 3 143 3 120 3 149 3 126 3 119 4 158 4 122 4 118 3 150 3 120 3 116 3 145 3 125 3 115 2 162 2 116 2 114 4 160 4 129 4 117 0 155 0 114 0 1 0 114 0 17 0 17 4 129 4 96 4 19 2 116 2 5 2 5 3 125 3 70 3 29 3 120 3 39 3 34 4 122 4 55 4 39 3 126 3 75 3 48 4 119 4 34 4 55 4 124 4 67 4 58 3 118 3 29 3 67 4 115 4 19 4 70 3 123 3 58 3 75 3 128 3 87 3 84 4 121 4 48 4 87 3 117 3 1 3 96 4 127 4 84 4 131 9 148 9 130 9 131 10 127 10 129 10 132 0 160 0 113 0 133 11 113 11 111 11 130 2 152 2 127 2 135 12 154 12 134 12 135 13 124 13 122 13 136 0 158 0 106 0 137 14 106 14 108 14 134 2 142 2 124 2 139 15 161 15 138 15 139 16 119 16 121 16 140 0 156 0 105 0 141 17 105 17 103 17 138 2 146 2 119 2 146 4 106 4 158 4 162 3 109 3 145 3 155 4 113 4 160 4 145 3 107 3 144 3 163 18 133 18 148 18 160 19 131 19 129 19 152 2 133 2 111 2 157 3 98 3 151 3 149 3 112 3 157 3 153 20 141 20 161 20 156 0 139 0 121 0 150 3 110 3 149 3 143 3 104 3 150 3 159 2 101 2 162 2 146 21 141 21 103 21 151 0 99 0 155 0 142 4 100 4 159 4 147 22 137 22 154 22 158 23 135 23 122 23 142 24 137 24 108 24 17 0 3 0 9 0 9 1 14 1 95 1 19 2 5 2 11 2 87 3 1 3 8 3 18 1 4 1 63 1 98 0 24 0 25 0 88 3 8 3 0 3 20 2 11 2 4 2 64 4 10 4 6 4 21 0 9 0 2 0 65 4 13 4 15 4 7 5 13 5 65 5 10 2 15 2 13 2 3 0 12 0 14 0 8 0 21 0 16 0 10 2 20 2 18 2 3 5 17 5 96 5 6 1 18 1 72 1 7 2 19 2 20 2 1 0 17 0 21 0 25 5 24 5 90 5 99 4 25 4 97 4 100 2 22 2 23 2 101 3 23 3 73 3 102 3 36 3 42 3 103 4 37 4 56 4 37 5 36 5 61 5 26 1 35 1 41 1 27 5 34 5 55 5 27 5 32 5 46 5 46 4 32 4 33 4 45 25 31 25 26 25 59 26 30 26 28 26 35 1 28 1 44 1 58 3 29 3 30 3 31 1 33 1 54 1 41 1 44 1 80 1 81 27 45 27 38 27 82 4 46 4 47 4 43 5 46 5 82 5 38 1 41 1 77 1 104 3 42 3 78 3 105 4 49 4 37 4 49 5 42 5 36 5 43 5 48 5 34 5 30 28 40 28 44 28 29 3 39 3 40 3 45 1 47 1 33 1 52 1 54 1 66 1 70 3 58 3 59 3 71 3 59 3 51 3 50 5 55 5 67 5 56 5 61 5 73 5 106 4 56 4 68 4 107 3 61 3 36 3 57 1 60 1 35 1 50 5 53 5 32 5 32 4 53 4 54 4 31 4 52 4 57 4 60 1 51 1 28 1 108 4 68 4 22 4 68 5 73 5 23 5 62 5 67 5 19 5 11 3 71 3 63 3 5 3 70 3 71 3 64 1 66 1 15 1 109 3 73 3 61 3 69 1 72 1 60 1 62 5 65 5 53 5 53 4 65 4 66 4 52 4 64 4 69 4 72 1 63 1 51 1 110 3 78 3 90 3 74 1 77 1 89 1 79 5 82 5 94 5 94 4 82 4 83 4 93 4 81 4 74 4 77 1 80 1 92 1 111 4 85 4 49 4 85 5 78 5 42 5 79 5 84 5 48 5 40 3 76 3 80 3 39 3 75 3 76 3 81 1 83 1 47 1 89 1 92 1 0 1 9 4 93 4 86 4 12 4 94 4 95 4 91 5 94 5 12 5 86 1 89 1 16 1 112 3 90 3 24 3 113 4 97 4 85 4 97 5 90 5 78 5 91 5 96 5 84 5 76 3 88 3 92 3 75 3 87 3 88 3 93 1 95 1 83 1 152 4 111 4 105 4 128 3 157 3 151 3 127 4 152 4 156 4 126 3 149 3 157 3 125 3 145 3 144 3 124 4 142 4 159 4 123 3 144 3 143 3 144 3 107 3 102 3 120 3 150 3 149 3 119 4 146 4 158 4 118 3 143 3 150 3 116 3 162 3 145 3 115 2 159 2 162 2 114 4 155 4 160 4 117 0 151 0 155 0 1 0 117 0 114 0 17 4 114 4 129 4 19 2 115 2 116 2 5 3 116 3 125 3 29 3 118 3 120 3 34 4 119 4 122 4 39 3 120 3 126 3 48 4 121 4 119 4 55 4 122 4 124 4 58 3 123 3 118 3 67 4 124 4 115 4 70 3 125 3 123 3 75 3 126 3 128 3 84 4 127 4 121 4 87 3 128 3 117 3 96 4 129 4 127 4 131 29 163 29 148 29 131 30 130 30 127 30 132 0 163 0 160 0 133 31 132 31 113 31 130 2 148 2 152 2 135 32 147 32 154 32 135 30 134 30 124 30 136 33 147 33 158 33 137 34 136 34 106 34 134 2 154 2 142 2 139 15 153 15 161 15 139 35 138 35 119 35 140 36 153 36 156 36 141 37 140 37 105 37 138 2 161 2 146 2 146 4 103 4 106 4 162 3 101 3 109 3 155 4 99 4 113 4 145 3 109 3 107 3 163 38 132 38 133 38 160 0 163 0 131 0 152 2 148 2 133 2 157 3 112 3 98 3 149 3 110 3 112 3 153 39 140 39 141 39 156 40 153 40 139 40 150 3 104 3 110 3 143 3 102 3 104 3 159 2 100 2 101 2 146 2 161 2 141 2 151 0 98 0 99 0 142 4 108 4 100 4 147 41 136 41 137 41 158 42 147 42 135 42 142 2 154 2 137 2</p>
        </polylist>
      </mesh>
    </geometry>
  </library_geometries>
  <library_controllers/>
  <library_visual_scenes>
    <visual_scene id="Scene" name="Scene">
      <node id="Cube" name="Cube" type="NODE">
        <matrix sid="transform">1 0 0 0 0 1 0 0 0 0 1 0 0 0 0 1</matrix>
        <instance_geometry url="#Cube_002-mesh" name="Cube"/>
      </node>
    </visual_scene>
  </library_visual_scenes>
  <scene>
    <instance_visual_scene url="#Scene"/>
  </scene>
</COLLADA>