<?xml version="1.0" encoding="utf-8"?>
<COLLADA xmlns="http://www.collada.org/2005/11/COLLADASchema" version="1.4.1">
  <asset>
    <contributor>
      <author>Blender User</author>
      <authoring_tool>Blender 2.76.0 commit date:2015-11-03, commit time:10:56, hash:f337fea</authoring_tool>
    </contributor>
    <created>2017-01-25T08:36:08</created>
    <modified>2017-01-25T08:36:08</modified>
    <unit name="meter" meter="1"/>
    <up_axis>Z_UP</up_axis>
  </asset>
  <library_images/>
  <library_geometries>
    <geometry id="Cube_044-mesh" name="Cube.044">
      <mesh>
        <source id="Cube_044-mesh-positions">
          <float_array id="Cube_044-mesh-positions-array" count="294">-6.404267 -3.837577 4.335795 -6.404267 -3.837577 4.72345 -5.601947 -0.1596529 3.973097 -5.794159 -4.841254 -2.365253 -3.441879 -18.55608 0.3329036 -3.441879 -18.55608 0.5913401 -5.601947 -0.1596529 4.231534 -5.416087 -1.153167 -0.2364454 -3.479299 -18.03468 -1.778489 -8.18733e-4 1.17062 4.335797 -8.18733e-4 1.17062 4.594233 3.039198 1.170916 4.335797 2.715378 1.170916 4.07736 -3.040838 1.170335 4.335797 -3.040838 1.170335 4.594233 3.039198 1.170916 4.594233 5.269027 0.05327171 1.901162 -5.270436 0.05222171 1.901162 6.403447 -3.836408 4.335795 6.403447 -3.836408 4.72345 3.44245 -18.55548 0.3329026 5.782518 -4.840225 -2.365263 5.600477 -0.1585809 3.973097 5.600477 -0.1585809 4.231534 5.601968 -15.23628 4.231529 3.47977 -18.03408 -1.778489 5.412057 -1.152137 -0.2364443 -0.1393685 -20.17319 1.173113 -0.1393685 -20.17319 1.431549 -1.882498 -19.92659 0.8367627 -0.2091834 -19.92639 -2.01733 1.883259 -19.92619 0.8367627 1.883259 -19.92619 1.095199 -1.882498 -19.92659 1.095199 -1.882498 -19.92659 0.5783261 1.57221 -19.92629 -1.50651 -0.001665771 -4.969523 -5.339522 -4.899797 -7.698452 -4.621456 -0.003310501 -1.67234 -4.778935 4.899808 -7.697502 -4.621466 3.2578e-4 -19.28833 -3.091732 -0.3234953 -19.00168 -2.833296 -4.376646 -2.338446 -4.037998 4.342536 -2.337575 -4.037998 1.844059 -18.03428 -3.348815 -8.18733e-4 0.02400076 5.369543 5.917716 -3.836408 5.111105 -8.18733e-4 0.8839649 5.111106 -5.918536 -3.837577 5.111105 3.27982e-4 -19.28833 3.091622 1.844059 -18.03428 3.348706 5.276656 -0.1585809 4.48997 -5.278126 -0.1596529 4.48997 -1.843588 -18.03458 3.348706 -1.882498 -19.35328 -0.9660879 -2.20632 -19.92659 -0.8368695 -1.882498 -19.35328 0.965981 -5.600457 -15.23738 4.489965 -6.080447 -3.837577 4.852669 -5.601947 -0.1596529 4.48997 -5.278126 -0.159653 4.102315 -5.601947 0.4136565 3.973097 -5.270436 -0.5210877 2.030381 -4.700467 -2.338446 -4.037998 -4.928017 -5.112473 -4.236589 -3.479299 -18.03468 -2.036926 -3.040838 1.170335 4.85267 -2.717017 1.170335 4.85267 3.039198 1.170916 4.85267 5.276656 -0.158581 4.102315 5.600477 0.4147285 3.973097 5.269027 -0.5200377 2.030381 4.736068 -1.179457 -2.43125 4.412247 -1.179457 -2.43125 -4.756506 -1.180407 -2.43125 5.600477 -0.1585809 4.48997 6.079627 -3.836408 4.852669 5.601968 -15.23628 4.489965 1.883259 -19.35288 0.965981 2.20708 -19.92619 0.8367627 1.883259 -19.35288 0.7075445 2.91478 -18.03418 -2.783836 4.908168 -5.111553 -4.236589 4.666357 -2.337575 -4.037998 1.57221 -19.92629 1.764836 -0.2091875 -19.92639 2.275666 -0.5330086 -19.92639 2.275666 -0.5330045 -19.92639 -2.275766 -0.2091834 -19.92639 -2.275766 0.1146376 -19.92639 -2.275766 -0.5330045 -19.35308 -2.01733 -1.653108 -18.55588 2.735489 -4.756506 -1.753716 -2.172814 -5.278126 -0.1596529 4.231534 1.844059 -18.03428 -3.090378 1.65368 -18.55568 2.735489 4.736068 -1.752766 -2.172814 5.276656 -0.1585809 4.231534</float_array>
          <technique_common>
            <accessor source="#Cube_044-mesh-positions-array" count="98" stride="3">
              <param name="X" type="float"/>
              <param name="Y" type="float"/>
              <param name="Z" type="float"/>
            </accessor>
          </technique_common>
        </source>
        <source id="Cube_044-mesh-normals">
          <float_array id="Cube_044-mesh-normals-array" count="552">-0.9803407 -0.1973129 0 -0.8922718 -0.05373322 -0.4482898 -0.5340803 -0.7732488 0.3418255 -0.4913452 -0.7684392 0.4099771 -0.9770233 0.2131329 0 0 1 0 -0.991643 0.1290132 0 0 1 0 -0.9747931 0.2036616 -0.09110629 -0.9372344 0.2413495 -0.2516788 -0.985751 0 -0.1682115 0.07417225 0.9593573 -0.2722724 -0.9844407 -0.1738591 -0.02548676 -0.5667306 -0.8021571 -0.1880444 -0.9937742 -0.111413 0 -0.3597034 -0.8107118 -0.4619089 -9.3563e-5 1 0 0 1 0 -0.1743526 0.1217566 0.9771267 -0.5109941 0.8595843 0 -9.76021e-5 1 0 0.5108255 0.8596846 0 -1.0096e-4 1 3.97467e-5 0.5108255 0.8596844 0 0.2004338 0.9469707 -0.2511432 0 0.9618228 -0.2736733 0.9877805 -0.03426676 -0.1520383 0.9926497 -0.02660953 -0.1180622 -0.01820647 0.9148166 -0.4034592 -0.9877761 -0.03427249 -0.152066 -9.74634e-5 0.940544 -0.3396723 -0.9934154 -0.0470817 -0.1044477 0.9769862 0.2133027 0 0.9916201 0.1291889 0 0.370621 0 0.9287843 0 1 -3.56116e-7 0.9975377 -0.07013285 0 0.5359255 -0.7659037 0.355212 0.9991234 -0.04186367 0 0.6435137 -0.7654347 0 0.9846018 -0.1729701 -0.02531063 0.8565238 -0.1862348 -0.4813352 -0.09299194 -0.268616 -0.9587482 0.2562724 -0.9123122 -0.3193916 0.9795008 0.1650487 -0.1154862 0.3591551 0.9045991 -0.2295823 0.8944302 0.1090188 -0.4337162 0.01027089 0.9540373 -0.299512 0.1212177 -0.992626 0 0.1309292 -0.9895337 0.06066781 0.6143223 0.1734926 0.7697458 0.9525029 -0.2116689 0.21894 -0.1400756 -0.9901408 0 -1 -2.01144e-7 0 0 -0.9598169 0.2806274 -0.6492216 -0.6583799 0.3808509 -0.1400755 -0.9901409 0 4.02715e-5 -1 -4.79469e-5 0.8355691 -0.5150436 -0.1911923 -0.579048 0.3350496 -0.7432667 0.02230608 -0.9967357 -0.077591 0.990869 -0.02964526 -0.1315284 0 -1 0 0.3631885 -0.6282007 -0.6880829 -0.7600698 -0.3899639 -0.5198289 -0.3126897 -0.2706354 -0.9104843 0 -0.5163349 -0.8563868 -0.9732949 0.09433811 -0.2092787 -0.2123711 0.126208 -0.9690047 -0.2190474 0.7662518 -0.6040501 0 0.0714069 -0.9974473 -0.9995834 -0.01186203 -0.02631354 0.190213 0.1646466 -0.9678382 0 0.07140833 -0.9974472 0 0.8112317 -0.5847248 0.9993555 -0.01475119 -0.03272551 -0.06918078 -0.1017323 -0.9924035 0.3908581 -0.6977199 -0.6003474 0.8631811 -0.07705569 0.4989799 9.44126e-5 -1 1.37857e-5 -0.06781709 -0.1037163 0.9922922 -0.2591986 -0.04538708 0.964757 0.1665107 -0.7970441 0.5805127 0.7931994 0.31984 -0.5182058 0.1677995 0.1925339 0.9668372 0.09456002 -0.1107627 0.9893382 0.8364202 0.1606464 0.5240171 -0.167245 0.2837514 0.9442003 0 0.1665239 0.9860374 0 -0.2631005 0.9647685 -0.5109921 0.8595855 0 0.06782907 -0.1037131 0.9922918 -0.3284931 -0.6278147 0.7056494 -0.8462574 -0.05250042 0.5301814 -0.405311 -0.7547959 0.5157578 -0.3702496 -0.04510992 0.9278364 -0.4551932 -0.8903927 0 -0.4791743 -0.7813641 0.3998277 -0.9770234 0.2131322 0 -0.370622 0 0.9287839 -0.3630702 0.2008928 0.9098474 0 1 -1.78058e-7 -0.9794622 0.1662536 -0.1140781 -0.8967018 0.1043504 -0.4301592 -0.3576077 0.9052476 -0.2294415 -0.01030504 0.9540698 -0.2994073 -0.9815779 -0.1806138 -0.06231719 -0.5858095 0.1514318 -0.7961757 -0.9028331 -0.175858 -0.3923856 -0.6367388 -0.7710796 0 -9.35632e-5 1 1.17289e-4 -0.5109922 0.8595855 0 -0.5109937 0.8595845 0 0.174323 0.1217741 0.9771298 -9.76022e-5 1 0 0.5108222 0.8596864 -7.08928e-7 -9.76021e-5 1 1.226e-4 0.1572209 0.9412412 -0.2989094 0.2503069 0.9461909 -0.2051085 0.9929242 -0.0488007 -0.1082604 -9.35628e-5 1 1.66299e-4 -0.250487 0.9461395 -0.2051257 -0.05807179 0.9583711 -0.2795581 -0.9931598 -0.02567213 -0.113906 0.9769862 0.2133029 0 0.3630633 0.2009595 0.9098353 0 1 0 0 1 0 0.8936176 -0.05875676 -0.4449666 0.3749533 0.00283885 0.9270394 0.3698186 -0.06599122 0.9267575 0.4909065 -0.7687025 0.4100089 0.9815726 -0.1800605 -0.06398081 0.9014987 -0.1749449 -0.3958463 0.4039523 -0.8897385 -0.2125753 7.88556e-5 -1 5.49028e-5 0.9747147 0.2037611 -0.09172117 0.9857562 0 -0.1681814 0.9345975 0.2435317 -0.2592681 -0.07294011 0.9594854 -0.2721536 0.1212179 -0.992626 0 0.08204555 -0.9547319 0.2859296 0.9028664 0.09452724 0.4194008 -0.1400755 -0.9901409 0 -0.9808931 -0.0427761 0.1897869 -0.1750128 -0.96399 0.2002341 -0.649138 0.1672514 0.7420558 -0.1148526 -0.9906139 -0.07411646 -0.5926983 -0.7550776 -0.2802974 0.1186291 -0.9928145 -0.01570361 0 -0.2198739 -0.9755284 4.17475e-5 -1 4.72424e-5 0.9743633 -0.2092296 -0.08269894 -0.05832016 -0.1548263 -0.9862189 -0.9517411 -0.05531364 0.3018763 -0.7614623 -0.4011311 -0.5091848 -0.3631794 -0.8182386 -0.4456303 -0.1890699 0.1644996 -0.968087 -1.01422e-4 0.9787029 -0.2052825 -0.3425174 0.1346444 -0.9298133 0 0.8112519 -0.5846969 0.2129238 0.1275882 -0.9687027 0.346105 0.1370189 -0.9281364 0.2188136 0.787046 -0.5767835 0 0.8112333 -0.5847226 0.05831754 -0.1548104 -0.9862215 0 -0.7877516 -0.6159932 0.4530957 -0.2396587 -0.8586432 0.7381282 -0.6746605 6.49037e-6 -0.03302335 -0.1170776 0.9925737 0.8462654 -0.05232751 0.5301855 0.333051 -0.6329352 0.6989064 0.4052625 -0.7547242 0.5159011 0.167184 0.2837543 0.9442102 -6.76109e-5 0.6696175 0.7427062 0 0.1665285 0.9860367 0.5108245 0.8596851 0 -0.1678425 0.1925064 0.9668352 -0.8364412 0.1604982 0.5240292 -0.1021679 -0.07379406 0.9920263 0.03304845 -0.1170736 0.9925733 0 -0.7877485 0.615997 0.2593142 -0.04532963 0.9647287 -0.6616753 -0.6600924 0.3556176</float_array>
          <technique_common>
            <accessor source="#Cube_044-mesh-normals-array" count="184" stride="3">
              <param name="X" type="float"/>
              <param name="Y" type="float"/>
              <param name="Z" type="float"/>
            </accessor>
          </technique_common>
        </source>
        <vertices id="Cube_044-mesh-vertices">
          <input semantic="POSITION" source="#Cube_044-mesh-positions"/>
        </vertices>
        <polylist count="192">
          <input semantic="VERTEX" source="#Cube_044-mesh-vertices" offset="0"/>
          <input semantic="NORMAL" source="#Cube_044-mesh-normals" offset="1"/>
          <vcount>3 3 3 3 3 3 3 3 3 3 3 3 3 3 3 3 3 3 3 3 3 3 3 3 3 3 3 3 3 3 3 3 3 3 3 3 3 3 3 3 3 3 3 3 3 3 3 3 3 3 3 3 3 3 3 3 3 3 3 3 3 3 3 3 3 3 3 3 3 3 3 3 3 3 3 3 3 3 3 3 3 3 3 3 3 3 3 3 3 3 3 3 3 3 3 3 3 3 3 3 3 3 3 3 3 3 3 3 3 3 3 3 3 3 3 3 3 3 3 3 3 3 3 3 3 3 3 3 3 3 3 3 3 3 3 3 3 3 3 3 3 3 3 3 3 3 3 3 3 3 3 3 3 3 3 3 3 3 3 3 3 3 3 3 3 3 3 3 3 3 3 3 3 3 3 3 3 3 3 3 3 3 3 3 3 3 3 3 3 3 3 3 </vcount>
          <p>0 0 4 0 5 0 1 1 5 1 57 1 4 2 55 2 56 2 5 3 56 3 91 3 0 4 1 4 6 4 2 5 6 5 60 5 58 6 59 6 6 6 6 7 59 7 93 7 0 8 2 8 7 8 3 9 7 9 63 9 2 10 61 10 62 10 7 11 62 11 92 11 3 12 8 12 4 12 4 13 8 13 54 13 64 14 65 14 8 14 65 15 90 15 54 15 13 16 14 16 10 16 14 17 66 17 67 17 13 18 61 18 60 18 14 19 60 19 93 19 10 20 15 20 11 20 11 21 15 21 69 21 10 22 67 22 68 22 15 23 68 23 97 23 11 24 16 24 12 24 16 25 72 25 73 25 70 26 71 26 16 26 16 27 71 27 96 27 12 28 17 28 13 28 17 29 62 29 61 29 12 30 73 30 74 30 17 31 74 31 92 31 18 32 22 32 23 32 23 33 75 33 76 33 22 34 70 34 69 34 23 35 69 35 97 35 18 36 19 36 24 36 20 37 24 37 78 37 76 38 77 38 24 38 24 39 77 39 95 39 20 40 25 40 21 40 25 41 81 41 82 41 20 42 79 42 80 42 25 43 80 43 94 43 18 44 21 44 26 44 22 45 26 45 71 45 21 46 82 46 83 46 26 47 83 47 96 47 27 48 31 48 32 48 28 49 32 49 84 49 79 50 78 50 32 50 78 51 95 51 84 51 27 52 28 52 33 52 29 53 33 53 56 53 28 54 85 54 86 54 86 55 91 55 56 55 27 56 29 56 34 56 30 57 34 57 87 57 55 58 54 58 34 58 54 59 90 59 87 59 27 60 30 60 35 60 31 61 35 61 80 61 30 62 88 62 89 62 35 63 89 63 94 63 40 64 41 64 37 64 37 65 41 65 65 65 88 66 87 66 41 66 41 67 87 67 90 67 36 68 37 68 42 68 38 69 42 69 74 69 64 70 63 70 42 70 63 71 92 71 74 71 36 72 38 72 43 72 43 73 83 73 82 73 73 74 72 74 43 74 72 75 96 75 83 75 39 76 44 76 40 76 40 77 44 77 89 77 39 78 82 78 81 78 44 79 81 79 94 79 49 80 50 80 46 80 46 81 50 81 77 81 49 82 85 82 84 82 50 83 84 83 95 83 45 84 46 84 51 84 47 85 51 85 68 85 46 86 76 86 75 86 51 17 75 17 97 17 45 87 47 87 52 87 48 88 52 88 59 88 67 89 66 89 52 89 52 90 66 90 93 90 48 91 53 91 49 91 49 92 53 92 86 92 48 93 58 93 57 93 53 94 57 94 91 94 1 0 0 0 5 0 58 95 1 95 57 95 5 96 4 96 56 96 57 97 5 97 91 97 2 98 0 98 6 98 61 99 2 99 60 99 1 100 58 100 6 100 60 101 6 101 93 101 3 102 0 102 7 102 64 103 3 103 63 103 7 104 2 104 62 104 63 105 7 105 92 105 0 106 3 106 4 106 55 107 4 107 54 107 3 108 64 108 8 108 8 109 65 109 54 109 9 16 13 16 10 16 10 110 14 110 67 110 14 111 13 111 60 111 66 112 14 112 93 112 9 20 10 20 11 20 70 113 11 113 69 113 15 114 10 114 68 114 69 115 15 115 97 115 9 116 11 116 12 116 12 117 16 117 73 117 11 118 70 118 16 118 72 119 16 119 96 119 9 120 12 120 13 120 13 121 17 121 61 121 17 122 12 122 74 122 62 123 17 123 92 123 19 124 18 124 23 124 19 125 23 125 76 125 23 126 22 126 69 126 75 127 23 127 97 127 20 128 18 128 24 128 79 129 20 129 78 129 19 130 76 130 24 130 78 131 24 131 95 131 18 132 20 132 21 132 21 133 25 133 82 133 25 134 20 134 80 134 81 135 25 135 94 135 22 136 18 136 26 136 70 137 22 137 71 137 26 138 21 138 83 138 71 139 26 139 96 139 28 140 27 140 32 140 85 141 28 141 84 141 31 62 79 62 32 62 32 142 78 142 84 142 29 143 27 143 33 143 55 144 29 144 56 144 33 145 28 145 86 145 33 146 86 146 56 146 30 147 27 147 34 147 88 62 30 62 87 62 29 62 55 62 34 62 34 148 54 148 87 148 31 149 27 149 35 149 79 150 31 150 80 150 35 151 30 151 89 151 80 152 35 152 94 152 36 153 40 153 37 153 64 154 37 154 65 154 40 155 88 155 41 155 65 156 41 156 90 156 38 157 36 157 42 157 73 158 38 158 74 158 37 159 64 159 42 159 42 160 63 160 74 160 39 161 36 161 43 161 39 162 43 162 82 162 38 163 73 163 43 163 43 164 72 164 83 164 36 165 39 165 40 165 88 166 40 166 89 166 44 167 39 167 81 167 89 168 44 168 94 168 45 169 49 169 46 169 76 170 46 170 77 170 50 171 49 171 84 171 77 172 50 172 95 172 47 173 45 173 51 173 67 174 47 174 68 174 51 175 46 175 75 175 68 176 51 176 97 176 48 177 45 177 52 177 58 178 48 178 59 178 47 179 67 179 52 179 59 17 52 17 93 17 45 180 48 180 49 180 85 181 49 181 86 181 53 182 48 182 57 182 86 183 53 183 91 183</p>
        </polylist>
      </mesh>
    </geometry>
  </library_geometries>
  <library_controllers/>
  <library_visual_scenes>
    <visual_scene id="Scene" name="Scene">
      <node id="COL_VIZ_RightFingerJoint22y_link_0" name="COL_VIZ_RightFingerJoint22y_link_0" type="NODE">
        <instance_geometry url="#Cube_044-mesh" name="COL_VIZ_RightFingerJoint22y_link_0"/>
      </node>
    </visual_scene>
  </library_visual_scenes>
  <scene>
    <instance_visual_scene url="#Scene"/>
  </scene>
</COLLADA>