<?xml version="1.0" encoding="utf-8"?>
<COLLADA xmlns="http://www.collada.org/2005/11/COLLADASchema" version="1.4.1">
  <asset>
    <contributor>
      <author>Blender User</author>
      <authoring_tool>Blender 2.76.0 commit date:2015-11-03, commit time:10:56, hash:f337fea</authoring_tool>
    </contributor>
    <created>2017-01-25T08:36:07</created>
    <modified>2017-01-25T08:36:07</modified>
    <unit name="meter" meter="1"/>
    <up_axis>Z_UP</up_axis>
  </asset>
  <library_images/>
  <library_geometries>
    <geometry id="Cube_020-mesh" name="Cube.020">
      <mesh>
        <source id="Cube_020-mesh-positions">
          <float_array id="Cube_020-mesh-positions-array" count="294">-5.750933 -3.44667 4.006992 -5.750933 -3.44667 4.385797 -5.223943 -0.4528561 3.644304 -5.192793 -6.807026 -2.604129 -4.405215 -12.66167 1.849781 -4.120985 -12.83917 4.009216 -5.223943 -0.4528561 4.023109 -4.407645 -1.965945 -2.616528 -4.414205 -11.43807 -1.806081 -2.451519 0.7796064 4.006992 -2.451519 0.7796064 4.385798 4.601315 -0.2667518 3.644304 -0.01856142 -0.8465512 -2.759397 -4.644567 -0.2658218 3.644304 -4.644567 -0.2658218 3.896841 4.601315 -0.2667518 3.896841 3.798936 -1.77967 -2.49026 -3.828268 -1.77891 -2.49026 5.707161 -3.447708 4.006992 5.707161 -3.447708 4.385797 4.359282 -12.66247 1.817651 5.148302 -6.807956 -2.604129 5.180691 -0.4537861 3.644304 5.180691 -0.4537861 4.023109 4.075313 -12.83987 3.859376 4.354653 -11.43887 -1.806081 4.378313 -1.966704 -2.616528 1.610387 -13.93907 3.7954 -1.65618 -13.93867 4.302646 -1.945868 -13.5646 3.92384 -0.02590376 -12.53197 -1.824622 3.779906 -12.8495 1.817651 3.495936 -13.0269 3.733108 -1.945868 -13.5646 4.176377 -3.834828 -11.62511 -1.679812 3.775276 -11.62591 -1.679812 -0.01873904 -4.550766 -5.476899 -3.863062 -4.600586 -4.616043 -0.01644003 -2.165944 -4.783051 3.83323 -4.601326 -4.616043 -0.02800571 -11.01527 -3.295146 -3.596702 -10.80677 -3.110966 -3.573632 -2.411654 -4.441521 3.55166 -2.412324 -4.441511 3.52983 -10.80757 -3.110966 -0.02155441 -0.3429212 5.017141 5.272629 -3.447708 4.764604 -2.451519 0.218503 4.764604 -5.316401 -3.44667 4.764604 -0.02290171 -13.45537 4.598371 3.64078 -12.83987 4.238182 4.746159 -0.4537861 4.401915 -4.789411 -0.4528561 4.401915 -3.686452 -12.83917 4.388021 -4.124516 -11.62511 -1.679812 -3.831296 -13.0262 3.63041 -3.831296 -13.0262 3.882948 -3.831296 -12.65214 4.135485 -5.750933 -3.44667 4.764604 -4.934255 -0.6398907 4.149378 -4.934255 -0.2658218 3.896841 -4.934255 -0.2658217 3.644304 -4.934255 -0.2658218 3.391767 -3.718476 -2.598689 -4.188984 -4.297595 -4.600586 -4.616043 -3.741546 -10.61974 -2.858429 -2.741208 0.4055375 4.512067 -2.451519 0.4055376 4.512067 2.698096 0.4049555 4.512067 4.891003 -0.2667518 3.896841 4.891003 -0.2667518 3.644304 4.891003 -0.2667518 3.391767 3.406816 -2.22529 -4.188974 -0.01644003 -1.97891 -4.530514 -3.428787 -2.22462 -4.188984 4.891003 -0.6408208 4.149378 5.707161 -3.447708 4.764604 4.831184 -10.58174 4.512064 3.785624 -13.0269 3.733108 3.785624 -13.0269 3.480571 4.064964 -11.62591 -1.679812 4.064964 -11.25184 -1.93235 4.267763 -4.601326 -4.616043 3.696504 -2.599359 -4.188974 3.495936 -13.0269 3.985645 -0.02290171 -13.6424 4.345833 -3.541608 -13.0262 4.135485 -3.834828 -11.62511 -1.932349 -0.02590376 -12.15791 -1.950891 3.775276 -11.62591 -1.932349 -4.124516 -11.62511 -1.932349 -3.831296 -13.0262 4.135485 -3.718476 -2.22462 -4.188984 -4.934255 -0.2658217 4.149378 4.064964 -11.62591 -1.932349 3.785624 -13.0269 3.985645 3.696504 -2.22529 -4.188974 4.891003 -0.2667518 4.149378</float_array>
          <technique_common>
            <accessor source="#Cube_020-mesh-positions-array" count="98" stride="3">
              <param name="X" type="float"/>
              <param name="Y" type="float"/>
              <param name="Z" type="float"/>
            </accessor>
          </technique_common>
        </source>
        <source id="Cube_020-mesh-normals">
          <float_array id="Cube_020-mesh-normals-array" count="549">-0.9787572 -0.1698237 0.1148671 -0.3442853 -0.0971865 0.9338214 -0.54241 -0.840114 0 -0.5424126 -0.8401124 0 -0.9848583 0.1733609 0 -0.542411 0.8401134 0 -0.9601808 0.2793795 2.15311e-7 -0.3995733 0 0.9167014 -0.9747591 0.151744 -0.1637636 -0.8049097 0.3370358 -0.4883925 -0.5424113 0.8401131 -3.42242e-7 -0.3068993 0.9083997 -0.2839418 -0.9829785 -0.174935 -0.05613279 -0.4287641 -0.8570226 -0.2857863 -0.7553398 -0.2470226 -0.6069939 -0.5775083 -0.4231241 -0.6981763 -0.4303086 0.9026819 0 -0.4276801 0.5684477 0.7028208 0 1 2.03687e-7 0 1 -2.03687e-7 0.1467539 0.9891731 3.53096e-7 0 1 2.03687e-7 3.61536e-5 0.3198266 0.9474761 0.2397186 0.9310843 -0.2749853 0.2465383 0.9329525 -0.2623329 0.2464209 0.9219712 -0.2987408 -2.05754e-7 1 -4.07373e-7 0.03942972 0.9659336 -0.2557686 -0.246619 0.9183981 -0.3093931 0.1848843 0.9596034 -0.212083 -0.1138398 0.8369821 -0.5352582 0 0.9672595 -0.2537896 0.9848886 0.1731891 0 0.301527 0.166746 0.9387637 0.5424113 0.8401132 3.42241e-7 0.5424096 0.8401142 -3.42241e-7 0.9852396 -0.1711813 0 0.542411 -0.8401134 0 0.9925457 -0.1218733 0 0.5703645 -0.398519 0.7182387 0.981931 -0.1789104 -0.06166601 0.2743561 -0.2087839 -0.9386896 -0.1706907 -0.9485281 -0.2667568 0.542413 -0.840112 0 0.9747688 0.1546222 -0.1609905 0.671217 0.6962834 -0.2542778 0.8082662 0.3340731 -0.4848722 0.9174671 0 -0.3978115 0.434902 -0.9002794 -0.01890558 0.1722996 -0.9850447 0 0 -1 0 -0.7906346 -0.6122884 0 -0.2745822 -0.9615637 0 -0.09414523 -0.2050404 0.9742151 -0.233319 -0.9405379 -0.246882 -0.1385332 -0.9903578 0 0 -0.9669099 -0.2551186 0.2311284 -0.9182484 -0.321558 0 -0.9439014 -0.3302273 0.1386057 -0.9903477 0 -0.0674256 -0.3189619 -0.9453661 -0.8999349 -0.1388597 -0.4133222 -0.1154181 -0.804853 -0.5821429 0 -0.6775069 -0.7355165 -0.2185921 0.1062418 -0.9700156 -0.1099941 0.8278611 -0.5500431 0 0.2086323 -0.9779943 -0.8674462 0 -0.4975311 0.1105145 0.2775505 -0.9543334 0.9012782 0.1483845 -0.4070379 0.1164203 0.7981387 -0.5911184 0 0.8036032 -0.5951654 0.2087208 -0.240113 -0.9480409 0.1154374 -0.8045036 -0.5826219 0.8559278 -0.2157369 -0.4699419 0 -3.18682e-7 -1 0.1099838 -0.07466089 0.9911254 -0.1814746 -0.02357208 0.9831132 0.1975151 -0.7877728 0.5834397 0 -0.8036003 0.5951694 0.1299276 0.1417286 0.9813418 0.04935407 -0.01040095 0.9987273 0 0.2141015 0.9768115 0.8674464 0 0.4975307 -0.1938835 0.1515492 0.9692482 -0.9067849 0.2042955 0.3687879 6.70537e-7 0.8036018 0.5951676 -0.3157712 0.6668406 0.6749905 -0.06585848 -0.05138266 0.9965052 -0.1705657 -0.836093 0.521398 0 -0.06818282 0.9976729 -0.867446 0 0.4975315 -0.9852743 -0.1709815 0 -0.9789416 -0.2041411 0 -0.5405654 -0.8412997 0.001996934 -0.3995681 0 0.9167036 -0.9848585 0.1733605 0 -0.5424116 0.8401129 3.42241e-7 -0.3014937 0.1667987 0.9387651 -0.5424103 0.8401138 -3.42241e-7 -0.9740762 0.1575644 -0.1623239 -0.9544098 0.1541358 -0.2556248 -0.6717409 0.6952872 -0.2556166 -0.9158965 0 -0.4014146 -0.9898195 -0.1418672 -0.01145535 0.2086883 -0.9427168 -0.2602579 -0.7266798 -0.2335074 -0.6460734 -0.542413 -0.840112 0 -0.4303094 0.9026815 2.59066e-7 0 0.3198261 0.9474763 2.05755e-7 1 2.03688e-7 -0.2395992 0.9311555 -0.2748488 0.1467536 0.9891731 0 -2.05754e-7 1 4.07374e-7 0.07185178 0.7767124 -0.6257439 0.1348716 0.9733577 -0.1854307 0.1136347 0.8371255 -0.5350776 -0.185168 0.9594766 -0.2124086 0 0.9672719 -0.253742 -0.3778875 0.8859702 -0.2688083 2.05754e-7 1 -2.03687e-7 -0.2467125 0.9215453 -0.2998123 -0.04022955 0.9658351 -0.2560161 0.9848887 0.173189 0 0.9602313 0.2792058 0 0.542411 0.8401134 0 0.3995724 0 0.9167017 0.9776716 -0.1717689 0.1210529 0.5404973 -0.8413433 0.002071797 0.8176804 -0.1104016 -0.564987 0.5424106 -0.8401135 0 0.9897922 -0.1420562 -0.01146715 0.734748 -0.2729919 -0.6209839 0.4267777 -0.8566636 -0.2898075 0.3995693 0 -0.916703 0.9750877 0.1518809 -0.1616675 0.5424097 0.8401142 -3.42241e-7 0.9557425 0.1513622 -0.2522811 0.3088963 0.90794 -0.2832454 0.1488474 -0.2422109 0.9587379 0.1775794 -0.983593 0.03178834 -0.09181159 -0.9901914 -0.1053184 -0.1023069 -0.7458134 -0.658252 -0.2745822 -0.9615637 0 -0.07386261 0.2671291 0.9608259 -0.3072709 -0.8839359 0.3524799 -0.1098983 -0.9712502 -0.2111766 -0.1114695 -0.317831 -0.9415722 -0.230095 -0.9410037 -0.2481299 0.202328 -0.9344968 -0.2928809 0.9433645 -0.3295288 -0.0383985 0.1116284 -0.3178274 -0.9415545 -0.2092384 -0.2389363 -0.948224 0 -0.2802982 -0.959913 -0.07770532 -0.75969 -0.6456262 -0.9080384 -0.2350995 -0.3466908 -0.1108027 0.2777382 -0.9542454 -0.116631 0.7981183 -0.5911044 -0.9016942 0.1515129 -0.4049584 0.2182068 0.1054224 -0.9701918 0 0.2086304 -0.9779946 0.1098201 0.8278315 -0.5501224 0.8674468 0 -0.4975302 0.06756621 -0.3191325 -0.9452985 0.07777184 -0.7595673 -0.6457624 0 -0.2356787 -0.9718311 0.6810175 -0.5273981 -0.5080025 0.0289427 -0.03191012 0.9990716 0 -0.03537702 0.9993741 0.1910357 -0.838027 0.5110934 0.6260294 -0.4104382 0.6630442 0.1027004 0.7423362 0.66211 9.07534e-5 0.8036026 0.5951663 0.9067757 0.2041414 0.368896 0.3158799 0.6667753 0.6750041 -0.08748424 0.06838196 0.9938161 0 0.214109 0.9768098 -0.2855612 0.5838495 0.7599833 -0.8674461 0 0.4975312 -0.02894884 -0.03190422 0.9990717 -0.1736297 -0.7913973 0.5861256 -0.9041631 -0.172574 0.3907777 0 -0.8036032 0.5951654</float_array>
          <technique_common>
            <accessor source="#Cube_020-mesh-normals-array" count="183" stride="3">
              <param name="X" type="float"/>
              <param name="Y" type="float"/>
              <param name="Z" type="float"/>
            </accessor>
          </technique_common>
        </source>
        <vertices id="Cube_020-mesh-vertices">
          <input semantic="POSITION" source="#Cube_020-mesh-positions"/>
        </vertices>
        <polylist count="192">
          <input semantic="VERTEX" source="#Cube_020-mesh-vertices" offset="0"/>
          <input semantic="NORMAL" source="#Cube_020-mesh-normals" offset="1"/>
          <vcount>3 3 3 3 3 3 3 3 3 3 3 3 3 3 3 3 3 3 3 3 3 3 3 3 3 3 3 3 3 3 3 3 3 3 3 3 3 3 3 3 3 3 3 3 3 3 3 3 3 3 3 3 3 3 3 3 3 3 3 3 3 3 3 3 3 3 3 3 3 3 3 3 3 3 3 3 3 3 3 3 3 3 3 3 3 3 3 3 3 3 3 3 3 3 3 3 3 3 3 3 3 3 3 3 3 3 3 3 3 3 3 3 3 3 3 3 3 3 3 3 3 3 3 3 3 3 3 3 3 3 3 3 3 3 3 3 3 3 3 3 3 3 3 3 3 3 3 3 3 3 3 3 3 3 3 3 3 3 3 3 3 3 3 3 3 3 3 3 3 3 3 3 3 3 3 3 3 3 3 3 3 3 3 3 3 3 3 3 3 3 3 3 </vcount>
          <p>0 0 4 0 5 0 1 1 5 1 57 1 55 2 56 2 5 2 5 3 56 3 91 3 0 4 1 4 6 4 2 5 6 5 60 5 1 6 58 6 59 6 6 7 59 7 93 7 0 8 2 8 7 8 7 9 63 9 64 9 2 10 61 10 62 10 7 11 62 11 92 11 3 12 8 12 4 12 4 13 8 13 54 13 3 14 64 14 65 14 8 15 65 15 90 15 9 16 13 16 14 16 10 17 14 17 66 17 61 18 60 18 14 18 14 19 60 19 93 19 9 20 10 20 15 20 15 21 69 21 70 21 10 22 67 22 68 22 15 23 68 23 97 23 11 24 16 24 12 24 12 25 16 25 72 25 11 26 70 26 71 26 16 27 71 27 96 27 9 28 12 28 17 28 13 29 17 29 62 29 12 30 73 30 74 30 17 31 74 31 92 31 18 32 22 32 23 32 19 33 23 33 75 33 22 34 70 34 69 34 23 35 69 35 97 35 18 36 19 36 24 36 24 37 78 37 79 37 19 38 76 38 77 38 24 39 77 39 95 39 20 40 25 40 21 40 21 41 25 41 81 41 20 42 79 42 80 42 25 43 80 43 94 43 18 44 21 44 26 44 22 45 26 45 71 45 82 46 83 46 26 46 26 47 83 47 96 47 27 48 31 48 32 48 32 49 84 49 85 49 79 50 78 50 32 50 78 50 95 50 84 50 28 51 33 51 29 51 29 52 33 52 56 52 85 53 86 53 33 53 86 50 91 50 56 50 29 54 34 54 30 54 34 55 87 55 88 55 55 56 54 56 34 56 54 50 90 50 87 50 30 57 35 57 31 57 31 58 35 58 80 58 88 59 89 59 35 59 89 50 94 50 80 50 36 60 40 60 41 60 37 61 41 61 65 61 88 62 87 62 41 62 87 63 90 63 65 63 36 64 37 64 42 64 38 65 42 65 74 65 37 66 64 66 63 66 42 67 63 67 92 67 36 68 38 68 43 68 39 69 43 69 83 69 38 70 73 70 72 70 43 71 72 71 96 71 36 72 39 72 44 72 44 73 89 73 88 73 82 74 81 74 44 74 81 75 94 75 89 75 49 76 50 76 46 76 46 77 50 77 77 77 49 78 85 78 84 78 50 79 84 79 95 79 45 80 46 80 51 80 47 81 51 81 68 81 46 82 76 82 75 82 51 83 75 83 97 83 47 84 52 84 48 84 48 85 52 85 59 85 47 86 67 86 66 86 52 87 66 87 93 87 48 88 53 88 49 88 49 89 53 89 86 89 48 90 58 90 57 90 53 91 57 91 91 91 1 92 0 92 5 92 58 93 1 93 57 93 4 94 55 94 5 94 57 95 5 95 91 95 2 96 0 96 6 96 61 97 2 97 60 97 6 98 1 98 59 98 60 99 6 99 93 99 3 100 0 100 7 100 3 101 7 101 64 101 7 102 2 102 62 102 63 103 7 103 92 103 0 104 3 104 4 104 55 105 4 105 54 105 8 106 3 106 65 106 54 107 8 107 90 107 10 108 9 108 14 108 67 109 10 109 66 109 13 110 61 110 14 110 66 111 14 111 93 111 11 112 9 112 15 112 11 113 15 113 70 113 15 114 10 114 68 114 69 19 15 19 97 19 9 115 11 115 12 115 73 116 12 116 72 116 16 117 11 117 71 117 72 118 16 118 96 118 13 119 9 119 17 119 61 120 13 120 62 120 17 121 12 121 74 121 62 122 17 122 92 122 19 123 18 123 23 123 76 124 19 124 75 124 23 125 22 125 69 125 75 126 23 126 97 126 20 127 18 127 24 127 20 128 24 128 79 128 24 129 19 129 77 129 78 130 24 130 95 130 18 131 20 131 21 131 82 132 21 132 81 132 25 133 20 133 80 133 81 134 25 134 94 134 22 135 18 135 26 135 70 136 22 136 71 136 21 137 82 137 26 137 71 138 26 138 96 138 28 139 27 139 32 139 28 140 32 140 85 140 31 141 79 141 32 141 32 50 78 50 84 50 27 142 28 142 29 142 55 143 29 143 56 143 28 144 85 144 33 144 33 145 86 145 56 145 27 146 29 146 30 146 30 147 34 147 88 147 29 148 55 148 34 148 34 50 54 50 87 50 27 149 30 149 31 149 79 150 31 150 80 150 30 151 88 151 35 151 35 50 89 50 80 50 37 152 36 152 41 152 64 153 37 153 65 153 40 154 88 154 41 154 41 155 87 155 65 155 38 156 36 156 42 156 73 157 38 157 74 157 42 158 37 158 63 158 74 71 42 71 92 71 39 159 36 159 43 159 82 160 39 160 83 160 43 161 38 161 72 161 83 162 43 162 96 162 40 163 36 163 44 163 40 164 44 164 88 164 39 165 82 165 44 165 44 166 81 166 89 166 45 167 49 167 46 167 76 168 46 168 77 168 50 169 49 169 84 169 77 170 50 170 95 170 47 171 45 171 51 171 67 172 47 172 68 172 51 173 46 173 75 173 68 174 51 174 97 174 45 175 47 175 48 175 58 176 48 176 59 176 52 177 47 177 66 177 59 178 52 178 93 178 45 179 48 179 49 179 85 180 49 180 86 180 53 181 48 181 57 181 86 182 53 182 91 182</p>
        </polylist>
      </mesh>
    </geometry>
  </library_geometries>
  <library_controllers/>
  <library_visual_scenes>
    <visual_scene id="Scene" name="Scene">
      <node id="COL_VIZ_LeftFingerJoint43y_link_0" name="COL_VIZ_LeftFingerJoint43y_link_0" type="NODE">
        <instance_geometry url="#Cube_020-mesh" name="COL_VIZ_LeftFingerJoint43y_link_0"/>
      </node>
    </visual_scene>
  </library_visual_scenes>
  <scene>
    <instance_visual_scene url="#Scene"/>
  </scene>
</COLLADA>