<?xml version="1.0" encoding="utf-8"?>
<COLLADA xmlns="http://www.collada.org/2005/11/COLLADASchema" version="1.4.1">
  <asset>
    <contributor>
      <author>Blender User</author>
      <authoring_tool>Blender 2.76.0 commit date:2015-11-03, commit time:10:56, hash:f337fea</authoring_tool>
    </contributor>
    <created>2016-01-14T15:20:14</created>
    <modified>2016-01-14T15:20:14</modified>
    <unit name="meter" meter="1"/>
    <up_axis>Z_UP</up_axis>
  </asset>
  <library_images/>
  <library_effects>
    <effect id="Triding_-effect">
      <profile_COMMON>
        <technique sid="common">
          <lambert>
            <emission>
              <color sid="emission">0 0 0 1</color>
            </emission>
            <ambient>
              <color sid="ambient">0 0 0 1</color>
            </ambient>
            <diffuse>
              <color sid="diffuse">0.8 0.8 0.8 1</color>
            </diffuse>
            <index_of_refraction>
              <float sid="index_of_refraction">1</float>
            </index_of_refraction>
          </lambert>
        </technique>
      </profile_COMMON>
    </effect>
    <effect id="Triding-effect">
      <profile_COMMON>
        <technique sid="common">
          <lambert>
            <emission>
              <color sid="emission">0 0 0 1</color>
            </emission>
            <ambient>
              <color sid="ambient">0 0 0 1</color>
            </ambient>
            <diffuse>
              <color sid="diffuse">0.64 0.5263848 0.2303214 1</color>
            </diffuse>
            <index_of_refraction>
              <float sid="index_of_refraction">1</float>
            </index_of_refraction>
          </lambert>
        </technique>
      </profile_COMMON>
    </effect>
  </library_effects>
  <library_materials>
    <material id="Triding_-material" name="Triding_">
      <instance_effect url="#Triding_-effect"/>
    </material>
    <material id="Triding-material" name="Triding">
      <instance_effect url="#Triding-effect"/>
    </material>
  </library_materials>
  <library_geometries>
    <geometry id="Cube_046-mesh" name="Cube.046">
      <mesh>
        <source id="Cube_046-mesh-positions">
          <float_array id="Cube_046-mesh-positions-array" count="126">-0.9999981 -1.52588e-5 -0.4006348 1.90735e-6 0.9999848 -0.4006348 1.000002 -1.52588e-5 -0.4006348 1.90735e-6 -1.000015 -0.4006348 1.90735e-6 -1.52588e-5 -1.400635 -0.9114227 -1.52588e-5 0.5993652 1.90735e-6 -1.52588e-5 0.5993652 1.90735e-6 -0.911438 0.5993652 1.90735e-6 0.9114075 0.5993652 0.9114261 -1.52588e-5 0.5993652 -0.7499981 -0.7500153 -0.4006348 -0.9778538 -1.52588e-5 0.3493652 -0.7499981 0.7499848 -0.4006348 -0.7499981 -1.52588e-5 -1.150635 1.90735e-6 0.9778404 0.3493652 0.7500019 0.7499848 -0.4006348 1.90735e-6 0.7499848 -1.150635 0.9778581 -1.52588e-5 0.3493652 0.7500019 -0.7500153 -0.4006348 0.7500019 -1.52588e-5 -1.150635 1.90735e-6 -0.977871 0.3493652 1.90735e-6 -0.7500153 -1.150635 -0.6392784 -1.52588e-5 0.5993652 1.90735e-6 0.6392632 0.5993652 0.6392822 -1.52588e-5 0.5993652 1.90735e-6 -0.6392937 0.5993652 -0.6835661 -0.6835823 0.5993652 -0.6835661 0.6835518 0.5993652 0.6835699 -0.6835823 0.5993652 0.6835699 0.6835518 0.5993652 -0.5555534 -0.5555725 -0.9562988 -0.7333899 -0.7334061 0.3493652 -0.5555534 0.555542 -0.9562988 -0.7333899 0.7333756 0.3493652 0.5555573 -0.5555725 -0.9562988 0.7333942 -0.7334061 0.3493652 0.5555573 0.555542 -0.9562988 0.7333942 0.7333756 0.3493652 -0.486661 -0.4866791 0.5993652 -0.486661 0.4866486 0.5993652 0.4866653 0.4866486 0.5993652 0.4866653 -0.4866791 0.5993652</float_array>
          <technique_common>
            <accessor source="#Cube_046-mesh-positions-array" count="42" stride="3">
              <param name="X" type="float"/>
              <param name="Y" type="float"/>
              <param name="Z" type="float"/>
            </accessor>
          </technique_common>
        </source>
        <source id="Cube_046-mesh-normals">
          <float_array id="Cube_046-mesh-normals-array" count="195">-0.9483115 -0.3161038 0.02799999 -0.9483113 0.3161042 0.02799957 -0.8675004 0.2891668 -0.4047539 -0.8674926 -0.4047725 -0.2891642 -0.3161038 0.9483113 0.02800083 0.3161047 0.948311 0.02799957 0.2891671 0.867501 -0.4047523 -0.4047712 0.8674932 -0.2891644 0.9483115 0.3161038 0.0279994 0.9483113 -0.3161042 0.02799898 0.8675004 -0.2891668 -0.4047539 0.8674926 0.4047725 -0.2891642 0.3161038 -0.9483113 0.02800053 -0.3161049 -0.948311 0.02799957 -0.2891671 -0.867501 -0.4047523 0.4047712 -0.8674932 -0.2891644 -0.4046783 -0.2891774 -0.8675322 -0.2891774 0.4046779 -0.8675324 0.4046783 0.2891774 -0.8675322 0.2891774 -0.4046779 -0.8675324 -0.9199036 0.3066349 0.2444431 -0.9199036 -0.306635 0.244443 0 0 1 0 0 1 -0.3066356 -0.9199033 0.244443 0.3066354 -0.9199033 0.2444436 0 0 1 -2.25021e-7 0 1 0.3066354 0.9199033 0.2444435 -0.3066357 0.9199035 0.2444427 0 0 1 2.25021e-7 0 1 0.9199032 -0.3066348 0.2444447 0.9199032 0.3066349 0.2444447 0 0 1 -0.9483113 -0.3161042 0.02799957 -0.9483115 0.3161038 0.02799999 -0.8674926 0.4047726 -0.2891641 -0.8675004 -0.2891668 -0.4047539 -0.3161049 0.948311 0.02799957 0.3161038 0.9483113 0.02800059 0.4047712 0.8674931 -0.2891644 -0.2891671 0.8675011 -0.4047523 0.9483113 0.3161042 0.02799898 0.9483115 -0.3161038 0.0279994 0.8674926 -0.4047725 -0.2891642 0.8675004 0.2891668 -0.4047539 0.3161047 -0.948311 0.02799957 -0.3161038 -0.9483113 0.02800077 -0.4047712 -0.8674931 -0.2891644 0.2891671 -0.867501 -0.4047523 -0.2891774 -0.4046779 -0.8675324 -0.4046782 0.2891774 -0.8675322 0.2891774 0.4046779 -0.8675324 0.4046782 -0.2891774 -0.8675322 -0.9199039 0.3066359 0.2444407 -0.9199039 -0.3066359 0.2444407 -0.3066338 -0.9199028 0.2444475 0.3066338 -0.9199028 0.2444475 4.50041e-7 0 1 0.3066338 0.9199028 0.2444475 -0.3066338 0.9199028 0.2444475 -4.50042e-7 0 1 0.9199033 -0.3066351 0.244444 0.9199033 0.3066351 0.244444</float_array>
          <technique_common>
            <accessor source="#Cube_046-mesh-normals-array" count="65" stride="3">
              <param name="X" type="float"/>
              <param name="Y" type="float"/>
              <param name="Z" type="float"/>
            </accessor>
          </technique_common>
        </source>
        <vertices id="Cube_046-mesh-vertices">
          <input semantic="POSITION" source="#Cube_046-mesh-positions"/>
        </vertices>
        <polylist material="Triding_-material" count="72">
          <input semantic="VERTEX" source="#Cube_046-mesh-vertices" offset="0"/>
          <input semantic="NORMAL" source="#Cube_046-mesh-normals" offset="1"/>
          <vcount>3 3 3 3 3 3 3 3 3 3 3 3 3 3 3 3 3 3 3 3 3 3 3 3 3 3 3 3 3 3 3 3 3 3 3 3 3 3 3 3 3 3 3 3 3 3 3 3 3 3 3 3 3 3 3 3 3 3 3 3 3 3 3 3 3 3 3 3 3 3 3 3 </vcount>
          <p>0 0 10 0 31 0 0 1 11 1 33 1 0 2 12 2 32 2 0 3 13 3 30 3 1 4 12 4 33 4 1 5 14 5 37 5 1 6 15 6 36 6 1 7 16 7 32 7 2 8 15 8 37 8 2 9 17 9 35 9 2 10 18 10 34 10 2 11 19 11 36 11 3 12 18 12 35 12 3 13 20 13 31 13 3 14 10 14 30 14 3 15 21 15 34 15 4 16 21 16 30 16 4 17 13 17 32 17 4 18 16 18 36 18 4 19 19 19 34 19 27 20 33 20 11 20 11 21 31 21 26 21 5 22 26 22 38 22 5 23 22 23 39 23 26 24 31 24 20 24 20 25 35 25 28 25 7 26 28 26 41 26 7 27 25 27 38 27 29 28 37 28 14 28 14 29 33 29 27 29 8 30 27 30 39 30 8 31 23 31 40 31 28 32 35 32 17 32 17 33 37 33 29 33 9 34 29 34 40 34 9 23 24 23 41 23 11 35 0 35 31 35 12 36 0 36 33 36 13 37 0 37 32 37 10 38 0 38 30 38 14 39 1 39 33 39 15 40 1 40 37 40 16 41 1 41 36 41 12 42 1 42 32 42 17 43 2 43 37 43 18 44 2 44 35 44 19 45 2 45 34 45 15 46 2 46 36 46 20 47 3 47 35 47 10 48 3 48 31 48 21 49 3 49 30 49 18 50 3 50 34 50 13 51 4 51 30 51 16 52 4 52 32 52 19 53 4 53 36 53 21 54 4 54 34 54 5 55 27 55 11 55 5 56 11 56 26 56 22 23 5 23 38 23 27 23 5 23 39 23 7 57 26 57 20 57 7 58 20 58 28 58 25 59 7 59 41 59 26 23 7 23 38 23 8 60 29 60 14 60 8 61 14 61 27 61 23 62 8 62 39 62 29 23 8 23 40 23 9 63 28 63 17 63 9 64 17 64 29 64 24 23 9 23 40 23 28 23 9 23 41 23</p>
        </polylist>
        <polylist material="Triding-material" count="8">
          <input semantic="VERTEX" source="#Cube_046-mesh-vertices" offset="0"/>
          <input semantic="NORMAL" source="#Cube_046-mesh-normals" offset="1"/>
          <vcount>3 3 3 3 3 3 3 3 </vcount>
          <p>6 23 25 23 41 23 6 23 24 23 40 23 6 23 23 23 39 23 6 23 22 23 38 23 24 23 6 23 41 23 23 23 6 23 40 23 22 23 6 23 39 23 25 23 6 23 38 23</p>
        </polylist>
      </mesh>
    </geometry>
  </library_geometries>
  <library_controllers/>
  <library_visual_scenes>
    <visual_scene id="Scene" name="Scene">
      <node id="Tripotplatte_002" name="Tripotplatte_002" type="NODE">
        <matrix sid="transform">-0.07753816 -0.02834219 0 -5.96046e-8 0.02495179 -0.08807388 0 -4.76837e-7 0 0 0.001640574 0 0 0 0 1</matrix>
        <instance_geometry url="#Cube_046-mesh" name="Tripotplatte_002">
          <bind_material>
            <technique_common>
              <instance_material symbol="Triding_-material" target="#Triding_-material"/>
              <instance_material symbol="Triding-material" target="#Triding-material"/>
            </technique_common>
          </bind_material>
        </instance_geometry>
      </node>
    </visual_scene>
  </library_visual_scenes>
  <scene>
    <instance_visual_scene url="#Scene"/>
  </scene>
</COLLADA>