<?xml version="1.0" encoding="utf-8"?>
<COLLADA xmlns="http://www.collada.org/2005/11/COLLADASchema" version="1.4.1">
  <asset>
    <contributor>
      <author>Blender User</author>
      <authoring_tool>Blender 2.76.0 commit date:2015-10-09, commit time:12:01, hash:a3cf9c5</authoring_tool>
    </contributor>
    <created>2015-10-22T16:26:34</created>
    <modified>2015-10-22T16:26:34</modified>
    <unit name="meter" meter="1"/>
    <up_axis>Z_UP</up_axis>
  </asset>
  <library_images/>
  <library_effects>
    <effect id="Plastik_flashe-effect">
      <profile_COMMON>
        <technique sid="common">
          <phong>
            <emission>
              <color sid="emission">0 0 0 1</color>
            </emission>
            <ambient>
              <color sid="ambient">0 0 0 1</color>
            </ambient>
            <diffuse>
              <color sid="diffuse">0.7073684 0.7073684 0.7073684 1</color>
            </diffuse>
            <specular>
              <color sid="specular">0.5 0.5 0.5 1</color>
            </specular>
            <shininess>
              <float sid="shininess">50</float>
            </shininess>
            <index_of_refraction>
              <float sid="index_of_refraction">1</float>
            </index_of_refraction>
          </phong>
        </technique>
      </profile_COMMON>
    </effect>
    <effect id="Plastik_durchsichtig-effect">
      <profile_COMMON>
        <technique sid="common">
          <phong>
            <emission>
              <color sid="emission">0 0 0 1</color>
            </emission>
            <ambient>
              <color sid="ambient">0 0 0 1</color>
            </ambient>
            <diffuse>
              <color sid="diffuse">0.64 0.64 0.64 1</color>
            </diffuse>
            <specular>
              <color sid="specular">0.8578948 0.8578948 0.8578948 1</color>
            </specular>
            <shininess>
              <float sid="shininess">11</float>
            </shininess>
            <transparency>
              <float sid="transparency">1</float>
            </transparency>
            <index_of_refraction>
              <float sid="index_of_refraction">1</float>
            </index_of_refraction>
          </phong>
        </technique>
      </profile_COMMON>
    </effect>
  </library_effects>
  <library_materials>
    <material id="Plastik_flashe-material" name="Plastik_flashe">
      <instance_effect url="#Plastik_flashe-effect"/>
    </material>
    <material id="Plastik_durchsichtig-material" name="Plastik_durchsichtig">
      <instance_effect url="#Plastik_durchsichtig-effect"/>
    </material>
  </library_materials>
  <library_geometries>
    <geometry id="Cylinder_017-mesh" name="Cylinder.017">
      <mesh>
        <source id="Cylinder_017-mesh-positions">
          <float_array id="Cylinder_017-mesh-positions-array" count="1200">0 1 -1.915955 0 1 1 0.3826835 0.9238795 -1.915955 0.3826835 0.9238795 1 0.7071068 0.7071068 -1.915955 0.7071068 0.7071068 1 0.9238795 0.3826834 -1.915955 0.9238795 0.3826834 1 1 0 -1.915955 1 0 1 0.9238795 -0.3826835 -1.915955 0.9238795 -0.3826835 1 0.7071068 -0.7071068 -1.915955 0.7071068 -0.7071068 1 0.3826835 -0.9238795 -1.915955 0.3826835 -0.9238795 1 1.50996e-7 -1 -1.915955 1.50996e-7 -1 1 -0.3826832 -0.9238796 -1.915955 -0.3826832 -0.9238796 1 -0.7071066 -0.707107 -1.915955 -0.7071066 -0.707107 1 -0.9238795 -0.3826836 -1.915955 -0.9238795 -0.3826836 1 -1 0 -1.915955 -1 0 1 -0.9238795 0.3826836 -1.915955 -0.9238795 0.3826836 1 -0.7071065 0.707107 -1.915955 -0.7071065 0.707107 1 -0.382683 0.9238798 -1.915955 -0.382683 0.9238798 1 0.204255 0.4931152 1.923361 0 0.533744 1.923361 0.377414 0.377414 1.923361 0.4931152 0.204255 1.923361 0.533744 0 1.923361 0.4931152 -0.204255 1.923361 0.377414 -0.377414 1.923361 0.204255 -0.4931152 1.923361 0 -0.533744 1.923361 -0.2042548 -0.4931153 1.923361 -0.3774139 -0.3774141 1.923361 -0.4931152 -0.2042551 1.923361 -0.533744 0 1.923361 -0.4931151 0.2042551 1.923361 -0.3774139 0.3774141 1.923361 -0.2042547 0.4931153 1.923361 0.204255 0.4931152 1.990924 0 0.533744 1.990924 0.377414 0.377414 1.990924 0.4931152 0.204255 1.990924 0.533744 0 1.990924 0.4931152 -0.204255 1.990924 0.377414 -0.377414 1.990924 0.204255 -0.4931152 1.990924 0 -0.533744 1.990924 -0.2042548 -0.4931153 1.990924 -0.3774139 -0.3774141 1.990924 -0.4931152 -0.2042551 1.990924 -0.533744 0 1.990924 -0.4931151 0.2042551 1.990924 -0.3774139 0.3774141 1.990924 -0.2042547 0.4931153 1.990924 0.2496152 0.6026243 1.990924 0 0.6522759 1.990924 0.4612287 0.4612287 1.990924 0.6026243 0.2496151 1.990924 0.6522759 0 1.990924 0.6026243 -0.2496152 1.990924 0.4612287 -0.4612287 1.990924 0.2496152 -0.6026243 1.990924 0 -0.6522759 1.990924 -0.249615 -0.6026244 1.990924 -0.4612286 -0.4612288 1.990924 -0.6026244 -0.2496152 1.990924 -0.6522758 0 1.990924 -0.6026243 0.2496153 1.990924 -0.4612286 0.4612288 1.990924 -0.2496148 0.6026245 1.990924 0.2496151 0.6026243 2.452605 0 0.6522759 2.452605 0.4612286 0.4612287 2.452605 0.6026242 0.2496151 2.452605 0.6522758 0 2.452605 0.6026242 -0.2496152 2.452605 0.4612286 -0.4612287 2.452605 0.2496151 -0.6026243 2.452605 0 -0.6522759 2.452605 -0.2496151 -0.6026244 2.452605 -0.4612286 -0.4612288 2.452605 -0.6026244 -0.2496152 2.452605 -0.6522759 0 2.452605 -0.6026244 0.2496153 2.452605 -0.4612286 0.4612288 2.452605 -0.2496149 0.6026245 2.452605 0.2096382 0.5061116 2.508908 0 0.5478113 2.508908 0.387361 0.387361 2.508908 0.5061115 0.2096382 2.508908 0.5478112 0 2.508908 0.5061115 -0.2096383 2.508908 0.387361 -0.387361 2.508908 0.2096382 -0.5061116 2.508908 0 -0.5478113 2.508908 -0.2096382 -0.5061117 2.508908 -0.387361 -0.3873612 2.508908 -0.5061117 -0.2096383 2.508908 -0.5478113 0 2.508908 -0.5061116 0.2096384 2.508908 -0.387361 0.3873612 2.508908 -0.2096381 0.5061118 2.508908 0.03555291 0.08583235 2.576471 0 0.09290432 2.576471 0.06569325 0.06569325 2.576471 0.08583235 0.03555291 2.576471 0.09290426 0 2.576471 0.08583235 -0.03555291 2.576471 0.06569325 -0.06569325 2.576471 0.03555291 -0.08583235 2.576471 0 -0.09290426 2.576471 -0.03555291 -0.08583235 2.576471 -0.06569325 -0.06569325 2.576471 -0.08583241 -0.03555291 2.576471 -0.09290426 0 2.576471 -0.08583235 0.03555291 2.576471 -0.06569325 0.06569325 2.576471 -0.03555285 0.08583241 2.576471 0 1 -1.820176 0.3826835 0.9238795 -1.820176 0.7071068 0.7071068 -1.820176 0.9238795 0.3826834 -1.820176 1 0 -1.820176 0.9238795 -0.3826835 -1.820176 0.7071068 -0.7071068 -1.820176 0.3826835 -0.9238795 -1.820176 1.50996e-7 -1 -1.820176 -0.3826832 -0.9238796 -1.820176 -0.7071066 -0.707107 -1.820176 -0.9238795 -0.3826836 -1.820176 -1 0 -1.820176 -0.9238795 0.3826836 -1.820176 -0.7071065 0.707107 -1.820176 -0.382683 0.9238798 -1.820176 0.1435252 0.0685085 5.610533 0.115148 0.07415306 5.610533 0.1675822 0.05243414 5.610533 0.1836565 0.02837717 5.610533 0.1893011 0 5.610533 0.1836565 -0.02837705 5.610533 0.1675822 -0.05243402 5.610533 0.1435252 -0.06850838 5.610533 0.1151481 -0.074153 5.610533 0.08677095 -0.06850844 5.610533 0.06271392 -0.05243408 5.610533 0.04663956 -0.02837711 5.610533 0.040995 0 5.610533 0.04663956 0.02837717 5.610533 0.06271398 0.05243414 5.610533 0.08677095 0.0685085 5.610533 0.1977669 0.06495666 5.806022 0.1787415 0.07030856 5.825047 0.2138957 0.04971569 5.789893 0.2246727 0.02690595 5.779116 0.2284571 0 5.775331 0.2246727 -0.02690583 5.779116 0.2138957 -0.04971557 5.789893 0.1977669 -0.06495654 5.806022 0.1787415 -0.0703085 5.825047 0.1597161 -0.0649566 5.844072 0.1435872 -0.04971563 5.860201 0.1328102 -0.02690589 5.870978 0.1290258 0 5.874763 0.1328102 0.02690595 5.870978 0.1435872 0.04971569 5.860201 0.1597161 0.06495666 5.844072 0.3844186 0.07281649 5.87975 0.3844186 0.07881599 5.909912 0.3844185 0.05573135 5.85418 0.3844184 0.03016161 5.837095 0.3844185 0 5.831096 0.3844184 -0.03016138 5.837095 0.3844185 -0.05573111 5.85418 0.3844186 -0.07281625 5.87975 0.3844186 -0.07881575 5.909912 0.3844186 -0.07281625 5.940073 0.3844185 -0.05573111 5.965642 0.3844186 -0.03016144 5.982728 0.3844185 1.1982e-7 5.988728 0.3844186 0.03016167 5.982728 0.3844185 0.05573135 5.965642 0.3844184 0.07281655 5.940073 0.574349 0.06973892 5.825712 0.5951032 0.07548487 5.845805 0.5567545 0.05337589 5.808678 0.5449982 0.02888685 5.797297 0.5408698 1.53564e-7 5.7933 0.5449982 -0.02888655 5.797297 0.5567545 -0.05337554 5.808678 0.574349 -0.06973862 5.825712 0.5951032 -0.07548457 5.845805 0.6158573 -0.06973862 5.865897 0.6334517 -0.0533756 5.882931 0.645208 -0.02888655 5.894312 0.6493363 1.57764e-7 5.898309 0.645208 0.02888691 5.894312 0.6334517 0.05337589 5.882931 0.6158571 0.06973892 5.865897 1.01171 0.05957525 5.380003 1.02944 0.06448376 5.397167 0.9966798 0.04559701 5.365452 0.9866368 0.02467703 5.355729 0.9831103 3.38347e-7 5.352315 0.9866368 -0.02467638 5.355729 0.9966798 -0.0455963 5.365452 1.01171 -0.0595746 5.380003 1.02944 -0.0644831 5.397167 1.047169 -0.0595746 5.414331 1.062199 -0.04559636 5.428883 1.072242 -0.02467638 5.438605 1.075769 3.41935e-7 5.44202 1.072242 0.02467709 5.438605 1.062199 0.04559701 5.428883 1.047169 0.05957525 5.414331 2.616004 0.04270958 3.676343 2.628714 0.04622846 3.688648 2.605229 0.03268879 3.665911 2.598029 0.01769155 3.658941 2.595501 1.11088e-6 3.656494 2.598029 -0.01768934 3.658941 2.605229 -0.03268653 3.665911 2.616004 -0.04270738 3.676343 2.628714 -0.04622626 3.688648 2.641424 -0.04270738 3.700953 2.652199 -0.03268659 3.711385 2.659399 -0.01768934 3.718354 2.661927 1.11345e-6 3.720802 2.659399 0.01769155 3.718354 2.652199 0.03268879 3.711385 2.641424 0.04270964 3.700953 2.611464 -0.04642313 3.707076 2.624228 -0.04288929 3.719433 2.5987 0.0428915 3.694719 2.587879 0.03282803 3.684243 2.635049 -0.03282582 3.729909 2.580649 0.01776689 3.677243 2.64228 -0.01776468 3.736909 2.57811 1.10255e-6 3.674785 2.644818 1.10513e-6 3.739367 2.580649 -0.01776468 3.677243 2.64228 0.01776689 3.736909 2.587879 -0.03282576 3.684243 2.635049 0.03282803 3.729909 2.5987 -0.04288929 3.694719 2.624228 0.04289156 3.719433 2.611464 0.04642534 3.707076 0.00361222 0.09231609 2.671651 0.03894007 0.08528888 2.671651 -0.03171551 0.08528894 2.671651 0.003612279 -0.09231603 2.671651 -0.03171551 -0.08528888 2.671651 0.06888955 0.06527727 2.671651 -0.06166499 -0.06527733 2.671651 0.08890116 0.03532779 2.671651 -0.08167666 -0.03532779 2.671651 0.09592831 0 2.671651 -0.08870381 0 2.671651 0.08890116 -0.03532779 2.671651 -0.08167666 0.03532785 2.671651 0.06888955 -0.06527727 2.671651 -0.06166499 0.06527733 2.671651 0.03894007 -0.08528888 2.671651 0 1 0.8057288 0.3826835 0.9238795 0.8057288 0.7071068 0.7071068 0.8057288 0.9238795 0.3826834 0.8057288 1 0 0.8057288 0.9238795 -0.3826835 0.8057288 0.7071068 -0.7071068 0.8057288 0.3826835 -0.9238795 0.8057288 1.50996e-7 -1 0.8057288 -0.3826832 -0.9238796 0.8057288 -0.7071066 -0.707107 0.8057288 -0.9238795 -0.3826836 0.8057288 -1 0 0.8057288 -0.9238795 0.3826836 0.8057288 -0.7071065 0.707107 0.8057288 -0.382683 0.9238798 0.8057288 -0.1856452 -0.1856454 2.545546 -0.2425573 -0.1004705 2.545546 0.2425572 0.1004705 2.545546 0.2625421 0 2.545546 -0.2625421 0 2.545546 0.2425572 -0.1004705 2.545546 -0.2425572 0.1004706 2.545546 0.1856452 -0.1856452 2.545546 -0.1856452 0.1856454 2.545546 0.1004705 -0.2425572 2.545546 -0.1004704 0.2425573 2.545546 0 -0.2625421 2.545546 0 0.2625421 2.545546 0.1004705 0.2425572 2.545546 -0.1004704 -0.2425573 2.545546 0.1856452 0.1856453 2.545546 0.03034907 0.07326924 2.542778 0 0.07930606 2.542778 0.05607783 0.05607783 2.542778 0.07326924 0.03034913 2.542778 0.07930606 0 2.542778 0.07326924 -0.03034907 2.542778 0.05607783 -0.05607783 2.542778 0.03034907 -0.07326924 2.542778 0 -0.07930606 2.542778 -0.03034907 -0.07326924 2.542778 -0.05607783 -0.05607783 2.542778 -0.07326924 -0.03034907 2.542778 -0.07930606 0 2.542778 -0.07326924 0.03034913 2.542778 -0.05607783 0.05607789 2.542778 -0.03034907 0.0732693 2.542778 -0.1584727 -0.1584728 2.51638 0.2070546 0.08576482 2.51638 0 0.2241144 2.51638 -0.2070547 -0.08576482 2.51638 0.2241142 0 2.51638 -0.2241144 0 2.51638 0.2070546 -0.08576482 2.51638 -0.2070546 0.08576488 2.51638 0.1584727 -0.1584727 2.51638 -0.1584727 0.1584728 2.51638 0.08576482 -0.2070546 2.51638 -0.08576476 0.2070547 2.51638 0 -0.2241143 2.51638 0.08576482 0.2070546 2.51638 -0.08576476 -0.2070546 2.51638 0.1584727 0.1584727 2.51638 0 -0.2575465 2.541754 0.09855872 0.2379419 2.541754 -0.1821128 -0.1821129 2.541754 -0.09855872 -0.2379419 2.541754 0.2379418 0.09855878 2.541754 0.1821128 0.1821128 2.541754 -0.2575465 0 2.541754 -0.237942 -0.09855878 2.541754 0.2379418 -0.09855878 2.541754 0.2575464 0 2.541754 -0.09855866 0.237942 2.541754 0 0.2575465 2.541754 0.09855872 -0.2379419 2.541754 -0.1821128 0.1821129 2.541754 0.1821128 -0.1821128 2.541754 -0.2379419 0.09855884 2.541754 0 -0.2272768 2.51878 0.08697503 0.2099764 2.51878 -0.08697503 -0.2099764 2.51878 0.1607089 0.160709 2.51878 -0.2099764 -0.08697509 2.51878 0.2272768 0 2.51878 -0.08697497 0.2099764 2.51878 0.08697503 -0.2099764 2.51878 -0.1607089 0.160709 2.51878 0.1607089 -0.1607089 2.51878 -0.2099764 0.08697509 2.51878 -0.1607089 -0.160709 2.51878 0.2099763 0.08697503 2.51878 -0.2272769 0 2.51878 0.2099763 -0.08697503 2.51878 0 0.2272769 2.51878 0.2086017 -0.5036091 1.900867 0 -0.5451025 1.900867 0 0.5451025 1.900867 0.2086017 0.5036091 1.900867 -0.5451025 0 1.900867 -0.5036091 0.2086018 1.900867 0.5036091 -0.2086017 1.900867 0.3854457 -0.3854457 1.900867 -0.3854456 -0.3854458 1.900867 -0.5036091 -0.2086017 1.900867 -0.2086014 0.5036092 1.900867 0.5036091 0.2086017 1.900867 0.5451025 0 1.900867 -0.2086015 -0.5036091 1.900867 -0.3854455 0.3854458 1.900867 0.3854457 0.3854457 1.900867 -0.533744 0 1.990924 -0.4931151 0.2042551 1.990924 0.4931152 -0.204255 1.990924 0.377414 -0.377414 1.990924 -0.3774139 0.3774141 1.990924 0.204255 -0.4931152 1.990924 -0.2042547 0.4931153 1.990924 0 -0.533744 1.990924 0 0.533744 1.990924 0.204255 0.4931152 1.990924 -0.2042548 -0.4931153 1.990924 0.377414 0.377414 1.990924 -0.3774139 -0.3774141 1.990924 0.4931152 0.204255 1.990924 -0.4931152 -0.2042551 1.990924 0.533744 0 1.990924</float_array>
          <technique_common>
            <accessor source="#Cylinder_017-mesh-positions-array" count="400" stride="3">
              <param name="X" type="float"/>
              <param name="Y" type="float"/>
              <param name="Z" type="float"/>
            </accessor>
          </technique_common>
        </source>
        <source id="Cylinder_017-mesh-normals">
          <float_array id="Cylinder_017-mesh-normals-array" count="1053">0 1 0 0 0.9742563 0.2254434 0.3728212 0.9000996 0.2254445 0.3826816 0.9238803 0 0.6889033 0.6889033 0.2254431 0.7071068 0.7071068 0 0.9000996 0.3728212 0.2254445 0.9238803 0.3826816 0 0.9742563 0 0.2254434 1 0 0 0.9000996 -0.3728212 0.2254445 0.9238803 -0.3826816 0 0.6889033 -0.6889033 0.2254431 0.7071068 -0.7071068 0 0.3728212 -0.9000996 0.2254445 0.3826816 -0.9238803 0 0 -0.9742563 0.2254434 0 -1 0 -0.3728212 -0.9000996 0.2254445 -0.3826816 -0.9238803 0 -0.6889033 -0.6889033 0.2254431 -0.7071068 -0.7071068 0 -0.9000996 -0.3728212 0.2254445 -0.9238803 -0.3826816 0 -0.9742563 0 0.2254434 -1 0 0 -0.9000996 0.3728212 0.2254445 -0.9238803 0.3826816 0 -0.6889033 0.6889033 0.2254431 -0.7071068 0.7071068 0 0 -0.8926562 0.4507381 0.341598 -0.8247121 0.4507336 0.3716357 -0.8972423 0.2384182 0 -0.9711625 0.2384186 -0.3826816 0.9238803 0 -0.3728212 0.9000996 0.2254445 0 0.7462008 -0.6657209 0.2855407 0.6894056 -0.6657225 0.5276469 0.5276469 -0.6657159 0.6894056 0.2855407 -0.6657225 0.7462008 0 -0.6657209 0.6894056 -0.2855407 -0.6657225 0.5276469 -0.5276469 -0.6657159 0.2855407 -0.6894056 -0.6657225 0 -0.7462008 -0.6657209 -0.2855407 -0.6894056 -0.6657225 -0.5276469 -0.5276469 -0.6657159 -0.6894056 -0.2855407 -0.6657225 -0.7462008 0 -0.6657209 -0.6894056 0.2855407 -0.6657225 -0.5276469 0.5276469 -0.6657159 -0.2855407 0.6894056 -0.6657225 -0.6469137 0.2679578 0.7139337 -0.7002066 0 0.7139404 0 0 -1 0.341598 0.8247121 0.4507336 0 0.8926562 0.4507381 0 0.9711625 0.2384186 0.3716357 0.8972423 0.2384182 -0.8247024 0.3416066 0.4507449 -0.8926562 0 0.4507381 -0.9711625 0 0.2384186 -0.8972423 0.3716357 0.2384182 0.6312022 -0.6312022 0.4507411 0.8247121 -0.341598 0.4507336 0.8972423 -0.3716357 0.2384182 0.6867159 -0.6867159 0.2384171 -0.8247024 -0.3416066 0.4507449 -0.6312022 -0.6312022 0.4507411 -0.6867159 -0.6867159 0.2384171 -0.8972423 -0.3716357 0.2384182 -0.341598 0.8247121 0.4507336 -0.3716357 0.8972423 0.2384182 0.8926562 0 0.4507381 0.8247121 0.341598 0.4507336 0.8972423 0.3716357 0.2384182 0.9711625 0 0.2384186 -0.341598 -0.8247121 0.4507336 -0.3716357 -0.8972423 0.2384182 -0.6312022 0.6312022 0.4507411 -0.6867159 0.6867159 0.2384171 0.6312022 0.6312022 0.4507411 0.6867159 0.6867159 0.2384171 0.4951184 -0.4951184 0.7139436 0.6469137 -0.2679578 0.7139337 -0.4951184 0.4951184 0.7139436 0.2679578 -0.6469137 0.7139337 -0.2679578 0.6469137 0.7139337 0 -0.7002066 0.7139404 0.2679578 0.6469137 0.7139337 0 0.7002066 0.7139404 -0.2679578 -0.6469137 0.7139337 0.4951184 0.4951184 0.7139436 -0.4951184 -0.4951184 0.7139436 0.6469137 0.2679578 0.7139337 -0.6469137 -0.2679578 0.7139337 0.7002066 0 0.7139404 0 0.8737294 0.4864124 0.3343368 0.8072304 0.4864135 0.6178146 -0.6178146 0.4864263 0.8072304 -0.3343368 0.4864135 0.3015303 -0.1248848 0.9452425 0.2307857 -0.2307857 0.9452387 -0.3343368 0.8072304 0.4864135 0 -0.8737294 0.4864124 -0.3343368 -0.8072304 0.4864135 0.6178146 0.6178146 0.4864263 -0.6178146 -0.6178146 0.4864263 0.8072304 0.3343368 0.4864135 -0.8072304 -0.3343368 0.4864135 0.8737294 0 0.4864124 -0.8737294 0 0.4864124 -0.8072304 0.3343368 0.4864135 -0.6178146 0.6178146 0.4864263 0.3343368 -0.8072304 0.4864135 -0.9114105 -0.3764913 -0.1660883 -0.9863469 0 -0.164681 -0.8491263 0 0.5281899 -0.7844923 -0.3249364 0.5281932 -0.3015303 0.1248848 0.9452425 -0.2307857 0.2307857 0.9452387 0.1248848 -0.3015303 0.9452425 -0.1248848 0.3015303 0.9452425 0 -0.3263725 0.9452413 0 0.3263725 0.9452413 0.1248848 0.3015303 0.9452425 -0.1248848 -0.3015303 0.9452425 0.2307857 0.2307857 0.9452387 -0.2307857 -0.2307857 0.9452387 0.3015303 0.1248848 0.9452425 -0.3015303 -0.1248848 0.9452425 0.3263725 0 0.9452413 -0.3263725 0 0.9452413 0.382653 0.9238547 -0.008331775 0 0.9999811 0.006164789 -0.01287901 0.9997736 0.01693803 0.378715 0.9243099 -0.04718291 0 -0.6045802 0.7965443 0.2313354 -0.5585619 0.7965505 0.1066657 -0.2575544 0.9603584 0 -0.2787657 0.9603592 -0.698024 -0.6955825 -0.1700807 -0.6004354 -0.6004049 0.5281963 0.2313354 0.5585619 0.7965505 0 0.6045802 0.7965443 0 0.2787657 0.9603592 0.1066657 0.2575544 0.9603584 -0.378772 -0.9085827 -0.1760949 -0.3249364 -0.7844923 0.5281932 -0.4275125 -0.427482 0.7965503 -0.2313354 -0.5585619 0.7965505 -0.1066657 -0.2575544 0.9603584 -0.1971251 -0.1971251 0.9603558 -0.002441465 -0.9830718 -0.1832044 0 -0.8491263 0.5281899 0.5585579 0.2313642 0.7965448 0.4274876 0.4274876 0.7965607 0.1971251 0.1971251 0.9603558 0.2575544 0.1066657 0.9603584 0.3735858 -0.9078553 -0.1903483 0.3249364 -0.7844923 0.5281932 -0.6045802 0 0.7965443 -0.5585619 -0.2313354 0.7965505 -0.2575544 -0.1066657 0.9603584 -0.2787657 0 0.9603592 0.6920945 -0.6945666 -0.1964246 0.6004354 -0.6004049 0.5281963 0.6045802 0 0.7965443 0.2787657 0 0.9603592 0.9047585 -0.3757773 -0.2005081 0.7844923 -0.3249364 0.5281932 -0.5585619 0.2313354 0.7965505 -0.2575544 0.1066657 0.9603584 -0.9144967 -0.3682707 0.1675484 -0.7122795 -0.6888716 0.1345881 -0.5440651 -0.6825305 0.4880014 -0.6888228 -0.3671178 0.6250982 -0.3825601 0.9236989 0.02069211 -0.397913 0.9137535 0.08197534 -0.3825601 -0.9236989 0.02069211 0 -0.9999811 0.006164789 -0.01287901 -0.9997736 0.01693803 -0.397913 -0.9137535 0.08197534 0.706941 0.7069715 -0.02063077 0.7063253 0.7012286 -0.09686642 -0.7067066 -0.7067371 0.0329914 0.9234918 0.3825324 -0.02884095 0.9183211 0.3753244 -0.1257694 -0.9230875 -0.3823766 0.04120105 0.9994962 0 -0.03173971 0.9908642 0 -0.1348639 -0.9990285 0 0.04406893 -0.9839163 0 0.1786302 0.9234918 -0.3825324 -0.02884095 0.9183211 -0.3753244 -0.1257694 -0.9230875 0.3823766 0.04120105 -0.9144967 0.3682707 0.1675484 0.706941 -0.7069715 -0.02063077 0.7063253 -0.7012286 -0.09686642 -0.7067066 0.7067371 0.0329914 -0.7122795 0.6888716 0.1345881 0.382653 -0.9238547 -0.008331775 0.378715 -0.9243099 -0.04718291 -0.05627721 0.9977917 0.03528004 -0.3243248 0.9029639 0.2819035 -0.02829104 0.9084889 0.4169503 -0.0142827 0.9993333 0.03360098 0.6765815 0.4179918 -0.6062346 0.7466174 0 -0.6652538 -0.7394441 0 0.673218 0.6765815 -0.4179918 -0.6062346 -0.6888228 0.3671178 0.6250982 0.4879144 -0.7506868 -0.4454313 -0.5440651 0.6825305 0.4880014 0.227702 -0.9488041 -0.2189125 -0.05627721 -0.9977917 0.03528004 0.227702 0.9488041 -0.2189125 -0.3243248 -0.9029639 0.2819035 0.4879144 0.7506868 -0.4454313 -0.03714251 0.6836733 0.7288425 -0.04202479 0.365436 0.9298873 0.5078127 0.370048 0.7779401 0.3928433 0.6891238 0.6089193 -0.0142827 -0.9993333 0.03360098 -0.02829104 -0.9084889 0.4169503 0.005371332 0.932179 -0.3619579 0.02798616 0.7136331 -0.6999604 -0.03714251 -0.6836733 0.7288425 0.04672521 0.384087 -0.922114 -0.04202479 -0.365436 0.9298873 0.05407887 0 -0.9985368 -0.04358154 0 0.99905 0.04672521 -0.384087 -0.922114 0.02798616 -0.7136331 -0.6999604 0.005371332 -0.932179 -0.3619579 -0.4810809 0 -0.8766763 -0.443503 0.3908576 -0.8065578 -0.6602179 0.3830441 -0.6460571 -0.7154648 0 -0.6986488 -0.3357164 -0.7195318 -0.6079214 -0.1723126 -0.9335891 -0.3141974 0.2223313 0.9111769 0.3468796 0.02352976 -0.999452 0.02328562 0.02352976 0.999452 0.02328562 -0.1723126 0.9335891 -0.3141974 0.2223313 -0.9111769 0.3468796 -0.3357164 0.7195318 -0.6079214 0.3928433 -0.6891238 0.6089193 0.5078127 -0.370048 0.7779401 0.5483738 0 0.8362334 -0.4434785 -0.390863 -0.8065688 0.284808 -0.9237948 0.255906 0.00540173 -0.9999698 -0.005584836 0.4639234 -0.7436326 -0.4814414 0.669613 -0.6856049 -0.2855949 0.6779912 -0.3822265 0.6278781 0.7329837 0 0.6802462 -0.6602179 -0.3830441 -0.6460571 0.6779912 0.3822265 0.6278781 -0.5029246 -0.7076164 -0.4963325 0.5213029 0.7064645 0.4786977 -0.2676533 -0.9242126 -0.2723838 0.2866389 0.9233973 0.2552954 0.009582877 -0.9999187 -0.008423149 0.009582877 0.9999187 -0.008423149 -0.2676533 0.9242126 -0.2723838 0.2866389 -0.9233973 0.2552954 -0.5029246 0.7076164 -0.4963325 0.5213029 -0.7064645 0.4786977 0.2573981 0.6884498 -0.6780732 0.4639234 0.7436326 -0.4814414 0.669613 0.6856049 -0.2855949 0.8433128 0.5238049 -0.120216 0.9590301 0.2831251 -0.01007127 0.9995928 0 0.02853536 0.9590301 -0.2831251 -0.01007127 0.8433128 -0.5238049 -0.120216 0.2573696 -0.6884552 -0.6780786 0.08163923 -0.527832 -0.8454162 -0.03610384 -0.285962 -0.9575606 -0.07748764 0 -0.9969934 -0.03610384 0.285962 -0.9575606 0.08163923 0.527832 -0.8454162 -0.5108663 0.7071068 -0.4888922 -0.2739728 0.9238835 -0.2671669 0.52163 -0.7069717 0.4775912 -0.6691455 0.3826566 -0.6370387 0.6798183 -0.3825904 0.6256769 -0.7247052 0 -0.689059 0.735359 0 0.6776778 -0.6691455 -0.3826566 -0.6370387 0.6798183 0.3825904 0.6256769 -0.5108663 -0.7071068 -0.4888922 0.52163 0.7069717 0.4775912 -0.2739728 -0.9238835 -0.2671669 0.284808 0.9237948 0.255906 0.00540173 0.9999698 -0.005584836 -0.378772 0.9085827 -0.1760949 -0.698024 0.6955825 -0.1700807 -0.9114105 0.3764913 -0.1660883 0.9794026 0 -0.2019173 0.9047641 0.3757796 -0.2004788 0.6920945 0.6945666 -0.1964246 0.3735858 0.9078553 -0.1903483 -0.002441465 0.9830718 -0.1832044 -0.1503381 -0.1503381 0.9771371 -0.1964224 -0.08136451 0.9771377 0.08136451 0.1964224 0.9771377 0.1503381 0.1503381 0.9771371 -0.08136451 -0.1964224 0.9771377 0 0.2125982 0.9771398 0.08133423 -0.1964229 0.9771401 0 -0.2125982 0.9771398 -0.08136451 0.1964224 0.9771377 0.1503381 -0.1503381 0.9771371 -0.1503381 0.1503381 0.9771371 0.1964224 -0.08136451 0.9771377 -0.1964224 0.08136451 0.9771377 0.2125982 0 0.9771398 -0.2125982 0 0.9771398 0.1964224 0.08136451 0.9771377 0.7844923 0.3249364 0.5281932 0.8491263 0 0.5281899 0.2575544 -0.1066657 0.9603584 -0.7844923 0.3249364 0.5281932 -0.1971251 0.1971251 0.9603558 0.1971251 -0.1971251 0.9603558 -0.6004049 0.6004354 0.5281963 -0.1066657 0.2575544 0.9603584 -0.3249364 0.7844923 0.5281932 0 0.8491263 0.5281899 0.3249364 0.7844923 0.5281932 0.6004049 0.6004354 0.5281963 -0.2313354 0.5585619 0.7965505 0.4274876 -0.4274876 0.7965607 -0.4275125 0.427482 0.7965503 0.5585579 -0.2313642 0.7965448 0.6045609 0 0.796559 0.5585619 -0.2313354 0.7965505 -0.5585409 0.2313393 0.7965641 -0.4274876 0.4274876 0.7965607 -0.2313393 0.5585409 0.7965641 0.2313393 -0.5585409 0.7965641 0 0.6045609 0.796559 0 -0.6045609 0.796559 -0.2313393 -0.5585409 0.7965641 -0.6045609 0 0.796559 0.5585409 0.2313393 0.7965641 -0.4274876 -0.4274876 0.7965607 -0.5585409 -0.2313393 0.7965641 0.2313393 0.5585409 0.7965641</float_array>
          <technique_common>
            <accessor source="#Cylinder_017-mesh-normals-array" count="351" stride="3">
              <param name="X" type="float"/>
              <param name="Y" type="float"/>
              <param name="Z" type="float"/>
            </accessor>
          </technique_common>
        </source>
        <vertices id="Cylinder_017-mesh-vertices">
          <input semantic="POSITION" source="#Cylinder_017-mesh-positions"/>
        </vertices>
        <polylist material="Plastik_flashe-material" count="305">
          <input semantic="VERTEX" source="#Cylinder_017-mesh-vertices" offset="0"/>
          <input semantic="NORMAL" source="#Cylinder_017-mesh-normals" offset="1"/>
          <vcount>4 4 4 4 4 4 4 4 4 4 4 4 4 4 4 4 4 4 4 4 4 4 4 4 4 4 4 4 4 4 4 4 4 4 4 4 4 4 4 4 4 4 4 4 4 4 4 4 4 4 4 4 4 4 4 4 4 4 4 4 4 4 4 4 4 4 4 4 4 4 4 4 4 4 4 4 4 4 4 4 4 4 4 4 4 4 4 4 4 4 4 4 4 4 4 4 4 4 4 4 4 4 4 4 4 4 4 4 4 4 4 4 4 4 4 4 4 4 4 4 4 4 4 4 4 4 4 4 4 4 4 4 4 4 4 4 4 4 4 4 4 4 4 4 4 4 4 4 4 4 4 4 4 4 4 4 4 4 4 4 4 16 4 4 4 4 4 4 4 4 4 4 4 4 4 4 4 4 4 4 4 4 4 4 4 4 4 4 4 4 4 4 4 4 4 4 4 4 4 4 4 4 4 4 4 4 4 4 4 4 4 4 4 4 4 4 4 4 4 4 4 4 4 4 4 4 4 4 4 4 4 4 4 4 4 4 4 4 4 4 4 4 4 4 4 4 4 4 4 4 4 4 4 4 4 4 4 4 4 4 4 4 4 4 4 4 4 4 4 4 4 4 4 4 4 4 4 4 4 4 4 4 4 4 4 4 4 4 4 4 4 4 4 4 4 4 4 4 4 4 4 4 4 4 4 </vcount>
          <p>385 52 384 53 60 54 61 54 59 54 58 54 74 46 75 47 387 83 386 84 53 54 54 54 388 85 385 52 61 54 62 54 389 86 387 83 54 54 55 54 390 87 388 85 62 54 63 54 391 88 389 86 55 54 56 54 393 89 392 90 49 54 48 54 392 90 390 87 63 54 49 54 394 91 391 88 56 54 57 54 395 92 393 89 48 54 50 54 396 93 394 91 57 54 58 54 397 94 395 92 50 54 51 54 398 95 396 93 58 54 59 54 399 96 397 94 51 54 52 54 384 53 398 95 59 54 60 54 386 84 399 96 52 54 53 54 64 37 65 36 81 97 80 98 52 54 51 54 67 39 68 40 60 54 59 54 75 47 76 48 53 54 52 54 68 40 69 41 61 54 60 54 76 48 77 49 54 54 53 54 69 41 70 42 62 54 61 54 77 49 78 50 55 54 54 54 70 42 71 43 63 54 62 54 78 50 79 51 56 54 55 54 71 43 72 44 48 54 49 54 65 36 64 37 49 54 63 54 79 51 65 36 57 54 56 54 72 44 73 45 50 54 48 54 64 37 66 38 58 54 57 54 73 45 74 46 51 54 50 54 66 38 67 39 86 99 85 100 101 101 102 102 65 36 79 51 95 103 81 97 73 45 72 44 88 104 89 105 66 38 64 37 80 98 82 106 74 46 73 45 89 105 90 107 67 39 66 38 82 106 83 108 75 47 74 46 90 107 91 109 68 40 67 39 83 108 84 110 76 48 75 47 91 109 92 111 69 41 68 40 84 110 85 100 77 49 76 48 92 111 93 112 70 42 69 41 85 100 86 99 78 50 77 49 93 112 94 113 71 43 70 42 86 99 87 114 79 51 78 50 94 113 95 103 72 44 71 43 87 114 88 104 123 115 124 116 316 117 315 118 94 113 93 112 109 119 110 120 87 114 86 99 102 102 103 121 95 103 94 113 110 120 111 122 88 104 87 114 103 121 104 123 80 98 81 97 97 124 96 125 81 97 95 103 111 122 97 124 89 105 88 104 104 123 105 126 82 106 80 98 96 125 98 127 90 107 89 105 105 126 106 128 83 108 82 106 98 127 99 129 91 109 90 107 106 128 107 130 84 110 83 108 99 129 100 131 92 111 91 109 107 130 108 132 85 100 84 110 100 131 101 101 93 112 92 111 108 132 109 119 257 133 256 134 145 135 144 136 367 137 358 138 331 139 322 140 122 141 123 115 315 118 314 142 354 143 352 144 332 145 334 146 121 147 122 141 314 142 313 148 355 149 353 150 333 151 335 152 120 153 121 147 313 148 312 154 356 155 363 156 320 157 323 158 363 156 354 143 334 146 320 157 119 159 120 153 312 154 311 160 357 161 364 162 321 163 324 164 364 162 355 149 335 152 321 163 118 165 119 159 311 160 310 166 365 167 356 155 323 158 325 168 117 169 118 165 310 166 309 170 366 171 357 161 324 164 326 172 155 173 154 174 170 175 171 176 256 134 258 177 159 178 145 135 260 179 259 180 152 181 153 182 261 183 257 133 144 136 146 184 262 185 260 179 153 182 154 174 263 186 261 183 146 184 147 187 264 188 262 185 154 174 155 173 265 189 263 186 147 187 148 190 266 191 264 188 155 173 156 192 267 193 265 189 148 190 149 194 268 195 266 191 156 192 157 196 269 197 267 193 149 194 150 198 270 199 268 195 157 196 158 200 271 201 269 197 150 198 151 202 258 177 270 199 158 200 159 178 259 180 271 201 151 202 152 181 161 203 175 204 191 205 177 206 148 190 147 187 163 207 164 208 156 192 155 173 171 176 172 209 149 194 148 190 164 208 165 210 157 196 156 192 172 209 173 211 150 198 149 194 165 210 166 212 158 200 157 196 173 211 174 213 151 202 150 198 166 212 167 214 159 178 158 200 174 213 175 204 152 181 151 202 167 214 168 215 144 136 145 135 161 203 160 216 145 135 159 178 175 204 161 203 153 182 152 181 168 215 169 217 146 184 144 136 160 216 162 218 154 174 153 182 169 217 170 175 147 187 146 184 162 218 163 207 190 219 189 220 205 221 206 222 169 217 168 215 184 223 185 224 162 218 160 216 176 225 178 226 170 175 169 217 185 224 186 227 163 207 162 218 178 226 179 228 171 176 170 175 186 227 187 229 164 208 163 207 179 228 180 230 172 209 171 176 187 229 188 231 165 210 164 208 180 230 181 232 173 211 172 209 188 231 189 220 166 212 165 210 181 232 182 233 174 213 173 211 189 220 190 219 167 214 166 212 182 233 183 234 175 204 174 213 190 219 191 205 168 215 167 214 183 234 184 223 160 216 161 203 177 206 176 225 196 235 195 236 211 237 212 238 183 234 182 233 198 239 199 240 191 205 190 219 206 222 207 241 184 223 183 234 199 240 200 242 176 225 177 206 193 243 192 244 177 206 191 205 207 241 193 243 185 224 184 223 200 242 201 245 178 226 176 225 192 244 194 246 186 227 185 224 201 245 202 247 179 228 178 226 194 246 195 236 187 229 186 227 202 247 203 248 180 230 179 228 195 236 196 235 188 231 187 229 203 248 204 249 181 232 180 230 196 235 197 250 189 220 188 231 204 249 205 221 182 233 181 232 197 250 198 239 241 251 240 252 232 253 233 254 204 249 203 248 219 255 220 256 197 250 196 235 212 238 213 257 205 221 204 249 220 256 221 258 198 239 197 250 213 257 214 259 206 222 205 221 221 258 222 260 199 240 198 239 214 259 215 261 207 241 206 222 222 260 223 262 200 242 199 240 215 261 216 263 192 244 193 243 209 264 208 265 193 243 207 241 223 262 209 264 201 245 200 242 216 263 217 266 194 246 192 244 208 265 210 267 202 247 201 245 217 266 218 268 195 236 194 246 210 267 211 237 203 248 202 247 218 268 219 255 224 269 225 270 239 271 238 272 237 273 236 274 235 275 234 276 233 254 232 253 231 277 230 278 229 279 228 280 227 281 226 282 243 283 242 284 224 269 226 282 244 285 241 251 233 254 234 276 245 286 243 283 226 282 227 281 246 287 244 285 234 276 235 275 247 288 245 286 227 281 228 280 248 289 246 287 235 275 236 274 249 290 247 288 228 280 229 279 250 291 248 289 236 274 237 273 251 292 249 290 229 279 230 278 252 293 250 291 237 273 238 272 253 294 251 292 230 278 231 277 254 295 252 293 238 272 239 271 240 252 253 294 231 277 232 253 242 284 255 296 225 270 224 269 255 296 254 295 239 271 225 270 209 264 223 262 254 295 255 296 208 265 209 264 255 296 242 284 216 263 215 261 253 294 240 252 223 262 222 260 252 293 254 295 215 261 214 259 251 292 253 294 222 260 221 258 250 291 252 293 214 259 213 257 249 290 251 292 221 258 220 256 248 289 250 291 213 257 212 238 247 288 249 290 220 256 219 255 246 287 248 289 212 238 211 237 245 286 247 288 219 255 218 268 244 285 246 287 211 237 210 267 243 283 245 286 218 268 217 266 241 251 244 285 210 267 208 265 242 284 243 283 217 266 216 263 240 252 241 251 120 153 119 159 271 201 259 180 127 297 126 298 270 199 258 177 119 159 118 165 269 197 271 201 126 298 125 299 268 195 270 199 118 165 117 169 267 193 269 197 125 299 124 116 266 191 268 195 117 169 116 300 265 189 267 193 124 116 123 115 264 188 266 191 116 300 115 301 263 186 265 189 123 115 122 141 262 185 264 188 115 301 114 302 261 183 263 186 122 141 121 147 260 179 262 185 114 302 112 303 257 133 261 183 121 147 120 153 259 180 260 179 113 304 127 297 258 177 256 134 112 303 113 304 256 134 257 133 99 129 98 127 303 305 290 306 106 128 105 126 302 307 288 308 98 127 96 125 301 309 303 305 105 126 104 123 299 310 302 307 97 124 111 122 298 311 300 312 96 125 97 124 300 312 301 309 104 123 103 121 297 313 299 310 111 122 110 120 296 314 298 311 103 121 102 102 295 315 297 313 110 120 109 119 294 316 296 314 102 102 101 101 293 317 295 315 109 119 108 132 292 318 294 316 101 101 100 131 291 319 293 317 108 132 107 130 289 320 292 318 100 131 99 129 290 306 291 319 107 130 106 128 288 308 289 320 323 158 320 157 314 142 315 118 324 164 321 163 307 321 308 322 325 168 323 158 315 118 316 117 326 172 324 164 308 322 309 170 327 323 325 168 316 117 317 324 328 325 326 172 309 170 310 166 329 326 327 323 317 324 318 327 330 328 328 325 310 166 311 160 331 139 329 326 318 327 319 329 332 145 330 328 311 160 312 154 333 151 322 140 305 330 304 331 322 140 331 139 319 329 305 330 334 146 332 145 312 154 313 148 335 152 333 151 304 331 306 332 320 157 334 146 313 148 314 142 321 163 335 152 306 332 307 321 353 150 367 137 322 140 333 151 124 116 125 299 317 324 316 117 352 144 359 333 330 328 332 145 125 299 126 298 318 327 317 324 358 138 360 334 329 326 331 139 113 304 112 303 304 331 305 330 126 298 127 297 319 329 318 327 359 333 361 335 328 325 330 328 112 303 114 302 306 332 304 331 127 297 113 304 305 330 319 329 360 334 362 336 327 323 329 326 114 302 115 301 307 321 306 332 361 335 366 171 326 172 328 325 115 301 116 300 308 322 307 321 362 336 365 167 325 168 327 323 116 300 117 169 309 170 308 322 294 316 292 318 342 337 351 338 295 315 293 317 344 339 350 340 296 314 294 316 351 338 349 334 297 313 295 315 350 340 348 341 298 311 296 314 349 334 346 342 299 310 297 313 348 341 336 343 301 309 300 312 347 344 337 345 293 317 291 319 345 346 344 339 292 318 289 320 343 347 342 337 290 306 303 305 341 348 340 349 291 319 290 306 340 349 345 346 288 308 302 307 339 350 338 156 289 320 288 308 338 156 343 347 303 305 301 309 337 345 341 348 302 307 299 310 336 343 339 350 300 312 298 311 346 342 347 344 351 338 342 337 365 167 362 336 350 340 344 339 366 171 361 335 349 334 351 338 362 336 360 334 348 341 350 340 361 335 359 333 346 342 349 334 360 334 358 138 336 343 348 341 359 333 352 144 337 345 347 344 367 137 353 150 344 339 345 346 357 161 366 171 342 337 343 347 356 155 365 167 340 349 341 348 355 149 364 162 345 346 340 349 364 162 357 161 338 156 339 350 354 143 363 156 343 347 338 156 363 156 356 155 341 348 337 345 353 150 355 149 339 350 336 343 352 144 354 143 347 344 346 342 358 138 367 137 37 65 36 76 399 96 386 84 44 61 43 70 398 95 384 53 36 76 35 75 397 94 399 96 43 70 42 69 396 93 398 95 35 75 34 82 395 92 397 94 42 69 41 78 394 91 396 93 34 82 32 58 393 89 395 92 41 78 40 33 391 88 394 91 33 57 47 72 390 87 392 90 32 58 33 57 392 90 393 89 40 33 39 32 389 86 391 88 47 72 46 80 388 85 390 87 39 32 38 66 387 83 389 86 46 80 45 62 385 52 388 85 38 66 37 65 386 84 387 83 45 62 44 61 384 53 385 52</p>
        </polylist>
        <polylist material="Plastik_durchsichtig-material" count="81">
          <input semantic="VERTEX" source="#Cylinder_017-mesh-vertices" offset="0"/>
          <input semantic="NORMAL" source="#Cylinder_017-mesh-normals" offset="1"/>
          <vcount>4 4 4 4 4 4 4 4 4 4 4 4 4 4 4 4 4 16 4 4 4 4 4 4 4 4 4 4 4 4 4 4 4 4 4 4 4 4 4 4 4 4 4 4 4 4 4 4 4 4 4 4 4 4 4 4 4 4 4 4 4 4 4 4 4 4 4 4 4 4 4 4 4 4 4 4 4 4 4 4 4 </vcount>
          <p>272 0 1 1 3 2 273 3 273 3 3 2 5 4 274 5 274 5 5 4 7 6 275 7 275 7 7 6 9 8 276 9 276 9 9 8 11 10 277 11 277 11 11 10 13 12 278 13 278 13 13 12 15 14 279 15 279 15 15 14 17 16 280 17 280 17 17 16 19 18 281 19 281 19 19 18 21 20 282 21 282 21 21 20 23 22 283 23 283 23 23 22 25 24 284 25 284 25 25 24 27 26 285 27 285 27 27 26 29 28 286 29 369 30 368 31 39 32 40 33 287 34 31 35 1 1 272 0 286 29 29 28 31 35 287 34 0 36 2 37 4 38 6 39 8 40 10 41 12 42 14 43 16 44 18 45 20 46 22 47 24 48 26 49 28 50 30 51 371 55 370 56 33 57 32 58 373 59 372 60 44 61 45 62 375 63 374 64 37 65 38 66 377 67 376 68 42 69 43 70 370 56 378 71 47 72 33 57 380 73 379 74 35 75 36 76 381 77 369 30 40 33 41 78 382 79 373 59 45 62 46 80 383 81 371 55 32 58 34 82 368 31 375 63 38 66 39 32 372 60 377 67 43 70 44 61 374 64 380 73 36 76 37 65 376 68 381 77 41 78 42 69 378 71 382 79 46 80 47 72 379 74 383 81 34 82 35 75 28 50 142 29 143 34 30 51 30 51 143 34 128 0 0 36 26 49 141 27 142 29 28 50 24 48 140 25 141 27 26 49 22 47 139 23 140 25 24 48 20 46 138 21 139 23 22 47 18 45 137 19 138 21 20 46 16 44 136 17 137 19 18 45 14 43 135 15 136 17 16 44 12 42 134 13 135 15 14 43 10 41 133 11 134 13 12 42 8 40 132 9 133 11 10 41 6 39 131 7 132 9 8 40 4 38 130 5 131 7 6 39 2 37 129 3 130 5 4 38 0 36 128 0 129 3 2 37 142 29 286 29 287 34 143 34 143 34 287 34 272 0 128 0 141 27 285 27 286 29 142 29 140 25 284 25 285 27 141 27 139 23 283 23 284 25 140 25 138 21 282 21 283 23 139 23 137 19 281 19 282 21 138 21 136 17 280 17 281 19 137 19 135 15 279 15 280 17 136 17 134 13 278 13 279 15 135 15 133 11 277 11 278 13 134 13 132 9 276 9 277 11 133 11 131 7 275 7 276 9 132 9 130 5 274 5 275 7 131 7 129 3 273 3 274 5 130 5 128 0 272 0 273 3 129 3 7 6 5 4 383 81 379 74 31 35 29 28 382 79 378 71 21 20 19 18 381 77 376 68 11 10 9 8 380 73 374 64 25 24 23 22 377 67 372 60 15 14 13 12 375 63 368 31 5 4 3 2 371 55 383 81 29 28 27 26 373 59 382 79 19 18 17 16 369 30 381 77 9 8 7 6 379 74 380 73 1 1 31 35 378 71 370 56 23 22 21 20 376 68 377 67 13 12 11 10 374 64 375 63 27 26 25 24 372 60 373 59 3 2 1 1 370 56 371 55 17 16 15 14 368 31 369 30</p>
        </polylist>
      </mesh>
    </geometry>
  </library_geometries>
  <library_controllers/>
  <library_visual_scenes>
    <visual_scene id="Scene" name="Scene">
      <node id="WasserSpender_001" name="WasserSpender_001" type="NODE">
        <matrix sid="transform">-0.1239816 -2.18645e-8 0 -6.860664 1.87207e-8 -0.1448019 0 -7.92717 0 0 0.155657 4.319433 0 0 0 1</matrix>
        <instance_geometry url="#Cylinder_017-mesh" name="WasserSpender_001">
          <bind_material>
            <technique_common>
              <instance_material symbol="Plastik_flashe-material" target="#Plastik_flashe-material"/>
              <instance_material symbol="Plastik_durchsichtig-material" target="#Plastik_durchsichtig-material"/>
            </technique_common>
          </bind_material>
        </instance_geometry>
      </node>
    </visual_scene>
  </library_visual_scenes>
  <scene>
    <instance_visual_scene url="#Scene"/>
  </scene>
</COLLADA>