<?xml version="1.0" encoding="utf-8" ?>
<COLLADA xmlns="http://www.collada.org/2005/11/COLLADASchema" version="1.4.1">
    <asset>
        <contributor>
            <authoring_tool>ctmconv</authoring_tool>
            <comments></comments>
        </contributor>
        <created>2016-11-03T11:50:29</created>
        <modified>2016-11-03T11:50:29</modified>
    </asset>
    <library_geometries>
        <geometry id="Mesh-1" name="Mesh-1">
            <mesh>
                <source id="Mesh-1-positions" name="position">
                    <float_array id="Mesh-1-positions-array" count="315">-0.013 0.00175 0.002 -0.013 0.00175 0.005 -0.013 0.00375 0.002 -0.013 0.00375 0.005 -0.012 0.00175 0.002 -0.012 0.00175 0.005 -0.0119048 0.00222835 0.002 -0.0119048 0.00222835 0.005 -0.0116339 0.00263388 0.002 -0.0116339 0.00263388 0.005 -0.0112284 0.00290485 0.002 -0.0112284 0.00290485 0.005 -0.01075 0.003 0.002 -0.01075 0.003 0.005 -0.0102716 0.00290485 0.002 -0.0102716 0.00290485 0.005 -0.00986612 0.00263388 0.002 -0.00986612 0.00263388 0.005 -0.00959515 0.00222835 0.002 -0.00959515 0.00222835 0.005 -0.0095 0.00175 0.002 -0.0095 0.00175 0.005 -0.0085 0.00175 0.002 -0.0085 0.00175 0.005 -0.0085 0.00275 0.002 -0.0085 0.00275 0.005 -0.002 -0.00125 5.37359e-11 -0.002 -0.00125 0.002 -0.002 -0.00125 0.005 -0.002 -0.00125 0.007 -0.002 0.00275 0.002 -0.002 0.00275 0.005 -0.002 0.00375 0.002 -0.002 0.00375 0.005 -0.002 0.00975 5.37359e-11 -0.002 0.00975 0.007 -0.00075 -2.79397e-11 0.002 -0.000728206 -0.000179487 5.37359e-11 -0.000728206 -0.000179487 0.002 -0.000728206 -0.000179487 0.005 -0.000728206 -0.000179487 0.007 -0.000728206 0.000179487 5.37359e-11 -0.000728206 0.000179487 0.002 -0.000728206 0.000179487 0.005 -0.000728206 0.000179487 0.007 -0.000561383 -0.000497342 5.37359e-11 -0.000561383 -0.000497342 0.002 -0.000561383 -0.000497342 0.005 -0.000561383 -0.000497342 0.007 -0.000561383 0.000497342 5.37359e-11 -0.000561383 0.000497342 0.002 -0.000561383 0.000497342 0.005 -0.000561383 0.000497342 0.007 -0.000265954 -0.000701262 5.37359e-11 -0.000265954 -0.000701262 0.002 -0.000265954 -0.000701262 0.005 -0.000265954 -0.000701262 0.007 -0.000265954 0.000701262 5.37359e-11 -0.000265954 0.000701262 0.002 -0.000265954 0.000701262 0.005 -0.000265954 0.000701262 0.007 2.23907e-10 0.00275 0.002 2.23907e-10 0.00275 0.005 2.23907e-10 0.00575 5.37359e-11 2.23907e-10 0.00575 0.002 2.23907e-10 0.00575 0.005 2.23907e-10 0.00575 0.007 2.23907e-10 0.00975 5.37359e-11 2.23907e-10 0.00975 0.007 9.04023e-05 -0.000744532 5.37359e-11 9.04023e-05 -0.000744532 0.002 9.04023e-05 -0.000744532 0.005 9.04023e-05 -0.000744532 0.007 9.04023e-05 0.000744532 5.37359e-11 9.04023e-05 0.000744532 0.002 9.04023e-05 0.000744532 0.005 9.04023e-05 0.000744532 0.007 0.000426049 -0.000617238 5.37359e-11 0.000426049 -0.000617238 0.002 0.000426049 -0.000617238 0.005 0.000426049 -0.000617238 0.007 0.000426049 0.000617238 5.37359e-11 0.000426049 0.000617238 0.002 0.000426049 0.000617238 0.005 0.000426049 0.000617238 0.007 0.000664092 -0.000348542 5.37359e-11 0.000664092 -0.000348542 0.002 0.000664092 -0.000348542 0.005 0.000664092 -0.000348542 0.007 0.000664092 0.000348542 5.37359e-11 0.000664092 0.000348542 0.002 0.000664092 0.000348542 0.005 0.000664092 0.000348542 0.007 0.00075 -2.79397e-11 5.37359e-11 0.00075 -2.79397e-11 0.002 0.00075 -2.79397e-11 0.005 0.00075 -2.79397e-11 0.007 0.004 -0.00125 5.37359e-11 0.004 -0.00125 0.002 0.004 -0.00125 0.005 0.004 -0.00125 0.007 0.004 0.00575 5.37359e-11 0.004 0.00575 0.002 0.004 0.00575 0.005 0.004 0.00575 0.007 </float_array>
                    <technique_common>
                        <accessor count="105" offset="0" source="#Mesh-1-positions-array" stride="3">
                            <param name="X" type="float" />
                            <param name="Y" type="float" />
                            <param name="Z" type="float" />
                        </accessor>
                    </technique_common>
                </source>
                <vertices id="Mesh-1-vertices">
                    <input semantic="POSITION" source="#Mesh-1-positions" />
                </vertices>
                <triangles count="214">
                    <input offset="0" semantic="VERTEX" source="#Mesh-1-vertices" />
                    <p>22 23 20 20 23 21 61 62 30 30 62 31 30 31 24 24 31 25 26 27 30 26 30 34 34 30 32 34 32 35 35 32 33 35 33 29 29 33 31 29 31 28 98 97 102 102 97 101 101 63 102 102 63 64 99 100 28 28 100 29 104 100 103 103 100 99 68 35 66 66 35 29 66 60 76 88 80 100 100 80 72 100 72 29 29 72 56 29 56 48 66 76 104 76 84 104 104 84 92 104 92 100 100 92 96 100 96 88 48 40 29 29 40 44 29 44 66 66 44 52 66 52 60 34 41 26 26 41 37 26 37 45 93 89 63 63 89 81 34 67 63 45 53 26 26 53 69 26 69 97 97 69 77 81 73 63 63 73 57 63 57 34 34 57 49 34 49 41 63 101 93 93 101 97 93 97 85 85 97 77 34 35 67 67 35 68 27 26 98 98 26 97 64 63 67 68 66 65 62 61 65 65 61 64 65 64 68 68 64 67 66 104 65 65 104 103 87 95 99 95 91 99 99 91 62 99 62 103 103 62 65 47 55 28 28 55 71 28 71 99 99 71 79 99 79 87 91 83 62 62 83 75 62 75 31 31 75 59 59 51 31 31 51 43 31 43 28 28 43 39 28 39 47 102 64 74 74 64 61 74 61 58 74 82 102 102 82 90 102 90 98 98 90 94 98 94 86 86 78 98 98 78 70 98 70 27 27 70 54 27 54 46 46 38 27 27 38 36 27 36 30 30 36 42 30 42 61 61 42 50 61 50 58 2 32 24 24 32 30 22 20 24 24 20 18 4 0 6 6 0 2 6 2 8 8 2 10 18 16 24 24 16 14 24 14 2 2 14 12 2 12 10 3 1 5 31 33 25 25 33 3 5 7 3 3 7 9 3 9 11 21 23 19 19 23 25 11 13 3 3 13 15 3 15 25 25 15 17 25 17 19 2 3 32 32 3 33 1 3 0 0 3 2 23 22 25 25 22 24 1 0 5 5 0 4 20 21 18 18 21 19 18 19 16 16 19 17 16 17 14 14 17 15 14 15 12 12 15 13 12 13 10 10 13 11 10 11 8 8 11 9 8 9 6 6 9 7 6 7 4 4 7 5 50 42 41 41 42 36 41 36 37 37 36 38 37 38 45 45 38 46 45 46 53 53 46 54 53 54 69 69 54 70 69 70 77 77 70 78 77 78 85 85 78 86 85 86 93 93 86 94 93 94 89 89 94 90 89 90 81 81 90 82 81 82 73 73 82 74 73 74 57 57 74 58 57 58 49 49 58 50 49 50 41 95 96 91 91 96 92 91 92 83 83 92 84 83 84 75 75 84 76 75 76 59 59 76 60 59 60 51 51 60 52 51 52 43 43 52 44 43 44 39 39 44 40 39 40 47 47 40 48 47 48 55 55 48 56 55 56 71 71 56 72 71 72 79 79 72 80 79 80 87 87 80 88 87 88 95 95 88 96 </p>
                </triangles>
            </mesh>
        </geometry>
    </library_geometries>
    <library_visual_scenes>
        <visual_scene id="Scene-1" name="Scene-1">
            <node id="Object-1" name="Object-1">
                <instance_geometry url="#Mesh-1" />
            </node>
        </visual_scene>
    </library_visual_scenes>
    <scene>
        <instance_visual_scene url="#Scene-1" />
    </scene>
</COLLADA>
