<?xml version="1.0"?>
<COLLADA xmlns="http://www.collada.org/2005/11/COLLADASchema" version="1.4.1">
    <asset>
        <contributor>
            <authoring_tool>CINEMA4D 18.030 COLLADA Exporter</authoring_tool>
        </contributor>
        <created>2018-01-15T11:09:14Z</created>
        <modified>2018-01-15T11:09:14Z</modified>
        <unit meter="0.01" name="centimeter"/>
        <up_axis>Y_UP</up_axis>
    </asset>
    <library_geometries>
        <geometry id="ID3">
            <mesh>
                <source id="ID4">
                    <float_array id="ID5" count="2160">12.133 -0 14.9956 17.6976 -0 14.9956 23.2621 -0 14.9956 28.8267 -0 14.9956 34.3912 -0 14.9956 39.9557 -0 14.9956 39.9557 -0 8.99735 39.9557 -0 2.99912 39.9557 -0 -2.99912 39.9557 -0 -8.99735 39.9557 -0 -14.9956 34.3912 -0 -14.9956 28.8267 -0 -14.9956 23.2621 -0 -14.9956 17.6976 -0 -14.9956 12.133 -0 -14.9956 12.133 -0 -8.99735 12.133 -0 -2.99912 12.133 -0 2.99912 12.133 -0 8.99735 11.9487 -2.10688 14.9956 17.4287 -3.07315 14.9956 22.9087 -4.03942 14.9956 28.3887 -5.0057 14.9956 33.8687 -5.97197 14.9956 39.3487 -6.93824 14.9956 39.3487 -6.93824 8.99735 39.3487 -6.93824 2.99912 39.3487 -6.93824 -2.99912 39.3487 -6.93824 -8.99735 39.3487 -6.93824 -14.9956 33.8687 -5.97197 -14.9956 28.3887 -5.0057 -14.9956 22.9087 -4.03942 -14.9956 17.4287 -3.07315 -14.9956 11.9487 -2.10688 -14.9956 11.9487 -2.10688 -8.99735 11.9487 -2.10688 -2.99912 11.9487 -2.10688 2.99912 11.9487 -2.10688 8.99735 11.4013 -4.14974 14.9956 16.6303 -6.05293 14.9956 21.8592 -7.95611 14.9956 27.0882 -9.8593 14.9956 32.3172 -11.7625 14.9956 37.5461 -13.6657 14.9956 37.5461 -13.6657 8.99735 37.5461 -13.6657 2.99912 37.5461 -13.6657 -2.99912 37.5461 -13.6657 -8.99735 37.5461 -13.6657 -14.9956 32.3172 -11.7625 -14.9956 27.0882 -9.8593 -14.9956 21.8592 -7.95611 -14.9956 16.6303 -6.05293 -14.9956 11.4013 -4.14974 -14.9956 11.4013 -4.14974 -8.99735 11.4013 -4.14974 -2.99912 11.4013 -4.14974 2.99912 11.4013 -4.14974 8.99735 10.5075 -6.06652 14.9956 15.3266 -8.84879 14.9956 20.1456 -11.6311 14.9956 24.9646 -14.4133 14.9956 29.7837 -17.1956 14.9956 34.6027 -19.9779 14.9956 34.6027 -19.9779 8.99735 34.6027 -19.9779 2.99912 34.6027 -19.9779 -2.99912 34.6027 -19.9779 -8.99735 34.6027 -19.9779 -14.9956 29.7837 -17.1956 -14.9956 24.9646 -14.4133 -14.9956 20.1456 -11.6311 -14.9956 15.3266 -8.84879 -14.9956 10.5075 -6.06652 -14.9956 10.5075 -6.06652 -8.99735 10.5075 -6.06652 -2.99912 10.5075 -6.06652 2.99912 10.5075 -6.06652 8.99735 9.29445 -7.79897 14.9956 13.5571 -11.3758 14.9956 17.8198 -14.9526 14.9956 22.0825 -18.5294 14.9956 26.3452 -22.1062 14.9956 30.6079 -25.6831 14.9956 30.6079 -25.6831 8.99735 30.6079 -25.6831 2.99912 30.6079 -25.6831 -2.99912 30.6079 -25.6831 -8.99735 30.6079 -25.6831 -14.9956 26.3452 -22.1062 -14.9956 22.0825 -18.5294 -14.9956 17.8198 -14.9526 -14.9956 13.5571 -11.3758 -14.9956 9.29445 -7.79897 -14.9956 9.29445 -7.79897 -8.99735 9.29445 -7.79897 -2.99912 9.29445 -7.79897 2.99912 9.29445 -7.79897 8.99735 7.79897 -9.29445 14.9956 11.3758 -13.5571 14.9956 14.9526 -17.8198 14.9956 18.5294 -22.0825 14.9956 22.1062 -26.3452 14.9956 25.6831 -30.6079 14.9956 25.6831 -30.6079 8.99735 25.6831 -30.6079 2.99912 25.6831 -30.6079 -2.99912 25.6831 -30.6079 -8.99735 25.6831 -30.6079 -14.9956 22.1062 -26.3452 -14.9956 18.5294 -22.0825 -14.9956 14.9526 -17.8198 -14.9956 11.3758 -13.5571 -14.9956 7.79897 -9.29445 -14.9956 7.79897 -9.29445 -8.99735 7.79897 -9.29445 -2.99912 7.79897 -9.29445 2.99912 7.79897 -9.29445 8.99735 6.06652 -10.5075 14.9956 8.84879 -15.3266 14.9956 11.6311 -20.1456 14.9956 14.4133 -24.9646 14.9956 17.1956 -29.7837 14.9956 19.9779 -34.6027 14.9956 19.9779 -34.6027 8.99735 19.9779 -34.6027 2.99912 19.9779 -34.6027 -2.99912 19.9779 -34.6027 -8.99735 19.9779 -34.6027 -14.9956 17.1956 -29.7837 -14.9956 14.4133 -24.9646 -14.9956 11.6311 -20.1456 -14.9956 8.84879 -15.3266 -14.9956 6.06652 -10.5075 -14.9956 6.06652 -10.5075 -8.99735 6.06652 -10.5075 -2.99912 6.06652 -10.5075 2.99912 6.06652 -10.5075 8.99735 4.14974 -11.4013 14.9956 6.05293 -16.6303 14.9956 7.95611 -21.8592 14.9956 9.8593 -27.0882 14.9956 11.7625 -32.3172 14.9956 13.6657 -37.5461 14.9956 13.6657 -37.5461 8.99735 13.6657 -37.5461 2.99912 13.6657 -37.5461 -2.99912 13.6657 -37.5461 -8.99735 13.6657 -37.5461 -14.9956 11.7625 -32.3172 -14.9956 9.8593 -27.0882 -14.9956 7.95611 -21.8592 -14.9956 6.05293 -16.6303 -14.9956 4.14974 -11.4013 -14.9956 4.14974 -11.4013 -8.99735 4.14974 -11.4013 -2.99912 4.14974 -11.4013 2.99912 4.14974 -11.4013 8.99735 2.10688 -11.9487 14.9956 3.07315 -17.4287 14.9956 4.03942 -22.9087 14.9956 5.0057 -28.3887 14.9956 5.97197 -33.8687 14.9956 6.93824 -39.3487 14.9956 6.93824 -39.3487 8.99735 6.93824 -39.3487 2.99912 6.93824 -39.3487 -2.99912 6.93824 -39.3487 -8.99735 6.93824 -39.3487 -14.9956 5.97197 -33.8687 -14.9956 5.0057 -28.3887 -14.9956 4.03942 -22.9087 -14.9956 3.07315 -17.4287 -14.9956 2.10688 -11.9487 -14.9956 2.10688 -11.9487 -8.99735 2.10688 -11.9487 -2.99912 2.10688 -11.9487 2.99912 2.10688 -11.9487 8.99735 7.42934e-016 -12.133 14.9956 1.08366e-015 -17.6976 14.9956 1.42439e-015 -23.2621 14.9956 1.76512e-015 -28.8267 14.9956 2.10585e-015 -34.3912 14.9956 2.44658e-015 -39.9557 14.9956 2.44658e-015 -39.9557 8.99735 2.44658e-015 -39.9557 2.99912 2.44658e-015 -39.9557 -2.99912 2.44658e-015 -39.9557 -8.99735 2.44658e-015 -39.9557 -14.9956 2.10585e-015 -34.3912 -14.9956 1.76512e-015 -28.8267 -14.9956 1.42439e-015 -23.2621 -14.9956 1.08366e-015 -17.6976 -14.9956 7.42934e-016 -12.133 -14.9956 7.42934e-016 -12.133 -8.99735 7.42934e-016 -12.133 -2.99912 7.42934e-016 -12.133 2.99912 7.42934e-016 -12.133 8.99735 -2.10688 -11.9487 14.9956 -3.07315 -17.4287 14.9956 -4.03942 -22.9087 14.9956 -5.0057 -28.3887 14.9956 -5.97197 -33.8687 14.9956 -6.93824 -39.3487 14.9956 -6.93824 -39.3487 8.99735 -6.93824 -39.3487 2.99912 -6.93824 -39.3487 -2.99912 -6.93824 -39.3487 -8.99735 -6.93824 -39.3487 -14.9956 -5.97197 -33.8687 -14.9956 -5.0057 -28.3887 -14.9956 -4.03942 -22.9087 -14.9956 -3.07315 -17.4287 -14.9956 -2.10688 -11.9487 -14.9956 -2.10688 -11.9487 -8.99735 -2.10688 -11.9487 -2.99912 -2.10688 -11.9487 2.99912 -2.10688 -11.9487 8.99735 -4.14974 -11.4013 14.9956 -6.05293 -16.6303 14.9956 -7.95611 -21.8592 14.9956 -9.8593 -27.0882 14.9956 -11.7625 -32.3172 14.9956 -13.6657 -37.5461 14.9956 -13.6657 -37.5461 8.99735 -13.6657 -37.5461 2.99912 -13.6657 -37.5461 -2.99912 -13.6657 -37.5461 -8.99735 -13.6657 -37.5461 -14.9956 -11.7625 -32.3172 -14.9956 -9.8593 -27.0882 -14.9956 -7.95611 -21.8592 -14.9956 -6.05293 -16.6303 -14.9956 -4.14974 -11.4013 -14.9956 -4.14974 -11.4013 -8.99735 -4.14974 -11.4013 -2.99912 -4.14974 -11.4013 2.99912 -4.14974 -11.4013 8.99735 -6.06652 -10.5075 14.9956 -8.84879 -15.3266 14.9956 -11.6311 -20.1456 14.9956 -14.4133 -24.9646 14.9956 -17.1956 -29.7837 14.9956 -19.9779 -34.6027 14.9956 -19.9779 -34.6027 8.99735 -19.9779 -34.6027 2.99912 -19.9779 -34.6027 -2.99912 -19.9779 -34.6027 -8.99735 -19.9779 -34.6027 -14.9956 -17.1956 -29.7837 -14.9956 -14.4133 -24.9646 -14.9956 -11.6311 -20.1456 -14.9956 -8.84879 -15.3266 -14.9956 -6.06652 -10.5075 -14.9956 -6.06652 -10.5075 -8.99735 -6.06652 -10.5075 -2.99912 -6.06652 -10.5075 2.99912 -6.06652 -10.5075 8.99735 -7.79897 -9.29445 14.9956 -11.3758 -13.5571 14.9956 -14.9526 -17.8198 14.9956 -18.5294 -22.0825 14.9956 -22.1062 -26.3452 14.9956 -25.6831 -30.6079 14.9956 -25.6831 -30.6079 8.99735 -25.6831 -30.6079 2.99912 -25.6831 -30.6079 -2.99912 -25.6831 -30.6079 -8.99735 -25.6831 -30.6079 -14.9956 -22.1062 -26.3452 -14.9956 -18.5294 -22.0825 -14.9956 -14.9526 -17.8198 -14.9956 -11.3758 -13.5571 -14.9956 -7.79897 -9.29445 -14.9956 -7.79897 -9.29445 -8.99735 -7.79897 -9.29445 -2.99912 -7.79897 -9.29445 2.99912 -7.79897 -9.29445 8.99735 -9.29445 -7.79897 14.9956 -13.5571 -11.3758 14.9956 -17.8198 -14.9526 14.9956 -22.0825 -18.5294 14.9956 -26.3452 -22.1062 14.9956 -30.6079 -25.6831 14.9956 -30.6079 -25.6831 8.99735 -30.6079 -25.6831 2.99912 -30.6079 -25.6831 -2.99912 -30.6079 -25.6831 -8.99735 -30.6079 -25.6831 -14.9956 -26.3452 -22.1062 -14.9956 -22.0825 -18.5294 -14.9956 -17.8198 -14.9526 -14.9956 -13.5571 -11.3758 -14.9956 -9.29445 -7.79897 -14.9956 -9.29445 -7.79897 -8.99735 -9.29445 -7.79897 -2.99912 -9.29445 -7.79897 2.99912 -9.29445 -7.79897 8.99735 -10.5075 -6.06652 14.9956 -15.3266 -8.84879 14.9956 -20.1456 -11.6311 14.9956 -24.9646 -14.4133 14.9956 -29.7837 -17.1956 14.9956 -34.6027 -19.9779 14.9956 -34.6027 -19.9779 8.99735 -34.6027 -19.9779 2.99912 -34.6027 -19.9779 -2.99912 -34.6027 -19.9779 -8.99735 -34.6027 -19.9779 -14.9956 -29.7837 -17.1956 -14.9956 -24.9646 -14.4133 -14.9956 -20.1456 -11.6311 -14.9956 -15.3266 -8.84879 -14.9956 -10.5075 -6.06652 -14.9956 -10.5075 -6.06652 -8.99735 -10.5075 -6.06652 -2.99912 -10.5075 -6.06652 2.99912 -10.5075 -6.06652 8.99735 -11.4013 -4.14974 14.9956 -16.6303 -6.05293 14.9956 -21.8592 -7.95611 14.9956 -27.0882 -9.8593 14.9956 -32.3172 -11.7625 14.9956 -37.5461 -13.6657 14.9956 -37.5461 -13.6657 8.99735 -37.5461 -13.6657 2.99912 -37.5461 -13.6657 -2.99912 -37.5461 -13.6657 -8.99735 -37.5461 -13.6657 -14.9956 -32.3172 -11.7625 -14.9956 -27.0882 -9.8593 -14.9956 -21.8592 -7.95611 -14.9956 -16.6303 -6.05293 -14.9956 -11.4013 -4.14974 -14.9956 -11.4013 -4.14974 -8.99735 -11.4013 -4.14974 -2.99912 -11.4013 -4.14974 2.99912 -11.4013 -4.14974 8.99735 -11.9487 -2.10688 14.9956 -17.4287 -3.07315 14.9956 -22.9087 -4.03942 14.9956 -28.3887 -5.0057 14.9956 -33.8687 -5.97197 14.9956 -39.3487 -6.93824 14.9956 -39.3487 -6.93824 8.99735 -39.3487 -6.93824 2.99912 -39.3487 -6.93824 -2.99912 -39.3487 -6.93824 -8.99735 -39.3487 -6.93824 -14.9956 -33.8687 -5.97197 -14.9956 -28.3887 -5.0057 -14.9956 -22.9087 -4.03942 -14.9956 -17.4287 -3.07315 -14.9956 -11.9487 -2.10688 -14.9956 -11.9487 -2.10688 -8.99735 -11.9487 -2.10688 -2.99912 -11.9487 -2.10688 2.99912 -11.9487 -2.10688 8.99735 -12.133 -1.48587e-015 14.9956 -17.6976 -2.16733e-015 14.9956 -23.2621 -2.84879e-015 14.9956 -28.8267 -3.53025e-015 14.9956 -34.3912 -4.21171e-015 14.9956 -39.9557 -4.89317e-015 14.9956 -39.9557 -4.89317e-015 8.99735 -39.9557 -4.89317e-015 2.99912 -39.9557 -4.89317e-015 -2.99912 -39.9557 -4.89317e-015 -8.99735 -39.9557 -4.89317e-015 -14.9956 -34.3912 -4.21171e-015 -14.9956 -28.8267 -3.53025e-015 -14.9956 -23.2621 -2.84879e-015 -14.9956 -17.6976 -2.16733e-015 -14.9956 -12.133 -1.48587e-015 -14.9956 -12.133 -1.48587e-015 -8.99735 -12.133 -1.48587e-015 -2.99912 -12.133 -1.48587e-015 2.99912 -12.133 -1.48587e-015 8.99735 -11.9487 2.10688 14.9956 -17.4287 3.07315 14.9956 -22.9087 4.03942 14.9956 -28.3887 5.0057 14.9956 -33.8687 5.97197 14.9956 -39.3487 6.93824 14.9956 -39.3487 6.93824 8.99735 -39.3487 6.93824 2.99912 -39.3487 6.93824 -2.99912 -39.3487 6.93824 -8.99735 -39.3487 6.93824 -14.9956 -33.8687 5.97197 -14.9956 -28.3887 5.0057 -14.9956 -22.9087 4.03942 -14.9956 -17.4287 3.07315 -14.9956 -11.9487 2.10688 -14.9956 -11.9487 2.10688 -8.99735 -11.9487 2.10688 -2.99912 -11.9487 2.10688 2.99912 -11.9487 2.10688 8.99735 -11.4013 4.14974 14.9956 -16.6303 6.05293 14.9956 -21.8592 7.95611 14.9956 -27.0882 9.8593 14.9956 -32.3172 11.7625 14.9956 -37.5461 13.6657 14.9956 -37.5461 13.6657 8.99735 -37.5461 13.6657 2.99912 -37.5461 13.6657 -2.99912 -37.5461 13.6657 -8.99735 -37.5461 13.6657 -14.9956 -32.3172 11.7625 -14.9956 -27.0882 9.8593 -14.9956 -21.8592 7.95611 -14.9956 -16.6303 6.05293 -14.9956 -11.4013 4.14974 -14.9956 -11.4013 4.14974 -8.99735 -11.4013 4.14974 -2.99912 -11.4013 4.14974 2.99912 -11.4013 4.14974 8.99735 -10.5075 6.06652 14.9956 -15.3266 8.84879 14.9956 -20.1456 11.6311 14.9956 -24.9646 14.4133 14.9956 -29.7837 17.1956 14.9956 -34.6027 19.9779 14.9956 -34.6027 19.9779 8.99735 -34.6027 19.9779 2.99912 -34.6027 19.9779 -2.99912 -34.6027 19.9779 -8.99735 -34.6027 19.9779 -14.9956 -29.7837 17.1956 -14.9956 -24.9646 14.4133 -14.9956 -20.1456 11.6311 -14.9956 -15.3266 8.84879 -14.9956 -10.5075 6.06652 -14.9956 -10.5075 6.06652 -8.99735 -10.5075 6.06652 -2.99912 -10.5075 6.06652 2.99912 -10.5075 6.06652 8.99735 -9.29445 7.79897 14.9956 -13.5571 11.3758 14.9956 -17.8198 14.9526 14.9956 -22.0825 18.5294 14.9956 -26.3452 22.1062 14.9956 -30.6079 25.6831 14.9956 -30.6079 25.6831 8.99735 -30.6079 25.6831 2.99912 -30.6079 25.6831 -2.99912 -30.6079 25.6831 -8.99735 -30.6079 25.6831 -14.9956 -26.3452 22.1062 -14.9956 -22.0825 18.5294 -14.9956 -17.8198 14.9526 -14.9956 -13.5571 11.3758 -14.9956 -9.29445 7.79897 -14.9956 -9.29445 7.79897 -8.99735 -9.29445 7.79897 -2.99912 -9.29445 7.79897 2.99912 -9.29445 7.79897 8.99735 -7.79897 9.29445 14.9956 -11.3758 13.5571 14.9956 -14.9526 17.8198 14.9956 -18.5294 22.0825 14.9956 -22.1062 26.3452 14.9956 -25.6831 30.6079 14.9956 -25.6831 30.6079 8.99735 -25.6831 30.6079 2.99912 -25.6831 30.6079 -2.99912 -25.6831 30.6079 -8.99735 -25.6831 30.6079 -14.9956 -22.1062 26.3452 -14.9956 -18.5294 22.0825 -14.9956 -14.9526 17.8198 -14.9956 -11.3758 13.5571 -14.9956 -7.79897 9.29445 -14.9956 -7.79897 9.29445 -8.99735 -7.79897 9.29445 -2.99912 -7.79897 9.29445 2.99912 -7.79897 9.29445 8.99735 -6.06652 10.5075 14.9956 -8.84879 15.3266 14.9956 -11.6311 20.1456 14.9956 -14.4133 24.9646 14.9956 -17.1956 29.7837 14.9956 -19.9779 34.6027 14.9956 -19.9779 34.6027 8.99735 -19.9779 34.6027 2.99912 -19.9779 34.6027 -2.99912 -19.9779 34.6027 -8.99735 -19.9779 34.6027 -14.9956 -17.1956 29.7837 -14.9956 -14.4133 24.9646 -14.9956 -11.6311 20.1456 -14.9956 -8.84879 15.3266 -14.9956 -6.06652 10.5075 -14.9956 -6.06652 10.5075 -8.99735 -6.06652 10.5075 -2.99912 -6.06652 10.5075 2.99912 -6.06652 10.5075 8.99735 -4.14974 11.4013 14.9956 -6.05293 16.6303 14.9956 -7.95611 21.8592 14.9956 -9.8593 27.0882 14.9956 -11.7625 32.3172 14.9956 -13.6657 37.5461 14.9956 -13.6657 37.5461 8.99735 -13.6657 37.5461 2.99912 -13.6657 37.5461 -2.99912 -13.6657 37.5461 -8.99735 -13.6657 37.5461 -14.9956 -11.7625 32.3172 -14.9956 -9.8593 27.0882 -14.9956 -7.95611 21.8592 -14.9956 -6.05293 16.6303 -14.9956 -4.14974 11.4013 -14.9956 -4.14974 11.4013 -8.99735 -4.14974 11.4013 -2.99912 -4.14974 11.4013 2.99912 -4.14974 11.4013 8.99735 -2.10688 11.9487 14.9956 -3.07315 17.4287 14.9956 -4.03942 22.9087 14.9956 -5.0057 28.3887 14.9956 -5.97197 33.8687 14.9956 -6.93824 39.3487 14.9956 -6.93824 39.3487 8.99735 -6.93824 39.3487 2.99912 -6.93824 39.3487 -2.99912 -6.93824 39.3487 -8.99735 -6.93824 39.3487 -14.9956 -5.97197 33.8687 -14.9956 -5.0057 28.3887 -14.9956 -4.03942 22.9087 -14.9956 -3.07315 17.4287 -14.9956 -2.10688 11.9487 -14.9956 -2.10688 11.9487 -8.99735 -2.10688 11.9487 -2.99912 -2.10688 11.9487 2.99912 -2.10688 11.9487 8.99735 -2.2288e-015 12.133 14.9956 -3.25099e-015 17.6976 14.9956 -4.27318e-015 23.2621 14.9956 -5.29537e-015 28.8267 14.9956 -6.31756e-015 34.3912 14.9956 -7.33975e-015 39.9557 14.9956 -7.33975e-015 39.9557 8.99735 -7.33975e-015 39.9557 2.99912 -7.33975e-015 39.9557 -2.99912 -7.33975e-015 39.9557 -8.99735 -7.33975e-015 39.9557 -14.9956 -6.31756e-015 34.3912 -14.9956 -5.29537e-015 28.8267 -14.9956 -4.27318e-015 23.2621 -14.9956 -3.25099e-015 17.6976 -14.9956 -2.2288e-015 12.133 -14.9956 -2.2288e-015 12.133 -8.99735 -2.2288e-015 12.133 -2.99912 -2.2288e-015 12.133 2.99912 -2.2288e-015 12.133 8.99735 2.10688 11.9487 14.9956 3.07315 17.4287 14.9956 4.03942 22.9087 14.9956 5.0057 28.3887 14.9956 5.97197 33.8687 14.9956 6.93824 39.3487 14.9956 6.93824 39.3487 8.99735 6.93824 39.3487 2.99912 6.93824 39.3487 -2.99912 6.93824 39.3487 -8.99735 6.93824 39.3487 -14.9956 5.97197 33.8687 -14.9956 5.0057 28.3887 -14.9956 4.03942 22.9087 -14.9956 3.07315 17.4287 -14.9956 2.10688 11.9487 -14.9956 2.10688 11.9487 -8.99735 2.10688 11.9487 -2.99912 2.10688 11.9487 2.99912 2.10688 11.9487 8.99735 4.14974 11.4013 14.9956 6.05293 16.6303 14.9956 7.95611 21.8592 14.9956 9.8593 27.0882 14.9956 11.7625 32.3172 14.9956 13.6657 37.5461 14.9956 13.6657 37.5461 8.99735 13.6657 37.5461 2.99912 13.6657 37.5461 -2.99912 13.6657 37.5461 -8.99735 13.6657 37.5461 -14.9956 11.7625 32.3172 -14.9956 9.8593 27.0882 -14.9956 7.95611 21.8592 -14.9956 6.05293 16.6303 -14.9956 4.14974 11.4013 -14.9956 4.14974 11.4013 -8.99735 4.14974 11.4013 -2.99912 4.14974 11.4013 2.99912 4.14974 11.4013 8.99735 6.06652 10.5075 14.9956 8.84879 15.3266 14.9956 11.6311 20.1456 14.9956 14.4133 24.9646 14.9956 17.1956 29.7837 14.9956 19.9779 34.6027 14.9956 19.9779 34.6027 8.99735 19.9779 34.6027 2.99912 19.9779 34.6027 -2.99912 19.9779 34.6027 -8.99735 19.9779 34.6027 -14.9956 17.1956 29.7837 -14.9956 14.4133 24.9646 -14.9956 11.6311 20.1456 -14.9956 8.84879 15.3266 -14.9956 6.06652 10.5075 -14.9956 6.06652 10.5075 -8.99735 6.06652 10.5075 -2.99912 6.06652 10.5075 2.99912 6.06652 10.5075 8.99735 7.79897 9.29445 14.9956 11.3758 13.5571 14.9956 14.9526 17.8198 14.9956 18.5294 22.0825 14.9956 22.1062 26.3452 14.9956 25.6831 30.6079 14.9956 25.6831 30.6079 8.99735 25.6831 30.6079 2.99912 25.6831 30.6079 -2.99912 25.6831 30.6079 -8.99735 25.6831 30.6079 -14.9956 22.1062 26.3452 -14.9956 18.5294 22.0825 -14.9956 14.9526 17.8198 -14.9956 11.3758 13.5571 -14.9956 7.79897 9.29445 -14.9956 7.79897 9.29445 -8.99735 7.79897 9.29445 -2.99912 7.79897 9.29445 2.99912 7.79897 9.29445 8.99735 9.29445 7.79897 14.9956 13.5571 11.3758 14.9956 17.8198 14.9526 14.9956 22.0825 18.5294 14.9956 26.3452 22.1062 14.9956 30.6079 25.6831 14.9956 30.6079 25.6831 8.99735 30.6079 25.6831 2.99912 30.6079 25.6831 -2.99912 30.6079 25.6831 -8.99735 30.6079 25.6831 -14.9956 26.3452 22.1062 -14.9956 22.0825 18.5294 -14.9956 17.8198 14.9526 -14.9956 13.5571 11.3758 -14.9956 9.29445 7.79897 -14.9956 9.29445 7.79897 -8.99735 9.29445 7.79897 -2.99912 9.29445 7.79897 2.99912 9.29445 7.79897 8.99735 10.5075 6.06652 14.9956 15.3266 8.84879 14.9956 20.1456 11.6311 14.9956 24.9646 14.4133 14.9956 29.7837 17.1956 14.9956 34.6027 19.9779 14.9956 34.6027 19.9779 8.99735 34.6027 19.9779 2.99912 34.6027 19.9779 -2.99912 34.6027 19.9779 -8.99735 34.6027 19.9779 -14.9956 29.7837 17.1956 -14.9956 24.9646 14.4133 -14.9956 20.1456 11.6311 -14.9956 15.3266 8.84879 -14.9956 10.5075 6.06652 -14.9956 10.5075 6.06652 -8.99735 10.5075 6.06652 -2.99912 10.5075 6.06652 2.99912 10.5075 6.06652 8.99735 11.4013 4.14974 14.9956 16.6303 6.05293 14.9956 21.8592 7.95611 14.9956 27.0882 9.8593 14.9956 32.3172 11.7625 14.9956 37.5461 13.6657 14.9956 37.5461 13.6657 8.99735 37.5461 13.6657 2.99912 37.5461 13.6657 -2.99912 37.5461 13.6657 -8.99735 37.5461 13.6657 -14.9956 32.3172 11.7625 -14.9956 27.0882 9.8593 -14.9956 21.8592 7.95611 -14.9956 16.6303 6.05293 -14.9956 11.4013 4.14974 -14.9956 11.4013 4.14974 -8.99735 11.4013 4.14974 -2.99912 11.4013 4.14974 2.99912 11.4013 4.14974 8.99735 11.9487 2.10688 14.9956 17.4287 3.07315 14.9956 22.9087 4.03942 14.9956 28.3887 5.0057 14.9956 33.8687 5.97197 14.9956 39.3487 6.93824 14.9956 39.3487 6.93824 8.99735 39.3487 6.93824 2.99912 39.3487 6.93824 -2.99912 39.3487 6.93824 -8.99735 39.3487 6.93824 -14.9956 33.8687 5.97197 -14.9956 28.3887 5.0057 -14.9956 22.9087 4.03942 -14.9956 17.4287 3.07315 -14.9956 11.9487 2.10688 -14.9956 11.9487 2.10688 -8.99735 11.9487 2.10688 -2.99912 11.9487 2.10688 2.99912 11.9487 2.10688 8.99735</float_array>
                    <technique_common>
                        <accessor count="720" source="#ID5" stride="3">
                            <param name="X" type="float"/>
                            <param name="Y" type="float"/>
                            <param name="Z" type="float"/>
                        </accessor>
                    </technique_common>
                </source>
                <source id="ID6">
                    <float_array id="ID7" count="294">0 0 1 1 0 -0 0.984808 -0.173648 -0 0 0 -1 -1 0 -0 -0.984808 0.173648 -0 -0.984808 0.173648 -0 0.939693 -0.34202 -0 0.939693 -0.34202 -0 -0.939693 0.34202 -0 0.866025 -0.5 -0 0.866025 -0.5 -0 -0.866025 0.5 -0 -0.866025 0.5 -0 0.766044 -0.642788 -0 0.766044 -0.642788 -0 -0.766044 0.642788 -0 -0.766044 0.642788 -0 0.642788 -0.766044 -0 -0.642788 0.766044 -0 0.5 -0.866025 -0 -0.5 0.866025 -0 -0.5 0.866025 -0 0.34202 -0.939693 -0 -0.34202 0.939693 -0 0.173648 -0.984808 -0 0.173648 -0.984808 -0 -0.173648 0.984808 -0 -0.173648 0.984808 -0 0 -1 -0 -1.86976e-009 -1 -0 1.86976e-009 1 -0 0 1 -0 -0.173648 -0.984808 -0 0.173648 0.984808 -0 0.173648 0.984808 -0 -0.34202 -0.939693 -0 -0.34202 -0.939693 -0 0.34202 0.939693 -0 -0.5 -0.866025 -0 -0.5 -0.866025 -0 0.5 0.866025 -0 0.5 0.866025 -0 -0.642788 -0.766044 -0 -0.642788 -0.766044 -0 0.642788 0.766044 -0 0.642788 0.766044 -0 -0.766044 -0.642788 -0 0.766044 0.642788 -0 -0.866025 -0.5 -0 0.866025 0.5 -0 0.866025 0.5 -0 -0.939693 -0.34202 -0 0.939693 0.34202 -0 -0.984808 -0.173648 -0 -0.984808 -0.173648 -0 0.984808 0.173648 -0 0.984808 0.173648 -0 -1 1.86976e-009 -0 1 -1.86976e-009 -0 -0.984808 0.173648 -0 0.984808 -0.173648 -0 0.984808 -0.173648 -0 -0.939693 0.34202 -0 -0.939693 0.34202 -0 0.939693 -0.34202 -0 -0.866025 0.5 -0 -0.866025 0.5 -0 0.866025 -0.5 -0 0.866025 -0.5 -0 -0.5 0.866025 -0 0.5 -0.866025 -0 0.5 -0.866025 -0 -0.34202 0.939693 -0 0.34202 -0.939693 -0 -0.173648 0.984808 -0 -0.173648 0.984808 -0 0.173648 -0.984808 -0 0.173648 -0.984808 -0 0.173648 0.984808 -0 -0.173648 -0.984808 -0 -0.173648 -0.984808 -0 0.34202 0.939693 -0 0.34202 0.939693 -0 -0.34202 -0.939693 -0 0.5 0.866025 -0 0.5 0.866025 -0 -0.5 -0.866025 -0 -0.5 -0.866025 -0 0.866025 0.5 -0 -0.866025 -0.5 -0 -0.866025 -0.5 -0 0.939693 0.34202 -0 -0.939693 -0.34202 -0 0.984808 0.173648 -0 0.984808 0.173648 -0 -0.984808 -0.173648 -0 -0.984808 -0.173648 -0</float_array>
                    <technique_common>
                        <accessor count="98" source="#ID7" stride="3">
                            <param name="X" type="float"/>
                            <param name="Y" type="float"/>
                            <param name="Z" type="float"/>
                        </accessor>
                    </technique_common>
                </source>
                <source id="ID8">
                    <float_array id="ID9" count="2">0 1</float_array>
                    <technique_common>
                        <accessor count="1" source="#ID9" stride="2">
                            <param name="S" type="float"/>
                            <param name="T" type="float"/>
                        </accessor>
                    </technique_common>
                </source>
                <vertices id="ID10">
                    <input semantic="POSITION" source="#ID4"/>
                </vertices>
                <triangles count="1440" material="">
                    <input offset="0" semantic="VERTEX" source="#ID10"/>
                    <input offset="1" semantic="NORMAL" source="#ID6"/>
                    <input offset="2" semantic="TEXCOORD" source="#ID8" set="0"/>
                    <p>21 0 0 1 0 0 0 0 0 20 0 0 21 0 0 0 0 0 22 0 0 2 0 0 1 0 0 21 0 0 22 0 0 1 0 0 23 0 0 3 0 0 2 0 0 22 0 0 23 0 0 2 0 0 24 0 0 4 0 0 3 0 0 23 0 0 24 0 0 3 0 0 25 0 0 5 0 0 4 0 0 24 0 0 25 0 0 4 0 0 26 2 0 6 1 0 5 1 0 25 2 0 26 2 0 5 1 0 27 2 0 7 1 0 6 1 0 26 2 0 27 2 0 6 1 0 28 2 0 8 1 0 7 1 0 27 2 0 28 2 0 7 1 0 29 2 0 9 1 0 8 1 0 28 2 0 29 2 0 8 1 0 30 2 0 10 1 0 9 1 0 29 2 0 30 2 0 9 1 0 31 3 0 11 3 0 10 3 0 30 3 0 31 3 0 10 3 0 32 3 0 12 3 0 11 3 0 31 3 0 32 3 0 11 3 0 33 3 0 13 3 0 12 3 0 32 3 0 33 3 0 12 3 0 34 3 0 14 3 0 13 3 0 33 3 0 34 3 0 13 3 0 35 3 0 15 3 0 14 3 0 34 3 0 35 3 0 14 3 0 36 5 0 16 4 0 15 4 0 35 6 0 36 5 0 15 4 0 37 5 0 17 4 0 16 4 0 36 5 0 37 5 0 16 4 0 38 5 0 18 4 0 17 4 0 37 5 0 38 5 0 17 4 0 39 5 0 19 4 0 18 4 0 38 5 0 39 5 0 18 4 0 20 6 0 0 4 0 19 4 0 39 5 0 20 6 0 19 4 0 41 0 0 21 0 0 20 0 0 40 0 0 41 0 0 20 0 0 42 0 0 22 0 0 21 0 0 41 0 0 42 0 0 21 0 0 43 0 0 23 0 0 22 0 0 42 0 0 43 0 0 22 0 0 44 0 0 24 0 0 23 0 0 43 0 0 44 0 0 23 0 0 45 0 0 25 0 0 24 0 0 44 0 0 45 0 0 24 0 0 46 7 0 26 2 0 25 2 0 45 8 0 46 7 0 25 2 0 47 7 0 27 2 0 26 2 0 46 7 0 47 7 0 26 2 0 48 7 0 28 2 0 27 2 0 47 7 0 48 7 0 27 2 0 49 7 0 29 2 0 28 2 0 48 7 0 49 7 0 28 2 0 50 8 0 30 2 0 29 2 0 49 7 0 50 8 0 29 2 0 51 3 0 31 3 0 30 3 0 50 3 0 51 3 0 30 3 0 52 3 0 32 3 0 31 3 0 51 3 0 52 3 0 31 3 0 53 3 0 33 3 0 32 3 0 52 3 0 53 3 0 32 3 0 54 3 0 34 3 0 33 3 0 53 3 0 54 3 0 33 3 0 55 3 0 35 3 0 34 3 0 54 3 0 55 3 0 34 3 0 56 9 0 36 5 0 35 6 0 55 9 0 56 9 0 35 6 0 57 9 0 37 5 0 36 5 0 56 9 0 57 9 0 36 5 0 58 9 0 38 5 0 37 5 0 57 9 0 58 9 0 37 5 0 59 9 0 39 5 0 38 5 0 58 9 0 59 9 0 38 5 0 40 9 0 20 6 0 39 5 0 59 9 0 40 9 0 39 5 0 61 0 0 41 0 0 40 0 0 60 0 0 61 0 0 40 0 0 62 0 0 42 0 0 41 0 0 61 0 0 62 0 0 41 0 0 63 0 0 43 0 0 42 0 0 62 0 0 63 0 0 42 0 0 64 0 0 44 0 0 43 0 0 63 0 0 64 0 0 43 0 0 65 0 0 45 0 0 44 0 0 64 0 0 65 0 0 44 0 0 66 10 0 46 7 0 45 8 0 65 10 0 66 10 0 45 8 0 67 11 0 47 7 0 46 7 0 66 10 0 67 11 0 46 7 0 68 11 0 48 7 0 47 7 0 67 11 0 68 11 0 47 7 0 69 10 0 49 7 0 48 7 0 68 11 0 69 10 0 48 7 0 70 10 0 50 8 0 49 7 0 69 10 0 70 10 0 49 7 0 71 3 0 51 3 0 50 3 0 70 3 0 71 3 0 50 3 0 72 3 0 52 3 0 51 3 0 71 3 0 72 3 0 51 3 0 73 3 0 53 3 0 52 3 0 72 3 0 73 3 0 52 3 0 74 3 0 54 3 0 53 3 0 73 3 0 74 3 0 53 3 0 75 3 0 55 3 0 54 3 0 74 3 0 75 3 0 54 3 0 76 12 0 56 9 0 55 9 0 75 13 0 76 12 0 55 9 0 77 12 0 57 9 0 56 9 0 76 12 0 77 12 0 56 9 0 78 12 0 58 9 0 57 9 0 77 12 0 78 12 0 57 9 0 79 12 0 59 9 0 58 9 0 78 12 0 79 12 0 58 9 0 60 13 0 40 9 0 59 9 0 79 12 0 60 13 0 59 9 0 81 0 0 61 0 0 60 0 0 80 0 0 81 0 0 60 0 0 82 0 0 62 0 0 61 0 0 81 0 0 82 0 0 61 0 0 83 0 0 63 0 0 62 0 0 82 0 0 83 0 0 62 0 0 84 0 0 64 0 0 63 0 0 83 0 0 84 0 0 63 0 0 85 0 0 65 0 0 64 0 0 84 0 0 85 0 0 64 0 0 86 14 0 66 10 0 65 10 0 85 15 0 86 14 0 65 10 0 87 14 0 67 11 0 66 10 0 86 14 0 87 14 0 66 10 0 88 14 0 68 11 0 67 11 0 87 14 0 88 14 0 67 11 0 89 14 0 69 10 0 68 11 0 88 14 0 89 14 0 68 11 0 90 15 0 70 10 0 69 10 0 89 14 0 90 15 0 69 10 0 91 3 0 71 3 0 70 3 0 90 3 0 91 3 0 70 3 0 92 3 0 72 3 0 71 3 0 91 3 0 92 3 0 71 3 0 93 3 0 73 3 0 72 3 0 92 3 0 93 3 0 72 3 0 94 3 0 74 3 0 73 3 0 93 3 0 94 3 0 73 3 0 95 3 0 75 3 0 74 3 0 94 3 0 95 3 0 74 3 0 96 16 0 76 12 0 75 13 0 95 17 0 96 16 0 75 13 0 97 16 0 77 12 0 76 12 0 96 16 0 97 16 0 76 12 0 98 16 0 78 12 0 77 12 0 97 16 0 98 16 0 77 12 0 99 16 0 79 12 0 78 12 0 98 16 0 99 16 0 78 12 0 80 17 0 60 13 0 79 12 0 99 16 0 80 17 0 79 12 0 101 0 0 81 0 0 80 0 0 100 0 0 101 0 0 80 0 0 102 0 0 82 0 0 81 0 0 101 0 0 102 0 0 81 0 0 103 0 0 83 0 0 82 0 0 102 0 0 103 0 0 82 0 0 104 0 0 84 0 0 83 0 0 103 0 0 104 0 0 83 0 0 105 0 0 85 0 0 84 0 0 104 0 0 105 0 0 84 0 0 106 18 0 86 14 0 85 15 0 105 18 0 106 18 0 85 15 0 107 18 0 87 14 0 86 14 0 106 18 0 107 18 0 86 14 0 108 18 0 88 14 0 87 14 0 107 18 0 108 18 0 87 14 0 109 18 0 89 14 0 88 14 0 108 18 0 109 18 0 88 14 0 110 18 0 90 15 0 89 14 0 109 18 0 110 18 0 89 14 0 111 3 0 91 3 0 90 3 0 110 3 0 111 3 0 90 3 0 112 3 0 92 3 0 91 3 0 111 3 0 112 3 0 91 3 0 113 3 0 93 3 0 92 3 0 112 3 0 113 3 0 92 3 0 114 3 0 94 3 0 93 3 0 113 3 0 114 3 0 93 3 0 115 3 0 95 3 0 94 3 0 114 3 0 115 3 0 94 3 0 116 19 0 96 16 0 95 17 0 115 19 0 116 19 0 95 17 0 117 19 0 97 16 0 96 16 0 116 19 0 117 19 0 96 16 0 118 19 0 98 16 0 97 16 0 117 19 0 118 19 0 97 16 0 119 19 0 99 16 0 98 16 0 118 19 0 119 19 0 98 16 0 100 19 0 80 17 0 99 16 0 119 19 0 100 19 0 99 16 0 121 0 0 101 0 0 100 0 0 120 0 0 121 0 0 100 0 0 122 0 0 102 0 0 101 0 0 121 0 0 122 0 0 101 0 0 123 0 0 103 0 0 102 0 0 122 0 0 123 0 0 102 0 0 124 0 0 104 0 0 103 0 0 123 0 0 124 0 0 103 0 0 125 0 0 105 0 0 104 0 0 124 0 0 125 0 0 104 0 0 126 20 0 106 18 0 105 18 0 125 20 0 126 20 0 105 18 0 127 20 0 107 18 0 106 18 0 126 20 0 127 20 0 106 18 0 128 20 0 108 18 0 107 18 0 127 20 0 128 20 0 107 18 0 129 20 0 109 18 0 108 18 0 128 20 0 129 20 0 108 18 0 130 20 0 110 18 0 109 18 0 129 20 0 130 20 0 109 18 0 131 3 0 111 3 0 110 3 0 130 3 0 131 3 0 110 3 0 132 3 0 112 3 0 111 3 0 131 3 0 132 3 0 111 3 0 133 3 0 113 3 0 112 3 0 132 3 0 133 3 0 112 3 0 134 3 0 114 3 0 113 3 0 133 3 0 134 3 0 113 3 0 135 3 0 115 3 0 114 3 0 134 3 0 135 3 0 114 3 0 136 21 0 116 19 0 115 19 0 135 22 0 136 21 0 115 19 0 137 21 0 117 19 0 116 19 0 136 21 0 137 21 0 116 19 0 138 21 0 118 19 0 117 19 0 137 21 0 138 21 0 117 19 0 139 21 0 119 19 0 118 19 0 138 21 0 139 21 0 118 19 0 120 22 0 100 19 0 119 19 0 139 21 0 120 22 0 119 19 0 141 0 0 121 0 0 120 0 0 140 0 0 141 0 0 120 0 0 142 0 0 122 0 0 121 0 0 141 0 0 142 0 0 121 0 0 143 0 0 123 0 0 122 0 0 142 0 0 143 0 0 122 0 0 144 0 0 124 0 0 123 0 0 143 0 0 144 0 0 123 0 0 145 0 0 125 0 0 124 0 0 144 0 0 145 0 0 124 0 0 146 23 0 126 20 0 125 20 0 145 23 0 146 23 0 125 20 0 147 23 0 127 20 0 126 20 0 146 23 0 147 23 0 126 20 0 148 23 0 128 20 0 127 20 0 147 23 0 148 23 0 127 20 0 149 23 0 129 20 0 128 20 0 148 23 0 149 23 0 128 20 0 150 23 0 130 20 0 129 20 0 149 23 0 150 23 0 129 20 0 151 3 0 131 3 0 130 3 0 150 3 0 151 3 0 130 3 0 152 3 0 132 3 0 131 3 0 151 3 0 152 3 0 131 3 0 153 3 0 133 3 0 132 3 0 152 3 0 153 3 0 132 3 0 154 3 0 134 3 0 133 3 0 153 3 0 154 3 0 133 3 0 155 3 0 135 3 0 134 3 0 154 3 0 155 3 0 134 3 0 156 24 0 136 21 0 135 22 0 155 24 0 156 24 0 135 22 0 157 24 0 137 21 0 136 21 0 156 24 0 157 24 0 136 21 0 158 24 0 138 21 0 137 21 0 157 24 0 158 24 0 137 21 0 159 24 0 139 21 0 138 21 0 158 24 0 159 24 0 138 21 0 140 24 0 120 22 0 139 21 0 159 24 0 140 24 0 139 21 0 161 0 0 141 0 0 140 0 0 160 0 0 161 0 0 140 0 0 162 0 0 142 0 0 141 0 0 161 0 0 162 0 0 141 0 0 163 0 0 143 0 0 142 0 0 162 0 0 163 0 0 142 0 0 164 0 0 144 0 0 143 0 0 163 0 0 164 0 0 143 0 0 165 0 0 145 0 0 144 0 0 164 0 0 165 0 0 144 0 0 166 25 0 146 23 0 145 23 0 165 26 0 166 25 0 145 23 0 167 25 0 147 23 0 146 23 0 166 25 0 167 25 0 146 23 0 168 25 0 148 23 0 147 23 0 167 25 0 168 25 0 147 23 0 169 25 0 149 23 0 148 23 0 168 25 0 169 25 0 148 23 0 170 26 0 150 23 0 149 23 0 169 25 0 170 26 0 149 23 0 171 3 0 151 3 0 150 3 0 170 3 0 171 3 0 150 3 0 172 3 0 152 3 0 151 3 0 171 3 0 172 3 0 151 3 0 173 3 0 153 3 0 152 3 0 172 3 0 173 3 0 152 3 0 174 3 0 154 3 0 153 3 0 173 3 0 174 3 0 153 3 0 175 3 0 155 3 0 154 3 0 174 3 0 175 3 0 154 3 0 176 27 0 156 24 0 155 24 0 175 28 0 176 27 0 155 24 0 177 27 0 157 24 0 156 24 0 176 27 0 177 27 0 156 24 0 178 27 0 158 24 0 157 24 0 177 27 0 178 27 0 157 24 0 179 27 0 159 24 0 158 24 0 178 27 0 179 27 0 158 24 0 160 28 0 140 24 0 159 24 0 179 27 0 160 28 0 159 24 0 181 0 0 161 0 0 160 0 0 180 0 0 181 0 0 160 0 0 182 0 0 162 0 0 161 0 0 181 0 0 182 0 0 161 0 0 183 0 0 163 0 0 162 0 0 182 0 0 183 0 0 162 0 0 184 0 0 164 0 0 163 0 0 183 0 0 184 0 0 163 0 0 185 0 0 165 0 0 164 0 0 184 0 0 185 0 0 164 0 0 186 29 0 166 25 0 165 26 0 185 29 0 186 29 0 165 26 0 187 30 0 167 25 0 166 25 0 186 29 0 187 30 0 166 25 0 188 30 0 168 25 0 167 25 0 187 30 0 188 30 0 167 25 0 189 29 0 169 25 0 168 25 0 188 30 0 189 29 0 168 25 0 190 29 0 170 26 0 169 25 0 189 29 0 190 29 0 169 25 0 191 3 0 171 3 0 170 3 0 190 3 0 191 3 0 170 3 0 192 3 0 172 3 0 171 3 0 191 3 0 192 3 0 171 3 0 193 3 0 173 3 0 172 3 0 192 3 0 193 3 0 172 3 0 194 3 0 174 3 0 173 3 0 193 3 0 194 3 0 173 3 0 195 3 0 175 3 0 174 3 0 194 3 0 195 3 0 174 3 0 196 31 0 176 27 0 175 28 0 195 32 0 196 31 0 175 28 0 197 32 0 177 27 0 176 27 0 196 31 0 197 32 0 176 27 0 198 32 0 178 27 0 177 27 0 197 32 0 198 32 0 177 27 0 199 31 0 179 27 0 178 27 0 198 32 0 199 31 0 178 27 0 180 32 0 160 28 0 179 27 0 199 31 0 180 32 0 179 27 0 201 0 0 181 0 0 180 0 0 200 0 0 201 0 0 180 0 0 202 0 0 182 0 0 181 0 0 201 0 0 202 0 0 181 0 0 203 0 0 183 0 0 182 0 0 202 0 0 203 0 0 182 0 0 204 0 0 184 0 0 183 0 0 203 0 0 204 0 0 183 0 0 205 0 0 185 0 0 184 0 0 204 0 0 205 0 0 184 0 0 206 33 0 186 29 0 185 29 0 205 33 0 206 33 0 185 29 0 207 33 0 187 30 0 186 29 0 206 33 0 207 33 0 186 29 0 208 33 0 188 30 0 187 30 0 207 33 0 208 33 0 187 30 0 209 33 0 189 29 0 188 30 0 208 33 0 209 33 0 188 30 0 210 33 0 190 29 0 189 29 0 209 33 0 210 33 0 189 29 0 211 3 0 191 3 0 190 3 0 210 3 0 211 3 0 190 3 0 212 3 0 192 3 0 191 3 0 211 3 0 212 3 0 191 3 0 213 3 0 193 3 0 192 3 0 212 3 0 213 3 0 192 3 0 214 3 0 194 3 0 193 3 0 213 3 0 214 3 0 193 3 0 215 3 0 195 3 0 194 3 0 214 3 0 215 3 0 194 3 0 216 34 0 196 31 0 195 32 0 215 35 0 216 34 0 195 32 0 217 34 0 197 32 0 196 31 0 216 34 0 217 34 0 196 31 0 218 34 0 198 32 0 197 32 0 217 34 0 218 34 0 197 32 0 219 34 0 199 31 0 198 32 0 218 34 0 219 34 0 198 32 0 200 35 0 180 32 0 199 31 0 219 34 0 200 35 0 199 31 0 221 0 0 201 0 0 200 0 0 220 0 0 221 0 0 200 0 0 222 0 0 202 0 0 201 0 0 221 0 0 222 0 0 201 0 0 223 0 0 203 0 0 202 0 0 222 0 0 223 0 0 202 0 0 224 0 0 204 0 0 203 0 0 223 0 0 224 0 0 203 0 0 225 0 0 205 0 0 204 0 0 224 0 0 225 0 0 204 0 0 226 36 0 206 33 0 205 33 0 225 37 0 226 36 0 205 33 0 227 36 0 207 33 0 206 33 0 226 36 0 227 36 0 206 33 0 228 36 0 208 33 0 207 33 0 227 36 0 228 36 0 207 33 0 229 36 0 209 33 0 208 33 0 228 36 0 229 36 0 208 33 0 230 37 0 210 33 0 209 33 0 229 36 0 230 37 0 209 33 0 231 3 0 211 3 0 210 3 0 230 3 0 231 3 0 210 3 0 232 3 0 212 3 0 211 3 0 231 3 0 232 3 0 211 3 0 233 3 0 213 3 0 212 3 0 232 3 0 233 3 0 212 3 0 234 3 0 214 3 0 213 3 0 233 3 0 234 3 0 213 3 0 235 3 0 215 3 0 214 3 0 234 3 0 235 3 0 214 3 0 236 38 0 216 34 0 215 35 0 235 38 0 236 38 0 215 35 0 237 38 0 217 34 0 216 34 0 236 38 0 237 38 0 216 34 0 238 38 0 218 34 0 217 34 0 237 38 0 238 38 0 217 34 0 239 38 0 219 34 0 218 34 0 238 38 0 239 38 0 218 34 0 220 38 0 200 35 0 219 34 0 239 38 0 220 38 0 219 34 0 241 0 0 221 0 0 220 0 0 240 0 0 241 0 0 220 0 0 242 0 0 222 0 0 221 0 0 241 0 0 242 0 0 221 0 0 243 0 0 223 0 0 222 0 0 242 0 0 243 0 0 222 0 0 244 0 0 224 0 0 223 0 0 243 0 0 244 0 0 223 0 0 245 0 0 225 0 0 224 0 0 244 0 0 245 0 0 224 0 0 246 39 0 226 36 0 225 37 0 245 39 0 246 39 0 225 37 0 247 40 0 227 36 0 226 36 0 246 39 0 247 40 0 226 36 0 248 40 0 228 36 0 227 36 0 247 40 0 248 40 0 227 36 0 249 39 0 229 36 0 228 36 0 248 40 0 249 39 0 228 36 0 250 39 0 230 37 0 229 36 0 249 39 0 250 39 0 229 36 0 251 3 0 231 3 0 230 3 0 250 3 0 251 3 0 230 3 0 252 3 0 232 3 0 231 3 0 251 3 0 252 3 0 231 3 0 253 3 0 233 3 0 232 3 0 252 3 0 253 3 0 232 3 0 254 3 0 234 3 0 233 3 0 253 3 0 254 3 0 233 3 0 255 3 0 235 3 0 234 3 0 254 3 0 255 3 0 234 3 0 256 41 0 236 38 0 235 38 0 255 42 0 256 41 0 235 38 0 257 41 0 237 38 0 236 38 0 256 41 0 257 41 0 236 38 0 258 41 0 238 38 0 237 38 0 257 41 0 258 41 0 237 38 0 259 41 0 239 38 0 238 38 0 258 41 0 259 41 0 238 38 0 240 42 0 220 38 0 239 38 0 259 41 0 240 42 0 239 38 0 261 0 0 241 0 0 240 0 0 260 0 0 261 0 0 240 0 0 262 0 0 242 0 0 241 0 0 261 0 0 262 0 0 241 0 0 263 0 0 243 0 0 242 0 0 262 0 0 263 0 0 242 0 0 264 0 0 244 0 0 243 0 0 263 0 0 264 0 0 243 0 0 265 0 0 245 0 0 244 0 0 264 0 0 265 0 0 244 0 0 266 43 0 246 39 0 245 39 0 265 44 0 266 43 0 245 39 0 267 43 0 247 40 0 246 39 0 266 43 0 267 43 0 246 39 0 268 43 0 248 40 0 247 40 0 267 43 0 268 43 0 247 40 0 269 43 0 249 39 0 248 40 0 268 43 0 269 43 0 248 40 0 270 44 0 250 39 0 249 39 0 269 43 0 270 44 0 249 39 0 271 3 0 251 3 0 250 3 0 270 3 0 271 3 0 250 3 0 272 3 0 252 3 0 251 3 0 271 3 0 272 3 0 251 3 0 273 3 0 253 3 0 252 3 0 272 3 0 273 3 0 252 3 0 274 3 0 254 3 0 253 3 0 273 3 0 274 3 0 253 3 0 275 3 0 255 3 0 254 3 0 274 3 0 275 3 0 254 3 0 276 45 0 256 41 0 255 42 0 275 46 0 276 45 0 255 42 0 277 45 0 257 41 0 256 41 0 276 45 0 277 45 0 256 41 0 278 45 0 258 41 0 257 41 0 277 45 0 278 45 0 257 41 0 279 45 0 259 41 0 258 41 0 278 45 0 279 45 0 258 41 0 260 46 0 240 42 0 259 41 0 279 45 0 260 46 0 259 41 0 281 0 0 261 0 0 260 0 0 280 0 0 281 0 0 260 0 0 282 0 0 262 0 0 261 0 0 281 0 0 282 0 0 261 0 0 283 0 0 263 0 0 262 0 0 282 0 0 283 0 0 262 0 0 284 0 0 264 0 0 263 0 0 283 0 0 284 0 0 263 0 0 285 0 0 265 0 0 264 0 0 284 0 0 285 0 0 264 0 0 286 47 0 266 43 0 265 44 0 285 47 0 286 47 0 265 44 0 287 47 0 267 43 0 266 43 0 286 47 0 287 47 0 266 43 0 288 47 0 268 43 0 267 43 0 287 47 0 288 47 0 267 43 0 289 47 0 269 43 0 268 43 0 288 47 0 289 47 0 268 43 0 290 47 0 270 44 0 269 43 0 289 47 0 290 47 0 269 43 0 291 3 0 271 3 0 270 3 0 290 3 0 291 3 0 270 3 0 292 3 0 272 3 0 271 3 0 291 3 0 292 3 0 271 3 0 293 3 0 273 3 0 272 3 0 292 3 0 293 3 0 272 3 0 294 3 0 274 3 0 273 3 0 293 3 0 294 3 0 273 3 0 295 3 0 275 3 0 274 3 0 294 3 0 295 3 0 274 3 0 296 48 0 276 45 0 275 46 0 295 48 0 296 48 0 275 46 0 297 48 0 277 45 0 276 45 0 296 48 0 297 48 0 276 45 0 298 48 0 278 45 0 277 45 0 297 48 0 298 48 0 277 45 0 299 48 0 279 45 0 278 45 0 298 48 0 299 48 0 278 45 0 280 48 0 260 46 0 279 45 0 299 48 0 280 48 0 279 45 0 301 0 0 281 0 0 280 0 0 300 0 0 301 0 0 280 0 0 302 0 0 282 0 0 281 0 0 301 0 0 302 0 0 281 0 0 303 0 0 283 0 0 282 0 0 302 0 0 303 0 0 282 0 0 304 0 0 284 0 0 283 0 0 303 0 0 304 0 0 283 0 0 305 0 0 285 0 0 284 0 0 304 0 0 305 0 0 284 0 0 306 49 0 286 47 0 285 47 0 305 49 0 306 49 0 285 47 0 307 49 0 287 47 0 286 47 0 306 49 0 307 49 0 286 47 0 308 49 0 288 47 0 287 47 0 307 49 0 308 49 0 287 47 0 309 49 0 289 47 0 288 47 0 308 49 0 309 49 0 288 47 0 310 49 0 290 47 0 289 47 0 309 49 0 310 49 0 289 47 0 311 3 0 291 3 0 290 3 0 310 3 0 311 3 0 290 3 0 312 3 0 292 3 0 291 3 0 311 3 0 312 3 0 291 3 0 313 3 0 293 3 0 292 3 0 312 3 0 313 3 0 292 3 0 314 3 0 294 3 0 293 3 0 313 3 0 314 3 0 293 3 0 315 3 0 295 3 0 294 3 0 314 3 0 315 3 0 294 3 0 316 50 0 296 48 0 295 48 0 315 51 0 316 50 0 295 48 0 317 50 0 297 48 0 296 48 0 316 50 0 317 50 0 296 48 0 318 50 0 298 48 0 297 48 0 317 50 0 318 50 0 297 48 0 319 50 0 299 48 0 298 48 0 318 50 0 319 50 0 298 48 0 300 51 0 280 48 0 299 48 0 319 50 0 300 51 0 299 48 0 321 0 0 301 0 0 300 0 0 320 0 0 321 0 0 300 0 0 322 0 0 302 0 0 301 0 0 321 0 0 322 0 0 301 0 0 323 0 0 303 0 0 302 0 0 322 0 0 323 0 0 302 0 0 324 0 0 304 0 0 303 0 0 323 0 0 324 0 0 303 0 0 325 0 0 305 0 0 304 0 0 324 0 0 325 0 0 304 0 0 326 52 0 306 49 0 305 49 0 325 52 0 326 52 0 305 49 0 327 52 0 307 49 0 306 49 0 326 52 0 327 52 0 306 49 0 328 52 0 308 49 0 307 49 0 327 52 0 328 52 0 307 49 0 329 52 0 309 49 0 308 49 0 328 52 0 329 52 0 308 49 0 330 52 0 310 49 0 309 49 0 329 52 0 330 52 0 309 49 0 331 3 0 311 3 0 310 3 0 330 3 0 331 3 0 310 3 0 332 3 0 312 3 0 311 3 0 331 3 0 332 3 0 311 3 0 333 3 0 313 3 0 312 3 0 332 3 0 333 3 0 312 3 0 334 3 0 314 3 0 313 3 0 333 3 0 334 3 0 313 3 0 335 3 0 315 3 0 314 3 0 334 3 0 335 3 0 314 3 0 336 53 0 316 50 0 315 51 0 335 53 0 336 53 0 315 51 0 337 53 0 317 50 0 316 50 0 336 53 0 337 53 0 316 50 0 338 53 0 318 50 0 317 50 0 337 53 0 338 53 0 317 50 0 339 53 0 319 50 0 318 50 0 338 53 0 339 53 0 318 50 0 320 53 0 300 51 0 319 50 0 339 53 0 320 53 0 319 50 0 341 0 0 321 0 0 320 0 0 340 0 0 341 0 0 320 0 0 342 0 0 322 0 0 321 0 0 341 0 0 342 0 0 321 0 0 343 0 0 323 0 0 322 0 0 342 0 0 343 0 0 322 0 0 344 0 0 324 0 0 323 0 0 343 0 0 344 0 0 323 0 0 345 0 0 325 0 0 324 0 0 344 0 0 345 0 0 324 0 0 346 54 0 326 52 0 325 52 0 345 55 0 346 54 0 325 52 0 347 54 0 327 52 0 326 52 0 346 54 0 347 54 0 326 52 0 348 54 0 328 52 0 327 52 0 347 54 0 348 54 0 327 52 0 349 54 0 329 52 0 328 52 0 348 54 0 349 54 0 328 52 0 350 55 0 330 52 0 329 52 0 349 54 0 350 55 0 329 52 0 351 3 0 331 3 0 330 3 0 350 3 0 351 3 0 330 3 0 352 3 0 332 3 0 331 3 0 351 3 0 352 3 0 331 3 0 353 3 0 333 3 0 332 3 0 352 3 0 353 3 0 332 3 0 354 3 0 334 3 0 333 3 0 353 3 0 354 3 0 333 3 0 355 3 0 335 3 0 334 3 0 354 3 0 355 3 0 334 3 0 356 56 0 336 53 0 335 53 0 355 57 0 356 56 0 335 53 0 357 56 0 337 53 0 336 53 0 356 56 0 357 56 0 336 53 0 358 56 0 338 53 0 337 53 0 357 56 0 358 56 0 337 53 0 359 56 0 339 53 0 338 53 0 358 56 0 359 56 0 338 53 0 340 57 0 320 53 0 339 53 0 359 56 0 340 57 0 339 53 0 361 0 0 341 0 0 340 0 0 360 0 0 361 0 0 340 0 0 362 0 0 342 0 0 341 0 0 361 0 0 362 0 0 341 0 0 363 0 0 343 0 0 342 0 0 362 0 0 363 0 0 342 0 0 364 0 0 344 0 0 343 0 0 363 0 0 364 0 0 343 0 0 365 0 0 345 0 0 344 0 0 364 0 0 365 0 0 344 0 0 366 4 0 346 54 0 345 55 0 365 4 0 366 4 0 345 55 0 367 58 0 347 54 0 346 54 0 366 4 0 367 58 0 346 54 0 368 58 0 348 54 0 347 54 0 367 58 0 368 58 0 347 54 0 369 4 0 349 54 0 348 54 0 368 58 0 369 4 0 348 54 0 370 4 0 350 55 0 349 54 0 369 4 0 370 4 0 349 54 0 371 3 0 351 3 0 350 3 0 370 3 0 371 3 0 350 3 0 372 3 0 352 3 0 351 3 0 371 3 0 372 3 0 351 3 0 373 3 0 353 3 0 352 3 0 372 3 0 373 3 0 352 3 0 374 3 0 354 3 0 353 3 0 373 3 0 374 3 0 353 3 0 375 3 0 355 3 0 354 3 0 374 3 0 375 3 0 354 3 0 376 59 0 356 56 0 355 57 0 375 1 0 376 59 0 355 57 0 377 1 0 357 56 0 356 56 0 376 59 0 377 1 0 356 56 0 378 1 0 358 56 0 357 56 0 377 1 0 378 1 0 357 56 0 379 59 0 359 56 0 358 56 0 378 1 0 379 59 0 358 56 0 360 1 0 340 57 0 359 56 0 379 59 0 360 1 0 359 56 0 381 0 0 361 0 0 360 0 0 380 0 0 381 0 0 360 0 0 382 0 0 362 0 0 361 0 0 381 0 0 382 0 0 361 0 0 383 0 0 363 0 0 362 0 0 382 0 0 383 0 0 362 0 0 384 0 0 364 0 0 363 0 0 383 0 0 384 0 0 363 0 0 385 0 0 365 0 0 364 0 0 384 0 0 385 0 0 364 0 0 386 60 0 366 4 0 365 4 0 385 60 0 386 60 0 365 4 0 387 60 0 367 58 0 366 4 0 386 60 0 387 60 0 366 4 0 388 60 0 368 58 0 367 58 0 387 60 0 388 60 0 367 58 0 389 60 0 369 4 0 368 58 0 388 60 0 389 60 0 368 58 0 390 60 0 370 4 0 369 4 0 389 60 0 390 60 0 369 4 0 391 3 0 371 3 0 370 3 0 390 3 0 391 3 0 370 3 0 392 3 0 372 3 0 371 3 0 391 3 0 392 3 0 371 3 0 393 3 0 373 3 0 372 3 0 392 3 0 393 3 0 372 3 0 394 3 0 374 3 0 373 3 0 393 3 0 394 3 0 373 3 0 395 3 0 375 3 0 374 3 0 394 3 0 395 3 0 374 3 0 396 61 0 376 59 0 375 1 0 395 62 0 396 61 0 375 1 0 397 61 0 377 1 0 376 59 0 396 61 0 397 61 0 376 59 0 398 61 0 378 1 0 377 1 0 397 61 0 398 61 0 377 1 0 399 61 0 379 59 0 378 1 0 398 61 0 399 61 0 378 1 0 380 62 0 360 1 0 379 59 0 399 61 0 380 62 0 379 59 0 401 0 0 381 0 0 380 0 0 400 0 0 401 0 0 380 0 0 402 0 0 382 0 0 381 0 0 401 0 0 402 0 0 381 0 0 403 0 0 383 0 0 382 0 0 402 0 0 403 0 0 382 0 0 404 0 0 384 0 0 383 0 0 403 0 0 404 0 0 383 0 0 405 0 0 385 0 0 384 0 0 404 0 0 405 0 0 384 0 0 406 63 0 386 60 0 385 60 0 405 64 0 406 63 0 385 60 0 407 63 0 387 60 0 386 60 0 406 63 0 407 63 0 386 60 0 408 63 0 388 60 0 387 60 0 407 63 0 408 63 0 387 60 0 409 63 0 389 60 0 388 60 0 408 63 0 409 63 0 388 60 0 410 64 0 390 60 0 389 60 0 409 63 0 410 64 0 389 60 0 411 3 0 391 3 0 390 3 0 410 3 0 411 3 0 390 3 0 412 3 0 392 3 0 391 3 0 411 3 0 412 3 0 391 3 0 413 3 0 393 3 0 392 3 0 412 3 0 413 3 0 392 3 0 414 3 0 394 3 0 393 3 0 413 3 0 414 3 0 393 3 0 415 3 0 395 3 0 394 3 0 414 3 0 415 3 0 394 3 0 416 65 0 396 61 0 395 62 0 415 65 0 416 65 0 395 62 0 417 65 0 397 61 0 396 61 0 416 65 0 417 65 0 396 61 0 418 65 0 398 61 0 397 61 0 417 65 0 418 65 0 397 61 0 419 65 0 399 61 0 398 61 0 418 65 0 419 65 0 398 61 0 400 65 0 380 62 0 399 61 0 419 65 0 400 65 0 399 61 0 421 0 0 401 0 0 400 0 0 420 0 0 421 0 0 400 0 0 422 0 0 402 0 0 401 0 0 421 0 0 422 0 0 401 0 0 423 0 0 403 0 0 402 0 0 422 0 0 423 0 0 402 0 0 424 0 0 404 0 0 403 0 0 423 0 0 424 0 0 403 0 0 425 0 0 405 0 0 404 0 0 424 0 0 425 0 0 404 0 0 426 66 0 406 63 0 405 64 0 425 66 0 426 66 0 405 64 0 427 67 0 407 63 0 406 63 0 426 66 0 427 67 0 406 63 0 428 67 0 408 63 0 407 63 0 427 67 0 428 67 0 407 63 0 429 66 0 409 63 0 408 63 0 428 67 0 429 66 0 408 63 0 430 66 0 410 64 0 409 63 0 429 66 0 430 66 0 409 63 0 431 3 0 411 3 0 410 3 0 430 3 0 431 3 0 410 3 0 432 3 0 412 3 0 411 3 0 431 3 0 432 3 0 411 3 0 433 3 0 413 3 0 412 3 0 432 3 0 433 3 0 412 3 0 434 3 0 414 3 0 413 3 0 433 3 0 434 3 0 413 3 0 435 3 0 415 3 0 414 3 0 434 3 0 435 3 0 414 3 0 436 68 0 416 65 0 415 65 0 435 69 0 436 68 0 415 65 0 437 68 0 417 65 0 416 65 0 436 68 0 437 68 0 416 65 0 438 68 0 418 65 0 417 65 0 437 68 0 438 68 0 417 65 0 439 68 0 419 65 0 418 65 0 438 68 0 439 68 0 418 65 0 420 69 0 400 65 0 419 65 0 439 68 0 420 69 0 419 65 0 441 0 0 421 0 0 420 0 0 440 0 0 441 0 0 420 0 0 442 0 0 422 0 0 421 0 0 441 0 0 442 0 0 421 0 0 443 0 0 423 0 0 422 0 0 442 0 0 443 0 0 422 0 0 444 0 0 424 0 0 423 0 0 443 0 0 444 0 0 423 0 0 445 0 0 425 0 0 424 0 0 444 0 0 445 0 0 424 0 0 446 16 0 426 66 0 425 66 0 445 17 0 446 16 0 425 66 0 447 16 0 427 67 0 426 66 0 446 16 0 447 16 0 426 66 0 448 16 0 428 67 0 427 67 0 447 16 0 448 16 0 427 67 0 449 16 0 429 66 0 428 67 0 448 16 0 449 16 0 428 67 0 450 17 0 430 66 0 429 66 0 449 16 0 450 17 0 429 66 0 451 3 0 431 3 0 430 3 0 450 3 0 451 3 0 430 3 0 452 3 0 432 3 0 431 3 0 451 3 0 452 3 0 431 3 0 453 3 0 433 3 0 432 3 0 452 3 0 453 3 0 432 3 0 454 3 0 434 3 0 433 3 0 453 3 0 454 3 0 433 3 0 455 3 0 435 3 0 434 3 0 454 3 0 455 3 0 434 3 0 456 14 0 436 68 0 435 69 0 455 15 0 456 14 0 435 69 0 457 14 0 437 68 0 436 68 0 456 14 0 457 14 0 436 68 0 458 14 0 438 68 0 437 68 0 457 14 0 458 14 0 437 68 0 459 14 0 439 68 0 438 68 0 458 14 0 459 14 0 438 68 0 440 15 0 420 69 0 439 68 0 459 14 0 440 15 0 439 68 0 461 0 0 441 0 0 440 0 0 460 0 0 461 0 0 440 0 0 462 0 0 442 0 0 441 0 0 461 0 0 462 0 0 441 0 0 463 0 0 443 0 0 442 0 0 462 0 0 463 0 0 442 0 0 464 0 0 444 0 0 443 0 0 463 0 0 464 0 0 443 0 0 465 0 0 445 0 0 444 0 0 464 0 0 465 0 0 444 0 0 466 19 0 446 16 0 445 17 0 465 19 0 466 19 0 445 17 0 467 19 0 447 16 0 446 16 0 466 19 0 467 19 0 446 16 0 468 19 0 448 16 0 447 16 0 467 19 0 468 19 0 447 16 0 469 19 0 449 16 0 448 16 0 468 19 0 469 19 0 448 16 0 470 19 0 450 17 0 449 16 0 469 19 0 470 19 0 449 16 0 471 3 0 451 3 0 450 3 0 470 3 0 471 3 0 450 3 0 472 3 0 452 3 0 451 3 0 471 3 0 472 3 0 451 3 0 473 3 0 453 3 0 452 3 0 472 3 0 473 3 0 452 3 0 474 3 0 454 3 0 453 3 0 473 3 0 474 3 0 453 3 0 475 3 0 455 3 0 454 3 0 474 3 0 475 3 0 454 3 0 476 18 0 456 14 0 455 15 0 475 18 0 476 18 0 455 15 0 477 18 0 457 14 0 456 14 0 476 18 0 477 18 0 456 14 0 478 18 0 458 14 0 457 14 0 477 18 0 478 18 0 457 14 0 479 18 0 459 14 0 458 14 0 478 18 0 479 18 0 458 14 0 460 18 0 440 15 0 459 14 0 479 18 0 460 18 0 459 14 0 481 0 0 461 0 0 460 0 0 480 0 0 481 0 0 460 0 0 482 0 0 462 0 0 461 0 0 481 0 0 482 0 0 461 0 0 483 0 0 463 0 0 462 0 0 482 0 0 483 0 0 462 0 0 484 0 0 464 0 0 463 0 0 483 0 0 484 0 0 463 0 0 485 0 0 465 0 0 464 0 0 484 0 0 485 0 0 464 0 0 486 70 0 466 19 0 465 19 0 485 70 0 486 70 0 465 19 0 487 70 0 467 19 0 466 19 0 486 70 0 487 70 0 466 19 0 488 70 0 468 19 0 467 19 0 487 70 0 488 70 0 467 19 0 489 70 0 469 19 0 468 19 0 488 70 0 489 70 0 468 19 0 490 70 0 470 19 0 469 19 0 489 70 0 490 70 0 469 19 0 491 3 0 471 3 0 470 3 0 490 3 0 491 3 0 470 3 0 492 3 0 472 3 0 471 3 0 491 3 0 492 3 0 471 3 0 493 3 0 473 3 0 472 3 0 492 3 0 493 3 0 472 3 0 494 3 0 474 3 0 473 3 0 493 3 0 494 3 0 473 3 0 495 3 0 475 3 0 474 3 0 494 3 0 495 3 0 474 3 0 496 71 0 476 18 0 475 18 0 495 72 0 496 71 0 475 18 0 497 71 0 477 18 0 476 18 0 496 71 0 497 71 0 476 18 0 498 71 0 478 18 0 477 18 0 497 71 0 498 71 0 477 18 0 499 71 0 479 18 0 478 18 0 498 71 0 499 71 0 478 18 0 480 72 0 460 18 0 479 18 0 499 71 0 480 72 0 479 18 0 501 0 0 481 0 0 480 0 0 500 0 0 501 0 0 480 0 0 502 0 0 482 0 0 481 0 0 501 0 0 502 0 0 481 0 0 503 0 0 483 0 0 482 0 0 502 0 0 503 0 0 482 0 0 504 0 0 484 0 0 483 0 0 503 0 0 504 0 0 483 0 0 505 0 0 485 0 0 484 0 0 504 0 0 505 0 0 484 0 0 506 73 0 486 70 0 485 70 0 505 73 0 506 73 0 485 70 0 507 73 0 487 70 0 486 70 0 506 73 0 507 73 0 486 70 0 508 73 0 488 70 0 487 70 0 507 73 0 508 73 0 487 70 0 509 73 0 489 70 0 488 70 0 508 73 0 509 73 0 488 70 0 510 73 0 490 70 0 489 70 0 509 73 0 510 73 0 489 70 0 511 3 0 491 3 0 490 3 0 510 3 0 511 3 0 490 3 0 512 3 0 492 3 0 491 3 0 511 3 0 512 3 0 491 3 0 513 3 0 493 3 0 492 3 0 512 3 0 513 3 0 492 3 0 514 3 0 494 3 0 493 3 0 513 3 0 514 3 0 493 3 0 515 3 0 495 3 0 494 3 0 514 3 0 515 3 0 494 3 0 516 74 0 496 71 0 495 72 0 515 74 0 516 74 0 495 72 0 517 74 0 497 71 0 496 71 0 516 74 0 517 74 0 496 71 0 518 74 0 498 71 0 497 71 0 517 74 0 518 74 0 497 71 0 519 74 0 499 71 0 498 71 0 518 74 0 519 74 0 498 71 0 500 74 0 480 72 0 499 71 0 519 74 0 500 74 0 499 71 0 521 0 0 501 0 0 500 0 0 520 0 0 521 0 0 500 0 0 522 0 0 502 0 0 501 0 0 521 0 0 522 0 0 501 0 0 523 0 0 503 0 0 502 0 0 522 0 0 523 0 0 502 0 0 524 0 0 504 0 0 503 0 0 523 0 0 524 0 0 503 0 0 525 0 0 505 0 0 504 0 0 524 0 0 525 0 0 504 0 0 526 75 0 506 73 0 505 73 0 525 76 0 526 75 0 505 73 0 527 75 0 507 73 0 506 73 0 526 75 0 527 75 0 506 73 0 528 75 0 508 73 0 507 73 0 527 75 0 528 75 0 507 73 0 529 75 0 509 73 0 508 73 0 528 75 0 529 75 0 508 73 0 530 76 0 510 73 0 509 73 0 529 75 0 530 76 0 509 73 0 531 3 0 511 3 0 510 3 0 530 3 0 531 3 0 510 3 0 532 3 0 512 3 0 511 3 0 531 3 0 532 3 0 511 3 0 533 3 0 513 3 0 512 3 0 532 3 0 533 3 0 512 3 0 534 3 0 514 3 0 513 3 0 533 3 0 534 3 0 513 3 0 535 3 0 515 3 0 514 3 0 534 3 0 535 3 0 514 3 0 536 77 0 516 74 0 515 74 0 535 78 0 536 77 0 515 74 0 537 77 0 517 74 0 516 74 0 536 77 0 537 77 0 516 74 0 538 77 0 518 74 0 517 74 0 537 77 0 538 77 0 517 74 0 539 77 0 519 74 0 518 74 0 538 77 0 539 77 0 518 74 0 520 78 0 500 74 0 519 74 0 539 77 0 520 78 0 519 74 0 541 0 0 521 0 0 520 0 0 540 0 0 541 0 0 520 0 0 542 0 0 522 0 0 521 0 0 541 0 0 542 0 0 521 0 0 543 0 0 523 0 0 522 0 0 542 0 0 543 0 0 522 0 0 544 0 0 524 0 0 523 0 0 543 0 0 544 0 0 523 0 0 545 0 0 525 0 0 524 0 0 544 0 0 545 0 0 524 0 0 546 32 0 526 75 0 525 76 0 545 32 0 546 32 0 525 76 0 547 31 0 527 75 0 526 75 0 546 32 0 547 31 0 526 75 0 548 31 0 528 75 0 527 75 0 547 31 0 548 31 0 527 75 0 549 32 0 529 75 0 528 75 0 548 31 0 549 32 0 528 75 0 550 32 0 530 76 0 529 75 0 549 32 0 550 32 0 529 75 0 551 3 0 531 3 0 530 3 0 550 3 0 551 3 0 530 3 0 552 3 0 532 3 0 531 3 0 551 3 0 552 3 0 531 3 0 553 3 0 533 3 0 532 3 0 552 3 0 553 3 0 532 3 0 554 3 0 534 3 0 533 3 0 553 3 0 554 3 0 533 3 0 555 3 0 535 3 0 534 3 0 554 3 0 555 3 0 534 3 0 556 30 0 536 77 0 535 78 0 555 29 0 556 30 0 535 78 0 557 29 0 537 77 0 536 77 0 556 30 0 557 29 0 536 77 0 558 29 0 538 77 0 537 77 0 557 29 0 558 29 0 537 77 0 559 30 0 539 77 0 538 77 0 558 29 0 559 30 0 538 77 0 540 29 0 520 78 0 539 77 0 559 30 0 540 29 0 539 77 0 561 0 0 541 0 0 540 0 0 560 0 0 561 0 0 540 0 0 562 0 0 542 0 0 541 0 0 561 0 0 562 0 0 541 0 0 563 0 0 543 0 0 542 0 0 562 0 0 563 0 0 542 0 0 564 0 0 544 0 0 543 0 0 563 0 0 564 0 0 543 0 0 565 0 0 545 0 0 544 0 0 564 0 0 565 0 0 544 0 0 566 79 0 546 32 0 545 32 0 565 79 0 566 79 0 545 32 0 567 79 0 547 31 0 546 32 0 566 79 0 567 79 0 546 32 0 568 79 0 548 31 0 547 31 0 567 79 0 568 79 0 547 31 0 569 79 0 549 32 0 548 31 0 568 79 0 569 79 0 548 31 0 570 79 0 550 32 0 549 32 0 569 79 0 570 79 0 549 32 0 571 3 0 551 3 0 550 3 0 570 3 0 571 3 0 550 3 0 572 3 0 552 3 0 551 3 0 571 3 0 572 3 0 551 3 0 573 3 0 553 3 0 552 3 0 572 3 0 573 3 0 552 3 0 574 3 0 554 3 0 553 3 0 573 3 0 574 3 0 553 3 0 575 3 0 555 3 0 554 3 0 574 3 0 575 3 0 554 3 0 576 80 0 556 30 0 555 29 0 575 81 0 576 80 0 555 29 0 577 80 0 557 29 0 556 30 0 576 80 0 577 80 0 556 30 0 578 80 0 558 29 0 557 29 0 577 80 0 578 80 0 557 29 0 579 80 0 559 30 0 558 29 0 578 80 0 579 80 0 558 29 0 560 81 0 540 29 0 559 30 0 579 80 0 560 81 0 559 30 0 581 0 0 561 0 0 560 0 0 580 0 0 581 0 0 560 0 0 582 0 0 562 0 0 561 0 0 581 0 0 582 0 0 561 0 0 583 0 0 563 0 0 562 0 0 582 0 0 583 0 0 562 0 0 584 0 0 564 0 0 563 0 0 583 0 0 584 0 0 563 0 0 585 0 0 565 0 0 564 0 0 584 0 0 585 0 0 564 0 0 586 82 0 566 79 0 565 79 0 585 83 0 586 82 0 565 79 0 587 82 0 567 79 0 566 79 0 586 82 0 587 82 0 566 79 0 588 82 0 568 79 0 567 79 0 587 82 0 588 82 0 567 79 0 589 82 0 569 79 0 568 79 0 588 82 0 589 82 0 568 79 0 590 83 0 570 79 0 569 79 0 589 82 0 590 83 0 569 79 0 591 3 0 571 3 0 570 3 0 590 3 0 591 3 0 570 3 0 592 3 0 572 3 0 571 3 0 591 3 0 592 3 0 571 3 0 593 3 0 573 3 0 572 3 0 592 3 0 593 3 0 572 3 0 594 3 0 574 3 0 573 3 0 593 3 0 594 3 0 573 3 0 595 3 0 575 3 0 574 3 0 594 3 0 595 3 0 574 3 0 596 84 0 576 80 0 575 81 0 595 84 0 596 84 0 575 81 0 597 84 0 577 80 0 576 80 0 596 84 0 597 84 0 576 80 0 598 84 0 578 80 0 577 80 0 597 84 0 598 84 0 577 80 0 599 84 0 579 80 0 578 80 0 598 84 0 599 84 0 578 80 0 580 84 0 560 81 0 579 80 0 599 84 0 580 84 0 579 80 0 601 0 0 581 0 0 580 0 0 600 0 0 601 0 0 580 0 0 602 0 0 582 0 0 581 0 0 601 0 0 602 0 0 581 0 0 603 0 0 583 0 0 582 0 0 602 0 0 603 0 0 582 0 0 604 0 0 584 0 0 583 0 0 603 0 0 604 0 0 583 0 0 605 0 0 585 0 0 584 0 0 604 0 0 605 0 0 584 0 0 606 85 0 586 82 0 585 83 0 605 85 0 606 85 0 585 83 0 607 86 0 587 82 0 586 82 0 606 85 0 607 86 0 586 82 0 608 86 0 588 82 0 587 82 0 607 86 0 608 86 0 587 82 0 609 85 0 589 82 0 588 82 0 608 86 0 609 85 0 588 82 0 610 85 0 590 83 0 589 82 0 609 85 0 610 85 0 589 82 0 611 3 0 591 3 0 590 3 0 610 3 0 611 3 0 590 3 0 612 3 0 592 3 0 591 3 0 611 3 0 612 3 0 591 3 0 613 3 0 593 3 0 592 3 0 612 3 0 613 3 0 592 3 0 614 3 0 594 3 0 593 3 0 613 3 0 614 3 0 593 3 0 615 3 0 595 3 0 594 3 0 614 3 0 615 3 0 594 3 0 616 87 0 596 84 0 595 84 0 615 88 0 616 87 0 595 84 0 617 87 0 597 84 0 596 84 0 616 87 0 617 87 0 596 84 0 618 87 0 598 84 0 597 84 0 617 87 0 618 87 0 597 84 0 619 87 0 599 84 0 598 84 0 618 87 0 619 87 0 598 84 0 600 88 0 580 84 0 599 84 0 619 87 0 600 88 0 599 84 0 621 0 0 601 0 0 600 0 0 620 0 0 621 0 0 600 0 0 622 0 0 602 0 0 601 0 0 621 0 0 622 0 0 601 0 0 623 0 0 603 0 0 602 0 0 622 0 0 623 0 0 602 0 0 624 0 0 604 0 0 603 0 0 623 0 0 624 0 0 603 0 0 625 0 0 605 0 0 604 0 0 624 0 0 625 0 0 604 0 0 626 45 0 606 85 0 605 85 0 625 46 0 626 45 0 605 85 0 627 45 0 607 86 0 606 85 0 626 45 0 627 45 0 606 85 0 628 45 0 608 86 0 607 86 0 627 45 0 628 45 0 607 86 0 629 45 0 609 85 0 608 86 0 628 45 0 629 45 0 608 86 0 630 46 0 610 85 0 609 85 0 629 45 0 630 46 0 609 85 0 631 3 0 611 3 0 610 3 0 630 3 0 631 3 0 610 3 0 632 3 0 612 3 0 611 3 0 631 3 0 632 3 0 611 3 0 633 3 0 613 3 0 612 3 0 632 3 0 633 3 0 612 3 0 634 3 0 614 3 0 613 3 0 633 3 0 634 3 0 613 3 0 635 3 0 615 3 0 614 3 0 634 3 0 635 3 0 614 3 0 636 43 0 616 87 0 615 88 0 635 44 0 636 43 0 615 88 0 637 43 0 617 87 0 616 87 0 636 43 0 637 43 0 616 87 0 638 43 0 618 87 0 617 87 0 637 43 0 638 43 0 617 87 0 639 43 0 619 87 0 618 87 0 638 43 0 639 43 0 618 87 0 620 44 0 600 88 0 619 87 0 639 43 0 620 44 0 619 87 0 641 0 0 621 0 0 620 0 0 640 0 0 641 0 0 620 0 0 642 0 0 622 0 0 621 0 0 641 0 0 642 0 0 621 0 0 643 0 0 623 0 0 622 0 0 642 0 0 643 0 0 622 0 0 644 0 0 624 0 0 623 0 0 643 0 0 644 0 0 623 0 0 645 0 0 625 0 0 624 0 0 644 0 0 645 0 0 624 0 0 646 48 0 626 45 0 625 46 0 645 48 0 646 48 0 625 46 0 647 48 0 627 45 0 626 45 0 646 48 0 647 48 0 626 45 0 648 48 0 628 45 0 627 45 0 647 48 0 648 48 0 627 45 0 649 48 0 629 45 0 628 45 0 648 48 0 649 48 0 628 45 0 650 48 0 630 46 0 629 45 0 649 48 0 650 48 0 629 45 0 651 3 0 631 3 0 630 3 0 650 3 0 651 3 0 630 3 0 652 3 0 632 3 0 631 3 0 651 3 0 652 3 0 631 3 0 653 3 0 633 3 0 632 3 0 652 3 0 653 3 0 632 3 0 654 3 0 634 3 0 633 3 0 653 3 0 654 3 0 633 3 0 655 3 0 635 3 0 634 3 0 654 3 0 655 3 0 634 3 0 656 47 0 636 43 0 635 44 0 655 47 0 656 47 0 635 44 0 657 47 0 637 43 0 636 43 0 656 47 0 657 47 0 636 43 0 658 47 0 638 43 0 637 43 0 657 47 0 658 47 0 637 43 0 659 47 0 639 43 0 638 43 0 658 47 0 659 47 0 638 43 0 640 47 0 620 44 0 639 43 0 659 47 0 640 47 0 639 43 0 661 0 0 641 0 0 640 0 0 660 0 0 661 0 0 640 0 0 662 0 0 642 0 0 641 0 0 661 0 0 662 0 0 641 0 0 663 0 0 643 0 0 642 0 0 662 0 0 663 0 0 642 0 0 664 0 0 644 0 0 643 0 0 663 0 0 664 0 0 643 0 0 665 0 0 645 0 0 644 0 0 664 0 0 665 0 0 644 0 0 666 89 0 646 48 0 645 48 0 665 89 0 666 89 0 645 48 0 667 89 0 647 48 0 646 48 0 666 89 0 667 89 0 646 48 0 668 89 0 648 48 0 647 48 0 667 89 0 668 89 0 647 48 0 669 89 0 649 48 0 648 48 0 668 89 0 669 89 0 648 48 0 670 89 0 650 48 0 649 48 0 669 89 0 670 89 0 649 48 0 671 3 0 651 3 0 650 3 0 670 3 0 671 3 0 650 3 0 672 3 0 652 3 0 651 3 0 671 3 0 672 3 0 651 3 0 673 3 0 653 3 0 652 3 0 672 3 0 673 3 0 652 3 0 674 3 0 654 3 0 653 3 0 673 3 0 674 3 0 653 3 0 675 3 0 655 3 0 654 3 0 674 3 0 675 3 0 654 3 0 676 90 0 656 47 0 655 47 0 675 91 0 676 90 0 655 47 0 677 90 0 657 47 0 656 47 0 676 90 0 677 90 0 656 47 0 678 90 0 658 47 0 657 47 0 677 90 0 678 90 0 657 47 0 679 90 0 659 47 0 658 47 0 678 90 0 679 90 0 658 47 0 660 91 0 640 47 0 659 47 0 679 90 0 660 91 0 659 47 0 681 0 0 661 0 0 660 0 0 680 0 0 681 0 0 660 0 0 682 0 0 662 0 0 661 0 0 681 0 0 682 0 0 661 0 0 683 0 0 663 0 0 662 0 0 682 0 0 683 0 0 662 0 0 684 0 0 664 0 0 663 0 0 683 0 0 684 0 0 663 0 0 685 0 0 665 0 0 664 0 0 684 0 0 685 0 0 664 0 0 686 92 0 666 89 0 665 89 0 685 92 0 686 92 0 665 89 0 687 92 0 667 89 0 666 89 0 686 92 0 687 92 0 666 89 0 688 92 0 668 89 0 667 89 0 687 92 0 688 92 0 667 89 0 689 92 0 669 89 0 668 89 0 688 92 0 689 92 0 668 89 0 690 92 0 670 89 0 669 89 0 689 92 0 690 92 0 669 89 0 691 3 0 671 3 0 670 3 0 690 3 0 691 3 0 670 3 0 692 3 0 672 3 0 671 3 0 691 3 0 692 3 0 671 3 0 693 3 0 673 3 0 672 3 0 692 3 0 693 3 0 672 3 0 694 3 0 674 3 0 673 3 0 693 3 0 694 3 0 673 3 0 695 3 0 675 3 0 674 3 0 694 3 0 695 3 0 674 3 0 696 93 0 676 90 0 675 91 0 695 93 0 696 93 0 675 91 0 697 93 0 677 90 0 676 90 0 696 93 0 697 93 0 676 90 0 698 93 0 678 90 0 677 90 0 697 93 0 698 93 0 677 90 0 699 93 0 679 90 0 678 90 0 698 93 0 699 93 0 678 90 0 680 93 0 660 91 0 679 90 0 699 93 0 680 93 0 679 90 0 701 0 0 681 0 0 680 0 0 700 0 0 701 0 0 680 0 0 702 0 0 682 0 0 681 0 0 701 0 0 702 0 0 681 0 0 703 0 0 683 0 0 682 0 0 702 0 0 703 0 0 682 0 0 704 0 0 684 0 0 683 0 0 703 0 0 704 0 0 683 0 0 705 0 0 685 0 0 684 0 0 704 0 0 705 0 0 684 0 0 706 94 0 686 92 0 685 92 0 705 95 0 706 94 0 685 92 0 707 94 0 687 92 0 686 92 0 706 94 0 707 94 0 686 92 0 708 94 0 688 92 0 687 92 0 707 94 0 708 94 0 687 92 0 709 94 0 689 92 0 688 92 0 708 94 0 709 94 0 688 92 0 710 95 0 690 92 0 689 92 0 709 94 0 710 95 0 689 92 0 711 3 0 691 3 0 690 3 0 710 3 0 711 3 0 690 3 0 712 3 0 692 3 0 691 3 0 711 3 0 712 3 0 691 3 0 713 3 0 693 3 0 692 3 0 712 3 0 713 3 0 692 3 0 714 3 0 694 3 0 693 3 0 713 3 0 714 3 0 693 3 0 715 3 0 695 3 0 694 3 0 714 3 0 715 3 0 694 3 0 716 96 0 696 93 0 695 93 0 715 97 0 716 96 0 695 93 0 717 96 0 697 93 0 696 93 0 716 96 0 717 96 0 696 93 0 718 96 0 698 93 0 697 93 0 717 96 0 718 96 0 697 93 0 719 96 0 699 93 0 698 93 0 718 96 0 719 96 0 698 93 0 700 97 0 680 93 0 699 93 0 719 96 0 700 97 0 699 93 0 1 0 0 701 0 0 700 0 0 0 0 0 1 0 0 700 0 0 2 0 0 702 0 0 701 0 0 1 0 0 2 0 0 701 0 0 3 0 0 703 0 0 702 0 0 2 0 0 3 0 0 702 0 0 4 0 0 704 0 0 703 0 0 3 0 0 4 0 0 703 0 0 5 0 0 705 0 0 704 0 0 4 0 0 5 0 0 704 0 0 6 1 0 706 94 0 705 95 0 5 1 0 6 1 0 705 95 0 7 1 0 707 94 0 706 94 0 6 1 0 7 1 0 706 94 0 8 1 0 708 94 0 707 94 0 7 1 0 8 1 0 707 94 0 9 1 0 709 94 0 708 94 0 8 1 0 9 1 0 708 94 0 10 1 0 710 95 0 709 94 0 9 1 0 10 1 0 709 94 0 11 3 0 711 3 0 710 3 0 10 3 0 11 3 0 710 3 0 12 3 0 712 3 0 711 3 0 11 3 0 12 3 0 711 3 0 13 3 0 713 3 0 712 3 0 12 3 0 13 3 0 712 3 0 14 3 0 714 3 0 713 3 0 13 3 0 14 3 0 713 3 0 15 3 0 715 3 0 714 3 0 14 3 0 15 3 0 714 3 0 16 4 0 716 96 0 715 97 0 15 4 0 16 4 0 715 97 0 17 4 0 717 96 0 716 96 0 16 4 0 17 4 0 716 96 0 18 4 0 718 96 0 717 96 0 17 4 0 18 4 0 717 96 0 19 4 0 719 96 0 718 96 0 18 4 0 19 4 0 718 96 0 0 4 0 700 97 0 719 96 0 19 4 0 0 4 0 719 96 0</p>
                </triangles>
            </mesh>
        </geometry>
    </library_geometries>
    <library_visual_scenes>
        <visual_scene id="ID1">
            <node id="ID2" name="sled_collider">
                <translate sid="translate">0 0 -0</translate>
                <rotate sid="rotateY">0 1 0 -0</rotate>
                <rotate sid="rotateX">1 0 0 0</rotate>
                <rotate sid="rotateZ">0 0 1 -0</rotate>
                <scale sid="scale">1 1 1</scale>
                <instance_geometry url="#ID3"/>
            </node>
        </visual_scene>
    </library_visual_scenes>
    <scene>
        <instance_visual_scene url="#ID1"/>
    </scene>
</COLLADA>
